{
    "DNDConfig": null,
    "_height_": {
        "type": "string",
        "value": "380dp"
    },
    "_left_": {
        "type": "string",
        "value": "0dp"
    },
    "_margin_": [
        0,
        0,
        0,
        0
    ],
    "_orientation_": 6,
    "_padding_": [
        0,
        0,
        0,
        0
    ],
    "_percent_": true,
    "_skin_": "se2c51e2a5574dcc8bc00a48bc7649ca",
    "_top_": {
        "type": "string",
        "value": "0dp"
    },
    "_width_": {
        "type": "string",
        "value": "100%"
    },
    "allboxes": [],
    "autogrowmode": 0,
    "canUpdateUI": true,
    "children": [
        "flxIdentifier",
        "flxSelectedRowWrapper"
    ],
    "clipbounds": true,
    "containerId": true,
    "containerweight": 100,
    "controllerInfo": {
        "default": {
            "channel": "desktop",
            "name": "flxManageRecipientsWireTransfersMobileSelectedNewController"
        }
    },
    "enablescrolling": true,
    "friendlyName": "flxManageRecipientsWireTransfersMobileSelectedNew",
    "id": "flxManageRecipientsWireTransfersMobileSelectedNew",
    "info": null,
    "iscustomlayout": false,
    "isvisible": true,
    "kuid": "f9050db8de8d4ea0927221c3491c0045",
    "layouttype": 2,
    "name": "kony.ui.FlexContainer",
    "parent": "segManageRecipientsWireTransfersMobileSelectedNew",
    "pf": "segManageRecipientsWireTransfersMobileSelectedNew",
    "retaincontentalignment": false,
    "retainflexpositionproperties": false,
    "snapgridsize": 10,
    "snaptogrid": true,
    "wType": "FlexContainer",
    "widgetalignment": 1
}