{
    "@class": "com.kony.gen.viz.model.component.KVizButton",
    "DNDConfig": null,
    "__parentReadjusting__": false,
    "_bottom_": {
        "type": "number",
        "value": ""
    },
    "_height_": {
        "type": "string",
        "value": "40px"
    },
    "_left_": {
        "type": "string",
        "value": "50dp"
    },
    "_margin_": [
        6,
        6,
        6,
        6
    ],
    "_padding_": [
        0,
        0,
        0,
        0
    ],
    "_right_": {
        "type": "string",
        "value": "0dp"
    },
    "_skin_": "sa611611b2f24e93bcfd09e1606c0d86",
    "_text_": "View Transaction Activity",
    "_top_": {
        "type": "string",
        "value": "50dp"
    },
    "_width_": {
        "type": "string",
        "value": "230dp"
    },
    "accessibilityconfig": {
        "a11yLabel": "New Transfer"
    },
    "canUpdateUI": true,
    "centerx": {
        "type": "number",
        "value": ""
    },
    "containerweight": 100,
    "contentalignment": 5,
    "desktopweb": {
        "psp": {
            "hoverSkin": "s83729feaa224e359d660d5af05c4bac"
        }
    },
    "disabledSkins": {},
    "displaytext": true,
    "focusskin": "s83729feaa224e359d660d5af05c4bac",
    "hoverskin": "",
    "id": "btnRemove",
    "info": null,
    "iscustomlayout": false,
    "isvisible": true,
    "kuid": "b99f2c33c5c4426db1f34abc63f23569",
    "name": "kony.ui.Button",
    "parent": "flxApplyChanges",
    "pf": "frmBulkWireEditTemplateRecipient",
    "responsiveData": {
        "b1": {
            "left": {
                "type": "string",
                "value": "80%"
            },
            "skin": "sa611611b2f24e93bcfd09e1606c0d86",
            "text": "Remove",
            "top": {
                "type": "string",
                "value": "75dp"
            },
            "width": {
                "type": "string",
                "value": "180dp"
            }
        },
        "b2": {
            "centerX": {
                "type": "string",
                "value": ""
            },
            "isVisible": true,
            "left": {
                "type": "string",
                "value": ""
            },
            "right": {
                "type": "string",
                "value": "20dp"
            },
            "skin": "sa611611b2f24e93bcfd09e1606c0d86",
            "text": "Remove",
            "top": {
                "type": "string",
                "value": "120dp"
            },
            "width": {
                "type": "string",
                "value": "20%"
            }
        },
        "b3": {
            "bottom": {
                "type": "string",
                "value": ""
            }
        },
        "b4": {
            "left": {
                "type": "string",
                "value": "950dp"
            },
            "skin": "sa611611b2f24e93bcfd09e1606c0d86",
            "text": "Remove",
            "top": {
                "type": "string",
                "value": "75dp"
            },
            "width": {
                "type": "string",
                "value": "150dp"
            }
        }
    },
    "retaincontentalignment": false,
    "retainflexpositionproperties": false,
    "texti18n": "i18n.bulkwires.Remove",
    "tooltip": "Remove",
    "wType": "Button",
    "zindex": 1
}