{
    "@class": "com.kony.gen.viz.model.component.KVizImage2",
    "DNDConfig": null,
    "_base64_": null,
    "_height_": {
        "type": "string",
        "value": "30dp"
    },
    "_left_": {
        "type": "string",
        "value": "0"
    },
    "_margin_": [
        0,
        0,
        0,
        0
    ],
    "_padding_": [
        0,
        0,
        0,
        0
    ],
    "_skin_": "se4444cc8d604aea82bf3dafcc22e360",
    "_src_": "imagedrag.png",
    "_top_": {
        "type": "string",
        "value": "0"
    },
    "_width_": {
        "type": "string",
        "value": "30dp"
    },
    "canUpdateUI": true,
    "containerweight": 100,
    "id": "imgFail",
    "imagescalemode": 1,
    "info": null,
    "iscustomlayout": false,
    "isvisible": true,
    "kuid": "dcf0ead094fc4e03b6e2815893ac61e6",
    "name": "kony.ui.Image2",
    "parent": "flxError",
    "pf": "frmInternationalAddBeneficiary",
    "responsiveData": {
        "b1": {
            "height": {
                "type": "string",
                "value": "50dp"
            },
            "left": {
                "type": "string",
                "value": "20dp"
            },
            "src": "failed_icon.png",
            "top": {
                "type": "string",
                "value": "20dp"
            },
            "width": {
                "type": "string",
                "value": "50dp"
            }
        },
        "b2": {
            "height": {
                "type": "string",
                "value": "60dp"
            },
            "left": {
                "type": "string",
                "value": "20dp"
            },
            "src": "failed_icon.png",
            "top": {
                "type": "string",
                "value": "17dp"
            },
            "width": {
                "type": "string",
                "value": "60dp"
            }
        },
        "b3": {
            "height": {
                "type": "string",
                "value": "30dp"
            },
            "left": {
                "type": "string",
                "value": "10dp"
            },
            "src": "failed_icon.png",
            "top": {
                "type": "string",
                "value": "10dp"
            },
            "width": {
                "type": "string",
                "value": "30dp"
            }
        },
        "b4": {
            "height": {
                "type": "string",
                "value": "50dp"
            },
            "left": {
                "type": "string",
                "value": "20dp"
            },
            "src": "failed_icon.png",
            "top": {
                "type": "string",
                "value": "20dp"
            },
            "width": {
                "type": "string",
                "value": "50dp"
            }
        }
    },
    "retaincontentalignment": false,
    "retainflexpositionproperties": false,
    "srcType": 1,
    "wType": "Image",
    "widgetalignment": 5
}