{
    "@class": "com.kony.gen.viz.model.component.KVizImage2",
    "DNDConfig": null,
    "_base64_": null,
    "_height_": {
        "type": "string",
        "value": "130dp"
    },
    "_left_": {
        "type": "string",
        "value": "30dp"
    },
    "_margin_": [
        0,
        0,
        0,
        0
    ],
    "_padding_": [
        0,
        0,
        0,
        0
    ],
    "_skin_": "s78a5f26c9f14cec9ebed1bb46098f80",
    "_src_": "bank_img_rounded.png",
    "_top_": {
        "type": "string",
        "value": "30dp"
    },
    "_width_": {
        "type": "string",
        "value": "130dp"
    },
    "canUpdateUI": true,
    "containerweight": 100,
    "id": "imgBranchLogo",
    "imagescalemode": 1,
    "info": null,
    "invokedProperty": "src",
    "iscustomlayout": false,
    "isvisible": true,
    "kuid": "cd819e26146a4ab59594d89a333d50b6",
    "name": "kony.ui.Image2",
    "parent": "flxBranchDetailHeader",
    "pf": "frmLocateUsBranchDetailsMobile",
    "responsiveData": {
        "b2": {
            "height": {
                "type": "string",
                "value": "120dp"
            },
            "left": {
                "type": "string",
                "value": "3.50%"
            },
            "top": {
                "type": "string",
                "value": "25dp"
            }
        }
    },
    "retaincontentalignment": false,
    "retainflexpositionproperties": false,
    "srcType": 1,
    "wType": "Image",
    "widgetalignment": 5,
    "zindex": 1
}