{
    "DNDConfig": null,
    "_height_": {
        "type": "string",
        "value": "30dp"
    },
    "_left_": {
        "type": "string",
        "value": "20dp"
    },
    "_margin_": [
        0,
        0,
        0,
        0
    ],
    "_orientation_": 6,
    "_padding_": [
        0,
        0,
        0,
        0
    ],
    "_percent_": true,
    "_right_": {
        "type": "string",
        "value": "20dp"
    },
    "_skin_": "s24c92fc23b14f5484b693ee9b8a9b35",
    "_top_": {
        "type": "string",
        "value": "36dp"
    },
    "allboxes": [],
    "autogrowmode": 0,
    "canUpdateUI": true,
    "children": [
        "CopyLabel0f4b8a44440fa4c",
        "CopyLabel0e83a1ea02b9f43",
        "CopyLabel0e45d522d4f064b",
        "CopyLabel0e0890821a7c14d",
        "CopyLabel0c71a0d945ac949",
        "CopyLabel0fd88b6adc08644",
        "CopyLabel0h23ea30e2ea944"
    ],
    "clipbounds": true,
    "containerweight": 100,
    "enablescrolling": true,
    "id": "CopyflxWeekTwo0e436c788ff9147",
    "info": null,
    "iscustomlayout": false,
    "isvisible": true,
    "kuid": "a8602e3da7d0476ebef4d199da507830",
    "layouttype": 2,
    "name": "kony.ui.FlexContainer",
    "parent": "flxMonthOneDummyTo",
    "pf": "userwidgetmodel",
    "retaincontentalignment": false,
    "retainflexpositionproperties": false,
    "snapgridsize": 10,
    "snaptogrid": true,
    "wType": "FlexContainer",
    "widgetalignment": 1,
    "zindex": 1
}