{
    "DNDConfig": null,
    "_height_": {
        "type": "string",
        "value": "30dp"
    },
    "_left_": {
        "type": "string",
        "value": "20dp"
    },
    "_margin_": [
        0,
        0,
        0,
        0
    ],
    "_orientation_": 6,
    "_padding_": [
        0,
        0,
        0,
        0
    ],
    "_percent_": true,
    "_right_": {
        "type": "string",
        "value": "20dp"
    },
    "_skin_": "s24c92fc23b14f5484b693ee9b8a9b35",
    "_top_": {
        "type": "string",
        "value": "36dp"
    },
    "allboxes": [],
    "autogrowmode": 0,
    "canUpdateUI": true,
    "children": [
        "CopyLabel0he62cf567ce74e",
        "CopyLabel0j85f1e3b4be640",
        "CopyLabel0icf3a39dd1d84d",
        "CopyLabel0be4738d56fd846",
        "CopyLabel0d2159414a95a47",
        "CopyLabel0dec63ba55d0849",
        "CopyLabel0f1943c17971a4e"
    ],
    "clipbounds": true,
    "containerweight": 100,
    "enablescrolling": true,
    "id": "flxWeekTwoTo",
    "info": null,
    "iscustomlayout": false,
    "isvisible": true,
    "kuid": "ce9eb999f0b043448c08dd30f6d73792",
    "layouttype": 2,
    "name": "kony.ui.FlexContainer",
    "parent": "flxMonthOneTo",
    "pf": "userwidgetmodel",
    "retaincontentalignment": false,
    "retainflexpositionproperties": false,
    "snapgridsize": 10,
    "snaptogrid": true,
    "wType": "FlexContainer",
    "widgetalignment": 1,
    "zindex": 1
}