{
    "DNDConfig": null,
    "_height_": {
        "type": "string",
        "value": "30dp"
    },
    "_left_": {
        "type": "string",
        "value": "20dp"
    },
    "_margin_": [
        0,
        0,
        0,
        0
    ],
    "_orientation_": 6,
    "_padding_": [
        0,
        0,
        0,
        0
    ],
    "_percent_": true,
    "_right_": {
        "type": "string",
        "value": "20dp"
    },
    "_skin_": "s24c92fc23b14f5484b693ee9b8a9b35",
    "_top_": {
        "type": "string",
        "value": "168dp"
    },
    "allboxes": [],
    "autogrowmode": 0,
    "canUpdateUI": true,
    "children": [
        "CopyLabel0d9dfe5e252db43",
        "CopyLabel0b9dc674386fd4f",
        "CopyLabel0i990a36a77024e",
        "CopyLabel0dd045aac10614f",
        "CopyLabel0a0409e7f80824b",
        "CopyLabel0edc36ece3ea145",
        "CopyLabel0efcc1546289e47"
    ],
    "clipbounds": true,
    "containerweight": 100,
    "enablescrolling": true,
    "id": "flxWeekSixTo",
    "info": null,
    "iscustomlayout": false,
    "isvisible": true,
    "kuid": "e06bf18c418e46409bd06a32f87c7a4b",
    "layouttype": 2,
    "name": "kony.ui.FlexContainer",
    "parent": "flxMonthOneTo",
    "pf": "userwidgetmodel",
    "retaincontentalignment": false,
    "retainflexpositionproperties": false,
    "snapgridsize": 10,
    "snaptogrid": true,
    "wType": "FlexContainer",
    "widgetalignment": 1,
    "zindex": 1
}