{
    "@class": "com.kony.gen.viz.model.component.KVizLabel",
    "DNDConfig": null,
    "__parentReadjusting__": false,
    "_height_": {
        "type": "ref",
        "value": "preferred"
    },
    "_left_": {
        "type": "string",
        "value": "5%"
    },
    "_margin_": [
        1,
        1,
        1,
        1
    ],
    "_padding_": [
        0,
        0,
        0,
        0
    ],
    "_skin_": "sb21459f022449ceba61957e28f76983",
    "_text_": "ADD KONY BANK ACCOUNT",
    "_width_": {
        "type": "ref",
        "value": "preferred"
    },
    "_wrapping_": 2,
    "accessibilityconfig": {
        "a11yLabel": "ADD KONY BANK ACCOUNT"
    },
    "android": {
        "textStyle": {
            "letterSpacing": 0,
            "strikeThrough": false
        }
    },
    "canUpdateUI": true,
    "centery": {
        "type": "string",
        "value": "50%"
    },
    "containerweight": 100,
    "contentalignment": 4,
    "desktopweb": {
        "psp": {
            "hoverSkin": "sfaffa99ceaa4b27be286809eb662ad1"
        }
    },
    "id": "lbladdkonyaccnt",
    "info": null,
    "ipad": {
        "psp": {
            "wrapping": 2
        }
    },
    "iphone": {
        "psp": {
            "wrapping": 2
        }
    },
    "isvisible": true,
    "kuid": "s2a87b57d4c74bbd9330ca093b513b70",
    "name": "kony.ui.Label",
    "parent": "flxaddkonyaccnt",
    "pf": "userwidgetmodel",
    "tooltip": "Add Kony Bank Recipient",
    "wType": "Label",
    "zindex": 1
}