{
    "@class": "com.kony.gen.viz.model.component.KVizLabel",
    "DNDConfig": null,
    "__parentReadjusting__": false,
    "_height_": {
        "type": "ref",
        "value": "preferred"
    },
    "_left_": {
        "type": "string",
        "value": "0dp"
    },
    "_margin_": [
        1,
        1,
        1,
        1
    ],
    "_padding_": [
        0,
        0,
        5,
        0
    ],
    "_skin_": "se56454286124fef97a46e7249497088",
    "_text_": "International",
    "_width_": {
        "type": "ref",
        "value": "preferred"
    },
    "_wrapping_": 2,
    "android": {
        "textStyle": {
            "letterSpacing": 0,
            "strikeThrough": false
        }
    },
    "canUpdateUI": true,
    "centery": {
        "type": "string",
        "value": "50%"
    },
    "containerId": true,
    "containerweight": 100,
    "contentalignment": 4,
    "id": "lblAccountType",
    "info": null,
    "ipad": {
        "psp": {
            "wrapping": 2
        }
    },
    "iphone": {
        "psp": {
            "wrapping": 2
        }
    },
    "isvisible": true,
    "kuid": "bb1a4cb02a8c45a0a7d33791bdc3753c",
    "name": "kony.ui.Label",
    "paddinginpixel": false,
    "parent": "flxAccountType",
    "pf": "segMakeTransferWireTransfersSelected",
    "tooltip": "",
    "wType": "Label",
    "zindex": 1,
    "accessibilityconfig": {
        "a11yLabel": "International"
    }
}