{
    "@class": "com.kony.gen.viz.model.component.KVizUserWidget",
    "DNDConfig": null,
    "__parentReadjusting__": false,
    "_android_": {},
    "_androidwearos_": {},
    "_children_": [],
    "_desktopweb_": {},
    "_height_": {
        "type": "ref",
        "value": "preferred"
    },
    "_ipad_": {},
    "_iphone_": {},
    "_kiosk_": {},
    "_left_": {
        "type": "string",
        "value": "0dp"
    },
    "_margin_": [
        0,
        0,
        0,
        0
    ],
    "_orientation_": 1,
    "_padding_": [
        0,
        0,
        0,
        0
    ],
    "_percent_": true,
    "_responsiveData_": {
        "b1": {}
    },
    "_skin_": "scbd4cac3526468089bf3013adff0549",
    "_spa_": {},
    "_spaan_": {},
    "_spaandroidtablet_": {},
    "_spabb_": {},
    "_spaip_": {},
    "_spaipad_": {},
    "_spamobile_": {},
    "_spatablet_": {},
    "_spawindowstablet_": {},
    "_spawinphone8_": {},
    "_tabrcandroid_": {},
    "_top_": {
        "type": "string",
        "value": "0dp"
    },
    "_vizProps_": {
        "hidewidgethierarchy": false
    },
    "_width_": {
        "type": "string",
        "value": "100%"
    },
    "_windows10_": {},
    "_windows8_": {},
    "_winphone10_": {},
    "_winphone8_": {},
    "areflexpropsreferenced": false,
    "autogrowmode": 1,
    "canUpdateUI": true,
    "clipbounds": false,
    "containerweight": 0,
    "dataDiffs": {
        "CampaignDescription": {
            "__events__": {},
            "__info__": {
                "isRoot": true,
                "kuid": "ebf1ba7421e04d15b115089538ca104d",
                "srcKUID": "b6106dabeadd484dae2b82c0a1bd86de",
                "wType": "FlexContainer"
            },
            "autogrowMode": {
                "Default": 1
            },
            "height": {
                "Default": {
                    "type": "ref",
                    "value": "preferred"
                }
            },
            "isVisible": true,
            "responsiveData": {
                "b1": {}
            },
            "width": {
                "Default": {
                    "type": "string",
                    "value": "100%"
                }
            }
        },
        "btnAccountsDescriptionCancel": {
            "__events__": {},
            "__info__": {
                "kuid": "f7161013a644407185140efd1e64a140",
                "srcKUID": "a166c057ceb24eaf869d925c7eee21f6",
                "wType": "Button"
            }
        },
        "btnAccountsDescriptionProceed": {
            "__events__": {},
            "__info__": {
                "kuid": "a0a913b2c28e48b4b65d1373bc699675",
                "srcKUID": "g29c444e928c4c7ebe657534b19b775a",
                "wType": "Button"
            },
            "i18n_text": null,
            "responsiveData": {},
            "text": "Apply Now"
        },
        "flxAccountsDescription": {
            "__events__": {},
            "__info__": {
                "kuid": "d71eed9d40ff45b7a088d2b2d3700b46",
                "srcKUID": "ee3a7185bea64db496a575d201f1ac89",
                "wType": "FlexContainer"
            },
            "autogrowMode": {
                "Default": 1
            },
            "height": {
                "Default": {
                    "type": "ref",
                    "value": "preferred"
                }
            },
            "responsiveData": {
                "b1": {}
            },
            "top": {
                "Default": {
                    "type": "string",
                    "value": "0dp"
                }
            }
        },
        "flxAccountsDescriptionButtons": {
            "__events__": {},
            "__info__": {
                "kuid": "ee8de251d14c49d99bf3c6c34210c677",
                "srcKUID": "de1b15b660194abf87a69cc2d8e5aeab",
                "wType": "FlexContainer"
            }
        },
        "flxAccountsDescriptionContainer": {
            "__events__": {},
            "__info__": {
                "kuid": "cf4e5cbcb6d347d7b1f1057c4e532493",
                "srcKUID": "b43a43fc270d4f88a5b5464553f402c1",
                "wType": "FlexContainer"
            },
            "left": {
                "Default": {
                    "type": "string",
                    "value": "0dp"
                }
            },
            "responsiveData": {},
            "top": {
                "Default": {
                    "type": "string",
                    "value": "0dp"
                }
            }
        },
        "flxAccountsDescriptionHeader": {
            "__events__": {},
            "__info__": {
                "kuid": "b354e8eb592b4cc283cea02a55abf3a4",
                "srcKUID": "b58eb41fa2394fc1a87bb3f1ba96eac4",
                "wType": "FlexContainer"
            },
            "autogrowMode": {
                "Default": 0
            },
            "height": {
                "Default": {
                    "type": "string",
                    "value": "80px"
                }
            },
            "responsiveData": {
                "b1": {
                    "height": {
                        "type": "string",
                        "value": "70dp"
                    },
                    "top": {
                        "type": "string",
                        "value": "0dp"
                    }
                },
                "b2": {
                    "height": {
                        "type": "string",
                        "value": "70px"
                    }
                }
            },
            "top": {}
        },
        "flxAccountsDescriptionMain": {
            "__events__": {},
            "__info__": {
                "kuid": "d300ec074a6c4295857e63478924be96",
                "srcKUID": "f89f80a9762e44c2b427fcac1db25dd4",
                "wType": "FlexContainer"
            },
            "left": {
                "Default": {
                    "type": "string",
                    "value": ""
                }
            },
            "responsiveData": {
                "b2": {
                    "width": {
                        "type": "string",
                        "value": "93%"
                    }
                }
            },
            "top": {
                "Default": {
                    "type": "string",
                    "value": "10dp"
                }
            },
            "width": {}
        },
        "flxAccountsDescriptionSeperator": {
            "__events__": {},
            "__info__": {
                "kuid": "e0be21a895a34e8aa17f1ae17f9696cf",
                "srcKUID": "i3dea3cddb8c459b879118f4393cc16a",
                "wType": "FlexContainer"
            }
        },
        "flxAccountsDescriptionSeperator2": {
            "__events__": {},
            "__info__": {
                "kuid": "f2219f524c114d1aa446f391b6f1e359",
                "srcKUID": "hdbca5e8ac064becbf0040e3fac5c16e",
                "wType": "FlexContainer"
            }
        },
        "flxLeft": {
            "__events__": {},
            "__info__": {
                "kuid": "fa8ca79b61934fac8f305d5195c685d6",
                "srcKUID": "i70913256a884923a380d02b48cf4233",
                "wType": "FlexContainer"
            }
        },
        "flxProductDescription": {
            "__events__": {},
            "__info__": {
                "kuid": "fd8459a22541450f8c3bd5c682c99417",
                "srcKUID": "fb151987307b4f5e8c27fc8563684722",
                "wType": "FlexContainer"
            },
            "left": {
                "Default": {
                    "type": "string",
                    "value": "30dp"
                }
            },
            "responsiveData": {}
        },
        "flxRight": {
            "__events__": {},
            "__info__": {
                "kuid": "f27fae4a357c4d64951ffc31d552ce1a",
                "srcKUID": "jc5c3180e6984964bd9dca7f1c9e2a94",
                "wType": "FlexContainer"
            },
            "left": {
                "Default": {
                    "type": "string",
                    "value": "10dp"
                }
            },
            "responsiveData": {},
            "width": {
                "Default": {
                    "type": "string",
                    "value": "90%"
                }
            }
        },
        "flxSendOTPflxAccountsDescription": {
            "__events__": {},
            "__info__": {
                "kuid": "e819d1faef2c4745b472f3e86d0d12a0",
                "srcKUID": "h88b44c24dc04235bb06cc2dbdc0fd79",
                "wType": "Label"
            },
            "centerY": {},
            "height": {},
            "left": {
                "Default": {
                    "type": "string",
                    "value": "0dp"
                }
            },
            "responsiveData": {
                "b1": {
                    "centerY": {
                        "type": "string",
                        "value": "60%"
                    },
                    "height": {
                        "type": "ref",
                        "value": "preferred"
                    },
                    "top": {
                        "type": "string",
                        "value": "0dp"
                    }
                },
                "b2": {
                    "centerY": {
                        "type": "string",
                        "value": "60%"
                    }
                }
            },
            "top": {}
        },
        "imgflxAccountsDescription": {
            "__events__": {},
            "__info__": {
                "kuid": "be3fe56a442c41099f5536baea50eea8",
                "srcKUID": "f966effddefd4be5821bf950095e282e",
                "wType": "Image"
            },
            "height": {
                "Default": {
                    "type": "string",
                    "value": "146dp"
                }
            },
            "left": {
                "Default": {
                    "type": "string",
                    "value": "0dp"
                }
            },
            "responsiveData": {},
            "src": "details_loan_banner.png",
            "top": {
                "Default": {
                    "type": "string",
                    "value": "0dp"
                }
            }
        },
        "lblAMTandIntrest": {
            "__events__": {},
            "__info__": {
                "kuid": "hb77e082ec5d45139e61953f4f766818",
                "srcKUID": "eaf84bf7b8ab4f88acdb3065e863020f",
                "wType": "Label"
            },
            "responsiveData": {},
            "top": {
                "Default": {
                    "type": "string",
                    "value": "0dp"
                }
            }
        },
        "lblAccountName": {
            "__events__": {},
            "__info__": {
                "kuid": "c7adfa6087644145b03134cf06149826",
                "srcKUID": "f66d72fe04e44ec9b1687908399c06c1",
                "wType": "Label"
            },
            "centerX": {
                "Default": {
                    "type": "string",
                    "value": ""
                }
            },
            "responsiveData": {
                "b1": {
                    "width": {
                        "type": "string",
                        "value": "100%"
                    }
                }
            },
            "text": "A personal loan is an instalment loan that you can use for a variety of reasons. From debt consolidation to home improvements to vacations, you can plan for both the expected and unexpected.",
            "top": {
                "Default": {
                    "type": "string",
                    "value": "0dp"
                }
            },
            "width": {
                "Default": {
                    "type": "string",
                    "value": "100%"
                }
            }
        },
        "lblBalRequirement": {
            "__events__": {},
            "__info__": {
                "kuid": "aa12cbc8c7a74a5ba85eb87d401c387c",
                "srcKUID": "ce9b7ff047fa40d6b783bd893c62184f",
                "wType": "Label"
            },
            "isVisible": false,
            "responsiveData": {}
        },
        "lblFeature": {
            "__events__": {},
            "__info__": {
                "kuid": "e8d31be485e64a388a2fabca5705a18d",
                "srcKUID": "fc3539ecc4a746dda7c90d68257c0d44",
                "wType": "Label"
            },
            "responsiveData": {
                "b1": {}
            },
            "text": "Features:",
            "top": {
                "Default": {
                    "type": "string",
                    "value": "20dp"
                }
            }
        },
        "lblNote": {
            "__events__": {},
            "__info__": {
                "kuid": "j7939d51a27c4850962d20dac7e3fbcb",
                "srcKUID": "d8724c29d6424b70a521f62ee0c6382f",
                "wType": "Label"
            },
            "responsiveData": {},
            "top": {
                "Default": {
                    "type": "string",
                    "value": "0dp"
                }
            }
        },
        "lblProductDescription": {
            "__events__": {},
            "__info__": {
                "kuid": "a6a9eb18c2264831b12bd5c25d9d9c24",
                "srcKUID": "bd9c25c4a8374d6b95bee315e935e02a",
                "wType": "Label"
            },
            "centerY": {},
            "left": {},
            "responsiveData": {
                "b1": {
                    "centerY": {
                        "type": "string",
                        "value": "50%"
                    },
                    "left": {
                        "type": "string",
                        "value": "10dp"
                    },
                    "top": {
                        "type": "string",
                        "value": "10dp"
                    }
                },
                "b2": {
                    "centerY": {
                        "type": "string",
                        "value": "50%"
                    }
                }
            },
            "text": "Personal Loan",
            "top": {}
        },
        "lblProductDescriptionSeperator": {
            "__events__": {},
            "__info__": {
                "kuid": "ge61d2f2ebc34cb3a29e104e08e30cc1",
                "srcKUID": "j2d0e3389ca344afb90fe384348b4c16",
                "wType": "FlexContainer"
            },
            "left": {},
            "responsiveData": {
                "b1": {
                    "left": {
                        "type": "string",
                        "value": "10dp"
                    }
                }
            }
        },
        "lblReadyForWhatComesNext": {
            "__events__": {},
            "__info__": {
                "kuid": "da5df05e76bc4d8ba3c9075d0a5a4ed4",
                "srcKUID": "fd4b54be64cb4cd698c539f7074abd8b",
                "wType": "Label"
            }
        },
        "lblSavingsAccountsMakesItEasy": {
            "__events__": {},
            "__info__": {
                "kuid": "ecf4f0c95268457d8750a5d007f3de79",
                "srcKUID": "cb1a3e3e074d4fd895b542139231ec31",
                "wType": "Label"
            }
        },
        "segAmtandInterest": {
            "__events__": {},
            "__info__": {
                "kuid": "d932c698d6824601a706f11f96ca6640",
                "srcKUID": "e03095985ade4e7ea39e40ecba36f678",
                "wType": "Segment"
            },
            "bottom": {
                "Default": {
                    "type": "string",
                    "value": "10dp"
                }
            },
            "data": {
                "desktop": [
                    {
                        "imgRule1": {
                            "@class": "com.viz.ide.model.segment.ImageSegmentData",
                            "src": "pageoffdot.png"
                        },
                        "lblRule1": {
                            "@class": "com.viz.ide.model.segment.SimpleTextSegmentData",
                            "text": "Eligible Amount: $10,000"
                        }
                    },
                    {
                        "imgRule1": {
                            "@class": "com.viz.ide.model.segment.ImageSegmentData",
                            "src": "pageoffdot.png"
                        },
                        "lblRule1": {
                            "@class": "com.viz.ide.model.segment.SimpleTextSegmentData",
                            "text": "Duration: 12 Months"
                        }
                    },
                    {
                        "imgRule1": {
                            "@class": "com.viz.ide.model.segment.ImageSegmentData",
                            "src": "pageoffdot.png"
                        },
                        "lblRule1": {
                            "@class": "com.viz.ide.model.segment.SimpleTextSegmentData",
                            "text": "Interest Rate: 12.8%"
                        }
                    }
                ]
            },
            "left": {
                "Default": {
                    "type": "string",
                    "value": "1dp"
                }
            },
            "responsiveData": {},
            "top": {
                "Default": {
                    "type": "string",
                    "value": "10dp"
                }
            },
            "width": {
                "Default": {
                    "type": "string",
                    "value": "90%"
                }
            }
        },
        "segBalRequirements": {
            "__events__": {},
            "__info__": {
                "kuid": "j2689b5b0cfa48c8a917326f8fa6dbc0",
                "srcKUID": "b501e9382e294fda9832ee7a89b6441c",
                "wType": "Segment"
            },
            "isVisible": false,
            "responsiveData": {},
            "width": {
                "Default": {
                    "type": "string",
                    "value": "90%"
                }
            }
        },
        "segFeatures": {
            "__events__": {},
            "__info__": {
                "kuid": "fe69c690581243b2821a88269f63afba",
                "srcKUID": "ha918cd9295242feb255ac7e736ef9db",
                "wType": "Segment"
            },
            "bottom": {
                "Default": {
                    "type": "string",
                    "value": "30dp"
                }
            },
            "data": {
                "desktop": [
                    {
                        "imgRule1": {
                            "@class": "com.viz.ide.model.segment.ImageSegmentData",
                            "src": "pageoffdot.png"
                        },
                        "lblRule1": {
                            "@class": "com.viz.ide.model.segment.SimpleTextSegmentData",
                            "text": "Affordable borrowing - flexible term based on your ability to repay"
                        }
                    },
                    {
                        "imgRule1": {
                            "@class": "com.viz.ide.model.segment.ImageSegmentData",
                            "src": "pageoffdot.png"
                        },
                        "lblRule1": {
                            "@class": "com.viz.ide.model.segment.SimpleTextSegmentData",
                            "text": "Competitive rates"
                        }
                    },
                    {
                        "imgRule1": {
                            "@class": "com.viz.ide.model.segment.ImageSegmentData",
                            "src": "pageoffdot.png"
                        },
                        "lblRule1": {
                            "@class": "com.viz.ide.model.segment.SimpleTextSegmentData",
                            "text": "No collateral needed"
                        }
                    },
                    {
                        "imgRule1": {
                            "@class": "com.viz.ide.model.segment.ImageSegmentData",
                            "src": "pageoffdot.png"
                        },
                        "lblRule1": {
                            "@class": "com.viz.ide.model.segment.SimpleTextSegmentData",
                            "text": "Easy and quick online application process"
                        }
                    },
                    {
                        "imgRule1": {
                            "@class": "com.viz.ide.model.segment.ImageSegmentData",
                            "src": "pageoffdot.png"
                        },
                        "lblRule1": {
                            "@class": "com.viz.ide.model.segment.SimpleTextSegmentData",
                            "text": "Enables you to know what you need to pay each month"
                        }
                    },
                    {
                        "imgRule1": {
                            "@class": "com.viz.ide.model.segment.ImageSegmentData",
                            "src": "pageoffdot.png"
                        },
                        "lblRule1": {
                            "@class": "com.viz.ide.model.segment.SimpleTextSegmentData",
                            "text": "Money is in your account within minutes of acceptance"
                        }
                    }
                ]
            },
            "responsiveData": {},
            "top": {
                "Default": {
                    "type": "string",
                    "value": "10dp"
                }
            },
            "width": {
                "Default": {
                    "type": "string",
                    "value": "90%"
                }
            }
        }
    },
    "enablescrolling": true,
    "id": "CampaignDescription",
    "info": null,
    "iscustomlayout": false,
    "isdatareferenced": false,
    "issegmentchild": false,
    "isvisible": true,
    "kuid": "ebf1ba7421e04d15b115089538ca104d",
    "layouttype": 4,
    "masterType": 0,
    "name": "kony.ui.UserWidgetInstance",
    "parent": "flxAccountsDescription",
    "pf": "frmPersonalLoan",
    "retaincontentalignment": false,
    "retainflexpositionproperties": false,
    "snapgridsize": 10,
    "snaptogrid": true,
    "sourceUserWidget": "b6106dabeadd484dae2b82c0a1bd86de",
    "wType": "UserWidgetInstance"
}