{
    "DNDConfig": null,
    "__parentReadjusting__": false,
    "_bottom_": {
        "type": "string",
        "value": "1dp"
    },
    "_height_": {
        "type": "string",
        "value": "1dp"
    },
    "_left_": {
        "type": "string",
        "value": "0dp"
    },
    "_margin_": [
        0,
        0,
        0,
        0
    ],
    "_orientation_": 6,
    "_padding_": [
        0,
        0,
        0,
        0
    ],
    "_percent_": true,
    "_skin_": "s294228bd4704f2bb11597405c469ae0",
    "_width_": {
        "type": "string",
        "value": "100%"
    },
    "allboxes": [],
    "canUpdateUI": true,
    "children": [],
    "clipbounds": true,
    "containerweight": 100,
    "enablescrolling": true,
    "id": "flxSeperator",
    "info": null,
    "isvisible": true,
    "kuid": "hf2be048872a4ada93359bca148d7ec1",
    "layouttype": 2,
    "name": "kony.ui.FlexContainer",
    "parent": "flxHaveQuestions",
    "pf": "frmPersonalLoan",
    "responsiveData": {
        "b1": {
            "height": {
                "type": "string",
                "value": "2dp"
            }
        },
        "b2": {
            "height": {
                "type": "string",
                "value": "2dp"
            }
        }
    },
    "snapgridsize": 10,
    "snaptogrid": true,
    "wType": "FlexContainer",
    "widgetalignment": 1,
    "zindex": 1
}