{
    "DNDConfig": null,
    "_height_": {
        "type": "string",
        "value": "40dp"
    },
    "_left_": {
        "type": "string",
        "value": "0dp"
    },
    "_margin_": [
        0,
        0,
        0,
        0
    ],
    "_orientation_": 6,
    "_padding_": [
        0,
        0,
        0,
        0
    ],
    "_percent_": true,
    "_skin_": "s43b6b35326a4e60af3c3c5f34d14853",
    "_top_": {
        "type": "string",
        "value": "0dp"
    },
    "_width_": {
        "type": "string",
        "value": "100%"
    },
    "allboxes": [],
    "autogrowmode": 0,
    "canUpdateUI": true,
    "children": [
        "btnAction",
        "lblSeparatorLineAction1",
        "btnViewActivity",
        "lblSeparatorLineAction2",
        "btnEdit",
        "lblSeparatorLineAction3",
        "btnRemoveRecipient"
    ],
    "clipbounds": true,
    "containerId": true,
    "containerweight": 100,
    "enablescrolling": true,
    "id": "flxActions",
    "info": null,
    "iscustomlayout": false,
    "isvisible": true,
    "kuid": "b9e6a0ec6af94c7fb976cef138e74be5",
    "layouttype": 3,
    "name": "kony.ui.FlexContainer",
    "parent": "flxDetail",
    "pf": "segManageBeneficiariesSelectedMobile",
    "retaincontentalignment": false,
    "retainflexpositionproperties": false,
    "retainflowhorizontalalignment": false,
    "snapgridsize": 10,
    "snaptogrid": true,
    "wType": "FlexContainer",
    "widgetalignment": 1,
    "zindex": 1
}