{
    "DNDConfig": null,
    "_height_": {
        "type": "string",
        "value": "50dp"
    },
    "_margin_": [
        0,
        0,
        0,
        0
    ],
    "_orientation_": 6,
    "_padding_": [
        0,
        0,
        0,
        0
    ],
    "_percent_": true,
    "_skin_": "s344174b66d24a22be7a954acfcdefc5",
    "allboxes": [],
    "autogrowmode": 0,
    "canUpdateUI": true,
    "children": [
        "lblSeparator",
        "flxSegTransactionRowWrapper",
        "lblSeparator2"
    ],
    "clipbounds": true,
    "containerId": true,
    "containerweight": 100,
    "controllerInfo": {
        "default": {
            "channel": "desktop",
            "name": "flxSegTransactionRowSavingsController"
        }
    },
    "desktopweb": {
        "psp": {
            "hoverSkin": "s824f3ac025e47cfaf75ba9696b5ae0f"
        }
    },
    "enablescrolling": true,
    "id": "flxSegTransactionRowSavings",
    "info": null,
    "isTemplate": true,
    "isvisible": true,
    "kuid": "i4db0604bfaf40edaa2f1ebc2ed9a02f",
    "layouttype": 2,
    "name": "kony.ui.FlexContainer",
    "parent": "segTransactionsRowSavings",
    "pf": "segTransactionsRowSavings",
    "snapgridsize": 10,
    "snaptogrid": true,
    "wType": "FlexContainer",
    "widgetalignment": 1
}