{
    "@class": "com.kony.gen.viz.model.component.KVizUserWidget",
    "DNDConfig": null,
    "__parentReadjusting__": false,
    "_children_": [],
    "_height_": {
        "type": "ref",
        "value": "preferred"
    },
    "_left_": {
        "type": "string",
        "value": "0dp"
    },
    "_margin_": [
        0,
        0,
        0,
        0
    ],
    "_orientation_": 1,
    "_padding_": [
        0,
        0,
        0,
        0
    ],
    "_percent_": true,
    "_render_": true,
    "_skin_": "s24c92fc23b14f5484b693ee9b8a9b35",
    "_top_": {
        "type": "string",
        "value": "0dp"
    },
    "_width_": {
        "type": "string",
        "value": "100%"
    },
    "android": {},
    "androidwearos": {},
    "areflexpropsreferenced": false,
    "autogrowmode": 1,
    "canUpdateUI": true,
    "clipbounds": false,
    "containerweight": 0,
    "dataDiffs": {
        "Acknowledgment": {
            "__events__": {},
            "__info__": {
                "kuid": "e8be65d04d1c4b458416091aca9e22f7",
                "srcKUID": "e7030a81878a47ab9bc40b2e3cc983e1",
                "wType": "UserWidgetInstance"
            }
        },
        "Acknowledgment.btnAccountSummary": {
            "__events__": {},
            "__info__": {
                "kuid": "e64b784d6b4f45baa098ee3b5ea581b7",
                "srcKUID": "b60845d805d641f69a7c55e222d2fa31",
                "wType": "Button"
            },
            "height": {
                "Default": {
                    "type": "string",
                    "value": "50dp"
                }
            },
            "i18n_text": "i18n.AccountsAggregation.AccountSummary",
            "left": {
                "Default": {
                    "type": "string",
                    "value": "68.12%"
                }
            },
            "responsiveData": {
                "b3": {
                    "width": {
                        "type": "string",
                        "value": "96%"
                    }
                }
            },
            "text": "Account Summary",
            "width": {}
        },
        "Acknowledgment.btnAddMoreAccounts": {
            "__events__": {},
            "__info__": {
                "kuid": "gc6fd60838a849e6a8ac243c4f788726",
                "srcKUID": "dfad6aca751b43e4ace22da22e159a91",
                "wType": "Button"
            },
            "height": {
                "Default": {
                    "type": "string",
                    "value": "40dp"
                }
            },
            "i18n_text": "i18n.AccountsAggregation.AddMoreAccounts",
            "left": {
                "Default": {
                    "type": "string",
                    "value": "37.07%"
                }
            },
            "responsiveData": {
                "b3": {
                    "top": {
                        "type": "string",
                        "value": "80dp"
                    },
                    "width": {
                        "type": "string",
                        "value": "96%"
                    }
                }
            },
            "text": "Add More Accounts",
            "top": {},
            "width": {}
        },
        "Acknowledgment.flxAcknowledgementButtons": {
            "__events__": {},
            "__info__": {
                "kuid": "e1a68b04b3bd4021923b2cc2dc32c784",
                "srcKUID": "fc05716b2c44456392d7c92064af3725",
                "wType": "FlexContainer"
            },
            "autogrowMode": {
                "Default": 0
            },
            "height": {},
            "responsiveData": {
                "b3": {
                    "height": {
                        "type": "string",
                        "value": "140px"
                    }
                }
            }
        },
        "Acknowledgment.flxAcknowledgementMain": {
            "__events__": {},
            "__info__": {
                "kuid": "bd5229628bfe4c34939c830b33e5e0ae",
                "srcKUID": "a041b8305783413eaf0d0dabbaa11f48",
                "wType": "FlexContainer"
            }
        },
        "Acknowledgment.flxAcknowledgementSeperator2": {
            "__events__": {},
            "__info__": {
                "kuid": "j23d4f7059dd4d2dbf068409b552dd3a",
                "srcKUID": "b8b1d330284a47c184619db20a31ae4f",
                "wType": "FlexContainer"
            }
        },
        "Acknowledgment.flxHeaderAcknowledgement": {
            "__events__": {},
            "__info__": {
                "kuid": "fdfe830981074c7bb6585354dd6ef581",
                "srcKUID": "b4f2e5c9735341569505698b699244c0",
                "wType": "FlexContainer"
            }
        },
        "Acknowledgment.flxSeparator": {
            "__events__": {},
            "__info__": {
                "kuid": "ed40376d4c944a72a31805aba87a14ef",
                "srcKUID": "c54605cd362748298c2dedcbf346e967",
                "wType": "FlexContainer"
            }
        },
        "Acknowledgment.imgSuccess": {
            "__events__": {},
            "__info__": {
                "kuid": "a3898d3a5e3c4a2ba83088cebdd8baf6",
                "srcKUID": "f359876a749f4281baf6d3487346e26c",
                "wType": "Image"
            },
            "src": "success_green.png"
        },
        "Acknowledgment.lblAcknowledgementSeperator": {
            "__events__": {},
            "__info__": {
                "kuid": "j47861bdeba14d8f97d041cf3c15ed77",
                "srcKUID": "a0fc2df82f6e4fc4a45374e5f230f51b",
                "wType": "Label"
            }
        },
        "Acknowledgment.lblCongratulations": {
            "__events__": {},
            "__info__": {
                "kuid": "e2b7bd8c4ee6459fb611b52370fe9a32",
                "srcKUID": "ddd67f9faa3140b2939b0f399cb28f2a",
                "wType": "Label"
            },
            "text": "Congratulations!"
        },
        "Acknowledgment.lblSelectedAccounts": {
            "__events__": {},
            "__info__": {
                "kuid": "ide589f4e8534deba8787e02c2691730",
                "srcKUID": "j179c06a8706473dae7e626b341645cb",
                "wType": "Label"
            },
            "i18n_text": "i18n.AccountsAggregation.SelectedAccounts"
        },
        "Acknowledgment.lblSuccessmsg": {
            "__events__": {},
            "__info__": {
                "kuid": "af222c8d16954a81bf6b29fce9464ba0",
                "srcKUID": "f49fdaeee6d24df8b5b77f0102a209d1",
                "wType": "Label"
            }
        },
        "Acknowledgment.lblUserInformation": {
            "__events__": {},
            "__info__": {
                "kuid": "ae185e345a4f482d9da686cf93ca0025",
                "srcKUID": "j875f50cf87049cb842a41bcee8ad6ad",
                "wType": "Label"
            }
        },
        "Acknowledgment.segSelectedAccounts": {
            "__events__": {},
            "__info__": {
                "kuid": "e956fc248594441c8d858429c057e387",
                "srcKUID": "ddab2ab8d2e64f68afb77f0e66420855",
                "wType": "Segment"
            }
        },
        "AddExternalAccounts": {
            "__events__": {},
            "__info__": {
                "isRoot": true,
                "kuid": "fcc9e54d9ba54474bbfe34a02300680c",
                "srcKUID": "fa301f2f1d92482f9fc59994344bba4d",
                "wType": "FlexContainer"
            },
            "isVisible": false,
            "responsiveData": {
                "b1": {},
                "b2": {},
                "b3": {
                    "isVisible": false
                },
                "b4": {}
            },
            "width": {
                "Default": {
                    "type": "string",
                    "value": "100%"
                }
            }
        },
        "LoginUsingSelectedBank": {
            "__events__": {},
            "__info__": {
                "kuid": "d60664da48fb47a3b9762ade552b8eb3",
                "srcKUID": "bb9a01139d7d44b7958b01d1828371f2",
                "wType": "UserWidgetInstance"
            }
        },
        "LoginUsingSelectedBank.btnCancel": {
            "__events__": {},
            "__info__": {
                "kuid": "g025c7e76db44e6686abbb587e3f541c",
                "srcKUID": "d139a08dcc314d19aef4508cccd14f41",
                "wType": "Button"
            },
            "height": {},
            "left": {},
            "responsiveData": {
                "b2": {
                    "zIndex": 1
                },
                "b3": {
                    "height": {
                        "type": "string",
                        "value": "40dp"
                    },
                    "left": {
                        "type": "string",
                        "value": "3%"
                    },
                    "top": {
                        "type": "string",
                        "value": "80dp"
                    },
                    "width": {
                        "type": "string",
                        "value": "93%"
                    }
                }
            },
            "top": {},
            "width": {},
            "zIndex": {}
        },
        "LoginUsingSelectedBank.btnLogin": {
            "__events__": {},
            "__info__": {
                "kuid": "b8c1d276f9954229b8f2815a9ed128b0",
                "srcKUID": "a6d9904bd153437e892aa058b97b819d",
                "wType": "Button"
            },
            "centerX": {},
            "height": {},
            "left": {},
            "responsiveData": {
                "b3": {
                    "centerX": {
                        "type": "string",
                        "value": ""
                    },
                    "height": {
                        "type": "string",
                        "value": "40dp"
                    },
                    "left": {
                        "type": "string",
                        "value": "3%"
                    },
                    "width": {
                        "type": "string",
                        "value": "93%"
                    }
                }
            },
            "width": {}
        },
        "LoginUsingSelectedBank.btnTermsAndConditions": {
            "__events__": {},
            "__info__": {
                "kuid": "ebf38baac75f4995860e389d4130bcc3",
                "srcKUID": "b075b5fbac204fffb006028eb00c72a5",
                "wType": "Button"
            },
            "i18n_text": "i18n.common.TnC"
        },
        "LoginUsingSelectedBank.flxAddAccountsError": {
            "__events__": {},
            "__info__": {
                "kuid": "cd5a6cb94d9a425690bb136fb4bead45",
                "srcKUID": "a29510f261c34dc381f7a23ee0a2177b",
                "wType": "FlexContainer"
            },
            "responsiveData": {
                "b3": {
                    "isVisible": false
                }
            }
        },
        "LoginUsingSelectedBank.flxBankCredentials": {
            "__events__": {},
            "__info__": {
                "kuid": "jc68de2b5a5041ce907b7f69652baa64",
                "srcKUID": "b25340e75e5343fb93ab21b914b6565e",
                "wType": "FlexContainer"
            },
            "responsiveData": {
                "b3": {
                    "width": {
                        "type": "string",
                        "value": "70%"
                    }
                }
            },
            "width": {}
        },
        "LoginUsingSelectedBank.flxBankImage": {
            "__events__": {},
            "__info__": {
                "kuid": "e41a3a73bc594a4a891028da1b8ab1be",
                "srcKUID": "be5598db6b6c401e97bba36eace58cab",
                "wType": "FlexContainer"
            },
            "left": {},
            "responsiveData": {
                "b3": {
                    "left": {
                        "type": "string",
                        "value": "5%"
                    },
                    "width": {
                        "type": "string",
                        "value": "20%"
                    }
                }
            },
            "width": {}
        },
        "LoginUsingSelectedBank.flxCheckbox": {
            "__events__": {},
            "__info__": {
                "kuid": "h29e2aa475f34291bba89a93720c35ec",
                "srcKUID": "cb2ddd0971b84efebaf08a8e75fbc200",
                "wType": "FlexContainer"
            },
            "autogrowMode": {
                "Default": 0
            },
            "height": {
                "Default": {
                    "type": "string",
                    "value": "30dp"
                }
            },
            "responsiveData": {}
        },
        "LoginUsingSelectedBank.flxEnterPassword": {
            "__events__": {},
            "__info__": {
                "kuid": "g55c5f29a5264129aaa776e53d882884",
                "srcKUID": "ga6e328aaec6449ca34589067a6b856c",
                "wType": "FlexContainer"
            },
            "centerX": {},
            "left": {},
            "responsiveData": {
                "b3": {
                    "centerX": {
                        "type": "string",
                        "value": ""
                    },
                    "left": {
                        "type": "string",
                        "value": "3%"
                    },
                    "top": {
                        "type": "string",
                        "value": "17dp"
                    },
                    "width": {
                        "type": "string",
                        "value": "93%"
                    }
                }
            },
            "top": {},
            "width": {}
        },
        "LoginUsingSelectedBank.flxEnterUsername": {
            "__events__": {},
            "__info__": {
                "kuid": "ae7b5f1951f34dada774e52bedc380b5",
                "srcKUID": "a45c95a440c2432aa60dbc2a564110db",
                "wType": "FlexContainer"
            },
            "left": {},
            "responsiveData": {
                "b3": {
                    "left": {
                        "type": "string",
                        "value": "3%"
                    },
                    "top": {
                        "type": "string",
                        "value": "50dp"
                    },
                    "width": {
                        "type": "string",
                        "value": "93%"
                    }
                }
            },
            "top": {},
            "width": {
                "Default": {
                    "type": "string",
                    "value": "330dp"
                }
            }
        },
        "LoginUsingSelectedBank.flxIAgree": {
            "__events__": {},
            "__info__": {
                "kuid": "a92bfedc83ab4dabbee3a67da1cb41d3",
                "srcKUID": "e4325ec1b5ae4147a5e3cf677133e763",
                "wType": "FlexContainer"
            }
        },
        "LoginUsingSelectedBank.flxLoginCredentials": {
            "__events__": {},
            "__info__": {
                "kuid": "bff089960d934774a335c9a5a58666f6",
                "srcKUID": "i57306515a3a4a01b502e03280e23061",
                "wType": "FlexContainer"
            }
        },
        "LoginUsingSelectedBank.flxLoginSelectAccountsMain": {
            "__events__": {},
            "__info__": {
                "kuid": "fec216643a464cb7aa41d95695e18e54",
                "srcKUID": "i8e9fbae6edb42a19353c7385bb09ed2",
                "wType": "FlexContainer"
            },
            "isVisible": false,
            "responsiveData": {
                "b3": {}
            }
        },
        "LoginUsingSelectedBank.flxLoginUsingSelectedBank": {
            "__events__": {},
            "__info__": {
                "kuid": "h9b6880fc86f495e942038917a9a315a",
                "srcKUID": "e18b46b4371b40d7a98e96f06e214725",
                "wType": "FlexContainer"
            }
        },
        "LoginUsingSelectedBank.flxLoginUsingSelectedBankButtons": {
            "__events__": {},
            "__info__": {
                "kuid": "c3ff0902b7044ebfb2514b2b72b0456b",
                "srcKUID": "e6460424255549c9b13254bb813cf00b",
                "wType": "FlexContainer"
            },
            "autogrowMode": {
                "Default": 0
            },
            "height": {},
            "responsiveData": {
                "b3": {
                    "height": {
                        "type": "string",
                        "value": "140px"
                    }
                }
            }
        },
        "LoginUsingSelectedBank.flxLoginUsingSelectedBankContainer": {
            "__events__": {},
            "__info__": {
                "kuid": "hbfe65e797ea4d2ebeeb47dca0fcc54a",
                "srcKUID": "cda8b803a6cd46e4aee591a8f6b92a72",
                "wType": "FlexContainer"
            },
            "autogrowMode": {
                "Default": 0
            },
            "height": {},
            "responsiveData": {
                "b3": {
                    "height": {
                        "type": "string",
                        "value": "310dp"
                    },
                    "layoutType": 2
                }
            }
        },
        "LoginUsingSelectedBank.flxLoginUsingSelectedBankError": {
            "__events__": {},
            "__info__": {
                "kuid": "d8bed02977d84c80b34f60c976068f49",
                "srcKUID": "ce85af7fb2e2415db8459e813852c990",
                "wType": "FlexContainer"
            },
            "responsiveData": {
                "b3": {
                    "isVisible": false,
                    "width": {
                        "type": "string",
                        "value": "90%"
                    }
                }
            },
            "width": {}
        },
        "LoginUsingSelectedBank.flxLoginUsingSelectedBankHeader": {
            "__events__": {},
            "__info__": {
                "kuid": "fcc654ab49cc4aafaa637d835d5b4bf1",
                "srcKUID": "e03ba1e5c96a4288a523e1c594c5ffba",
                "wType": "FlexContainer"
            }
        },
        "LoginUsingSelectedBank.flxLoginUsingSelectedBankHeading": {
            "__events__": {},
            "__info__": {
                "kuid": "b5cb2333b8444819872663034f305252",
                "srcKUID": "gd7ffeaf40434c72a384a66386c7f36e",
                "wType": "Label"
            },
            "i18n_text": "i18n.AccountsAggregation.LoginUsingSelectedBank",
            "left": {},
            "responsiveData": {
                "b2": {
                    "left": {
                        "type": "string",
                        "value": "20dp"
                    }
                }
            }
        },
        "LoginUsingSelectedBank.flxLoginUsingSelectedBankMain": {
            "__events__": {},
            "__info__": {
                "kuid": "d0b6050f23134cc9a2429ff1ebf948a0",
                "srcKUID": "b8c8cba97877441daf7e25af749bf6cd",
                "wType": "FlexContainer"
            },
            "autogrowMode": {
                "Default": 1
            },
            "height": {
                "Default": {
                    "type": "ref",
                    "value": "preferred"
                }
            },
            "isVisible": true,
            "responsiveData": {
                "b3": {}
            }
        },
        "LoginUsingSelectedBank.flxLoginUsingSelectedBankMessage": {
            "__events__": {},
            "__info__": {
                "kuid": "fd131d4fc0194c84aada7a75eeeb647d",
                "srcKUID": "a7364e87a75e48c79811ecbc1221c245",
                "wType": "Label"
            },
            "height": {},
            "left": {},
            "responsiveData": {
                "b1": {
                    "height": {
                        "type": "ref",
                        "value": "preferred"
                    }
                },
                "b2": {
                    "height": {
                        "type": "ref",
                        "value": "preferred"
                    }
                },
                "b3": {
                    "height": {
                        "type": "ref",
                        "value": "preferred"
                    },
                    "left": {
                        "type": "string",
                        "value": "90dp"
                    },
                    "text": "Welcome to Chase Bank ",
                    "top": {
                        "type": "string",
                        "value": "25dp"
                    },
                    "width": {
                        "type": "string",
                        "value": "75%"
                    }
                },
                "b4": {
                    "height": {
                        "type": "ref",
                        "value": "preferred"
                    }
                }
            },
            "text": "Welcome to Chase Bank",
            "top": {},
            "width": {}
        },
        "LoginUsingSelectedBank.flxLoginUsingSelectedBankMessageBox": {
            "__events__": {},
            "__info__": {
                "kuid": "a4c375bddce346e68e812f8bc5589d91",
                "srcKUID": "a4a8283af6d949c68e249c7a0cec68e8",
                "wType": "FlexContainer"
            },
            "left": {},
            "responsiveData": {
                "b3": {
                    "left": {
                        "type": "string",
                        "value": "0%"
                    },
                    "width": {
                        "type": "string",
                        "value": "100%"
                    }
                }
            },
            "width": {}
        },
        "LoginUsingSelectedBank.flxLoginUsingSelectedBankSeperator": {
            "__events__": {},
            "__info__": {
                "kuid": "b66aed99c0af4b408729f2a8f921f4ef",
                "srcKUID": "d9e0ed7633364a858187a9d817f53b70",
                "wType": "FlexContainer"
            }
        },
        "LoginUsingSelectedBank.flxLoginUsingSelectedBankSeperator2": {
            "__events__": {},
            "__info__": {
                "kuid": "aa2b4f286e1e41968357edb374cecff2",
                "srcKUID": "abb0f094483848ac8b6d9d46f85c92e0",
                "wType": "FlexContainer"
            }
        },
        "LoginUsingSelectedBank.flxLoginUsingSelectedBankimage": {
            "__events__": {},
            "__info__": {
                "kuid": "d2812060fa4f49fa972411372465cc6c",
                "srcKUID": "e44e0417a8cd45ab86402d3cafb28f17",
                "wType": "FlexContainer"
            },
            "left": {
                "Default": {
                    "type": "string",
                    "value": "30dp"
                }
            },
            "responsiveData": {
                "b1": {
                    "left": {
                        "type": "string",
                        "value": "10dp"
                    }
                },
                "b2": {
                    "left": {
                        "type": "string",
                        "value": "0dp"
                    }
                },
                "b3": {
                    "height": {
                        "type": "string",
                        "value": "60dp"
                    },
                    "left": {
                        "type": "string",
                        "value": "15dp"
                    },
                    "top": {
                        "type": "string",
                        "value": "20dp"
                    },
                    "width": {
                        "type": "string",
                        "value": "60dp"
                    }
                },
                "b4": {
                    "left": {
                        "type": "string",
                        "value": "10dp"
                    }
                }
            },
            "top": {},
            "width": {
                "Default": {
                    "type": "string",
                    "value": "101dp"
                }
            }
        },
        "LoginUsingSelectedBank.imgAddAccountsError": {
            "__events__": {},
            "__info__": {
                "kuid": "hd3c245c8d094f25bf9f8af461e8475c",
                "srcKUID": "j62a7ce7743e4769ac8844358aaa6e78",
                "wType": "Image"
            },
            "src": "error_yellow.png"
        },
        "LoginUsingSelectedBank.imgBank": {
            "__events__": {},
            "__info__": {
                "kuid": "h7405393e1db4b49a2d2fbc7eb577609",
                "srcKUID": "c0e498574880489180d8199e7108989b",
                "wType": "Image"
            },
            "src": "bank_icon_chase.png"
        },
        "LoginUsingSelectedBank.imgLoginUsingSelectedBankError": {
            "__events__": {},
            "__info__": {
                "kuid": "f990dda6210044df952641c2039dc6f1",
                "srcKUID": "h2f2af06fbc14b98add2bbd73429f691",
                "wType": "Image"
            },
            "src": "error_yellow.png"
        },
        "LoginUsingSelectedBank.imgValidUsername": {
            "__events__": {},
            "__info__": {
                "kuid": "e6f7c48fff8c44ef9cc58e60592d6938",
                "srcKUID": "h7a56276ba834abc9d5d9a5833da0d52",
                "wType": "Image"
            },
            "src": "success_icon.png"
        },
        "LoginUsingSelectedBank.imgViewPassword": {
            "__events__": {},
            "__info__": {
                "kuid": "a8a14be838dd43cb8bcaf7af695a0f0c",
                "srcKUID": "c645256f4c9746b3b9c50eae0a76fa9c",
                "wType": "Label"
            }
        },
        "LoginUsingSelectedBank.imgflxLoginUsingSelectedBank": {
            "__events__": {},
            "__info__": {
                "kuid": "ecc05f625279415ea24eb3a08a0bf79b",
                "srcKUID": "jefb8ee8e96c4e1695a02ff76cfcc2c4",
                "wType": "Image"
            },
            "height": {},
            "responsiveData": {
                "b3": {
                    "height": {
                        "type": "string",
                        "value": "100%"
                    },
                    "top": {
                        "type": "string",
                        "value": "0dp"
                    }
                }
            },
            "src": "bank_icon_chase.png",
            "top": {}
        },
        "LoginUsingSelectedBank.lblAddAccountsError": {
            "__events__": {},
            "__info__": {
                "kuid": "f6d80ea6ca98404cb8f2fccb28cd468c",
                "srcKUID": "ae700cb5034247239cad31584c600db6",
                "wType": "Label"
            },
            "responsiveData": {
                "b3": {
                    "right": {
                        "type": "string",
                        "value": "20dp"
                    },
                    "width": {
                        "type": "string",
                        "value": ""
                    }
                }
            },
            "right": {},
            "width": {}
        },
        "LoginUsingSelectedBank.lblAgree": {
            "__events__": {},
            "__info__": {
                "kuid": "i617009c7c3c48188710a42049481ad3",
                "srcKUID": "d6e894f94e5f41f4b357916f254629b2",
                "wType": "Label"
            }
        },
        "LoginUsingSelectedBank.lblBankKey": {
            "__events__": {},
            "__info__": {
                "kuid": "g7c825fa36dc4da48f687d27eee661a8",
                "srcKUID": "fe58516c6f2b4d62980e6f96e5515db5",
                "wType": "Label"
            },
            "left": {
                "Default": {
                    "type": "string",
                    "value": "0%"
                }
            },
            "responsiveData": {
                "b3": {}
            }
        },
        "LoginUsingSelectedBank.lblBankValue": {
            "__events__": {},
            "__info__": {
                "kuid": "ae6c75afa403431a88f5ee5c61f95898",
                "srcKUID": "d923c9d05b0740d4877e8094b6a53b3c",
                "wType": "Label"
            },
            "left": {},
            "responsiveData": {
                "b3": {
                    "left": {
                        "type": "string",
                        "value": "25%"
                    },
                    "width": {
                        "type": "string",
                        "value": "70%"
                    }
                }
            },
            "width": {}
        },
        "LoginUsingSelectedBank.lblCheckBox": {
            "__events__": {},
            "__info__": {
                "kuid": "g16785ad71df468f99d31e4706009d04",
                "srcKUID": "e2e25bb284ad49109a377dcbc21e4ec4",
                "wType": "Label"
            },
            "centerY": {
                "Default": {
                    "type": "string",
                    "value": "50%"
                }
            },
            "height": {
                "Default": {
                    "type": "ref",
                    "value": "preferred"
                }
            },
            "responsiveData": {},
            "width": {
                "Default": {
                    "type": "ref",
                    "value": "preferred"
                }
            }
        },
        "LoginUsingSelectedBank.lblError": {
            "__events__": {},
            "__info__": {
                "kuid": "e3b657a3e0194c5385133a3120d7369b",
                "srcKUID": "a28022ffbb724197b5655e834b0ecfc8",
                "wType": "Label"
            }
        },
        "LoginUsingSelectedBank.lblLoginUsingSelectedBankError": {
            "__events__": {},
            "__info__": {
                "kuid": "b03717660f124837b485631704d76cc6",
                "srcKUID": "e5e9d705d2f843bc8b4337148b35d7a7",
                "wType": "Label"
            }
        },
        "LoginUsingSelectedBank.lblPassword": {
            "__events__": {},
            "__info__": {
                "kuid": "b552ca46a3314712af6c2a0a5bbec3b1",
                "srcKUID": "a3053069e1864e8abd2525eebcbf8031",
                "wType": "Label"
            },
            "left": {},
            "responsiveData": {
                "b3": {
                    "isVisible": false,
                    "left": {
                        "type": "string",
                        "value": "3%"
                    },
                    "text": "Enter Password",
                    "top": {
                        "type": "string",
                        "value": "17dp"
                    }
                }
            },
            "text": "E",
            "top": {}
        },
        "LoginUsingSelectedBank.lblSeperator": {
            "__events__": {},
            "__info__": {
                "kuid": "da4177ef1acb43c9a2da0bbd050249ee",
                "srcKUID": "c0f3838f427341619b30fc3fc005e94d",
                "wType": "Label"
            }
        },
        "LoginUsingSelectedBank.lblUsername": {
            "__events__": {},
            "__info__": {
                "kuid": "gba8399a2e9845bcaa7828490cb64c81",
                "srcKUID": "a4a863d7675b4d208bb146082f11c50c",
                "wType": "Label"
            },
            "left": {},
            "responsiveData": {
                "b3": {
                    "isVisible": false,
                    "left": {
                        "type": "string",
                        "value": "3%"
                    },
                    "text": "Enter Username",
                    "top": {
                        "type": "string",
                        "value": "50dp"
                    }
                }
            },
            "text": "E",
            "top": {}
        },
        "LoginUsingSelectedBank.lblUsernameKey": {
            "__events__": {},
            "__info__": {
                "kuid": "icfd70600f584dac8ec0489e5f314610",
                "srcKUID": "d7c6dd61d3e4486ea6d7e8462adacfa0",
                "wType": "Label"
            },
            "i18n_text": null,
            "isVisible": true,
            "responsiveData": {
                "b3": {}
            }
        },
        "LoginUsingSelectedBank.lblUsernameValue": {
            "__events__": {},
            "__info__": {
                "kuid": "b26a68e3022844268a9450f7a46faf00",
                "srcKUID": "ddc310ceb71d4854b61cea37125dfc1e",
                "wType": "Label"
            },
            "left": {},
            "responsiveData": {
                "b3": {
                    "left": {
                        "type": "string",
                        "value": "25%"
                    },
                    "width": {
                        "type": "string",
                        "value": "70%"
                    }
                }
            },
            "width": {}
        },
        "LoginUsingSelectedBank.segSelectedAccounts": {
            "__events__": {},
            "__info__": {
                "kuid": "e39802e6496d431ab923e601a017aebd",
                "srcKUID": "hfcf3c50f16045fe8243b699a056c389",
                "wType": "Segment"
            },
            "isVisible": false,
            "responsiveData": {}
        },
        "LoginUsingSelectedBank.tbxEnterpassword": {
            "__events__": {
                "desktopweb": {
                    "ide_onKeyUp": "AS_TextField_d9850e72ffdc42efa263e6a04be8a763"
                }
            },
            "__info__": {
                "kuid": "b9b850ac912a4e288a8094949f49edde",
                "srcKUID": "c5427a2c09b64bb58f7bf76804450060",
                "wType": "TextField"
            }
        },
        "LoginUsingSelectedBank.tbxNewUsername": {
            "__events__": {
                "desktopweb": {
                    "ide_onKeyUp": "AS_TextField_h8eb3d5782684f68a8fd259e816c42be"
                }
            },
            "__info__": {
                "kuid": "bb6ffc4166934b748006bbb8ac1a96d1",
                "srcKUID": "jcebe61ecda74c68a2c320d480c31197",
                "wType": "TextField"
            }
        },
        "SelectBankOrVendor": {
            "__events__": {},
            "__info__": {
                "kuid": "e9f0998e30cf4c52b72c704e4a769c58",
                "srcKUID": "j6ddb86f39174606aa0deca80762a03f",
                "wType": "UserWidgetInstance"
            }
        },
        "SelectBankOrVendor.btnProceed": {
            "__events__": {},
            "__info__": {
                "kuid": "j091ba34483242da86599a4139829b1f",
                "srcKUID": "h84efd00ba614bcb8c27837e036ba2ed",
                "wType": "Button"
            },
            "height": {
                "Default": {
                    "type": "string",
                    "value": "40dp"
                }
            },
            "left": {},
            "responsiveData": {
                "b1": {},
                "b3": {
                    "left": {
                        "type": "string",
                        "value": "2%"
                    },
                    "width": {
                        "type": "string",
                        "value": "96%"
                    }
                },
                "b4": {}
            },
            "width": {}
        },
        "SelectBankOrVendor.btnReset": {
            "__events__": {},
            "__info__": {
                "kuid": "e06b7d5b7d024da695c2af0ea00c03ca",
                "srcKUID": "d66dd46320ef47ee96f6012ce2f39298",
                "wType": "Button"
            },
            "height": {
                "Default": {
                    "type": "string",
                    "value": "40dp"
                }
            },
            "left": {},
            "responsiveData": {
                "b1": {},
                "b3": {
                    "left": {
                        "type": "string",
                        "value": "2%"
                    },
                    "top": {
                        "type": "string",
                        "value": "80dp"
                    },
                    "width": {
                        "type": "string",
                        "value": "96%"
                    }
                },
                "b4": {}
            },
            "top": {},
            "width": {}
        },
        "SelectBankOrVendor.btnSeperator2": {
            "__events__": {},
            "__info__": {
                "kuid": "b19e10c004974317a31fca8a7412a878",
                "srcKUID": "be8011f6b36949ea8829f8a03736be79",
                "wType": "FlexContainer"
            }
        },
        "SelectBankOrVendor.flxBank1": {
            "__events__": {},
            "__info__": {
                "kuid": "d7ca98c5a99948649370865def5de820",
                "srcKUID": "a15ded9513634c7bb606c572f399f5e5",
                "wType": "FlexContainer"
            },
            "left": {},
            "responsiveData": {
                "b3": {
                    "left": {
                        "type": "string",
                        "value": "5%"
                    },
                    "width": {
                        "type": "string",
                        "value": "26.60%"
                    }
                }
            },
            "width": {}
        },
        "SelectBankOrVendor.flxBank2": {
            "__events__": {},
            "__info__": {
                "kuid": "aab8aae0f5a740248ad59b12b7d5823e",
                "srcKUID": "db34dea0560243f9aa2ceeb5b3273ca0",
                "wType": "FlexContainer"
            },
            "left": {},
            "responsiveData": {
                "b3": {
                    "left": {
                        "type": "string",
                        "value": "5%"
                    },
                    "width": {
                        "type": "string",
                        "value": "26.60%"
                    }
                }
            },
            "width": {}
        },
        "SelectBankOrVendor.flxBank3": {
            "__events__": {},
            "__info__": {
                "kuid": "daec720f13f84f5db0c1887c25b7f978",
                "srcKUID": "f9e3b501c3024f23af2fa404f2172414",
                "wType": "FlexContainer"
            },
            "left": {
                "Default": {
                    "type": "string",
                    "value": "30dp"
                }
            },
            "responsiveData": {
                "b3": {
                    "left": {
                        "type": "string",
                        "value": "5%"
                    },
                    "right": {
                        "type": "string",
                        "value": ""
                    },
                    "width": {
                        "type": "string",
                        "value": "26.60%"
                    }
                }
            },
            "right": {},
            "width": {}
        },
        "SelectBankOrVendor.flxBank4": {
            "__events__": {},
            "__info__": {
                "kuid": "b45b19e47e9c470f98f0d39697bc7247",
                "srcKUID": "d3af22a8304d4e47a05d13e5f85d07d9",
                "wType": "FlexContainer"
            },
            "left": {},
            "responsiveData": {
                "b3": {
                    "left": {
                        "type": "string",
                        "value": "5%"
                    },
                    "width": {
                        "type": "string",
                        "value": "26.60%"
                    }
                }
            },
            "width": {}
        },
        "SelectBankOrVendor.flxBank5": {
            "__events__": {},
            "__info__": {
                "kuid": "dce3f0c430df4b7586563fa0a4de270a",
                "srcKUID": "e93b62e94ef44599a7d591d833b0189b",
                "wType": "FlexContainer"
            },
            "left": {},
            "responsiveData": {
                "b3": {
                    "left": {
                        "type": "string",
                        "value": "5%"
                    },
                    "width": {
                        "type": "string",
                        "value": "26.60%"
                    }
                }
            },
            "width": {}
        },
        "SelectBankOrVendor.flxBank6": {
            "__events__": {},
            "__info__": {
                "kuid": "c935373dd08b45449e37d2115cabacaf",
                "srcKUID": "h6b8162772d24a469e44891c525a6710",
                "wType": "FlexContainer"
            },
            "left": {},
            "responsiveData": {
                "b3": {
                    "left": {
                        "type": "string",
                        "value": "5%"
                    },
                    "width": {
                        "type": "string",
                        "value": "26.60%"
                    }
                }
            },
            "width": {}
        },
        "SelectBankOrVendor.flxBankInfo": {
            "__events__": {},
            "__info__": {
                "kuid": "i004e4b87678476e836e5813a30dcce0",
                "srcKUID": "i046267f3f634d06946dfbff8b85a19c",
                "wType": "FlexContainer"
            }
        },
        "SelectBankOrVendor.flxBankInfoContainer": {
            "__events__": {},
            "__info__": {
                "kuid": "d74af89e2a304adab11e15637b6c7fe0",
                "srcKUID": "f9dac5f76480472b965d50ff2fc2a1c3",
                "wType": "FlexContainer"
            }
        },
        "SelectBankOrVendor.flxBankList": {
            "__events__": {},
            "__info__": {
                "kuid": "g52c89fa57a649a48af8e8a6bfafd918",
                "srcKUID": "ee380505340a42b48e130fdf4576b6bd",
                "wType": "FlexContainer"
            },
            "isVisible": true
        },
        "SelectBankOrVendor.flxBankName": {
            "__events__": {},
            "__info__": {
                "kuid": "cc2b346b1875404fb001725dceace220",
                "srcKUID": "f764e3a8c72847c09dbae4001d3a1ec8",
                "wType": "FlexContainer"
            }
        },
        "SelectBankOrVendor.flxError": {
            "__events__": {},
            "__info__": {
                "kuid": "b3106ba821ef472bbc05037aca128152",
                "srcKUID": "a16865ec260843dd92bdc1d117e2b8d3",
                "wType": "FlexContainer"
            },
            "left": {},
            "responsiveData": {
                "b3": {
                    "isVisible": false,
                    "left": {
                        "type": "string",
                        "value": "5%"
                    },
                    "width": {
                        "type": "string",
                        "value": "90%"
                    }
                }
            },
            "width": {}
        },
        "SelectBankOrVendor.flxHeaderAcknowledgement": {
            "__events__": {},
            "__info__": {
                "kuid": "ea4a483980d74bc6b2ba15001f901f5e",
                "srcKUID": "a650ff694ce042dabd3fe7e68531f3a5",
                "wType": "FlexContainer"
            }
        },
        "SelectBankOrVendor.flxName": {
            "__events__": {},
            "__info__": {
                "kuid": "db5b9e5fc8f24d48ac8c6f154236d07b",
                "srcKUID": "ca7eb9a607b74c48946b9bd64202cd4c",
                "wType": "FlexContainer"
            },
            "left": {},
            "responsiveData": {
                "b3": {
                    "left": {
                        "type": "string",
                        "value": "5%"
                    },
                    "width": {
                        "type": "string",
                        "value": "90%"
                    }
                }
            },
            "width": {}
        },
        "SelectBankOrVendor.flxPopularBanks": {
            "__events__": {},
            "__info__": {
                "kuid": "b75d7f56294d4915aac8988ccde6bb31",
                "srcKUID": "ac26f11d0b964af0aa4a1e02589332f3",
                "wType": "FlexContainer"
            },
            "responsiveData": {
                "b3": {
                    "isVisible": false
                }
            }
        },
        "SelectBankOrVendor.flxRadiobtn1": {
            "__events__": {},
            "__info__": {
                "kuid": "f346a8e86ae04b01804ddcd24205d26d",
                "srcKUID": "b37e5f6847ac4515ada422e6990eccf4",
                "wType": "FlexContainer"
            }
        },
        "SelectBankOrVendor.flxRadiobtn2": {
            "__events__": {},
            "__info__": {
                "kuid": "e0605ae665c2432e86a3cab40fc4c1ba",
                "srcKUID": "h21c9262b8b44145a4f00f83050cb5dd",
                "wType": "FlexContainer"
            }
        },
        "SelectBankOrVendor.flxRadiobtn3": {
            "__events__": {},
            "__info__": {
                "kuid": "eff92741e4fa48b1b00c353dc60e6f0d",
                "srcKUID": "j01c6955102243d5863db192ae7816d5",
                "wType": "FlexContainer"
            }
        },
        "SelectBankOrVendor.flxRadiobtn4": {
            "__events__": {},
            "__info__": {
                "kuid": "f49b794d9d094912a460a7c2986d5060",
                "srcKUID": "d60c33f79a4f427694756ea9bb41fb4b",
                "wType": "FlexContainer"
            }
        },
        "SelectBankOrVendor.flxRadiobtn5": {
            "__events__": {},
            "__info__": {
                "kuid": "h0e65b5f72f64414a0c2b244751fbaee",
                "srcKUID": "aacb10538c3d4b40a12a7ba9bfea1530",
                "wType": "FlexContainer"
            }
        },
        "SelectBankOrVendor.flxRadiobtn6": {
            "__events__": {},
            "__info__": {
                "kuid": "ja26f078a13b493e915c264225f670f0",
                "srcKUID": "e2f22d9289d24033881c44bea767654a",
                "wType": "FlexContainer"
            }
        },
        "SelectBankOrVendor.flxRow1": {
            "__events__": {},
            "__info__": {
                "kuid": "e82d9056e0d645fe86b14bc3a4d89150",
                "srcKUID": "bf973793872648b1b388ac684840f6a8",
                "wType": "FlexContainer"
            }
        },
        "SelectBankOrVendor.flxRow2": {
            "__events__": {},
            "__info__": {
                "kuid": "ec2014f12cff48518a0a69bc40146ce9",
                "srcKUID": "j3b2418806fe4b7fba88384d643afb06",
                "wType": "FlexContainer"
            }
        },
        "SelectBankOrVendor.flxSelectBankOrVendorButtons": {
            "__events__": {},
            "__info__": {
                "kuid": "f8955690feb7424081eab2d32aad5462",
                "srcKUID": "cb2fcddcea3a4b88bb0ce42b59f2f1b8",
                "wType": "FlexContainer"
            },
            "autogrowMode": {
                "Default": 0
            },
            "height": {},
            "responsiveData": {
                "b3": {
                    "height": {
                        "type": "string",
                        "value": "140dp"
                    }
                },
                "b4": {
                    "isVisible": true
                }
            }
        },
        "SelectBankOrVendor.flxSeparator": {
            "__events__": {},
            "__info__": {
                "kuid": "ab35d92f4a9446ecaad9aa15d71ea143",
                "srcKUID": "d80aa18646dd46c7b40f28a063d0b269",
                "wType": "FlexContainer"
            }
        },
        "SelectBankOrVendor.imgBank1": {
            "__events__": {},
            "__info__": {
                "kuid": "f536909964ae4f4e9cf8f8c4edfe1df1",
                "srcKUID": "c228de0187e54d6c811759f4bfe49ac5",
                "wType": "Image"
            },
            "src": "bank_icon_chase.png"
        },
        "SelectBankOrVendor.imgBank2": {
            "__events__": {},
            "__info__": {
                "kuid": "ga7c90d077f541148da4c63b7b85de78",
                "srcKUID": "ff19060a430744a081eebcbe11fa54d9",
                "wType": "Image"
            },
            "src": "bank_icon_wf.png"
        },
        "SelectBankOrVendor.imgBank3": {
            "__events__": {},
            "__info__": {
                "kuid": "c65d0a5776524e8c9eaf38f2ff0df569",
                "srcKUID": "b34ab0b480e84bd993f168d0f66aa099",
                "wType": "Image"
            },
            "src": "bank_icon_boa.png"
        },
        "SelectBankOrVendor.imgBank4": {
            "__events__": {},
            "__info__": {
                "kuid": "i76f09e94e9e41a596ed67f9325f0c37",
                "srcKUID": "b321b410d66942599285903a664fa4e8",
                "wType": "Image"
            },
            "src": "bank_icon_citi.png"
        },
        "SelectBankOrVendor.imgBank5": {
            "__events__": {},
            "__info__": {
                "kuid": "a60e4f12a97c4027bec220f9f09661eb",
                "srcKUID": "ifbf177ef3bd4e1db171b2cba454d3eb",
                "wType": "Image"
            },
            "src": "bank_icon_hdfc.png"
        },
        "SelectBankOrVendor.imgBank6": {
            "__events__": {},
            "__info__": {
                "kuid": "a16fdb2606474bb0909f770db8ecefe0",
                "srcKUID": "c9065105cfa343f3ae04d0c311353ed4",
                "wType": "Image"
            },
            "src": "bank_img_rounded.png"
        },
        "SelectBankOrVendor.imgError": {
            "__events__": {},
            "__info__": {
                "kuid": "e2df543775bf4822800a880ef76c3e9b",
                "srcKUID": "j9c00472f9704e67bc97dda53efb32ae",
                "wType": "Image"
            },
            "src": "error_yellow.png"
        },
        "SelectBankOrVendor.lblError": {
            "__events__": {},
            "__info__": {
                "kuid": "j7a7ff2bd2834a80a1060d56e4c9dda2",
                "srcKUID": "ffdca3754ee2493aa93cf59bf77de778",
                "wType": "Label"
            },
            "responsiveData": {
                "b3": {
                    "right": {
                        "type": "string",
                        "value": "20dp"
                    },
                    "width": {
                        "type": "string",
                        "value": ""
                    }
                }
            },
            "right": {},
            "width": {}
        },
        "SelectBankOrVendor.lblName": {
            "__events__": {},
            "__info__": {
                "kuid": "f4abc64f33a240bc96872956062891a7",
                "srcKUID": "g792180b9da3427196d1d6e29ef8514d",
                "wType": "Label"
            },
            "i18n_text": "i18n.transfers.bankName"
        },
        "SelectBankOrVendor.lblPopularBanks": {
            "__events__": {},
            "__info__": {
                "kuid": "je18549effc8447795acd114c83fb64a",
                "srcKUID": "c864d3b75c91431a811cc8d49add8263",
                "wType": "Label"
            },
            "left": {},
            "responsiveData": {
                "b3": {
                    "left": {
                        "type": "string",
                        "value": "5%"
                    }
                }
            }
        },
        "SelectBankOrVendor.lblRadioBtn1": {
            "__events__": {},
            "__info__": {
                "kuid": "b32d218923794f6c8168ed2c6c45d62b",
                "srcKUID": "ea3ccc4509a94e00a4dc163729ba40e9",
                "wType": "Label"
            }
        },
        "SelectBankOrVendor.lblRadioBtn2": {
            "__events__": {},
            "__info__": {
                "kuid": "e1efcc9fa8ec4c1d8482005da311910f",
                "srcKUID": "dab1bee81d604748a13997aef99909c4",
                "wType": "Label"
            }
        },
        "SelectBankOrVendor.lblRadioBtn3": {
            "__events__": {},
            "__info__": {
                "kuid": "c1839884aa6e40f79861d23aa5b83359",
                "srcKUID": "da62a3b67bbc4cd2be3f2af402acbaa9",
                "wType": "Label"
            }
        },
        "SelectBankOrVendor.lblRadioBtn4": {
            "__events__": {},
            "__info__": {
                "kuid": "g3619464dfb7434b94a729970718c515",
                "srcKUID": "fd6c6dc7d07a43299193e373694b2aec",
                "wType": "Label"
            }
        },
        "SelectBankOrVendor.lblRadioBtn5": {
            "__events__": {},
            "__info__": {
                "kuid": "bf41b7055335465a8754b1a20b0d058d",
                "srcKUID": "d1434aedbe5645c7a66d04f0df35ca4c",
                "wType": "Label"
            }
        },
        "SelectBankOrVendor.lblRadioBtn6": {
            "__events__": {},
            "__info__": {
                "kuid": "dbc2c30facaa42a1aef27fc754dc87b5",
                "srcKUID": "i32e90e7d0f9461fb110fe3548c3d898",
                "wType": "Label"
            }
        },
        "SelectBankOrVendor.lblUserInformation": {
            "__events__": {},
            "__info__": {
                "kuid": "cb616edce07f4aab85612b6e5c52fe2f",
                "srcKUID": "c02ce1e01a6a48c7968c3aac6e61b762",
                "wType": "Label"
            },
            "i18n_text": "i18n.AccountsAggregation.SelectBankVendor",
            "left": {
                "Default": {
                    "type": "string",
                    "value": "30dp"
                }
            },
            "responsiveData": {
                "b3": {
                    "left": {
                        "type": "string",
                        "value": "5%"
                    }
                }
            }
        },
        "SelectBankOrVendor.segBanksList": {
            "__events__": {},
            "__info__": {
                "kuid": "j5e2e46b095841cdabc1814def571819",
                "srcKUID": "i19981d2713a4566b6f6d43b44c6282e",
                "wType": "Segment"
            }
        },
        "SelectBankOrVendor.tbxName": {
            "__events__": {
                "desktopweb": {
                    "ide_onKeyUp": "AS_TextField_d3ff6d78c5f64093a1b76e9bfc518ceb"
                }
            },
            "__info__": {
                "kuid": "e67bffdf73344e5db32ecf985e193946",
                "srcKUID": "fbefd093b0a5489cb66670ff446d364b",
                "wType": "TextField"
            },
            "i18n_placeholder": "i18n.AccountsAggregation.EnterBankName"
        },
        "flxAcknowledgment": {
            "__events__": {},
            "__info__": {
                "kuid": "de9d0ccc091d421799a9ae5e443d2c73",
                "srcKUID": "f40b7aff4cd3429c99946fa72cc87cc6",
                "wType": "FlexContainer"
            },
            "isVisible": false,
            "left": {},
            "responsiveData": {
                "b3": {
                    "isVisible": false,
                    "left": {
                        "type": "string",
                        "value": "2%"
                    },
                    "top": {
                        "type": "string",
                        "value": "0dp"
                    },
                    "width": {
                        "type": "string",
                        "value": "96%"
                    }
                },
                "b4": {
                    "isVisible": false
                }
            },
            "top": {},
            "width": {
                "Default": {
                    "type": "string",
                    "value": "100%"
                }
            }
        },
        "flxEmptySpace": {
            "__events__": {},
            "__info__": {
                "kuid": "j57052cc370a4fc2bee7684a1785ed6a",
                "srcKUID": "eb1083e6408f4310a93cf681a92bcb89",
                "wType": "FlexContainer"
            }
        },
        "flxLoginUsingSelectedBank": {
            "__events__": {},
            "__info__": {
                "kuid": "d1d6352da9c942abbfeb55b1bb756a10",
                "srcKUID": "ha5f3d5543844dd0993a44fce6157341",
                "wType": "FlexContainer"
            },
            "isVisible": true,
            "left": {},
            "responsiveData": {
                "b3": {
                    "left": {
                        "type": "string",
                        "value": "2%"
                    },
                    "top": {
                        "type": "string",
                        "value": "0dp"
                    },
                    "width": {
                        "type": "string",
                        "value": "96%"
                    }
                },
                "b4": {}
            },
            "top": {},
            "width": {}
        },
        "flxSelectBankOrVendor": {
            "__events__": {},
            "__info__": {
                "kuid": "abe72e98f130428593ddb480c155257d",
                "srcKUID": "dcbb008841a44680892d66126a44d0c9",
                "wType": "FlexContainer"
            },
            "isVisible": false,
            "left": {},
            "responsiveData": {
                "b3": {
                    "left": {
                        "type": "string",
                        "value": "2%"
                    },
                    "right": {
                        "type": "string",
                        "value": ""
                    },
                    "top": {
                        "type": "string",
                        "value": "0dp"
                    },
                    "width": {
                        "type": "string",
                        "value": "96%"
                    }
                },
                "b4": {}
            },
            "right": {},
            "top": {},
            "width": {}
        },
        "lblHeader": {
            "__events__": {},
            "__info__": {
                "kuid": "h8774c3ee04b496db363c4e56bd9982b",
                "srcKUID": "hdbbe4a4546842b68fb4c7737348cf27",
                "wType": "Label"
            },
            "responsiveData": {
                "b1": {
                    "top": {
                        "type": "string",
                        "value": "0dp"
                    }
                },
                "b2": {
                    "top": {
                        "type": "string",
                        "value": "0dp"
                    }
                },
                "b3": {
                    "isVisible": false
                },
                "b4": {
                    "top": {
                        "type": "string",
                        "value": "0dp"
                    }
                }
            },
            "top": {}
        }
    },
    "desktopweb": {},
    "id": "AddExternalAccounts",
    "info": null,
    "ipad": {},
    "iphone": {},
    "iscustomlayout": false,
    "isdatareferenced": false,
    "issegmentchild": false,
    "isvisible": false,
    "kiosk": {},
    "kuid": "fcc9e54d9ba54474bbfe34a02300680c",
    "layouttype": 4,
    "masterType": 0,
    "name": "kony.ui.UserWidgetInstance",
    "parent": "flxLeftContainer",
    "pf": "frmDashboard",
    "responsiveData": {
        "b1": {},
        "b2": {},
        "b3": {
            "isVisible": false
        },
        "b4": {}
    },
    "retaincontentalignment": false,
    "retainflexpositionproperties": false,
    "snaptogrid": true,
    "sourceUserWidget": "fa301f2f1d92482f9fc59994344bba4d",
    "spa": {},
    "spaan": {},
    "spaandroidtablet": {},
    "spabb": {},
    "spaip": {},
    "spaipad": {},
    "spamobile": {},
    "spatablet": {},
    "spawindowstablet": {},
    "spawinphone8": {},
    "tabrcandroid": {},
    "vizProps": {
        "hidewidgethierarchy": false
    },
    "vizprops": {
        "hidewidgethierarchy": false
    },
    "wType": "UserWidgetInstance",
    "windows10": {},
    "windows8": {},
    "winphone10": {},
    "winphone8": {}
}