{
    "DNDConfig": null,
    "__parentReadjusting__": false,
    "_height_": {
        "type": "ref",
        "value": "preferred"
    },
    "_margin_": [
        0,
        0,
        0,
        0
    ],
    "_orientation_": 6,
    "_padding_": [
        0,
        0,
        0,
        0
    ],
    "_percent_": true,
    "_right_": {
        "type": "string",
        "value": "4%"
    },
    "_skin_": "s24c92fc23b14f5484b693ee9b8a9b35",
    "_top_": {
        "type": "string",
        "value": "30px"
    },
    "_width_": {
        "type": "string",
        "value": "180px"
    },
    "allboxes": [],
    "autogrowmode": 1,
    "canUpdateUI": true,
    "children": [
        "selectAccountList"
    ],
    "clipbounds": false,
    "containerweight": 100,
    "enablescrolling": true,
    "id": "flxAccountList",
    "info": null,
    "iscustomlayout": false,
    "isvisible": false,
    "kuid": "g19bdfc4c9bb4340a7372335709b9622",
    "layouttype": 2,
    "maxheight": {
        "type": "number",
        "value": ""
    },
    "minheight": {
        "type": "number",
        "value": ""
    },
    "name": "kony.ui.FlexContainer",
    "parent": "flxMyCashPosition",
    "pf": "frmDashboard",
    "responsiveData": {
        "b1": {
            "height": {
                "type": "ref",
                "value": "preferred"
            },
            "isVisible": false,
            "maxHeight": {
                "type": "string",
                "value": "235dp"
            },
            "minHeight": {
                "type": "string",
                "value": "100dp"
            },
            "right": {
                "type": "string",
                "value": "2%"
            },
            "skin": "se15a2ce22274d8bafc3956d7d10af30",
            "top": {
                "type": "string",
                "value": "40px"
            },
            "width": {
                "type": "string",
                "value": "240px"
            }
        },
        "b3": {
            "right": {
                "type": "string",
                "value": "15dp"
            },
            "top": {
                "type": "string",
                "value": "75dp"
            },
            "width": {
                "type": "string",
                "value": "250dp"
            }
        },
        "b4": {
            "top": {
                "type": "string",
                "value": "40px"
            },
            "width": {
                "type": "string",
                "value": "240px"
            }
        }
    },
    "retaincontentalignment": false,
    "retainflexpositionproperties": false,
    "snapgridsize": 10,
    "snaptogrid": true,
    "wType": "FlexContainer",
    "widgetalignment": 1,
    "zindex": 100
}