{
    "@class": "com.kony.gen.viz.model.component.KVizListBox",
    "DNDConfig": null,
    "__parentReadjusting__": false,
    "_height_": {
        "type": "string",
        "value": "40dp"
    },
    "_left_": {
        "type": "string",
        "value": "1.39%"
    },
    "_margin_": [
        0,
        0,
        0,
        0
    ],
    "_padding_": [
        1,
        0,
        0,
        0
    ],
    "_right_": {
        "type": "number",
        "value": ""
    },
    "_skin_": "sbaba22b80b348e6a9f536af0ad26b53",
    "_top_": {
        "type": "string",
        "value": "40dp"
    },
    "_width_": {
        "type": "string",
        "value": "8%"
    },
    "canUpdateUI": true,
    "containerweight": 100,
    "contentalignment": 4,
    "desktopweb": {
        "psp": {
            "hoverSkin": "sba5012deddd4a46a4ba30a09e9df91b"
        }
    },
    "focusskin": "s9eb08f78097439eb767801e8fdeb5cd",
    "groupcells": false,
    "id": "lbxCurrency",
    "info": null,
    "isvisible": false,
    "kiosk": {
        "psp": {
            "placeholder": "Select state"
        }
    },
    "kuid": "e54f8ad9f35443b1bbee305e3fa17f86",
    "masterdata": [
        [
            "key1",
            "$"
        ],
        [
            "Key2",
            "Rup"
        ]
    ],
    "name": "kony.ui.ListBox",
    "paddingLocked": false,
    "paddinginpixel": false,
    "parent": "flxAmount",
    "pf": "frmBulkPaymentsReview",
    "responsiveData": {
        "b1": {
            "right": {
                "type": "string",
                "value": "30dp"
            }
        },
        "b2": {
            "right": {
                "type": "string",
                "value": "30dp"
            }
        },
        "b3": {
            "right": {
                "type": "string",
                "value": "30dp"
            },
            "width": {
                "type": "string",
                "value": "10%"
            }
        },
        "b4": {
            "right": {
                "type": "string",
                "value": "15dp"
            }
        }
    },
    "selectedkey": "key1",
    "selectedkeys": null,
    "selectedkeyvalue": [
        "key1",
        "$"
    ],
    "selectedkeyvalues": null,
    "size": 18,
    "viewconfig": {
        "toggleViewConfig": {
            "viewStyle": 0
        }
    },
    "viewtype": 0,
    "wType": "ListBox",
    "zindex": 1
}