{
    "@class": "com.kony.gen.viz.model.component.KVizButton",
    "DNDConfig": null,
    "__parentReadjusting__": false,
    "_height_": {
        "type": "ref",
        "value": "preferred"
    },
    "_left_": {
        "type": "string",
        "value": "0dp"
    },
    "_margin_": [
        6,
        6,
        6,
        6
    ],
    "_padding_": [
        0,
        0,
        0,
        0
    ],
    "_skin_": "sf6ca31ec68641e5a2df8232c58cd39a",
    "_text_": "Remove Recipient",
    "_top_": {
        "type": "string",
        "value": "20dp"
    },
    "_width_": {
        "type": "string",
        "value": "90%"
    },
    "accessibilityconfig": {
        "a11yLabel": "Remove Recipient"
    },
    "canUpdateUI": true,
    "containerId": true,
    "containerweight": 100,
    "contentalignment": 4,
    "desktopweb": {
        "psp": {}
    },
    "disabledSkins": {
        "focusSkin": "sf44d06ca8224832827ea7fdff757013"
    },
    "displaytext": true,
    "id": "btnRemoveRecipient",
    "info": null,
    "isvisible": true,
    "kuid": "db33269e2c674c298af8d97ae4a8981b",
    "name": "kony.ui.Button",
    "parent": "flxActions",
    "pf": "segExternalAccountsFastTransfersSelected",
    "tooltip": "VIEW ACTIVITY",
    "wType": "Button",
    "zindex": 1
}