{
    "@class": "com.kony.gen.viz.model.component.KVizButton",
    "DNDConfig": null,
    "__parentReadjusting__": false,
    "_height_": {
        "type": "ref",
        "value": "preferred"
    },
    "_margin_": [
        6,
        6,
        6,
        6
    ],
    "_padding_": [
        0,
        0,
        0,
        0
    ],
    "_right_": {
        "type": "string",
        "value": "0dp"
    },
    "_skin_": "s611bd2c5d324490aa9f7ed9d412984f",
    "_text_": "DISPUTE TRANSACTION",
    "_top_": {
        "type": "string",
        "value": "15dp"
    },
    "_width_": {
        "type": "ref",
        "value": "preferred"
    },
    "canUpdateUI": true,
    "containerId": true,
    "containerweight": 100,
    "contentalignment": 4,
    "desktopweb": {
        "psp": {
            "hoverSkin": "s611bd2c5d324490aa9f7ed9d412984f"
        }
    },
    "disabledSkins": {
        "focusSkin": "sf44d06ca8224832827ea7fdff757013"
    },
    "displaytext": true,
    "id": "btnSendAMessage",
    "ide_onClick": "AS_Button_e72108dde6484a1ba64b45b45062952f",
    "info": null,
    "isvisible": true,
    "kuid": "hde5a891fcf24023bc81ace01da5be5c",
    "name": "kony.ui.Button",
    "parent": "flxActionsWrapper",
    "pf": "segDisputedtransactionsSelected",
    "texti18n": "i18n.StopCheckPayments.SENDMessage",
    "tooltip": "Send A Message",
    "wType": "Button",
    "zindex": 1,
    "accessibilityconfig": {
        "a11yLabel": "Send a Message"
    }
}