{
    "DNDConfig": null,
    "_bottom_": {
        "type": "string",
        "value": "0dp"
    },
    "_height_": {
        "type": "string",
        "value": "1dp"
    },
    "_left_": {
        "type": "string",
        "value": ""
    },
    "_margin_": [
        0,
        0,
        0,
        0
    ],
    "_orientation_": 6,
    "_padding_": [
        0,
        0,
        0,
        0
    ],
    "_percent_": true,
    "_right_": {
        "type": "string",
        "value": ""
    },
    "_skin_": "s8823f92dd17459d8dbd603fe9224e85",
    "_top_": {
        "type": "string",
        "value": "0dp"
    },
    "_width_": {
        "type": "string",
        "value": "100%"
    },
    "allboxes": [],
    "canUpdateUI": true,
    "centerx": {
        "type": "string",
        "value": "50%"
    },
    "children": [],
    "clipbounds": true,
    "containerweight": 100,
    "enablescrolling": true,
    "id": "flxSeparator1",
    "info": null,
    "isvisible": true,
    "kuid": "d04f0932a4f04db39593e9973c6e4b54",
    "layouttype": 2,
    "name": "kony.ui.FlexContainer",
    "parent": "flxbuttons",
    "pf": "frmWireTransferAddInternationalAccountAck",
    "responsiveData": {
        "b1": {
            "bottom": {
                "type": "string",
                "value": ""
            }
        },
        "b2": {
            "bottom": {
                "type": "string",
                "value": ""
            }
        },
        "b3": {
            "isVisible": true
        },
        "b4": {
            "bottom": {
                "type": "string",
                "value": ""
            },
            "height": {
                "type": "string",
                "value": "1dp"
            },
            "isVisible": false
        }
    },
    "snapgridsize": 10,
    "snaptogrid": true,
    "wType": "FlexContainer",
    "widgetalignment": 1,
    "zindex": 1
}