{
    "DNDConfig": null,
    "__parentReadjusting__": false,
    "_bottom_": {
        "type": "number",
        "value": ""
    },
    "_height_": {
        "type": "ref",
        "value": "preferred"
    },
    "_margin_": [
        0,
        0,
        0,
        0
    ],
    "_orientation_": 6,
    "_padding_": [
        0,
        0,
        0,
        0
    ],
    "_percent_": true,
    "_skin_": "secff68ee7904525acebc42c36c39094",
    "_top_": {
        "type": "number",
        "value": "20"
    },
    "_width_": {
        "type": "string",
        "value": "96.67%"
    },
    "allboxes": [],
    "autogrowmode": 1,
    "canUpdateUI": true,
    "centerx": {
        "type": "string",
        "value": "50%"
    },
    "children": [
        "lblVerifyUploadDate",
        "lblVerifyUploadDateValue"
    ],
    "clipbounds": true,
    "containerweight": 100,
    "enablescrolling": true,
    "focusskin": "secff68ee7904525acebc42c36c39094",
    "id": "flxVerifyUploadDate",
    "info": null,
    "isvisible": true,
    "kuid": "gd1b6223335344cc97bf988bca7d4cb9",
    "layouttype": 2,
    "masterType": 1,
    "name": "kony.ui.FlexContainer",
    "parent": "flxBPVerifyDetails",
    "pf": "frmBulkPaymentsUploadFile",
    "responsiveData": {
        "b1": {
            "bottom": {
                "type": "string",
                "value": ""
            },
            "centerX": {
                "type": "string",
                "value": "50.59%"
            },
            "top": {
                "type": "string",
                "value": "69dp"
            },
            "width": {
                "type": "string",
                "value": "95.97%"
            }
        },
        "b2": {
            "centerX": {
                "type": "string",
                "value": "48.34%"
            },
            "isVisible": true,
            "top": {
                "type": "string",
                "value": "69dp"
            }
        },
        "b3": {
            "centerX": {
                "type": "string",
                "value": "45.34%"
            },
            "top": {
                "type": "number",
                "value": "60"
            },
            "width": {
                "type": "string",
                "value": "90.63%"
            }
        }
    },
    "snapgridsize": 10,
    "snaptogrid": true,
    "wType": "FlexContainer",
    "widgetalignment": 1,
    "zindex": 1
}