{
    "@class": "com.kony.gen.viz.model.component.KVizUserWidget",
    "DNDConfig": null,
    "__parentReadjusting__": false,
    "_bottom_": {
        "Default": {
            "type": "string",
            "value": ""
        }
    },
    "_children_": [],
    "_height_": {
        "type": "string",
        "value": "60dp"
    },
    "_left_": {
        "Default": {
            "type": "string",
            "value": "0dp"
        }
    },
    "_margin_": [
        0,
        0,
        0,
        0
    ],
    "_orientation_": 1,
    "_padding_": [
        0,
        0,
        0,
        0
    ],
    "_percent_": true,
    "_render_": true,
    "_skin_": "s24c92fc23b14f5484b693ee9b8a9b35",
    "_top_": {
        "Default": {
            "type": "string",
            "value": "-40dp"
        }
    },
    "_width_": {
        "type": "string",
        "value": "100%"
    },
    "areflexpropsreferenced": false,
    "canUpdateUI": true,
    "clipbounds": true,
    "containerweight": 0,
    "dataDiffs": {
        "flxPaginationFirst": {
            "__events__": {},
            "__info__": {
                "kuid": "ac24680a2ea94df38223553c7a30dd2a",
                "srcKUID": "dc5425bcffde40bba077f3ef27070e02",
                "wType": "FlexContainer"
            },
            "left": {
                "Default": {
                    "Default": {
                        "type": "string",
                        "value": "30dp"
                    }
                }
            }
        },
        "flxPaginationLast": {
            "__events__": {},
            "__info__": {
                "kuid": "e956a98d910e4395bafc9dbfcbc09cfa",
                "srcKUID": "e5732cffb816477cbfc5cacac88a046a",
                "wType": "FlexContainer"
            }
        },
        "flxPaginationNext": {
            "__events__": {},
            "__info__": {
                "kuid": "c71361e5f71b472caa301aa535ef55e6",
                "srcKUID": "f98d1324102c48ce890e02e4539c1c49",
                "wType": "FlexContainer"
            }
        },
        "flxPaginationPrevious": {
            "__events__": {},
            "__info__": {
                "kuid": "gc4866150e0a4b8c99a88118fac1bab8",
                "srcKUID": "h7d55c477073421abc369f7b38c6c8ac",
                "wType": "FlexContainer"
            }
        },
        "tablePagination": {
            "__events__": {},
            "__info__": {
                "isRoot": true,
                "kuid": "ecbebf5e9ac544c5ba4c163cc69ba1a8",
                "srcKUID": "d0682091242b4be393889732aa217f2b",
                "wType": "FlexContainer"
            },
            "bottom": {
                "Default": {
                    "Default": {
                        "type": "string",
                        "value": ""
                    }
                }
            },
            "left": {
                "Default": {
                    "Default": {
                        "type": "string",
                        "value": "0dp"
                    }
                }
            },
            "top": {
                "Default": {
                    "Default": {
                        "type": "string",
                        "value": "-40dp"
                    }
                }
            }
        }
    },
    "id": "tablePaginationBillpay",
    "info": null,
    "isdatareferenced": false,
    "isvisible": true,
    "kuid": "d9422f5538cb488aa48ea21c88cc3aac",
    "layouttype": 2,
    "masterType": 0,
    "name": "kony.ui.UserWidgetInstance",
    "parent": "flxSegmentBillPay",
    "pf": "userwidgetmodel",
    "snaptogrid": true,
    "sourceUserWidget": "d0682091242b4be393889732aa217f2b",
    "wType": "UserWidgetInstance"
}