{
    "DNDConfig": null,
    "_height_": {
        "type": "ref",
        "value": "preferred"
    },
    "_left_": {
        "type": "string",
        "value": "0dp"
    },
    "_margin_": [
        0,
        0,
        0,
        0
    ],
    "_orientation_": 6,
    "_padding_": [
        0,
        0,
        0,
        0
    ],
    "_percent_": true,
    "_skin_": "s24c92fc23b14f5484b693ee9b8a9b35",
    "_top_": {
        "type": "string",
        "value": "23dp"
    },
    "_width_": {
        "type": "string",
        "value": "100%"
    },
    "allboxes": [],
    "autogrowmode": 1,
    "canUpdateUI": true,
    "children": [
        "flxKey4",
        "flxValue4"
    ],
    "clipbounds": true,
    "containerweight": 100,
    "enablescrolling": true,
    "id": "flxConfirmDetail4",
    "info": null,
    "isvisible": true,
    "kuid": "fce47dbfda6e48878ad2c021784bf993",
    "layouttype": 2,
    "name": "kony.ui.FlexContainer",
    "parent": "flxSection1",
    "pf": "userwidgetmodel",
    "responsiveData": {
        "b1": {
            "left": {
                "type": "string",
                "value": "2.10%"
            },
            "top": {
                "type": "string",
                "value": "23dp"
            }
        },
        "b2": {
            "top": {
                "type": "string",
                "value": "24dp"
            }
        },
        "b3": {
            "layoutType": 4,
            "top": {
                "type": "string",
                "value": "14dp"
            }
        },
        "b4": {
            "left": {
                "type": "string",
                "value": "2.10%"
            }
        }
    },
    "snapgridsize": 10,
    "snaptogrid": true,
    "wType": "FlexContainer",
    "widgetalignment": 1,
    "zindex": 1
}