{
    "@class": "com.kony.gen.viz.model.component.KVizLabel",
    "DNDConfig": null,
    "_height_": {
        "type": "ref",
        "value": "preferred"
    },
    "_left_": {
        "type": "string",
        "value": "0dp"
    },
    "_margin_": [
        1,
        1,
        1,
        1
    ],
    "_padding_": [
        0,
        0,
        0,
        0
    ],
    "_skin_": "sf767bf165d54d209e4a32fcb56e20a8",
    "_text_": "Pay a Person Details",
    "_top_": {
        "type": "number",
        "value": ""
    },
    "_width_": {
        "type": "ref",
        "value": "preferred"
    },
    "_wrapping_": 2,
    "accessibilityconfig": {
        "a11yLabel": "Recipient Details"
    },
    "android": {
        "textStyle": {
            "letterSpacing": 0,
            "strikeThrough": false
        }
    },
    "canUpdateUI": true,
    "centery": {
        "type": "string",
        "value": "50%"
    },
    "containerweight": 100,
    "contentalignment": 4,
    "id": "lblConfirmHeader",
    "info": null,
    "ipad": {
        "psp": {
            "wrapping": 2
        }
    },
    "iphone": {
        "psp": {
            "wrapping": 2
        }
    },
    "iscustomlayout": false,
    "isvisible": true,
    "kuid": "hf75f2c79b264289b42518675c56a3a6",
    "name": "kony.ui.Label",
    "parent": "flxDetailsHeader",
    "pf": "userwidgetmodel",
    "responsiveData": {
        "b1": {
            "text": "Payee Address Details:",
            "top": {
                "type": "string",
                "value": ""
            }
        },
        "b2": {
            "text": "Payee a Person Details"
        },
        "b4": {
            "text": "Payee Address Details:"
        }
    },
    "retaincontentalignment": false,
    "retainflexpositionproperties": false,
    "texti18n": "i18n.payaperson.RecipientDetails",
    "tooltip": "",
    "wType": "Label",
    "zindex": 1
}