{
    "@class": "com.kony.gen.viz.model.component.KVizLabel",
    "DNDConfig": null,
    "_height_": {
        "type": "ref",
        "value": "preferred"
    },
    "_left_": {
        "type": "string",
        "value": "0dp"
    },
    "_margin_": [
        1,
        1,
        1,
        1
    ],
    "_padding_": [
        0,
        0,
        0,
        0
    ],
    "_skin_": "sb75b207521b47ba8f721dca18b56352",
    "_text_": "Label",
    "_top_": {
        "type": "string",
        "value": "5dp"
    },
    "_width_": {
        "type": "string",
        "value": "101dp"
    },
    "_wrapping_": 2,
    "android": {
        "textStyle": {
            "letterSpacing": 0,
            "strikeThrough": false
        }
    },
    "canUpdateUI": true,
    "containerweight": 100,
    "contentalignment": 4,
    "id": "lblCharge3",
    "info": null,
    "ipad": {
        "psp": {
            "wrapping": 2
        }
    },
    "iphone": {
        "psp": {
            "wrapping": 2
        }
    },
    "iscustomlayout": false,
    "isvisible": true,
    "kuid": "dc324b0a3e65491d970d056967696682",
    "name": "kony.ui.Label",
    "parent": "flxValueField3",
    "pf": "userwidgetmodel",
    "responsiveData": {
        "b1": {
            "skin": "s10db73545ef45b0be32b68320536c87"
        },
        "b2": {
            "skin": "s10db73545ef45b0be32b68320536c87"
        },
        "b3": {
            "isVisible": true,
            "skin": "s752e72739484526a315dde521755028"
        },
        "b4": {
            "skin": "s10db73545ef45b0be32b68320536c87"
        }
    },
    "retaincontentalignment": false,
    "retainflexpositionproperties": false,
    "tooltip": "",
    "wType": "Label"
}