{
    "@class": "com.kony.gen.viz.model.component.KVizLabel",
    "DNDConfig": null,
    "_height_": {
        "type": "ref",
        "value": "preferred"
    },
    "_left_": {
        "type": "string",
        "value": "0"
    },
    "_margin_": [
        1,
        1,
        1,
        1
    ],
    "_padding_": [
        0,
        0,
        0,
        0
    ],
    "_skin_": "sb75b207521b47ba8f721dca18b56352",
    "_text_": "Label",
    "_top_": {
        "type": "string",
        "value": "0"
    },
    "_width_": {
        "type": "ref",
        "value": "preferred"
    },
    "_wrapping_": 2,
    "android": {
        "textStyle": {
            "letterSpacing": 0,
            "strikeThrough": false
        }
    },
    "canUpdateUI": true,
    "containerweight": 100,
    "contentalignment": 4,
    "id": "lblValue13",
    "info": null,
    "ipad": {
        "psp": {
            "wrapping": 2
        }
    },
    "iphone": {
        "psp": {
            "wrapping": 2
        }
    },
    "iscustomlayout": false,
    "isvisible": true,
    "kuid": "f6ca35a4a9bb48a797c2544e6e1b2676",
    "name": "kony.ui.Label",
    "parent": "flxValue13",
    "pf": "userwidgetmodel",
    "responsiveData": {
        "b1": {
            "skin": "s10db73545ef45b0be32b68320536c87",
            "width": {
                "type": "string",
                "value": "100%"
            }
        },
        "b2": {
            "skin": "s10db73545ef45b0be32b68320536c87",
            "width": {
                "type": "string",
                "value": "300dp"
            }
        },
        "b3": {
            "isVisible": false,
            "skin": "s752e72739484526a315dde521755028",
            "width": {
                "type": "string",
                "value": "300dp"
            }
        },
        "b4": {
            "skin": "s10db73545ef45b0be32b68320536c87",
            "width": {
                "type": "string",
                "value": "100%"
            }
        }
    },
    "retaincontentalignment": false,
    "retainflexpositionproperties": false,
    "tooltip": "",
    "wType": "Label"
}