{
    "@class": "com.kony.gen.viz.model.component.KVizLabel",
    "DNDConfig": null,
    "_height_": {
        "type": "string",
        "value": "30px"
    },
    "_left_": {
        "type": "string",
        "value": "3.77%"
    },
    "_margin_": [
        1,
        1,
        1,
        1
    ],
    "_padding_": [
        0,
        0,
        0,
        0
    ],
    "_skin_": "sdb59c8c8e8a436883049536416d32ba",
    "_text_": "Biller Name:",
    "_top_": {
        "type": "string",
        "value": "10px"
    },
    "_width_": {
        "type": "string",
        "value": "17%"
    },
    "_wrapping_": 2,
    "accessibilityconfig": {
        "a11yLabel": "Biller Name:"
    },
    "android": {
        "textStyle": {
            "letterSpacing": 0,
            "strikeThrough": false
        }
    },
    "canUpdateUI": true,
    "containerweight": 100,
    "contentalignment": 4,
    "id": "lblBillerNameKey",
    "info": null,
    "ipad": {
        "psp": {
            "wrapping": 2
        }
    },
    "iphone": {
        "psp": {
            "wrapping": 2
        }
    },
    "isvisible": true,
    "kuid": "eabde996c3f04c85b2edd9cf5998e4ce",
    "name": "kony.ui.Label",
    "parent": "flxMiddle",
    "pf": "frmBillPaymentDue",
    "responsiveData": {
        "b1": {
            "width": {
                "type": "string",
                "value": "20%"
            }
        },
        "b2": {
            "width": {
                "type": "string",
                "value": "20%"
            }
        },
        "b3": {
            "height": {
                "type": "string",
                "value": "20px"
            },
            "width": {
                "type": "string",
                "value": "80%"
            }
        }
    },
    "texti18n": "i18n.BillPay.BillerName",
    "tooltip": "",
    "wType": "Label",
    "zindex": 1
}