{
    "@class": "com.kony.gen.viz.model.component.KVizButton",
    "DNDConfig": null,
    "__parentReadjusting__": false,
    "_height_": {
        "type": "string",
        "value": "40dp"
    },
    "_left_": {
        "type": "number",
        "value": ""
    },
    "_margin_": [
        6,
        6,
        6,
        6
    ],
    "_padding_": [
        0,
        0,
        0,
        0
    ],
    "_right_": {
        "type": "string",
        "value": ""
    },
    "_skin_": "s86e1e2a30ab429ab3ae2b2854352c40",
    "_text_": "Add Recipient",
    "_top_": {
        "type": "number",
        "value": ""
    },
    "_width_": {
        "type": "string",
        "value": "18%"
    },
    "accessibilityconfig": {
        "a11yLabel": "Add Recipient"
    },
    "canUpdateUI": true,
    "centery": {
        "type": "string",
        "value": "50%"
    },
    "containerweight": 100,
    "contentalignment": 5,
    "disabledSkins": {
        "focusSkin": "sf44d06ca8224832827ea7fdff757013"
    },
    "displaytext": true,
    "id": "btnAddRecipient",
    "info": null,
    "isvisible": true,
    "kuid": "a61c79c14cce4a708fa22e75706e1736",
    "name": "kony.ui.Button",
    "parent": "flxNoTransactions",
    "pf": "frmFastManagePayee",
    "responsiveData": {
        "b1": {
            "centerY": {
                "type": "string",
                "value": ""
            },
            "left": {
                "type": "string",
                "value": "12.60%"
            },
            "top": {
                "type": "string",
                "value": "120dp"
            },
            "width": {
                "type": "ref",
                "value": "preferred"
            }
        },
        "b2": {
            "centerY": {
                "type": "string",
                "value": ""
            },
            "contentAlignment": 4,
            "left": {
                "type": "string",
                "value": "12.60%"
            },
            "top": {
                "type": "string",
                "value": "120dp"
            },
            "width": {
                "type": "string",
                "value": "96%"
            }
        },
        "b3": {
            "centerY": {
                "type": "string",
                "value": ""
            },
            "contentAlignment": 4,
            "left": {
                "type": "string",
                "value": "12.60%"
            },
            "top": {
                "type": "string",
                "value": "120dp"
            },
            "width": {
                "type": "string",
                "value": "200dp"
            }
        },
        "b4": {
            "centerY": {
                "type": "string",
                "value": ""
            },
            "left": {
                "type": "string",
                "value": "12.60%"
            },
            "top": {
                "type": "string",
                "value": "120dp"
            }
        }
    },
    "tooltip": "Assign Category",
    "wType": "Button",
    "zindex": 1
}