{
    "@class": "com.kony.gen.viz.model.component.KVizButton",
    "DNDConfig": null,
    "__parentReadjusting__": false,
    "_height_": {
        "type": "string",
        "value": "50dp"
    },
    "_margin_": [
        6,
        6,
        6,
        6
    ],
    "_padding_": [
        0,
        0,
        0,
        0
    ],
    "_right_": {
        "type": "string",
        "value": "5%"
    },
    "_skin_": "sea1525e3fa24829a889b1fd650f3f24",
    "_text_": "Continue",
    "_top_": {
        "type": "string",
        "value": "662px"
    },
    "_width_": {
        "type": "string",
        "value": "20%"
    },
    "accessibilityconfig": {
        "a11yLabel": "PAY AMOUNT"
    },
    "canUpdateUI": true,
    "centery": {
        "type": "string",
        "value": "50%"
    },
    "containerweight": 100,
    "contentalignment": 5,
    "desktopweb": {
        "blockedUISkin": "s6296ebeb163492d973121eb1c4b9727",
        "psp": {
            "hoverSkin": "s81054b5e2b74f17a5261991df565427"
        }
    },
    "disabledSkins": {},
    "displaytext": true,
    "focusskin": "s5a4f67acd3e47b9be6d6910a7a6686f",
    "id": "btnConfirm",
    "info": null,
    "isvisible": true,
    "kuid": "j9de5420f2644294ad97b2b12a3fbf51",
    "name": "kony.ui.Button",
    "parent": "FlexGroup0ca9a6ea55a1e46",
    "pf": "userwidgetmodel",
    "tooltip": "Pay Amount",
    "wType": "Button",
    "zindex": 2
}