{
    "DNDConfig": null,
    "__parentReadjusting__": false,
    "_height_": {
        "type": "string",
        "value": "800dp"
    },
    "_left_": {
        "type": "string",
        "value": "0dp"
    },
    "_margin_": [
        0,
        0,
        0,
        0
    ],
    "_orientation_": 6,
    "_padding_": [
        0,
        0,
        0,
        0
    ],
    "_percent_": true,
    "_skin_": "scbd4cac3526468089bf3013adff0549",
    "_top_": {
        "type": "string",
        "value": "0dp"
    },
    "_width_": {
        "type": "string",
        "value": "100%"
    },
    "allboxes": [],
    "autogrowmode": 0,
    "canUpdateUI": true,
    "children": [
        "flxSeparator2",
        "lblFrom",
        "lbxsavingsAccount",
        "lbxMaturityInstructions",
        "lbxCreditAccountNumber",
        "tbxActualLoanEndDate",
        "lblLoanEndDate",
        "lblDuration",
        "lblInterestRate",
        "tbxLoanPayOffAmount",
        "lblLoanPayOffAmount",
        "lblTo",
        "tbxOptional",
        "lblPayOn",
        "lblIntrestAmt",
        "lblEMIAmount",
        "lblCreditAccountNumber",
        "lblTotalRepayment",
        "lblTotalRepaymenyAmt",
        "lblNote",
        "imgMaturityInfo",
        "flxa",
        "flxCheckbox",
        "lblAgree",
        "imgInfo",
        "AllForms",
        "flxPleaseNoteTheFollowingPoints",
        "FlexGroup0ca9a6ea55a1e46"
    ],
    "clipbounds": true,
    "containerweight": 100,
    "enablescrolling": true,
    "id": "flxContent",
    "info": null,
    "isvisible": true,
    "kuid": "ec1fefa8977a44129422a83101a0d8a8",
    "layouttype": 2,
    "name": "kony.ui.FlexContainer",
    "parent": "ShortTermDeposit",
    "pf": "userwidgetmodel",
    "snapgridsize": 10,
    "snaptogrid": true,
    "wType": "FlexContainer",
    "widgetalignment": 1,
    "zindex": 1
}