{
    "@class": "com.kony.gen.viz.model.component.KVizImage2",
    "DNDConfig": null,
    "__parentReadjusting__": false,
    "_base64_": null,
    "_height_": {
        "type": "string",
        "value": "20dp"
    },
    "_left_": {
        "type": "string",
        "value": "15px"
    },
    "_margin_": [
        0,
        0,
        0,
        0
    ],
    "_padding_": [
        0,
        0,
        0,
        0
    ],
    "_skin_": "s78a5f26c9f14cec9ebed1bb46098f80",
    "_src_": "info.png",
    "_top_": {
        "type": "string",
        "value": "0dp"
    },
    "_width_": {
        "type": "string",
        "value": "20dp"
    },
    "accessibilityconfig": {
        "a11yLabel": "Info",
        "a11yValue": ""
    },
    "canUpdateUI": true,
    "containerweight": 100,
    "context": {
        "channel": "desktop",
        "formID": "uwe1179eb8766044ac867035715ad6e8f4",
        "platform": "desktopweb",
        "templateType": "userwidgets",
        "topLevelBox": null
    },
    "id": "imgInfoTC",
    "imagescalemode": 1,
    "imagewhiledownloading": "img_transparent.png",
    "info": null,
    "invokedProperty": "src",
    "isvisible": true,
    "kuid": "hb42dc5edddb4652b7cef9d6b8ab2c70",
    "name": "kony.ui.Image2",
    "parent": "flxFollowingPoints",
    "pf": "userwidgetmodel",
    "srcType": 1,
    "tooltip": "",
    "wType": "Image",
    "widgetalignment": 5,
    "zindex": 1
}