{
	 "@class": "com.kony.gen.viz.model.component.KVizLabel",
	 "DNDConfig": null,
	 "__parentReadjusting__": false,
	 "_height_": {
		 "type": "ref",
		 "value": "preferred"
	},
	 "_left_": {
		 "type": "string",
		 "value": "0dp"
	},
	 "_margin_": [
		 0,
		 0,
		 0,
		 0
	],
	 "_padding_": [
		 0,
		 0,
		 0,
		 0
	],
	 "_skin_": "s0026354d2504769abe144f678e6cc95",
	 "_text_": "a",
	 "_width_": {
		 "type": "string",
		 "value": "30dp"
	},
	 "_wrapping_": 2,
	 "accessibilityconfig": {
		 "a11yLabel": "a",
		 "a11yHidden": true,
		 "a11yARIA": {
			 "tabindex": -1
		}
	},
	 "android": {
		 "textStyle": {
			 "letterSpacing": 0,
			 "strikeThrough": false
		}
	},
	 "canUpdateUI": true,
	 "centery": {
		 "type": "string",
		 "value": "50%"
	},
	 "containerweight": 100,
	 "contentalignment": 4,
	 "id": "imgAccountsHeader",
	 "info": null,
	 "ipad": {
		 "psp": {
			 "wrapping": 2
		}
	},
	 "iphone": {
		 "psp": {
			 "wrapping": 2
		}
	},
	 "isvisible": false,
	 "kuid": "e31df4e8cc3b4c528d334dd782ed8af1",
	 "name": "kony.ui.Label",
	 "parent": "flxAccountsHeaderWrapper",
	 "pf": "userwidgetmodel",
	 "tooltip": "",
	 "wType": "Label",
	 "zindex": 1
}