{
    "@class": "com.kony.gen.viz.model.component.KVizButton",
    "DNDConfig": null,
    "__parentReadjusting__": false,
    "_height_": {
        "type": "ref",
        "value": "preferred"
    },
    "_margin_": [
        6,
        6,
        6,
        6
    ],
    "_padding_": [
        0,
        0,
        0,
        0
    ],
    "_right_": {
        "type": "string",
        "value": "75dp"
    },
    "_skin_": "s611bd2c5d324490aa9f7ed9d412984f",
    "_text_": "Can't Sign In?",
    "_top_": {
        "type": "string",
        "value": "406dp"
    },
    "_width_": {
        "type": "ref",
        "value": "preferred"
    },
    "canUpdateUI": true,
    "containerweight": 100,
    "contentalignment": 5,
    "desktopweb": {
        "psp": {
            "hoverSkin": "s611bd2c5d324490aa9f7ed9d4129848"
        }
    },
    "disabledSkins": {
        "focusSkin": "sf44d06ca8224832827ea7fdff757013"
    },
    "displaytext": true,
    "hoverskin": "",
    "id": "btnCantSignIn",
    "info": null,
    "iscustomlayout": false,
    "isvisible": true,
    "kuid": "gdacb541109147bfba688896cfd13212",
    "name": "kony.ui.Button",
    "parent": "flxLoginContainer",
    "pf": "frmLoginNew",
    "responsiveData": {
        "b1": {},
        "b3": {
            "desktopweb": {
                "psp": {}
            },
            "disabledSkins": {
                "focusSkin": "sf44d06ca8224832827ea7fdff757013"
            },
            "right": {
                "type": "string",
                "value": "20dp"
            },
            "text": "Can't Sign In?",
            "top": {
                "type": "string",
                "value": "321dp"
            }
        },
        "b4": {}
    },
    "retaincontentalignment": false,
    "retainflexpositionproperties": false,
    "wType": "Button",
    "zindex": 6
}