{
    "@class": "com.kony.gen.viz.model.component.KVizLabel",
    "DNDConfig": null,
    "__parentReadjusting__": false,
    "_height_": {
        "type": "ref",
        "value": "preferred"
    },
    "_left_": {
        "type": "string",
        "value": "75dp"
    },
    "_margin_": [
        1,
        1,
        1,
        1
    ],
    "_padding_": [
        0,
        0,
        0,
        0
    ],
    "_right_": {
        "type": "number",
        "value": ""
    },
    "_skin_": "sd9fada740124e4a99edc1f0a05ec2d0",
    "_text_": "Username",
    "_top_": {
        "type": "string",
        "value": "230dp"
    },
    "_width_": {
        "type": "ref",
        "value": "preferred"
    },
    "_wrapping_": 2,
    "android": {
        "textStyle": {
            "letterSpacing": 0,
            "strikeThrough": false
        }
    },
    "canUpdateUI": true,
    "containerweight": 100,
    "contentalignment": 4,
    "id": "lblUsername",
    "info": null,
    "ipad": {
        "psp": {
            "wrapping": 2
        }
    },
    "iphone": {
        "psp": {
            "wrapping": 2
        }
    },
    "iscustomlayout": false,
    "isvisible": true,
    "kuid": "i87f608884f94af6ae2afb452fd687e3",
    "name": "kony.ui.Label",
    "parent": "flxLoginContainer",
    "pf": "frmLoginNew",
    "responsiveData": {
        "b1": {
            "right": {
                "type": "string",
                "value": "75dp"
            }
        },
        "b2": {
            "top": {
                "type": "string",
                "value": "230dp"
            }
        },
        "b3": {
            "left": {
                "type": "string",
                "value": "20dp"
            },
            "top": {
                "type": "string",
                "value": "145dp"
            }
        },
        "b4": {
            "right": {
                "type": "string",
                "value": "75dp"
            }
        }
    },
    "retaincontentalignment": false,
    "retainflexpositionproperties": false,
    "tooltip": "",
    "wType": "Label",
    "zindex": 6
}