{
    "DNDConfig": null,
    "__parentReadjusting__": false,
    "_height_": {
        "type": "string",
        "value": "527px"
    },
    "_left_": "0dp",
    "_margin_": [
        0,
        0,
        0,
        0
    ],
    "_orientation_": 6,
    "_padding_": [
        0,
        0,
        0,
        0
    ],
    "_percent_": true,
    "_skin_": "sff6488acd8d4406bedd05ad9ff0f07b",
    "_top_": "0dp",
    "_width_": {
        "type": "string",
        "value": "100%"
    },
    "allboxes": [],
    "autogrowmode": 0,
    "canUpdateUI": true,
    "children": [
        "flxHeader",
        "flxSeparator",
        "flxSeparator2",
        "lblFrom",
        "lblTo",
        "tbxAmount",
        "tbxOptional",
        "radioBtn",
        "lblDueAmount",
        "lblDueDate",
        "lblSend",
        "lblNote",
        "btnCancel",
        "btnConfirm",
        "listbxFrom",
        "listbxTo",
        "flxCalender",
        "flxInfoDueDate",
        "flxInfoDueAmount"
    ],
    "clipbounds": true,
    "containerweight": 100,
    "enablescrolling": true,
    "id": "PayDueAmount",
    "info": null,
    "isvisible": true,
    "kuid": "gf5f591d55dd478da370c54c43d70d25",
    "layouttype": 2,
    "name": "kony.ui.FlexContainer",
    "parent": "userwidgetmodel",
    "pf": "userwidgetmodel",
    "snapgridsize": 10,
    "snaptogrid": true,
    "vizProps": {
        "hidewidgethierarchy": false
    },
    "wType": "FlexContainer",
    "widgetalignment": 1
}