{
    "background_color": "00000000",
    "bg_type": "one",
    "border_color": "545454ff",
    "border_radius": 100,
    "border_style": "custom",
    "border_type": 0,
    "border_width": 2,
    "isDefaultSkin": false,
    "kuid": "se14d3b26d864902a24c3be869d83e7f",
    "wType": "FlexContainer"
}