{
    "background_color": "d3d3d3ff",
    "bg_type": "one",
    "border_color": "000000ff",
    "border_style": "plain",
    "border_type": 0,
    "border_width": 0,
    "isDefaultSkin": false,
    "kuid": "sf915352c750403586b3f9ef177ac5fe",
    "wType": "FlexContainer"
}