{
    "android": {
        "font_size": 125,
        "isForked": false
    },
    "androidwearos": {
        "font_size": 125,
        "isForked": false
    },
    "background_color": "ffffffff",
    "bg_type": "one",
    "border_color": "e3e3e3ff",
    "border_radius": 3,
    "border_style": "custom",
    "border_type": 0,
    "border_width": 1,
    "desktopweb": {
        "font_name": "Lato-Regular",
        "font_size": 125,
        "isForked": false
    },
    "fontSizeInPx": false,
    "font_color": "8f99acff",
    "font_name": "Helvetica",
    "font_size": 125,
    "font_style": "normal",
    "font_weight": "normal",
    "ipad": {
        "font_size": 125,
        "isForked": false
    },
    "iphone": {
        "font_size": 125,
        "isForked": false
    },
    "isDefaultSkin": false,
    "kiosk": {
        "font_size": 125,
        "isForked": false
    },
    "kuid": "s96d71542456413f99836a2e2a109812",
    "spaan": {
        "font_size": 125,
        "isForked": false
    },
    "spaandroidtablet": {
        "font_size": 125,
        "isForked": false
    },
    "spaip": {
        "font_size": 125,
        "isForked": false
    },
    "spaipad": {
        "font_size": 125,
        "isForked": false
    },
    "spawindowstablet": {
        "font_size": 125,
        "isForked": false
    },
    "spawinphone8": {
        "font_size": 125,
        "isForked": false
    },
    "tabrcandroid": {
        "font_size": 125,
        "isForked": false
    },
    "wType": "TextArea",
    "watchos": {
        "font_size": 125,
        "isForked": false
    },
    "windows8": {
        "font_size": 125,
        "isForked": false
    },
    "winphone8": {
        "font_size": 125,
        "isForked": false
    }
}