{
    "background_color": "e3e3e3ff",
    "bg_type": "one",
    "border_color": "000000ff",
    "border_style": "plain",
    "border_type": 0,
    "border_width": 0,
    "isDefaultSkin": false,
    "kuid": "s7c05c8dd27d4414b4367a6847f69f39",
    "wType": "FlexContainer"
}