{
    "android": {
        "font_size": 31,
        "isForked": false
    },
    "androidwearos": {
        "font_size": 39,
        "isForked": false
    },
    "background_color": "00000000",
    "bg_type": "one",
    "border_color": "424242ff",
    "border_style": "plain",
    "border_type": 0,
    "border_width": 0,
    "desktopweb": {
        "font_name": "OLB_font_icons",
        "font_size": 92,
        "isForked": false
    },
    "fontSizeInPx": true,
    "font_color": "003e75ff",
    "font_name": "Helvetica",
    "font_size": 38,
    "font_style": "normal",
    "font_weight": "normal",
    "ipad": {
        "font_size": 39,
        "isForked": false
    },
    "iphone": {
        "font_size": 38,
        "isForked": false
    },
    "isDefaultSkin": false,
    "kiosk": {
        "font_size": 69,
        "isForked": false
    },
    "kuid": "s408507536ca426183c32b0b66b7386c",
    "spaan": {
        "font_size": 31,
        "isForked": false
    },
    "spaandroidtablet": {
        "font_size": 31,
        "isForked": false
    },
    "spaip": {
        "font_size": 24,
        "isForked": false
    },
    "spaipad": {
        "font_size": 31,
        "isForked": false
    },
    "spawindowstablet": {
        "font_size": 31,
        "isForked": false
    },
    "spawinphone8": {
        "font_size": 31,
        "isForked": false
    },
    "tabrcandroid": {
        "font_size": 65,
        "isForked": false
    },
    "wType": "Label",
    "watchos": {
        "font_size": 39,
        "isForked": false
    },
    "windows8": {
        "font_size": 27,
        "isForked": false
    },
    "winphone8": {
        "font_size": 37,
        "isForked": false
    }
}