{
    "background_color": "e3e3e3ff",
    "bg_type": "one",
    "border_color": "000000ff",
    "border_style": "plain",
    "border_type": 0,
    "border_width": 0,
    "isDefaultSkin": false,
    "kuid": "s001c0dbd719421aa73b7d3bff8ec80f",
    "wType": "FlexContainer"
}