{
  "background_color": "f8f7f8ff",
  "bg_type": "one",
  "border_color": "000000ff",
  "border_style": "plain",
  "border_type": 0,
  "border_width": 0,
  "isDefaultSkin": false,
  "kuid": "sb06836e0c6845d68fe7f3a18a0ffb37",
  "wType": "FlexContainer"
}