{
    "background_gradient_bottom_color": "ffffff00",
    "background_gradient_top_color": "00000080",
    "background_style": "vg",
    "bg_type": "two",
    "border_color": "000000ff",
    "border_style": "plain",
    "border_type": 0,
    "border_width": 0,
    "isDefaultSkin": false,
    "kuid": "scaed5e0253b45e1860fbaa2ae87b5b6",
    "wType": "FlexContainer"
}