{
  "android": {
    "background_color": "f8f7f8ff",
    "bg_type": "one",
    "font_color": "727272ff",
    "font_size": 42,
    "isForked": true
  },
  "androidwearos": {
    "font_size": 54,
    "isForked": true
  },
  "background_color": "00000000",
  "bg_type": "one",
  "border_color": "424242ff",
  "border_style": "plain",
  "border_type": 0,
  "border_width": 0,
  "desktopweb": {
    "background_color": "f8f7f8ff",
    "bg_type": "one",
    "border_type": 0,
    "bottom_left_border_color": "e3e3e3ff",
    "bottom_left_border_radius": "3",
    "bottom_left_border_style": "rc",
    "bottom_left_border_width": "1",
    "bottom_right_border_color": "e3e3e3ff",
    "bottom_right_border_style": "plain",
    "bottom_right_border_width": "1",
    "font_color": "727272ff",
    "font_name": "SourceSansPro-Regular",
    "font_size": 125,
    "isForked": true,
    "top_left_border_color": "e3e3e3ff",
    "top_left_border_radius": "3",
    "top_left_border_style": "rc",
    "top_left_border_width": "1"
  },
  "fontSizeInPx": true,
  "font_color": "424242ff",
  "font_name": "Helvetica",
  "font_size": 125,
  "font_style": "normal",
  "font_weight": "normal",
  "ipad": {
    "background_color": "f8f7f8ff",
    "bg_type": "one",
    "font_color": "727272ff",
    "font_size": 54,
    "isForked": true
  },
  "iphone": {
    "background_color": "f8f7f8ff",
    "bg_type": "one",
    "font_color": "727272ff",
    "font_size": 52,
    "isForked": true
  },
  "isDefaultSkin": false,
  "kiosk": {
    "background_color": "f8f7f8ff",
    "bg_type": "one",
    "font_color": "727272ff",
    "font_size": 94,
    "isForked": true
  },
  "kuid": "se96bca77147471e9a0aacf5de029855",
  "spaan": {
    "background_color": "f8f7f8ff",
    "bg_type": "one",
    "border_type": 0,
    "bottom_left_border_color": "e3e3e3ff",
    "bottom_left_border_radius": "3",
    "bottom_left_border_style": "rc",
    "bottom_left_border_width": "1",
    "bottom_right_border_color": "e3e3e3ff",
    "bottom_right_border_style": "plain",
    "bottom_right_border_width": "1",
    "font_color": "727272ff",
    "font_name": "SourceSansPro-Regular",
    "font_size": 100,
    "isForked": true,
    "top_left_border_color": "e3e3e3ff",
    "top_left_border_radius": "3",
    "top_left_border_style": "rc",
    "top_left_border_width": "1"
  },
  "spaandroidtablet": {
    "background_color": "f8f7f8ff",
    "bg_type": "one",
    "border_type": 0,
    "bottom_left_border_color": "e3e3e3ff",
    "bottom_left_border_radius": "3",
    "bottom_left_border_style": "rc",
    "bottom_left_border_width": "1",
    "bottom_right_border_color": "e3e3e3ff",
    "bottom_right_border_style": "plain",
    "bottom_right_border_width": "1",
    "font_color": "727272ff",
    "font_name": "SourceSansPro-Regular",
    "font_size": 83,
    "isForked": true,
    "top_left_border_color": "e3e3e3ff",
    "top_left_border_radius": "3",
    "top_left_border_style": "rc",
    "top_left_border_width": "1"
  },
  "spaip": {
    "background_color": "f8f7f8ff",
    "bg_type": "one",
    "border_type": 0,
    "bottom_left_border_color": "e3e3e3ff",
    "bottom_left_border_radius": "3",
    "bottom_left_border_style": "rc",
    "bottom_left_border_width": "1",
    "bottom_right_border_color": "e3e3e3ff",
    "bottom_right_border_style": "plain",
    "bottom_right_border_width": "1",
    "font_color": "727272ff",
    "font_name": "SourceSansPro-Regular",
    "font_size": 97,
    "isForked": true,
    "top_left_border_color": "e3e3e3ff",
    "top_left_border_radius": "3",
    "top_left_border_style": "rc",
    "top_left_border_width": "1"
  },
  "spaipad": {
    "background_color": "f8f7f8ff",
    "bg_type": "one",
    "border_type": 0,
    "bottom_left_border_color": "e3e3e3ff",
    "bottom_left_border_radius": "3",
    "bottom_left_border_style": "rc",
    "bottom_left_border_width": "1",
    "bottom_right_border_color": "e3e3e3ff",
    "bottom_right_border_style": "plain",
    "bottom_right_border_width": "1",
    "font_color": "727272ff",
    "font_name": "SourceSansPro-Regular",
    "font_size": 88,
    "isForked": true,
    "top_left_border_color": "e3e3e3ff",
    "top_left_border_radius": "3",
    "top_left_border_style": "rc",
    "top_left_border_width": "1"
  },
  "spawindowstablet": {
    "background_color": "f8f7f8ff",
    "bg_type": "one",
    "border_type": 0,
    "bottom_left_border_color": "e3e3e3ff",
    "bottom_left_border_radius": "3",
    "bottom_left_border_style": "rc",
    "bottom_left_border_width": "1",
    "bottom_right_border_color": "e3e3e3ff",
    "bottom_right_border_style": "plain",
    "bottom_right_border_width": "1",
    "font_color": "727272ff",
    "font_size": 88,
    "isForked": true,
    "top_left_border_color": "e3e3e3ff",
    "top_left_border_radius": "3",
    "top_left_border_style": "rc",
    "top_left_border_width": "1"
  },
  "spawinphone8": {
    "background_color": "f8f7f8ff",
    "bg_type": "one",
    "border_type": 0,
    "bottom_left_border_color": "e3e3e3ff",
    "bottom_left_border_radius": "3",
    "bottom_left_border_style": "rc",
    "bottom_left_border_width": "1",
    "bottom_right_border_color": "e3e3e3ff",
    "bottom_right_border_style": "plain",
    "bottom_right_border_width": "1",
    "font_color": "727272ff",
    "font_size": 125,
    "isForked": true,
    "top_left_border_color": "e3e3e3ff",
    "top_left_border_radius": "3",
    "top_left_border_style": "rc",
    "top_left_border_width": "1"
  },
  "tabrcandroid": {
    "background_color": "f8f7f8ff",
    "bg_type": "one",
    "font_color": "727272ff",
    "font_size": 89,
    "isForked": true
  },
  "wType": "Label",
  "watchos": {
    "font_color": "727272ff",
    "font_size": 54,
    "isForked": true
  },
  "windows8": {
    "background_color": "f8f7f8ff",
    "bg_type": "one",
    "font_color": "727272ff",
    "font_size": 37,
    "isForked": true
  },
  "winphone8": {
    "background_color": "f8f7f8ff",
    "bg_type": "one",
    "font_color": "727272ff",
    "font_size": 50,
    "isForked": true
  }
}