{
  "background_color": "ffffffff",
  "bg_type": "one",
  "border_color": "e3e3e3ff",
  "border_style": "plain",
  "border_type": 0,
  "border_width": 0,
  "isDefaultSkin": false,
  "kuid": "s576844bc0e148a9a02e6171eac301za",
  "wType": "FlexContainer"
}