{
  "background_color": "ffffffff",
  "bg_type": "one",
  "border_color": "ffffffff",
  "border_radius": 2,
  "border_style": "custom",
  "border_type": 0,
  "border_width": 1,
  "isDefaultSkin": false,
  "kuid": "s968a3103a86391f690dfe60c4f020e1",
  "wType": "FlexContainer"
}