{
  "background_color": "003e75ff",
  "bg_type": "one",
  "border_color": "000000ff",
  "border_style": "plain",
  "border_type": 0,
  "border_width": 0,
  "isDefaultSkin": false,
  "kuid": "sbec3520397048baafd441175a4aed0f",
  "wType": "FlexContainer"
}