{
  "android": {
    "background_color": "0475c4ff",
    "bg_type": "one",
    "isForked": true
  },
  "androidwearos": {
    "background_color": "0475c4ff",
    "bg_type": "one",
    "isForked": true
  },
  "background_color": "ffffffff",
  "bg_type": "one",
  "border_color": "ffffffff",
  "border_radius": 15,
  "border_style": "custom",
  "border_type": 0,
  "border_width": 1,
  "desktopweb": {
    "background_color": "0475c4ff",
    "bg_type": "one",
    "border_type": 0,
    "bottom_left_border_color": "ffffff26",
    "bottom_left_border_radius": 10,
    "bottom_left_border_style": "rc",
    "bottom_left_border_width": "1",
    "bottom_right_border_color": "ffffff26",
    "bottom_right_border_radius": 10,
    "bottom_right_border_style": "rc",
    "bottom_right_border_width": "1",
    "isForked": true,
    "shadow": {
      "br": 5,
      "color": "1e87f033",
      "inner": false,
      "nm": 0,
      "x": 0,
      "y": 2
    },
    "top_left_border_color": "ffffff26",
    "top_left_border_radius": 10,
    "top_left_border_style": "rc",
    "top_left_border_width": "1",
    "top_right_border_color": "ffffff26",
    "top_right_border_radius": 10,
    "top_right_border_style": "rc",
    "top_right_border_width": "1"
  },
  "ipad": {
    "background_color": "0475c4ff",
    "bg_type": "one",
    "isForked": true,
    "shadow": {
      "br": 5,
      "color": "1e87f033",
      "inner": false,
      "nm": 0,
      "x": 0,
      "y": 2
    }
  },
  "iphone": {
    "background_color": "0475c4ff",
    "bg_type": "one",
    "isForked": true,
    "shadow": {
      "br": 5,
      "color": "1e87f033",
      "inner": false,
      "nm": 0,
      "x": 0,
      "y": 2
    }
  },
  "isDefaultSkin": false,
  "kiosk": {
    "background_color": "0475c4ff",
    "bg_type": "one",
    "isForked": true
  },
  "kuid": "sb5b020cd51f4cd8982acc7d6f65637f",
  "spaan": {
    "background_color": "0475c4ff",
    "bg_type": "one",
    "border_type": 0,
    "bottom_left_border_color": "ffffff26",
    "bottom_left_border_radius": 10,
    "bottom_left_border_style": "rc",
    "bottom_left_border_width": "1",
    "bottom_right_border_color": "ffffff26",
    "bottom_right_border_radius": 10,
    "bottom_right_border_style": "rc",
    "bottom_right_border_width": "1",
    "isForked": true,
    "shadow": {
      "br": 5,
      "color": "1e87f033",
      "inner": false,
      "nm": 0,
      "x": 0,
      "y": 2
    },
    "top_left_border_color": "ffffff26",
    "top_left_border_radius": 10,
    "top_left_border_style": "rc",
    "top_left_border_width": "1",
    "top_right_border_color": "ffffff26",
    "top_right_border_radius": 10,
    "top_right_border_style": "rc",
    "top_right_border_width": "1"
  },
  "spaandroidtablet": {
    "background_color": "0475c4ff",
    "bg_type": "one",
    "border_type": 0,
    "bottom_left_border_color": "ffffff26",
    "bottom_left_border_radius": 10,
    "bottom_left_border_style": "rc",
    "bottom_left_border_width": "1",
    "bottom_right_border_color": "ffffff26",
    "bottom_right_border_radius": 10,
    "bottom_right_border_style": "rc",
    "bottom_right_border_width": "1",
    "isForked": true,
    "shadow": {
      "br": 5,
      "color": "1e87f033",
      "inner": false,
      "nm": 0,
      "x": 0,
      "y": 2
    },
    "top_left_border_color": "ffffff26",
    "top_left_border_radius": 10,
    "top_left_border_style": "rc",
    "top_left_border_width": "1",
    "top_right_border_color": "ffffff26",
    "top_right_border_radius": 10,
    "top_right_border_style": "rc",
    "top_right_border_width": "1"
  },
  "spaip": {
    "background_color": "0475c4ff",
    "bg_type": "one",
    "border_type": 0,
    "bottom_left_border_color": "ffffff26",
    "bottom_left_border_radius": 10,
    "bottom_left_border_style": "rc",
    "bottom_left_border_width": "1",
    "bottom_right_border_color": "ffffff26",
    "bottom_right_border_radius": 10,
    "bottom_right_border_style": "rc",
    "bottom_right_border_width": "1",
    "isForked": true,
    "shadow": {
      "br": 5,
      "color": "1e87f033",
      "inner": false,
      "nm": 0,
      "x": 0,
      "y": 2
    },
    "top_left_border_color": "ffffff26",
    "top_left_border_radius": 10,
    "top_left_border_style": "rc",
    "top_left_border_width": "1",
    "top_right_border_color": "ffffff26",
    "top_right_border_radius": 10,
    "top_right_border_style": "rc",
    "top_right_border_width": "1"
  },
  "spaipad": {
    "background_color": "0475c4ff",
    "bg_type": "one",
    "border_type": 0,
    "bottom_left_border_color": "ffffff26",
    "bottom_left_border_radius": 10,
    "bottom_left_border_style": "rc",
    "bottom_left_border_width": "1",
    "bottom_right_border_color": "ffffff26",
    "bottom_right_border_radius": 10,
    "bottom_right_border_style": "rc",
    "bottom_right_border_width": "1",
    "isForked": true,
    "shadow": {
      "br": 5,
      "color": "1e87f033",
      "inner": false,
      "nm": 0,
      "x": 0,
      "y": 2
    },
    "top_left_border_color": "ffffff26",
    "top_left_border_radius": 10,
    "top_left_border_style": "rc",
    "top_left_border_width": "1",
    "top_right_border_color": "ffffff26",
    "top_right_border_radius": 10,
    "top_right_border_style": "rc",
    "top_right_border_width": "1"
  },
  "spawindowstablet": {
    "background_color": "0475c4ff",
    "bg_type": "one",
    "border_type": 0,
    "bottom_left_border_color": "ffffff26",
    "bottom_left_border_radius": 10,
    "bottom_left_border_style": "rc",
    "bottom_left_border_width": "1",
    "bottom_right_border_color": "ffffff26",
    "bottom_right_border_radius": 10,
    "bottom_right_border_style": "rc",
    "bottom_right_border_width": "1",
    "isForked": true,
    "shadow": {
      "br": 5,
      "color": "1e87f033",
      "inner": false,
      "nm": 0,
      "x": 0,
      "y": 2
    },
    "top_left_border_color": "ffffff26",
    "top_left_border_radius": 10,
    "top_left_border_style": "rc",
    "top_left_border_width": "1",
    "top_right_border_color": "ffffff26",
    "top_right_border_radius": 10,
    "top_right_border_style": "rc",
    "top_right_border_width": "1"
  },
  "spawinphone8": {
    "background_color": "0475c4ff",
    "bg_type": "one",
    "border_type": 0,
    "bottom_left_border_color": "ffffff26",
    "bottom_left_border_radius": 10,
    "bottom_left_border_style": "rc",
    "bottom_left_border_width": "1",
    "bottom_right_border_color": "ffffff26",
    "bottom_right_border_radius": 10,
    "bottom_right_border_style": "rc",
    "bottom_right_border_width": "1",
    "isForked": true,
    "shadow": {
      "br": 5,
      "color": "1e87f033",
      "inner": false,
      "nm": 0,
      "x": 0,
      "y": 2
    },
    "top_left_border_color": "ffffff26",
    "top_left_border_radius": 10,
    "top_left_border_style": "rc",
    "top_left_border_width": "1",
    "top_right_border_color": "ffffff26",
    "top_right_border_radius": 10,
    "top_right_border_style": "rc",
    "top_right_border_width": "1"
  },
  "tabrcandroid": {
    "background_color": "0475c4ff",
    "bg_type": "one",
    "isForked": true
  },
  "wType": "FlexContainer",
  "windows8": {
    "background_color": "0475c4ff",
    "bg_type": "one",
    "isForked": true
  },
  "winphone8": {
    "background_color": "0475c4ff",
    "bg_type": "one",
    "isForked": true
  }
}