{
  "background_color": "e3e3e3ff",
  "bg_type": "one",
  "border_color": "000000ff",
  "border_style": "plain",
  "border_type": 0,
  "border_width": 0,
  "isDefaultSkin": false,
  "kuid": "s701c003c4e848c3a7f35139db3e3ffe",
  "wType": "FlexContainer"
}