{
  "background_color": "f8f7f87f",
  "bg_type": "one",
  "border_color": "e3e3e3ff",
  "border_style": "plain",
  "border_type": 0,
  "border_width": 1,
  "isDefaultSkin": false,
  "kuid": "s8f4aaf5b41345b0a19cd3d1ca7f8e52",
  "wType": "FlexContainer"
}