{
  "background_color": "f8f7f8ff",
  "bg_type": "one",
  "border_color": "a0a0a0ff",
  "border_radius": 3,
  "border_style": "custom",
  "border_type": 0,
  "border_width": 1,
  "isDefaultSkin": false,
  "kuid": "s665414702344e54afff84fee0572f61",
  "wType": "FlexContainer"
}