{
    "background_color": "f8f7f8ff",
    "bg_type": "one",
    "border_color": "e3e3e3ff",
    "border_style": "plain",
    "border_type": 0,
    "border_width": 1,
    "desktopweb": {
        "bottom_left_border_color": "e3e3e3ff",
        "bottom_left_border_style": "plain",
        "bottom_left_border_width": "0",
        "bottom_right_border_color": "e3e3e3ff",
        "bottom_right_border_style": "plain",
        "bottom_right_border_width": "1",
        "isForked": true,
        "top_left_border_color": "e3e3e3ff",
        "top_left_border_style": "plain",
        "top_left_border_width": "1",
        "top_right_border_color": "e3e3e3ff",
        "top_right_border_style": "plain",
        "top_right_border_width": "0"
    },
    "isDefaultSkin": false,
    "kuid": "s8d5ac5213b745c3af398f14cd976a14",
    "spaan": {
        "bottom_left_border_color": "e3e3e3ff",
        "bottom_left_border_style": "plain",
        "bottom_left_border_width": "0",
        "bottom_right_border_color": "e3e3e3ff",
        "bottom_right_border_style": "plain",
        "bottom_right_border_width": "1",
        "isForked": true,
        "top_left_border_color": "e3e3e3ff",
        "top_left_border_style": "plain",
        "top_left_border_width": "1",
        "top_right_border_color": "e3e3e3ff",
        "top_right_border_style": "plain",
        "top_right_border_width": "0"
    },
    "spaandroidtablet": {
        "bottom_left_border_color": "e3e3e3ff",
        "bottom_left_border_style": "plain",
        "bottom_left_border_width": "0",
        "bottom_right_border_color": "e3e3e3ff",
        "bottom_right_border_style": "plain",
        "bottom_right_border_width": "1",
        "isForked": true,
        "top_left_border_color": "e3e3e3ff",
        "top_left_border_style": "plain",
        "top_left_border_width": "1",
        "top_right_border_color": "e3e3e3ff",
        "top_right_border_style": "plain",
        "top_right_border_width": "0"
    },
    "spaip": {
        "bottom_left_border_color": "e3e3e3ff",
        "bottom_left_border_style": "plain",
        "bottom_left_border_width": "0",
        "bottom_right_border_color": "e3e3e3ff",
        "bottom_right_border_style": "plain",
        "bottom_right_border_width": "1",
        "isForked": true,
        "top_left_border_color": "e3e3e3ff",
        "top_left_border_style": "plain",
        "top_left_border_width": "1",
        "top_right_border_color": "e3e3e3ff",
        "top_right_border_style": "plain",
        "top_right_border_width": "0"
    },
    "spaipad": {
        "bottom_left_border_color": "e3e3e3ff",
        "bottom_left_border_style": "plain",
        "bottom_left_border_width": "0",
        "bottom_right_border_color": "e3e3e3ff",
        "bottom_right_border_style": "plain",
        "bottom_right_border_width": "1",
        "isForked": true,
        "top_left_border_color": "e3e3e3ff",
        "top_left_border_style": "plain",
        "top_left_border_width": "1",
        "top_right_border_color": "e3e3e3ff",
        "top_right_border_style": "plain",
        "top_right_border_width": "0"
    },
    "spawindowstablet": {
        "bottom_left_border_color": "e3e3e3ff",
        "bottom_left_border_style": "plain",
        "bottom_left_border_width": "0",
        "bottom_right_border_color": "e3e3e3ff",
        "bottom_right_border_style": "plain",
        "bottom_right_border_width": "1",
        "isForked": true,
        "top_left_border_color": "e3e3e3ff",
        "top_left_border_style": "plain",
        "top_left_border_width": "1",
        "top_right_border_color": "e3e3e3ff",
        "top_right_border_style": "plain",
        "top_right_border_width": "0"
    },
    "spawinphone8": {
        "bottom_left_border_color": "e3e3e3ff",
        "bottom_left_border_style": "plain",
        "bottom_left_border_width": "0",
        "bottom_right_border_color": "e3e3e3ff",
        "bottom_right_border_style": "plain",
        "bottom_right_border_width": "1",
        "isForked": true,
        "top_left_border_color": "e3e3e3ff",
        "top_left_border_style": "plain",
        "top_left_border_width": "1",
        "top_right_border_color": "e3e3e3ff",
        "top_right_border_style": "plain",
        "top_right_border_width": "0"
    },
    "wType": "FlexContainer"
}