{
  "background_gradient_bottom_color": "1e588bff",
  "background_gradient_top_color": "003e75ff",
  "background_style": "vg",
  "bg_type": "two",
  "border_color": "ffffffff",
  "isDefaultSkin": false,
  "kuid": "sf9684697add4e62829475852513a8c5",
  "wType": "Form"
}