{
    "background_color": "f8f7f8ff",
    "bg_type": "one",
    "border_color": "000000ff",
    "border_style": "plain",
    "border_type": 0,
    "border_width": 0,
    "isDefaultSkin": false,
    "kuid": "s66fb7d58eef43e0ab3b0be736602233",
    "wType": "FlexContainer"
}