{
    "DNDConfig": null,
    "_height_": {
        "type": "ref",
        "value": "preferred"
    },
    "_left_": {
        "type": "string",
        "value": "83dp"
    },
    "_margin_": [
        0,
        0,
        0,
        0
    ],
    "_orientation_": 6,
    "_padding_": [
        0,
        0,
        0,
        0
    ],
    "_percent_": true,
    "_skin_": "sd40e39c97044f8a9521a854b14fe59c",
    "_top_": {
        "type": "string",
        "value": "0dp"
    },
    "_width_": {
        "type": "string",
        "value": "590px"
    },
    "allboxes": [],
    "autogrowmode": 1,
    "canUpdateUI": true,
    "children": [
        "flxSection1Header",
        "flxAckDetails"
    ],
    "clipbounds": false,
    "containerweight": 100,
    "enablescrolling": true,
    "id": "flxAckSection1",
    "info": null,
    "iscustomlayout": false,
    "isvisible": true,
    "kuid": "c765ca9d1647458ca7b2ff1b4146e181",
    "layouttype": 4,
    "maxheight": {
        "type": "number",
        "value": ""
    },
    "minheight": {
        "type": "string",
        "value": "360dp"
    },
    "name": "kony.ui.FlexContainer",
    "parent": "flxMiddleContent",
    "pf": "userwidgetmodel",
    "responsiveData": {
        "b1": {
            "isVisible": true,
            "layoutType": 2,
            "left": {
                "type": "string",
                "value": "6%"
            },
            "minHeight": {
                "type": "string",
                "value": "406dp"
            },
            "skin": "sdc143f0e5b64ae3a3f155f691c73fa7",
            "width": {
                "type": "string",
                "value": "43.27%"
            }
        },
        "b2": {
            "left": {
                "type": "string",
                "value": "2.50%"
            },
            "minHeight": {
                "type": "string",
                "value": "300dp"
            },
            "skin": "sdc143f0e5b64ae3a3f155f691c73fa7",
            "width": {
                "type": "string",
                "value": "95%"
            }
        },
        "b3": {
            "height": {
                "type": "ref",
                "value": "preferred"
            },
            "isVisible": true,
            "left": {
                "type": "string",
                "value": "2%"
            },
            "maxHeight": {
                "type": "number",
                "value": "272"
            },
            "minHeight": {
                "type": "string",
                "value": "272dp"
            },
            "skin": "sdc143f0e5b64ae3a3f155f691c73fa7",
            "width": {
                "type": "string",
                "value": "96%"
            }
        },
        "b4": {
            "height": {
                "type": "ref",
                "value": "preferred"
            },
            "layoutType": 2,
            "minHeight": {
                "type": "string",
                "value": "406dp"
            },
            "skin": "sdc143f0e5b64ae3a3f155f691c73fa7"
        }
    },
    "retaincontentalignment": false,
    "retainflexpositionproperties": false,
    "retainflowhorizontalalignment": false,
    "snapgridsize": 10,
    "snaptogrid": true,
    "wType": "FlexContainer",
    "widgetalignment": 1,
    "zindex": 1
}