{
    "@class": "com.kony.gen.viz.model.component.KVizLabel",
    "DNDConfig": null,
    "_height_": {
        "type": "ref",
        "value": "preferred"
    },
    "_margin_": [
        1,
        1,
        1,
        1
    ],
    "_padding_": [
        2,
        0,
        2,
        2
    ],
    "_skin_": "s53e8b72f1544949b2e21590dc1247d3",
    "_text_": "You have successfully activated Pay a Person",
    "_top_": {
        "type": "string",
        "value": "30px"
    },
    "_width_": {
        "type": "string",
        "value": "85%"
    },
    "_wrapping_": 2,
    "accessibilityconfig": {
        "a11yLabel": "You have successfully activated Pay a Person"
    },
    "android": {
        "textStyle": {
            "letterSpacing": 0,
            "strikeThrough": false
        }
    },
    "canUpdateUI": true,
    "centerx": {
        "type": "string",
        "value": "50%"
    },
    "containerweight": 100,
    "contentalignment": 5,
    "id": "lblAckMessage",
    "info": null,
    "ipad": {
        "psp": {
            "wrapping": 2
        }
    },
    "iphone": {
        "psp": {
            "wrapping": 2
        }
    },
    "isvisible": true,
    "kuid": "b1590f99891f4dfb98fb3f98c18efbfe",
    "name": "kony.ui.Label",
    "paddinginpixel": false,
    "parent": "flxAckDetails",
    "pf": "userwidgetmodel",
    "responsiveData": {
        "b1": {
            "skin": "safc1dd7e1204d97b47f68d964ddc425",
            "top": {
                "type": "string",
                "value": "0dp"
            }
        },
        "b2": {
            "skin": "sf600e9d1b0a4928b6a54a207b8ee374",
            "text": "Your transaction has been completed successfully",
            "top": {
                "type": "string",
                "value": "20dp"
            }
        },
        "b3": {
            "skin": "sbbcc930804241bba46670d2f074041b",
            "text": "Your trasaction has been completed successfully",
            "top": {
                "type": "string",
                "value": "15px"
            }
        },
        "b4": {
            "skin": "safc1dd7e1204d97b47f68d964ddc425",
            "text": "Your transaction is completed successfully",
            "top": {
                "type": "string",
                "value": "0dp"
            }
        }
    },
    "texti18n": "i18n.Transfers.YouhavesuccessfullyactivatedPayaPerson",
    "tooltip": "",
    "wType": "Label",
    "zindex": 1
}