{
    "@class": "com.kony.gen.viz.model.component.KVizLabel",
    "DNDConfig": null,
    "_height_": {
        "type": "ref",
        "value": "preferred"
    },
    "_left_": {
        "type": "string",
        "value": "245px"
    },
    "_margin_": [
        1,
        1,
        1,
        1
    ],
    "_padding_": [
        0,
        0,
        0,
        0
    ],
    "_skin_": "se9e175e2c104279ab9845d922bfbdf8",
    "_text_": "Label",
    "_top_": {
        "type": "number",
        "value": "0"
    },
    "_width_": {
        "type": "ref",
        "value": "preferred"
    },
    "_wrapping_": 2,
    "android": {
        "textStyle": {
            "letterSpacing": 0,
            "strikeThrough": false
        }
    },
    "canUpdateUI": true,
    "containerweight": 100,
    "contentalignment": 4,
    "id": "lblValue2",
    "info": null,
    "ipad": {
        "psp": {
            "wrapping": 2
        }
    },
    "iphone": {
        "psp": {
            "wrapping": 2
        }
    },
    "iscustomlayout": false,
    "isvisible": true,
    "kuid": "aee431b395164a9998999f5c834653b1",
    "name": "kony.ui.Label",
    "parent": "flxField2",
    "pf": "userwidgetmodel",
    "responsiveData": {
        "b1": {
            "left": {
                "type": "string",
                "value": "285dp"
            },
            "skin": "s1200140df264f74b5467e6eccd27a7f",
            "width": {
                "type": "string",
                "value": "200dp"
            }
        },
        "b2": {
            "left": {
                "type": "string",
                "value": "303dp"
            },
            "skin": "s1200140df264f74b5467e6eccd27a7f"
        },
        "b3": {
            "left": {
                "type": "string",
                "value": "0px"
            },
            "skin": "s73b9325cb3c4de58e08db60f8240102",
            "text": "Label",
            "top": {
                "type": "string",
                "value": "3dp"
            }
        },
        "b4": {
            "left": {
                "type": "string",
                "value": "285dp"
            },
            "skin": "s1200140df264f74b5467e6eccd27a7f",
            "width": {
                "type": "string",
                "value": "200dp"
            }
        }
    },
    "retaincontentalignment": false,
    "retainflexpositionproperties": false,
    "tooltip": "",
    "wType": "Label"
}