{
    "@class": "com.kony.gen.viz.model.component.KVizImage2",
    "DNDConfig": null,
    "_base64_": null,
    "_height_": {
        "type": "string",
        "value": "15dp"
    },
    "_left_": {
        "type": "string",
        "value": "0dp"
    },
    "_margin_": [
        0,
        0,
        0,
        0
    ],
    "_padding_": [
        0,
        0,
        0,
        0
    ],
    "_skin_": "s78a5f26c9f14cec9ebed1bb46098f80",
    "_src_": "back_icon_blue.png",
    "_width_": {
        "type": "string",
        "value": "15dp"
    },
    "canUpdateUI": true,
    "centery": {
        "type": "string",
        "value": "50%"
    },
    "containerweight": 100,
    "id": "imgBack",
    "imagescalemode": 1,
    "info": null,
    "invokedProperty": "src",
    "iscustomlayout": false,
    "isvisible": true,
    "kuid": "j7351dec16224a1f836652e1a73d45fe",
    "name": "kony.ui.Image2",
    "parent": "flxBack",
    "pf": "frmInstrumentDetails",
    "responsiveData": {
        "b1": {
            "skin": "sc388ff78cdc447eb2f5118851bb48db"
        },
        "b2": {
            "skin": "sc388ff78cdc447eb2f5118851bb48db"
        },
        "b4": {
            "skin": "sc388ff78cdc447eb2f5118851bb48db"
        }
    },
    "retaincontentalignment": false,
    "retainflexpositionproperties": false,
    "srcType": 1,
    "wType": "Image",
    "widgetalignment": 5,
    "zindex": 1
}