{
    "@class": "com.kony.gen.viz.model.component.KVizUserWidget",
    "DNDConfig": null,
    "_children_": [],
    "_height_": {
        "type": "ref",
        "value": "preferred"
    },
    "_left_": {
        "type": "string",
        "value": "0dp"
    },
    "_margin_": [
        0,
        0,
        0,
        0
    ],
    "_orientation_": 1,
    "_padding_": [
        0,
        0,
        0,
        0
    ],
    "_percent_": true,
    "_skin_": "s24c92fc23b14f5484b693ee9b8a9b35",
    "_top_": {
        "type": "string",
        "value": "0dp"
    },
    "_width_": {
        "type": "string",
        "value": "100%"
    },
    "canUpdateUI": true,
    "containerweight": 0,
    "data": {
        "headerLabel": "Stock News",
        "objName": "StockNews",
        "operation": "getStockNews",
        "skinHeading": "bbSKnFlxffffff"
    },
    "id": "marketNewsCardComp",
    "info": null,
    "iscustomlayout": false,
    "isvisible": false,
    "kuid": "acd6639fdcb646d0b491f330dc019738",
    "masterType": 1,
    "name": "kony.ui.UserWidgetInstance",
    "parent": "flxStocks",
    "pf": "frmInstrumentDetails",
    "responsiveData": {
        "b1": {
            "isVisible": true
        },
        "b2": {
            "isVisible": false
        },
        "b4": {
            "isVisible": true
        }
    },
    "retaincontentalignment": false,
    "retainflexpositionproperties": false,
    "retainflowhorizontalalignment": false,
    "sourceUserWidget": "g1dc41484a9f4c418e3c632793051675",
    "wType": "UserWidgetInstance"
}