{
    "@class": "com.kony.gen.viz.model.component.KVizRichText",
    "DNDConfig": null,
    "_height_": {
        "type": "ref",
        "value": "preferred"
    },
    "_left_": {
        "type": "string",
        "value": "20dp"
    },
    "_margin_": [
        0,
        0,
        0,
        0
    ],
    "_padding_": [
        0,
        0,
        0,
        0
    ],
    "_skin_": "sf9eda51ff18423180d6643f182ca4b3",
    "_text_": "Data not available",
    "_top_": {
        "type": "string",
        "value": "0"
    },
    "_width_": {
        "type": "string",
        "value": "80%"
    },
    "_wrapping_": 2,
    "canUpdateUI": true,
    "centery": {
        "type": "string",
        "value": "50%"
    },
    "containerweight": 100,
    "contentalignment": 4,
    "id": "txtErrorInfo",
    "info": null,
    "iscustomlayout": false,
    "isvisible": true,
    "kuid": "je069066bd9045cfb4d8d07046be57b8",
    "linkskin": "s68be632cc934210829c785f1cfb09f0",
    "name": "kony.ui.RichText",
    "parent": "flxErrorInfo",
    "pf": "frmInstrumentDetails",
    "retaincontentalignment": false,
    "retainflexpositionproperties": false,
    "texti18n": "i18n.common.unavailable",
    "wType": "RichText",
    "widgetalignment": 5
}