{
    "BusinessControllerConfig": {
        "BusinessControllerClass": "NAOModule/BusinessControllers/BusinessController",
        "CommandHandler": []
    },
    "Forms": {
        "desktop": {
            "frmNAO": {
                "Controller": "NAOModule/frmNAOController",
                "ControllerExtensions": [],
                "FormController": "kony.mvc.MDAFormController",
                "FormName": "NAOModule/frmNAO",
                "friendlyName": "frmNAO"
            }
        }
    },
    "ModuleName": "NAOModule",
    "PresentationControllerConfig": {
        "Default": {
            "PresentationControllerClass": "NAOModule/PresentationControllers/PresentationController",
            "PresentationExtensions": []
        }
    }
}