{
    "DNDConfig": null,
    "__parentReadjusting__": false,
    "_height_": {
        "type": "string",
        "value": "320dp"
    },
    "_left_": {
        "type": "string",
        "value": "0dp"
    },
    "_margin_": [
        0,
        0,
        0,
        0
    ],
    "_orientation_": 6,
    "_padding_": [
        0,
        0,
        0,
        0
    ],
    "_percent_": true,
    "_right_": {
        "type": "number",
        "value": ""
    },
    "_skin_": "sdc143f0e5b64ae3a3f155f691c73fa7",
    "_top_": {
        "type": "string",
        "value": "300dp"
    },
    "_width_": {
        "type": "string",
        "value": "44.30%"
    },
    "allboxes": [],
    "canUpdateUI": true,
    "centerx": {
        "type": "string",
        "value": "50%"
    },
    "children": [
        "flxHeading",
        "flxSeperator6",
        "lblPopupMessage",
        "lblPopupMsg2",
        "flxCheckBox",
        "lblPopupMsg3",
        "flxSeperator7",
        "btnYes",
        "btnNo",
        "flxCross"
    ],
    "clipbounds": true,
    "containerweight": 100,
    "enablescrolling": true,
    "id": "flxConfirmDefaultAccountPopUp",
    "info": null,
    "iscustomlayout": false,
    "isvisible": true,
    "kuid": "b03efdc6c947460faaf6e3437464033a",
    "layouttype": 2,
    "minheight": {
        "type": "number",
        "value": ""
    },
    "name": "kony.ui.FlexContainer",
    "parent": "flxConfirmDefaultAccount",
    "pf": "frmMakeOneTimePayment",
    "responsiveData": {
        "b1": {
            "height": {
                "type": "string",
                "value": "315dp"
            },
            "width": {
                "type": "string",
                "value": "44.30%"
            }
        },
        "b2": {
            "height": {
                "type": "string",
                "value": "315dp"
            },
            "width": {
                "type": "string",
                "value": "75%"
            }
        },
        "b3": {
            "height": {
                "type": "ref",
                "value": "preferred"
            },
            "left": {
                "type": "string",
                "value": "10dp"
            },
            "minHeight": {
                "type": "string",
                "value": "310dp"
            },
            "right": {
                "type": "string",
                "value": "10dp"
            },
            "width": {
                "type": "string",
                "value": ""
            }
        },
        "b4": {
            "height": {
                "type": "string",
                "value": "315dp"
            },
            "left": {
                "type": "string",
                "value": ""
            },
            "width": {
                "type": "string",
                "value": "640dp"
            }
        }
    },
    "retaincontentalignment": false,
    "retainflexpositionproperties": false,
    "retainflowhorizontalalignment": false,
    "snapgridsize": 10,
    "snaptogrid": true,
    "wType": "FlexContainer",
    "widgetalignment": 1,
    "zindex": 1
}