{
    "DNDConfig": null,
    "__parentReadjusting__": false,
    "_height_": {
        "type": "string",
        "value": "40dp"
    },
    "_left_": {
        "type": "string",
        "value": "51%"
    },
    "_margin_": [
        0,
        0,
        0,
        0
    ],
    "_orientation_": 6,
    "_padding_": [
        0,
        0,
        0,
        0
    ],
    "_percent_": true,
    "_right_": {
        "type": "number",
        "value": ""
    },
    "_skin_": "sbe52107bd884a69a67a8daccf8721da",
    "_top_": {
        "type": "string",
        "value": "37%"
    },
    "_width_": {
        "type": "string",
        "value": "45.30%"
    },
    "allboxes": [],
    "canUpdateUI": true,
    "children": [
        "lblDollar",
        "txtPaymentAmount"
    ],
    "clipbounds": true,
    "containerweight": 100,
    "enablescrolling": true,
    "id": "flxPaymentAmount",
    "info": null,
    "iscustomlayout": false,
    "isvisible": true,
    "kuid": "jaf264e7e719476fb305eb2a17c86b51",
    "layouttype": 2,
    "name": "kony.ui.FlexContainer",
    "parent": "flxDetails",
    "pf": "frmMakeOneTimePayment",
    "responsiveData": {
        "b2": {
            "right": {
                "type": "string",
                "value": "0%"
            },
            "top": {
                "type": "string",
                "value": "39%"
            }
        },
        "b3": {
            "left": {
                "type": "string",
                "value": "3%"
            },
            "top": {
                "type": "string",
                "value": "230dp"
            },
            "width": {
                "type": "string",
                "value": "94%"
            }
        }
    },
    "retaincontentalignment": false,
    "retainflexpositionproperties": false,
    "retainflowhorizontalalignment": false,
    "snapgridsize": 10,
    "snaptogrid": true,
    "wType": "FlexContainer",
    "widgetalignment": 1,
    "zindex": 1
}