{
    "@class": "com.kony.gen.viz.model.component.KVizImage2",
    "DNDConfig": null,
    "__parentReadjusting__": false,
    "_base64_": null,
    "_height_": {
        "type": "string",
        "value": "15dp"
    },
    "_left_": {
        "type": "string",
        "value": "82%"
    },
    "_margin_": [
        0,
        0,
        0,
        0
    ],
    "_padding_": [
        0,
        0,
        0,
        0
    ],
    "_skin_": "s8ee487de5774c1eb668e74bf92f5cdd",
    "_src_": "sorting.png",
    "_width_": {
        "type": "string",
        "value": "12dp"
    },
    "accessibilityconfig": {
        "a11yLabel": "Sort",
        "a11yValue": ""
    },
    "canUpdateUI": true,
    "centery": {
        "type": "string",
        "value": "45%"
    },
    "containerweight": 100,
    "id": "imgSort",
    "imagescalemode": 1,
    "imagewhiledownloading": "img_transparent.png",
    "info": null,
    "invokedProperty": "src",
    "isvisible": false,
    "kuid": "f071daaea20242cc8ab6c0042d6eb63f",
    "name": "kony.ui.Image2",
    "parent": "flxChequeNumber",
    "pf": "userwidgetmodel",
    "srcType": 1,
    "tooltip": "Sort By Date ",
    "wType": "Image",
    "widgetalignment": 5,
    "zindex": 1
}