{
    "DNDConfig": null,
    "_height_": {
        "type": "string",
        "value": "30dp"
    },
    "_margin_": [
        0,
        0,
        0,
        0
    ],
    "_orientation_": 6,
    "_padding_": [
        0,
        0,
        0,
        0
    ],
    "_percent_": true,
    "_skin_": "sbec287145be4bcb9fac69eba9337c48",
    "allboxes": [],
    "autogrowmode": 0,
    "canUpdateUI": true,
    "children": [
        "lblRadioButton",
        "lblUsers"
    ],
    "clipbounds": true,
    "containerId": true,
    "containerweight": 100,
    "controllerInfo": {
        "default": {
            "channel": "desktop",
            "name": "flxSelectAccountListController"
        }
    },
    "desktopweb": {
        "psp": {
            "hoverSkin": "sbec287145be4bcb9fac69eba9337c48"
        }
    },
    "disabledSkins": {},
    "enablescrolling": true,
    "focusskin": "s824f3ac025e47cfaf75ba9696b5ae0f",
    "id": "flxSelectAccountList",
    "info": null,
    "isTemplate": true,
    "isvisible": true,
    "kuid": "db5d52b95d1741d2863fb2f5a30c1af7",
    "layouttype": 2,
    "name": "kony.ui.FlexContainer",
    "parent": "segSelectAccountList",
    "pf": "segSelectAccountList",
    "snapgridsize": 10,
    "snaptogrid": true,
    "wType": "FlexContainer",
    "widgetalignment": 1
}