{
    "@class": "com.kony.gen.viz.model.component.KVizLabel",
    "DNDConfig": null,
    "__parentReadjusting__": false,
    "_height_": {
        "type": "string",
        "value": "80%"
    },
    "_left_": {
        "type": "string",
        "value": "48dp"
    },
    "_margin_": [
        1,
        1,
        1,
        1
    ],
    "_padding_": [
        5,
        0,
        5,
        0
    ],
    "_right_": {
        "type": "string",
        "value": "25dp"
    },
    "_skin_": "s7b901f0589e4cbd914447ed46411bf5",
    "_text_": "Label",
    "_wrapping_": 2,
    "accessibilityconfig": {
        "a11yLabel": "Label"
    },
    "android": {
        "textStyle": {
            "letterSpacing": 0,
            "strikeThrough": false
        }
    },
    "canUpdateUI": true,
    "centery": {
        "type": "string",
        "value": "50%"
    },
    "containerId": true,
    "containerweight": 100,
    "contentalignment": 4,
    "desktopweb": {
        "padding": [
            5,
            0,
            5,
            0
        ],
        "paddingInPixel": true,
        "psp": {}
    },
    "disabledSkins": {
        "hoverSkin": "s7b901f0589e4cbd914447ed46411bf5"
    },
    "id": "lblUsers",
    "info": null,
    "ipad": {
        "psp": {
            "wrapping": 2
        }
    },
    "iphone": {
        "psp": {
            "wrapping": 2
        }
    },
    "isvisible": true,
    "kuid": "f9472cff76e34826a2d80cbb14984a21",
    "name": "kony.ui.Label",
    "paddinginpixel": false,
    "parent": "flxSelectAccountList",
    "pf": "segSelectAccountList",
    "tooltip": "Label",
    "wType": "Label",
    "zindex": 1
}