{
    "@class": "com.kony.gen.viz.model.component.KVizButton",
    "DNDConfig": null,
    "_bottom_": 30,
    "_height_": {
        "type": "string",
        "value": "50dp"
    },
    "_left_": {
        "type": "string",
        "value": "35%"
    },
    "_margin_": [
        6,
        6,
        6,
        6
    ],
    "_padding_": [
        0,
        0,
        0,
        0
    ],
    "_skin_": "s83729feaa224e359d660d5af05c4bac",
    "_text_": "NO",
    "_width_": {
        "type": "string",
        "value": "29.74%"
    },
    "accessibilityconfig": {
        "a11yLabel": "Cancel"
    },
    "canUpdateUI": true,
    "centery": {
        "type": "string",
        "value": "50%"
    },
    "containerweight": 100,
    "contentalignment": 5,
    "disabledSkins": {
        "focusSkin": "sf44d06ca8224832827ea7fdff757013"
    },
    "displaytext": true,
    "id": "btnCancel",
    "ide_onClick": "AS_Button_j11414a39cff46a1a18e242e3d9058a7",
    "info": null,
    "isvisible": true,
    "kuid": "edef8a9fafd84ced8de35ad8cdec341b",
    "name": "kony.ui.Button",
    "parent": "flxContentsButtons",
    "pf": "frmProfileManagement",
    "responsiveData": {
        "b1": {
            "skin": "s53f35797e894740848702af91fb98cb"
        },
        "b2": {
            "skin": "s53f35797e894740848702af91fb98cb"
        },
        "b3": {
            "skin": "s53f35797e894740848702af91fb98cb"
        }
    },
    "texti18n": "i18n.transfers.Cancel",
    "tooltip": "Cancel",
    "wType": "Button",
    "zindex": 1
}