{
    "@class": "com.kony.gen.viz.model.component.KVizButton",
    "DNDConfig": null,
    "_bottom_": {
        "type": "number",
        "value": "30"
    },
    "_height_": {
        "type": "string",
        "value": "40dp"
    },
    "_left_": {
        "type": "string",
        "value": "51.58%"
    },
    "_margin_": [
        6,
        6,
        6,
        6
    ],
    "_padding_": [
        0,
        0,
        0,
        0
    ],
    "_right_": {
        "type": "string",
        "value": "20dp"
    },
    "_skin_": "sdc7361203bc408faf7a175e392acef4",
    "_text_": "",
    "_width_": {
        "type": "string",
        "value": "150dp"
    },
    "accessibilityconfig": {
        "a11yLabel": "Yes"
    },
    "canUpdateUI": true,
    "centery": {
        "type": "string",
        "value": "50%"
    },
    "containerweight": 100,
    "contentalignment": 5,
    "desktopweb": {
        "psp": {
            "hoverSkin": "s81054b5e2b74f17a5261991df565427"
        }
    },
    "disabledSkins": {
        "focusSkin": "sf44d06ca8224832827ea7fdff757013"
    },
    "displaytext": true,
    "id": "btnDeleteYes",
    "info": null,
    "isvisible": true,
    "kuid": "fa09482b8d5b41b28f4ef2c44e2bc241",
    "name": "kony.ui.Button",
    "parent": "flxDeleteButtons",
    "pf": "frmProfileManagement",
    "responsiveData": {
        "b1": {
            "left": {
                "type": "string",
                "value": ""
            },
            "skin": "sdc7361203bc408faf7a175e392acef4"
        },
        "b2": {
            "left": {
                "type": "string",
                "value": ""
            },
            "skin": "sdc7361203bc408faf7a175e392acef4"
        },
        "b3": {
            "left": {
                "type": "string",
                "value": ""
            },
            "skin": "sdc7361203bc408faf7a175e392acef4"
        }
    },
    "texti18n": "i18n.common.yes",
    "tooltip": "Yes",
    "wType": "Button",
    "zindex": 1
}