{
    "@class": "com.kony.gen.viz.model.component.KVizButton",
    "DNDConfig": null,
    "_bottom_": {
        "type": "number",
        "value": "30"
    },
    "_height_": {
        "type": "string",
        "value": "40dp"
    },
    "_margin_": [
        6,
        6,
        6,
        6
    ],
    "_padding_": [
        0,
        0,
        0,
        0
    ],
    "_right_": {
        "type": "string",
        "value": "20dp"
    },
    "_skin_": "sdc7361203bc408faf7a175e392acef4",
    "_text_": "Yes",
    "_width_": {
        "type": "string",
        "value": "28.44%"
    },
    "accessibilityconfig": {
        "a11yLabel": "Yes"
    },
    "canUpdateUI": true,
    "containerweight": 100,
    "contentalignment": 5,
    "desktopweb": {
        "psp": {
            "hoverSkin": "s81054b5e2b74f17a5261991df565427"
        }
    },
    "disabledSkins": {
        "focusSkin": "sf44d06ca8224832827ea7fdff757013"
    },
    "displaytext": true,
    "id": "btnDeletePopupYes",
    "info": null,
    "isvisible": true,
    "kuid": "c116e89cbc2e4a979fb8f62d74af3848",
    "name": "kony.ui.Button",
    "parent": "flxProfileDeleteButtons",
    "pf": "frmProfileManagement",
    "responsiveData": {
        "b1": {
            "bottom": {
                "type": "number",
                "value": "20"
            },
            "skin": "sdc7361203bc408faf7a175e392acef4",
            "width": {
                "type": "string",
                "value": "150dp"
            }
        },
        "b2": {
            "bottom": {
                "type": "number",
                "value": "20"
            },
            "skin": "sdc7361203bc408faf7a175e392acef4",
            "width": {
                "type": "string",
                "value": "150dp"
            }
        },
        "b3": {
            "bottom": {
                "type": "number",
                "value": "20"
            },
            "skin": "sdc7361203bc408faf7a175e392acef4",
            "width": {
                "type": "string",
                "value": "150dp"
            }
        }
    },
    "texti18n": "i18n.common.yes",
    "tooltip": "Yes",
    "wType": "Button",
    "zindex": 1
}