{
    "@class": "com.kony.gen.viz.model.component.KVizUserWidget",
    "DNDConfig": null,
    "_bottom_": {
        "type": "number",
        "value": ""
    },
    "_children_": [],
    "_height_": {
        "type": "ref",
        "value": "preferred"
    },
    "_left_": {
        "type": "string",
        "value": "0dp"
    },
    "_margin_": [
        0,
        0,
        0,
        0
    ],
    "_orientation_": 1,
    "_padding_": [
        0,
        0,
        0,
        0
    ],
    "_percent_": true,
    "_right_": {
        "type": "number",
        "value": ""
    },
    "_skin_": "s24c92fc23b14f5484b693ee9b8a9b35",
    "_top_": {
        "type": "string",
        "value": "0dp"
    },
    "_width_": {
        "type": "string",
        "value": "100%"
    },
    "canUpdateUI": true,
    "containerweight": 0,
    "data": {
        "ide_updateFormUI": "AS_UWI_a7bacb08b8f94236a94ad6784b65c188"
    },
    "id": "deviceRegistration",
    "info": null,
    "iscustomlayout": false,
    "isvisible": true,
    "kuid": "e24719ece24e45eebf3b2fdb15014773",
    "masterType": 1,
    "name": "kony.ui.UserWidgetInstance",
    "parent": "flxSettingsWrapper",
    "pf": "frmProfileManagement",
    "responsiveData": {
        "b1": {
            "height": {
                "type": "string",
                "value": "700dp"
            },
            "isVisible": false,
            "left": {
                "type": "string",
                "value": "36%"
            },
            "top": {
                "type": "string",
                "value": "60dp"
            },
            "width": {
                "type": "string",
                "value": "61%"
            }
        },
        "b2": {
            "height": {
                "type": "string",
                "value": "700dp"
            },
            "isVisible": false,
            "left": {
                "type": "string",
                "value": "36%"
            },
            "top": {
                "type": "string",
                "value": "60dp"
            },
            "width": {
                "type": "string",
                "value": "61%"
            }
        },
        "b3": {
            "bottom": {
                "type": "string",
                "value": ""
            },
            "height": {
                "type": "string",
                "value": "700dp"
            },
            "isVisible": false,
            "left": {
                "type": "string",
                "value": "36%"
            },
            "right": {
                "type": "string",
                "value": ""
            },
            "top": {
                "type": "string",
                "value": "60dp"
            },
            "width": {
                "type": "string",
                "value": "61%"
            }
        },
        "b4": {
            "height": {
                "type": "string",
                "value": "500dp"
            },
            "isVisible": false,
            "left": {
                "type": "string",
                "value": "36%"
            },
            "top": {
                "type": "string",
                "value": "60dp"
            },
            "width": {
                "type": "string",
                "value": "61%"
            }
        }
    },
    "retaincontentalignment": false,
    "retainflexpositionproperties": false,
    "retainflowhorizontalalignment": false,
    "sourceUserWidget": "bde05753f6dc444fb6a888efb938c0fa",
    "wType": "UserWidgetInstance",
    "zindex": 1
}