{
    "@class": "com.kony.gen.viz.model.component.KVizUserWidget",
    "DNDConfig": null,
    "_children_": [],
    "_height_": {
        "type": "ref",
        "value": "preferred"
    },
    "_left_": {
        "type": "string",
        "value": "0dp"
    },
    "_margin_": [
        0,
        0,
        0,
        0
    ],
    "_orientation_": 1,
    "_padding_": [
        0,
        0,
        0,
        0
    ],
    "_percent_": true,
    "_skin_": "s24c92fc23b14f5484b693ee9b8a9b35",
    "_top_": {
        "type": "string",
        "value": "0dp"
    },
    "_width_": {
        "type": "string",
        "value": "100%"
    },
    "areflexpropsreferenced": false,
    "autogrowmode": 1,
    "canUpdateUI": true,
    "clipbounds": true,
    "containerweight": 0,
    "dataDiffs": {
        "TabBodyNew": {
            "__events__": {},
            "__info__": {
                "isRoot": true,
                "kuid": "d5b7199ae96e45329f7fe9792e6c2334",
                "srcKUID": "ac81fe6a7b504b398e9b56a2f659d911",
                "wType": "FlexContainer"
            },
            "autogrowMode": {
                "Default": 1
            },
            "height": {
                "Default": {
                    "type": "ref",
                    "value": "preferred"
                }
            },
            "responsiveData": {},
            "top": {
                "Default": {
                    "type": "string",
                    "value": "0dp"
                }
            },
            "width": {
                "Default": {
                    "type": "string",
                    "value": "100%"
                }
            }
        },
        "segTemplates": {
            "__events__": {},
            "__info__": {
                "kuid": "hc41f22b6e26411cae11b643867143e0",
                "srcKUID": "b9f9805a35b743fab7be144ab0fea790",
                "wType": "Segment"
            },
            "responsiveData": {},
            "width": {
                "Default": {
                    "type": "string",
                    "value": "100%"
                }
            }
        }
    },
    "enablescrolling": true,
    "id": "TabBodyNew",
    "info": null,
    "iscustomlayout": false,
    "isdatareferenced": false,
    "isvisible": true,
    "kuid": "d5b7199ae96e45329f7fe9792e6c2334",
    "layouttype": 4,
    "masterType": 0,
    "name": "kony.ui.UserWidgetInstance",
    "parent": "flxMainWrapper",
    "pf": "frmApprovalMatrixAccountLevel",
    "retaincontentalignment": false,
    "retainflexpositionproperties": false,
    "snapgridsize": 10,
    "snaptogrid": true,
    "sourceUserWidget": "ac81fe6a7b504b398e9b56a2f659d911",
    "wType": "UserWidgetInstance",
    "zindex": 1
}