{
    "DNDConfig": null,
    "_height_": {
        "type": "ref",
        "value": "preferred"
    },
    "_left_": {
        "type": "string",
        "value": "53dp"
    },
    "_margin_": [
        0,
        0,
        0,
        0
    ],
    "_orientation_": 6,
    "_padding_": [
        0,
        0,
        0,
        0
    ],
    "_percent_": true,
    "_skin_": "s24c92fc23b14f5484b693ee9b8a9b35",
    "_top_": {
        "type": "string",
        "value": "0dp"
    },
    "_width_": {
        "type": "string",
        "value": "100%"
    },
    "allboxes": [],
    "autogrowmode": 1,
    "canUpdateUI": true,
    "children": [
        "flxToCurrency",
        "flxToCurrencySeparator",
        "flxToCurrencyCodeContainer",
        "flxSegConvertedValues",
        "flxScrollCurrencyCode"
    ],
    "clipbounds": false,
    "containerweight": 100,
    "enablescrolling": true,
    "id": "flxToCurrencyContainer",
    "info": null,
    "iscustomlayout": false,
    "isvisible": true,
    "kuid": "ce2c7022538d47c783e4acedd4f43192",
    "layouttype": 2,
    "name": "kony.ui.FlexContainer",
    "parent": "flxForexCalculator",
    "pf": "userwidgetmodel",
    "responsiveData": {
        "b1": {
            "left": {
                "type": "string",
                "value": "30dp"
            },
            "width": {
                "type": "string",
                "value": "35%"
            }
        },
        "b2": {
            "isVisible": true,
            "left": {
                "type": "string",
                "value": "5%"
            },
            "width": {
                "type": "string",
                "value": "45%"
            }
        },
        "b3": {
            "isVisible": true,
            "left": {
                "type": "string",
                "value": "25dp"
            },
            "width": {
                "type": "string",
                "value": "46%"
            }
        },
        "b4": {
            "left": {
                "type": "string",
                "value": "30dp"
            },
            "width": {
                "type": "string",
                "value": "35%"
            }
        }
    },
    "retaincontentalignment": false,
    "retainflexpositionproperties": false,
    "retainflowhorizontalalignment": false,
    "snapgridsize": 10,
    "snaptogrid": true,
    "wType": "FlexContainer",
    "widgetalignment": 1,
    "zindex": 15
}