{
    "@class": "com.kony.gen.viz.model.component.KVizLabel",
    "DNDConfig": null,
    "_bottom_": {
        "type": "number",
        "value": ""
    },
    "_height_": {
        "type": "ref",
        "value": "preferred"
    },
    "_left_": {
        "type": "string",
        "value": "35dp"
    },
    "_margin_": [
        1,
        1,
        1,
        1
    ],
    "_padding_": [
        0,
        0,
        0,
        0
    ],
    "_right_": {
        "type": "number",
        "value": ""
    },
    "_skin_": "sc39b68cb14e457b9b79ba3c8c3b88d1",
    "_text_": "Label",
    "_top_": {
        "type": "string",
        "value": "25dp"
    },
    "_width_": {
        "type": "ref",
        "value": "preferred"
    },
    "_wrapping_": 2,
    "android": {
        "textStyle": {
            "letterSpacing": 0,
            "strikeThrough": false
        }
    },
    "canUpdateUI": true,
    "containerweight": 100,
    "contentalignment": 4,
    "id": "lblBaseCurrencyTitle",
    "info": null,
    "ipad": {
        "psp": {
            "wrapping": 2
        }
    },
    "iphone": {
        "psp": {
            "wrapping": 2
        }
    },
    "iscustomlayout": false,
    "isvisible": true,
    "kuid": "a034ef1d026a46f68b3e89b2daf0f4a6",
    "name": "kony.ui.Label",
    "parent": "flxBaseCurrency",
    "pf": "userwidgetmodel",
    "responsiveData": {
        "b1": {
            "bottom": {
                "type": "string",
                "value": "0dp"
            },
            "left": {
                "type": "string",
                "value": "0dp"
            },
            "right": {
                "type": "string",
                "value": ""
            },
            "skin": "s089a30edc014fedb2eb54b3b16a7723",
            "top": {
                "type": "string",
                "value": "2dp"
            }
        },
        "b2": {
            "left": {
                "type": "string",
                "value": "15dp"
            },
            "skin": "sd898499ee5941789df3d3b85696d284",
            "text": "Sell :",
            "top": {
                "type": "string",
                "value": "10dp"
            }
        },
        "b3": {
            "bottom": {
                "type": "string",
                "value": "0dp"
            },
            "left": {
                "type": "string",
                "value": "0dp"
            },
            "right": {
                "type": "string",
                "value": ""
            },
            "skin": "s089a30edc014fedb2eb54b3b16a7723",
            "top": {
                "type": "string",
                "value": "2dp"
            }
        },
        "b4": {
            "bottom": {
                "type": "string",
                "value": "0dp"
            },
            "left": {
                "type": "string",
                "value": "0dp"
            },
            "right": {
                "type": "string",
                "value": ""
            },
            "skin": "s089a30edc014fedb2eb54b3b16a7723",
            "top": {
                "type": "string",
                "value": "2dp"
            }
        }
    },
    "retaincontentalignment": false,
    "retainflexpositionproperties": false,
    "texti18n": "i18n.foreignExchange.baseCurrency",
    "tooltip": "",
    "wType": "Label",
    "zindex": 1
}