{
    "DNDConfig": null,
    "_height_": {
        "type": "ref",
        "value": "preferred"
    },
    "_left_": {
        "type": "string",
        "value": "8.33%"
    },
    "_margin_": [
        0,
        0,
        0,
        0
    ],
    "_orientation_": 6,
    "_padding_": [
        0,
        0,
        0,
        0
    ],
    "_percent_": true,
    "_skin_": "s24c92fc23b14f5484b693ee9b8a9b35",
    "_top_": {
        "type": "string",
        "value": "0dp"
    },
    "_width_": {
        "type": "string",
        "value": "100%"
    },
    "allboxes": [],
    "autogrowmode": 1,
    "canUpdateUI": true,
    "children": [
        "lblRefrenceNumber",
        "lblRefrenceNumberValue"
    ],
    "clipbounds": true,
    "containerweight": 100,
    "enablescrolling": true,
    "id": "flxReferenceNumber",
    "info": null,
    "iscustomlayout": false,
    "isvisible": true,
    "kuid": "e6cab95017c344e2b355d34633275d47",
    "layouttype": 3,
    "name": "kony.ui.FlexContainer",
    "parent": "flxMessage",
    "pf": "frmDirectDebitsEur",
    "responsiveData": {
        "b2": {
            "left": {
                "type": "string",
                "value": "1.38%"
            }
        },
        "b3": {
            "left": {
                "type": "string",
                "value": "5%"
            },
            "width": {
                "type": "string",
                "value": "95%"
            }
        }
    },
    "retaincontentalignment": false,
    "retainflexpositionproperties": false,
    "retainflowhorizontalalignment": false,
    "snapgridsize": 10,
    "snaptogrid": true,
    "wType": "FlexContainer",
    "widgetalignment": 1
}