{
    "@class": "com.kony.gen.viz.model.component.KVizLabel",
    "DNDConfig": null,
    "_height_": {
        "type": "ref",
        "value": "preferred"
    },
    "_left_": {
        "type": "string",
        "value": "10dp"
    },
    "_margin_": [
        1,
        1,
        1,
        1
    ],
    "_padding_": [
        0,
        0,
        0,
        0
    ],
    "_skin_": "sbaa434a53c643c4a3fc0f563dbd2403",
    "_text_": "45423792753",
    "_top_": {
        "type": "string",
        "value": "20dp"
    },
    "_width_": {
        "type": "ref",
        "value": "preferred"
    },
    "_wrapping_": 2,
    "accessibilityconfig": {
        "a11yLabel": "45423792753"
    },
    "android": {
        "textStyle": {
            "letterSpacing": 0,
            "strikeThrough": false
        }
    },
    "canUpdateUI": true,
    "containerweight": 100,
    "contentalignment": 4,
    "id": "lblRefrenceNumberValue",
    "info": null,
    "ipad": {
        "psp": {
            "wrapping": 2
        }
    },
    "iphone": {
        "psp": {
            "wrapping": 2
        }
    },
    "isvisible": true,
    "kuid": "a8e141f87f644db0bd5966d5ab7b006f",
    "name": "kony.ui.Label",
    "parent": "flxReferenceNumber",
    "pf": "frmDirectDebitsEur",
    "responsiveData": {
        "b3": {
            "skin": "s32e9f56b1cb42539383a35652e7f8e1",
            "top": {
                "type": "string",
                "value": "10dp"
            }
        }
    },
    "tooltip": "",
    "wType": "Label",
    "zindex": 1
}