{
    "@class": "com.kony.gen.viz.model.component.KVizUserWidget",
    "DNDConfig": null,
    "_children_": [],
    "_height_": {
        "type": "string",
        "value": "175px"
    },
    "_left_": {
        "type": "string",
        "value": "0dp"
    },
    "_margin_": [
        0,
        0,
        0,
        0
    ],
    "_orientation_": 1,
    "_padding_": [
        0,
        0,
        0,
        0
    ],
    "_percent_": true,
    "_render_": true,
    "_skin_": "sdc143f0e5b64ae3a3f155f691c73fa7",
    "_top_": {
        "type": "string",
        "value": "20dp"
    },
    "_width_": {
        "type": "string",
        "value": "100%"
    },
    "android": {},
    "androidwearos": {},
    "areflexpropsreferenced": false,
    "canUpdateUI": true,
    "clipbounds": false,
    "containerweight": 0,
    "dataDiffs": {
        "banner": {
            "__events__": {},
            "__info__": {
                "isRoot": true,
                "kuid": "d012d87db2364348b762ad259215875b",
                "srcKUID": "5c360958c61b42a0935b86dfc3ce5105",
                "wType": "FlexContainer"
            },
            "isVisible": false,
            "responsiveData": {
                "b1": {
                    "top": {
                        "type": "string",
                        "value": "15dp"
                    }
                },
                "b4": {
                    "top": {
                        "type": "string",
                        "value": "15dp"
                    }
                }
            },
            "top": {
                "Default": {
                    "type": "string",
                    "value": "20dp"
                }
            }
        },
        "flxBannerImage": {
            "__events__": {},
            "__info__": {
                "kuid": "db28e97d65364a529917565c4f01db61",
                "srcKUID": "b0adb9399c2c408d945a3b14cc3d218f",
                "wType": "FlexContainer"
            }
        },
        "flxBannerWrapper": {
            "__events__": {},
            "__info__": {
                "kuid": "i6294d70500a4acb872cf2cfb78ee7c1",
                "srcKUID": "000ac1c1175e499e9c9cab19c890c816",
                "wType": "FlexContainer"
            }
        },
        "flxPagination": {
            "__events__": {},
            "__info__": {
                "kuid": "a1a45396781047a8b8b77000844d7eea",
                "srcKUID": "bbe16c7dbc264096a1ad818817a0da1a",
                "wType": "FlexContainer"
            },
            "isVisible": false,
            "responsiveData": {}
        },
        "flxSeparator": {
            "__events__": {},
            "__info__": {
                "kuid": "cce728dc58e546eb8ef27d4d1118171a",
                "srcKUID": "c02af6417b374e6092571227e09a2851",
                "wType": "FlexContainer"
            }
        },
        "imgBanner": {
            "__events__": {},
            "__info__": {
                "kuid": "hbe35588666a4c23ae12d4bdaa494bb1",
                "srcKUID": "fb4f263eeedb422b993ec746be3838d2",
                "wType": "Image"
            },
            "src": "nuo_banner_1.png"
        },
        "imgPaginationOne": {
            "__events__": {},
            "__info__": {
                "kuid": "b9aaad7142584f39a6c904d74c5f8eda",
                "srcKUID": "c192839832344b9e94d758fb9bbcbb51",
                "wType": "Image"
            },
            "src": "slider.png"
        }
    },
    "desktopweb": {},
    "id": "banner",
    "info": null,
    "ipad": {},
    "iphone": {},
    "isdatareferenced": false,
    "isvisible": false,
    "kiosk": {},
    "kuid": "d012d87db2364348b762ad259215875b",
    "layouttype": 4,
    "masterType": 0,
    "name": "kony.ui.UserWidgetInstance",
    "parent": "flxRightContainer",
    "pf": "CopyfrmAccountsLanding",
    "responsiveData": {
        "b1": {
            "top": {
                "type": "string",
                "value": "15dp"
            }
        },
        "b4": {
            "top": {
                "type": "string",
                "value": "15dp"
            }
        }
    },
    "snaptogrid": true,
    "sourceUserWidget": "5c360958c61b42a0935b86dfc3ce5105",
    "spa": {},
    "spaan": {},
    "spaandroidtablet": {},
    "spabb": {},
    "spaip": {},
    "spaipad": {},
    "spamobile": {},
    "spatablet": {},
    "spawindowstablet": {},
    "spawinphone8": {},
    "tabrcandroid": {},
    "vizProps": {
        "hidewidgethierarchy": false
    },
    "vizprops": {
        "hidewidgethierarchy": false
    },
    "wType": "UserWidgetInstance",
    "windows10": {},
    "windows8": {},
    "winphone10": {},
    "winphone8": {}
}