{
    "@class": "com.kony.gen.viz.model.component.KVizUserWidget",
    "DNDConfig": null,
    "_children_": [],
    "_height_": {
        "type": "ref",
        "value": "preferred"
    },
    "_left_": {
        "type": "string",
        "value": "543dp"
    },
    "_margin_": [
        0,
        0,
        0,
        0
    ],
    "_orientation_": 1,
    "_padding_": [
        0,
        0,
        0,
        0
    ],
    "_percent_": true,
    "_render_": true,
    "_right_": {
        "type": "number",
        "value": ""
    },
    "_skin_": "s24c92fc23b14f5484b693ee9b8a9b35",
    "_top_": {
        "type": "string",
        "value": "75dp"
    },
    "_width_": {
        "type": "string",
        "value": "340dp"
    },
    "android": {},
    "androidwearos": {},
    "areflexpropsreferenced": false,
    "autogrowmode": 1,
    "canUpdateUI": true,
    "clipbounds": false,
    "containerweight": 0,
    "dataDiffs": {
        "accountTypes": {
            "__events__": {},
            "__info__": {
                "isRoot": true,
                "kuid": "e740f636d3ae48e1aa8fcd1c39029fcb",
                "srcKUID": "b62c12eb1c8d4c288d0cc6b63f1eb6bb",
                "wType": "FlexContainer"
            },
            "autogrowMode": 1,
            "height": {
                "Default": {
                    "type": "ref",
                    "value": "preferred"
                }
            },
            "isVisible": false,
            "left": {
                "Default": {
                    "type": "string",
                    "value": "543dp"
                }
            },
            "responsiveData": {
                "b1": {},
                "b2": {
                    "right": {
                        "type": "string",
                        "value": "15dp"
                    }
                },
                "b3": {
                    "right": {
                        "type": "string",
                        "value": "10dp"
                    },
                    "zIndex": 10
                },
                "b4": {}
            },
            "right": {},
            "top": {
                "Default": {
                    "type": "string",
                    "value": "75dp"
                }
            },
            "vizProps": {
                "hide": false
            },
            "width": {
                "Default": {
                    "type": "string",
                    "value": "340dp"
                }
            },
            "zIndex": {
                "Default": 10
            }
        },
        "flxAccountTypesSegment": {
            "__events__": {},
            "__info__": {
                "kuid": "gaec61ab0ca34a5383b1f41de334522e",
                "srcKUID": "012bfaa77f29418e90e76556de8e6db8",
                "wType": "FlexContainer"
            },
            "autogrowMode": 1,
            "height": {
                "Default": {
                    "type": "ref",
                    "value": "preferred"
                }
            }
        },
        "imgToolTip": {
            "__events__": {},
            "__info__": {
                "kuid": "f351101835bc4969bdc792dccc67654b",
                "srcKUID": "38b535966b4c476e9b87c15b828b2245",
                "wType": "Image"
            },
            "left": {
                "Default": {
                    "type": "string",
                    "value": ""
                }
            },
            "responsiveData": {
                "b1": {},
                "b2": {},
                "b4": {}
            },
            "right": {
                "Default": {
                    "type": "string",
                    "value": "17dp"
                }
            },
            "src": "tool_tip.png"
        },
        "segAccountTypes": {
            "__events__": {},
            "__info__": {
                "kuid": "i883c21e6cd04271b572455f84812e43",
                "srcKUID": "d42b5ca698e0494ca8a5e305a01a9418",
                "wType": "Segment"
            },
            "autogrowMode": 1,
            "data": {
                "desktop": [
                    {
                        "lblSeparator": {
                            "@class": "com.viz.ide.model.segment.SimpleTextSegmentData",
                            "text": "label"
                        },
                        "lblUsers": {
                            "@class": "com.viz.ide.model.segment.SimpleTextSegmentData",
                            "i18nkey": "i18n.Accounts.ShowAllAccounts",
                            "text": "Label"
                        }
                    },
                    {
                        "lblSeparator": {
                            "@class": "com.viz.ide.model.segment.SimpleTextSegmentData",
                            "text": "label"
                        },
                        "lblUsers": {
                            "@class": "com.viz.ide.model.segment.SimpleTextSegmentData",
                            "i18nkey": "i18n.Accounts.ShowkonyAccounts",
                            "text": "Label"
                        }
                    },
                    {
                        "lblSeparator": {
                            "@class": "com.viz.ide.model.segment.SimpleTextSegmentData",
                            "text": "label"
                        },
                        "lblUsers": {
                            "@class": "com.viz.ide.model.segment.SimpleTextSegmentData",
                            "i18nkey": "i18n.Accounts.ShowBankOfAmericaAccounts",
                            "text": "Label"
                        }
                    },
                    {
                        "lblSeparator": {
                            "@class": "com.viz.ide.model.segment.SimpleTextSegmentData",
                            "text": "label"
                        },
                        "lblUsers": {
                            "@class": "com.viz.ide.model.segment.SimpleTextSegmentData",
                            "i18nkey": "i18n.Accounts.ShowChaseBANKAccounts",
                            "text": "Label"
                        }
                    },
                    {
                        "lblSeparator": {
                            "@class": "com.viz.ide.model.segment.SimpleTextSegmentData",
                            "text": "label"
                        },
                        "lblUsers": {
                            "@class": "com.viz.ide.model.segment.SimpleTextSegmentData",
                            "i18nkey": "i18n.Accounts.ShowCitiBankAccounts",
                            "text": "Label"
                        }
                    }
                ]
            },
            "height": {
                "Default": {
                    "type": "ref",
                    "value": "preferred"
                }
            },
            "left": {
                "Default": {
                    "type": "string",
                    "value": "1dp"
                }
            },
            "maxHeight": {
                "Default": {
                    "type": "string",
                    "value": "255dp"
                }
            }
        }
    },
    "desktopweb": {},
    "id": "FavouriteAccountTypes",
    "info": null,
    "ipad": {},
    "iphone": {},
    "isdatareferenced": false,
    "isvisible": false,
    "kiosk": {},
    "kuid": "e740f636d3ae48e1aa8fcd1c39029fcb",
    "layouttype": 4,
    "masterType": 0,
    "name": "kony.ui.UserWidgetInstance",
    "parent": "flxMain",
    "pf": "CopyfrmAccountsLanding",
    "responsiveData": {
        "b1": {},
        "b2": {
            "right": {
                "type": "string",
                "value": "15dp"
            }
        },
        "b3": {
            "right": {
                "type": "string",
                "value": "10dp"
            },
            "zIndex": 10
        },
        "b4": {}
    },
    "snaptogrid": true,
    "sourceUserWidget": "b62c12eb1c8d4c288d0cc6b63f1eb6bb",
    "spa": {},
    "spaan": {},
    "spaandroidtablet": {},
    "spabb": {},
    "spaip": {},
    "spaipad": {},
    "spamobile": {},
    "spatablet": {},
    "spawindowstablet": {},
    "spawinphone8": {},
    "tabrcandroid": {},
    "vizProps": {
        "hide": false,
        "hidewidgethierarchy": false
    },
    "vizprops": {
        "hidewidgethierarchy": false
    },
    "wType": "UserWidgetInstance",
    "windows10": {},
    "windows8": {},
    "winphone10": {},
    "winphone8": {},
    "zindex": 10
}