{
    "@class": "com.kony.gen.viz.model.component.KVizUserWidget",
    "DNDConfig": null,
    "_children_": [],
    "_height_": {
        "type": "ref",
        "value": "preferred"
    },
    "_left_": {
        "type": "string",
        "value": "0dp"
    },
    "_margin_": [
        0,
        0,
        0,
        0
    ],
    "_orientation_": 1,
    "_padding_": [
        0,
        0,
        0,
        0
    ],
    "_percent_": true,
    "_right_": {
        "type": "number",
        "value": ""
    },
    "_skin_": "sdc143f0e5b64ae3a3f155f691c73fa7",
    "_top_": {
        "type": "string",
        "value": "0dp"
    },
    "_width_": {
        "type": "string",
        "value": "100%"
    },
    "areflexpropsreferenced": false,
    "autogrowmode": 1,
    "canUpdateUI": true,
    "clipbounds": true,
    "containerweight": 0,
    "dataDiffs": {
        "chartInvestmentSummary": {
            "__events__": {},
            "__info__": {
                "kuid": "a1a1e2b1bf1a45b8a904152ba868ca59",
                "srcKUID": "i2bcf21f31064fb9abd5b0043e323cb7",
                "wType": "Browser"
            },
            "responsiveData": {},
            "right": {
                "Default": {
                    "type": "string",
                    "value": ""
                }
            }
        },
        "flxAccountDetails": {
            "__events__": {},
            "__info__": {
                "kuid": "ge975f5a18614d9db75dca8c3fd1fd13",
                "srcKUID": "ee135a42a0414196972b78936f8ea457",
                "wType": "FlexScrollContainer"
            },
            "height": {
                "Default": {
                    "type": "ref",
                    "value": "preferred"
                }
            },
            "responsiveData": {}
        },
        "flxMarketValue": {
            "__events__": {},
            "__info__": {
                "kuid": "ab83f4a3271943c082c420d7b4df4f37",
                "srcKUID": "a9cc9438216544af9a650cd571036b1a",
                "wType": "FlexContainer"
            }
        },
        "flxPeriodChooser": {
            "__events__": {},
            "__info__": {
                "kuid": "b1ec17fe474e4c2d8d1c94c51f7935e1",
                "srcKUID": "ad7b2632ab03434780282e973f43520f",
                "wType": "FlexContainer"
            }
        },
        "flxPeriodSelector": {
            "__events__": {},
            "__info__": {
                "kuid": "e641dac5d260472189b430bc2269db76",
                "srcKUID": "e9c20464e2f94eeaabb1919f7d8b2b2e",
                "wType": "FlexContainer"
            },
            "layoutType": 2,
            "responsiveData": {}
        },
        "flxProfitLoss": {
            "__events__": {},
            "__info__": {
                "kuid": "h2391f067c6c4b0392022d1d82b282c4",
                "srcKUID": "j9b98c7f269540f8a966971c3463bbe3",
                "wType": "FlexContainer"
            }
        },
        "flxSelector1": {
            "__events__": {},
            "__info__": {
                "kuid": "dbc6dced371240f38b265b831554eb57",
                "srcKUID": "iae744f505ef404faf923002caaa0410",
                "wType": "FlexContainer"
            },
            "isVisible": true,
            "responsiveData": {}
        },
        "flxSelector2": {
            "__events__": {},
            "__info__": {
                "kuid": "f7dcadf38f57498d9696da903da68f78",
                "srcKUID": "bdea18db38b842309b65726eb456ac27",
                "wType": "FlexContainer"
            },
            "left": {
                "Default": {
                    "type": "string",
                    "value": "25%"
                }
            },
            "responsiveData": {}
        },
        "flxSelector3": {
            "__events__": {},
            "__info__": {
                "kuid": "af66484cd37740699deb8165f6b1200b",
                "srcKUID": "ga64c921d9e842e998c9452c53a1f79f",
                "wType": "FlexContainer"
            },
            "left": {
                "Default": {
                    "type": "string",
                    "value": "50%"
                }
            },
            "responsiveData": {}
        },
        "flxSelector4": {
            "__events__": {},
            "__info__": {
                "kuid": "cef0b030c639425a93da20d79e47d7d3",
                "srcKUID": "f6709b4070274ff8813e7c8b08b01932",
                "wType": "FlexContainer"
            },
            "left": {
                "Default": {
                    "type": "string",
                    "value": "75%"
                }
            },
            "responsiveData": {}
        },
        "flxSeparator1": {
            "__events__": {},
            "__info__": {
                "kuid": "f6e4d8d4d14746eaac37ba8012475bd6",
                "srcKUID": "e656044e1019402fbe3ceba7c1d6b2af",
                "wType": "FlexContainer"
            }
        },
        "flxSeparator2": {
            "__events__": {},
            "__info__": {
                "kuid": "c2c930a5bc9941c6bbeaa26c861d91e5",
                "srcKUID": "c7877b68e53b4445a4b0be9c516c5f97",
                "wType": "FlexContainer"
            }
        },
        "flxSeparator3": {
            "__events__": {},
            "__info__": {
                "kuid": "d5be247ee64c47e4b2b2882aa3209c59",
                "srcKUID": "f19a54b6b6774821a69d2bb0addd4b7e",
                "wType": "FlexContainer"
            }
        },
        "flxTitle": {
            "__events__": {},
            "__info__": {
                "kuid": "b978f40b48f14eafa03ecde344247e79",
                "srcKUID": "j8efb22f40f341f18f2ec96c1d2ec1c3",
                "wType": "FlexContainer"
            }
        },
        "flxTodayPL": {
            "__events__": {},
            "__info__": {
                "kuid": "e08b2740b26d4d77be6bcc5c510b9859",
                "srcKUID": "f9dfff28dd454b2a8b04799b0a060583",
                "wType": "FlexContainer"
            }
        },
        "flxTopHeader": {
            "__events__": {},
            "__info__": {
                "kuid": "b51ff3211fd5477d81a2abe96a541881",
                "srcKUID": "f8fc8462649d4546b931924f998a2a64",
                "wType": "FlexContainer"
            }
        },
        "flxUnrealisedPL": {
            "__events__": {},
            "__info__": {
                "kuid": "e08af28569394177be1b41e773723c6e",
                "srcKUID": "g363a4ca0c484128b5a24a5b74849fc9",
                "wType": "FlexContainer"
            }
        },
        "investmentSummaryCard": {
            "__events__": {},
            "__info__": {
                "isRoot": true,
                "kuid": "b56657efc6484130b77a699c9b598ee0",
                "srcKUID": "af87facb3f05495e88d9c8c35ff558b5",
                "wType": "FlexContainer"
            },
            "isVisible": false,
            "left": {
                "Default": {
                    "type": "string",
                    "value": "0dp"
                }
            },
            "responsiveData": {
                "b3": {
                    "left": {
                        "type": "string",
                        "value": "10dp"
                    },
                    "right": {
                        "type": "string",
                        "value": "10dp"
                    },
                    "width": {
                        "type": "ref",
                        "value": "preferred"
                    }
                }
            },
            "right": {
                "Default": {
                    "type": "number",
                    "value": ""
                }
            },
            "width": {
                "Default": {
                    "type": "string",
                    "value": "100%"
                }
            }
        },
        "lblMarketValue": {
            "__events__": {},
            "__info__": {
                "kuid": "e34d4754485547fd9748aed6401b4a4d",
                "srcKUID": "f421ba21b5a54dc495caeae2dac3b4d7",
                "wType": "Label"
            }
        },
        "lblPeriodOption1": {
            "__events__": {},
            "__info__": {
                "kuid": "f5c0e52d278e4d9fb68419bd1db1a586",
                "srcKUID": "d8194471b6e84fdf873998948858c39a",
                "wType": "Label"
            }
        },
        "lblPeriodOption2": {
            "__events__": {},
            "__info__": {
                "kuid": "h8fc20c2adbd4975bbdcfcfeb2ab0e3b",
                "srcKUID": "dbd3de3a4d3f401594064ed5972427dc",
                "wType": "Label"
            }
        },
        "lblPeriodOption3": {
            "__events__": {},
            "__info__": {
                "kuid": "daa44416f80b462eb0ee87bb0bcad2c3",
                "srcKUID": "ee6b469beedd461e8a8d89c6f5c99766",
                "wType": "Label"
            }
        },
        "lblPeriodOption4": {
            "__events__": {},
            "__info__": {
                "kuid": "i3f26f33df5e4abea7c95fbc1ab7eb33",
                "srcKUID": "d18602fa6b944d869bf092ef4cb5bc13",
                "wType": "Label"
            }
        },
        "lblTilte": {
            "__events__": {},
            "__info__": {
                "kuid": "b81c519ea91d40c997d1eddeb4ec3e19",
                "srcKUID": "j76b726e187148a48839c3c7474857c0",
                "wType": "Label"
            }
        },
        "lblTodayPL": {
            "__events__": {},
            "__info__": {
                "kuid": "bc8e2094e13b494d8fb9f7f9502c63d7",
                "srcKUID": "g7d89e5290a74bfc964c06dd96a56c92",
                "wType": "Label"
            }
        },
        "lblTodayPLValue": {
            "__events__": {},
            "__info__": {
                "kuid": "h123f7be6e62409f9ab54c03a6087511",
                "srcKUID": "ea8f26e57527472ca93fd7fee4a5808f",
                "wType": "Label"
            }
        },
        "lblUnrealisedPLValue": {
            "__events__": {},
            "__info__": {
                "kuid": "ee2c83e9dacd4f94ae0f9359650da4a3",
                "srcKUID": "af9369b2b5274a11af79b0fbdc1f4de9",
                "wType": "Label"
            }
        },
        "lblValueMarketValue": {
            "__events__": {},
            "__info__": {
                "kuid": "g9097ae381e642eda8ec1a3fad5955b8",
                "srcKUID": "e8e61947a3e9494197827bad4866991c",
                "wType": "Label"
            }
        },
        "lblVerticalSepeartor": {
            "__events__": {},
            "__info__": {
                "kuid": "acab6cb9358442e882d815f453a54705",
                "srcKUID": "b92c1e4dc36e4a4284b6b2b41ee0bdce",
                "wType": "Label"
            }
        },
        "lbllUnrealisedPL": {
            "__events__": {},
            "__info__": {
                "kuid": "d212860e0ee946a99702e3ce9550153c",
                "srcKUID": "a96b542ddf38409292488bdc8d2cc805",
                "wType": "Label"
            }
        },
        "segInvestmentAccountsList": {
            "__events__": {},
            "__info__": {
                "kuid": "c0a835c6150b4abbb93d1a9177dd0b0b",
                "srcKUID": "a2a1754a89ac4a62873842216bed6057",
                "wType": "Segment"
            },
            "data": {
                "desktop": [
                    {
                        "imgBankLogo": {
                            "@class": "com.viz.ide.model.segment.ImageSegmentData",
                            "src": "bank_icon_citi.png"
                        },
                        "lblAccountBalance": {
                            "@class": "com.viz.ide.model.segment.SimpleTextSegmentData",
                            "text": "$38,300.00"
                        },
                        "lblAccountName": {
                            "@class": "com.viz.ide.model.segment.SimpleTextSegmentData",
                            "text": "Investment Account.. .. 2235"
                        },
                        "lblInvestmentLogo": {
                            "@class": "com.viz.ide.model.segment.SimpleTextSegmentData",
                            "text": " Investment "
                        },
                        "lblJointAccountLogo": {
                            "@class": "com.viz.ide.model.segment.SimpleTextSegmentData",
                            "text": " Investment "
                        },
                        "lblProfitBalance": {
                            "@class": "com.viz.ide.model.segment.SimpleTextSegmentData",
                            "text": "+$12.22 (+0.90%)"
                        }
                    },
                    {
                        "imgBankLogo": {
                            "@class": "com.viz.ide.model.segment.ImageSegmentData",
                            "src": "bank_icon_citi.png"
                        },
                        "lblAccountBalance": {
                            "@class": "com.viz.ide.model.segment.SimpleTextSegmentData",
                            "text": "$6,286.00"
                        },
                        "lblAccountName": {
                            "@class": "com.viz.ide.model.segment.SimpleTextSegmentData",
                            "text": "Investment Account.. .. 9844"
                        },
                        "lblInvestmentLogo": {
                            "@class": "com.viz.ide.model.segment.SimpleTextSegmentData",
                            "text": " Investment "
                        },
                        "lblJointAccountLogo": {
                            "@class": "com.viz.ide.model.segment.SimpleTextSegmentData",
                            "text": " Investment "
                        },
                        "lblProfitBalance": {
                            "@class": "com.viz.ide.model.segment.SimpleTextSegmentData",
                            "text": "+$12.22 (+0.90%)"
                        }
                    },
                    {
                        "imgBankLogo": {
                            "@class": "com.viz.ide.model.segment.ImageSegmentData",
                            "src": "bank_icon_citi.png"
                        },
                        "lblAccountBalance": {
                            "@class": "com.viz.ide.model.segment.SimpleTextSegmentData",
                            "text": "$5,746.00"
                        },
                        "lblAccountName": {
                            "@class": "com.viz.ide.model.segment.SimpleTextSegmentData",
                            "text": "Investment Account.. .. 2202"
                        },
                        "lblInvestmentLogo": {
                            "@class": "com.viz.ide.model.segment.SimpleTextSegmentData",
                            "text": " Investment "
                        },
                        "lblJointAccountLogo": {
                            "@class": "com.viz.ide.model.segment.SimpleTextSegmentData",
                            "text": " Investment "
                        },
                        "lblProfitBalance": {
                            "@class": "com.viz.ide.model.segment.SimpleTextSegmentData",
                            "text": "+$12.22 (+0.90%)"
                        }
                    }
                ]
            }
        }
    },
    "enablescrolling": true,
    "id": "investmentSummaryCard",
    "info": null,
    "iscustomlayout": false,
    "isdatareferenced": false,
    "issegmentchild": false,
    "isvisible": false,
    "kuid": "b56657efc6484130b77a699c9b598ee0",
    "layouttype": 4,
    "masterType": 0,
    "name": "kony.ui.UserWidgetInstance",
    "parent": "flxInvestmentSummaryContainer",
    "pf": "frmAccountsLanding",
    "retaincontentalignment": false,
    "retainflexpositionproperties": false,
    "retainflowhorizontalalignment": false,
    "snapgridsize": 10,
    "snaptogrid": true,
    "sourceUserWidget": "af87facb3f05495e88d9c8c35ff558b5",
    "wType": "UserWidgetInstance"
}