{
    "@class": "com.kony.gen.viz.model.component.KVizUserWidget",
    "DNDConfig": null,
    "_children_": [],
    "_height_": {
        "type": "string",
        "value": "150dp"
    },
    "_left_": {
        "type": "string",
        "value": "0dp"
    },
    "_margin_": [
        0,
        0,
        0,
        0
    ],
    "_orientation_": 1,
    "_padding_": [
        0,
        0,
        0,
        0
    ],
    "_percent_": true,
    "_skin_": "s24c92fc23b14f5484b693ee9b8a9b35",
    "_top_": {
        "type": "string",
        "value": "0dp"
    },
    "_width_": {
        "type": "string",
        "value": "100%"
    },
    "canUpdateUI": true,
    "containerweight": 0,
    "data": {
        "viewAllBtnStatus": "visible"
    },
    "id": "marketIndexDashComp",
    "info": null,
    "iscustomlayout": false,
    "isvisible": true,
    "kuid": "dbd2ce5990ac4a179b1cf1623fd27c2e",
    "masterType": 1,
    "name": "kony.ui.UserWidgetInstance",
    "parent": "flxMarketNewsContainer",
    "pf": "CopyfrmAccountsLanding",
    "retaincontentalignment": false,
    "retainflexpositionproperties": false,
    "retainflowhorizontalalignment": false,
    "sourceUserWidget": "ea58b4394f4f446f9472e0b74e3ed4df",
    "wType": "UserWidgetInstance"
}