{
    "@class": "com.kony.gen.viz.model.component.KVizUserWidget",
    "DNDConfig": null,
    "_children_": [],
    "_height_": {
        "type": "ref",
        "value": "preferred"
    },
    "_left_": {
        "type": "string",
        "value": "15dp"
    },
    "_margin_": [
        0,
        0,
        0,
        0
    ],
    "_orientation_": 1,
    "_padding_": [
        0,
        0,
        0,
        0
    ],
    "_percent_": true,
    "_render_": true,
    "_skin_": "sdc143f0e5b64ae3a3f155f691c73fa7",
    "_top_": {
        "type": "string",
        "value": "0dp"
    },
    "_width_": {
        "type": "string",
        "value": "28.40%"
    },
    "android": {},
    "androidwearos": {},
    "areflexpropsreferenced": false,
    "autogrowmode": 1,
    "canUpdateUI": true,
    "centerx": {
        "type": "number",
        "value": ""
    },
    "clipbounds": false,
    "containerweight": 0,
    "dataDiffs": {
        "flxHeader": {
            "__events__": {},
            "__info__": {
                "kuid": "ic3faea98e7d46569da020e68ea5ca86",
                "srcKUID": "id5c8cfa51ab49a9ae7d9858e1ad2bc3",
                "wType": "FlexContainer"
            }
        },
        "flxNoTransactionWrapper": {
            "__events__": {},
            "__info__": {
                "kuid": "f1a1ab0de35e49c283381f22d1b0ee73",
                "srcKUID": "hdbcdc44290145488c887b578500f5cf",
                "wType": "FlexContainer"
            }
        },
        "flxNoTransactions": {
            "__events__": {},
            "__info__": {
                "kuid": "fffb545944e64b71a65b8e8d3f650e48",
                "srcKUID": "e1431bf189a1416e9c0cc88954438fe1",
                "wType": "FlexContainer"
            }
        },
        "flxSeparator": {
            "__events__": {},
            "__info__": {
                "kuid": "aa4e8f1ff5d64bf6bed9940d21c8f338",
                "srcKUID": "cc9c1d8d69144d0ba244c60d19ad0711",
                "wType": "FlexContainer"
            },
            "responsiveData": {
                "b2": {
                    "isVisible": false
                },
                "b3": {
                    "isVisible": false
                }
            }
        },
        "flxSeparatorUpcomingTransactions": {
            "__events__": {},
            "__info__": {
                "kuid": "ec372af08b024d97bf85a1de0a0b37a7",
                "srcKUID": "bbd74616fcc2414c8914c96a74dc637f",
                "wType": "FlexContainer"
            }
        },
        "flxUpcomingTransactionWrapper": {
            "__events__": {},
            "__info__": {
                "kuid": "bcc1a089152f4e6ea6192b6b28cc512c",
                "srcKUID": "227b864f98304c429dd528cd3664d980",
                "wType": "FlexContainer"
            },
            "autogrowMode": {
                "Default": 0
            },
            "height": {
                "Default": {
                    "type": "string",
                    "value": "360dp"
                }
            },
            "maxHeight": {
                "Default": {
                    "type": "string",
                    "value": ""
                }
            }
        },
        "imgInfo": {
            "__events__": {},
            "__info__": {
                "kuid": "gc6006ad14df42fca3b8c4f159b912f1",
                "srcKUID": "e14c53d0bcc14e27994d1387ac7e987e",
                "wType": "Image"
            },
            "left": {
                "Default": {
                    "type": "string",
                    "value": "30dp"
                }
            },
            "responsiveData": {
                "b1": {
                    "top": {
                        "type": "string",
                        "value": "40dp"
                    }
                },
                "b2": {
                    "left": {
                        "type": "string",
                        "value": "20dp"
                    }
                },
                "b3": {
                    "left": {
                        "type": "string",
                        "value": "10dp"
                    }
                },
                "b4": {
                    "top": {
                        "type": "string",
                        "value": "40dp"
                    }
                }
            },
            "src": "info_large.png",
            "top": {}
        },
        "imgUpcomingTransactionsIcon": {
            "__events__": {},
            "__info__": {
                "kuid": "be5ebeb6665d40868d825cf3a91dd8e6",
                "srcKUID": "ddd41384733d4aa69ff6503937c01400",
                "wType": "Label"
            }
        },
        "lblHeader": {
            "__events__": {},
            "__info__": {
                "kuid": "i6a373ee6b9747ea9abf2ad8bf8ba817",
                "srcKUID": "bac6780777204ff5a8587294ead34536",
                "wType": "Label"
            },
            "i18n_text": "i18n.Accounts.upComingTransactions",
            "left": {},
            "responsiveData": {
                "b3": {
                    "left": {
                        "type": "string",
                        "value": "15dp"
                    }
                }
            }
        },
        "rtxNoPaymentMessage": {
            "__events__": {},
            "__info__": {
                "kuid": "a3abef3f19f746a2ad1ddef1748756e3",
                "srcKUID": "dc0fd14c7c164f33892dcb87c132692f",
                "wType": "RichText"
            },
            "height": {
                "Default": {
                    "type": "ref",
                    "value": "preferred"
                }
            },
            "left": {
                "Default": {
                    "type": "string",
                    "value": "70dp"
                }
            },
            "responsiveData": {
                "b1": {
                    "left": {
                        "type": "string",
                        "value": "70dp"
                    },
                    "top": {
                        "type": "string",
                        "value": "38dp"
                    }
                },
                "b2": {
                    "left": {
                        "type": "string",
                        "value": "60dp"
                    },
                    "top": {
                        "type": "string",
                        "value": "37dp"
                    }
                },
                "b3": {
                    "left": {
                        "type": "string",
                        "value": "50dp"
                    },
                    "top": {
                        "type": "string",
                        "value": "37dp"
                    }
                },
                "b4": {
                    "left": {
                        "type": "string",
                        "value": "70dp"
                    },
                    "top": {
                        "type": "string",
                        "value": "37dp"
                    }
                }
            },
            "top": {
                "Default": {
                    "type": "string",
                    "value": "41dp"
                }
            },
            "width": {
                "Default": {
                    "type": "string",
                    "value": "75%"
                }
            }
        },
        "segMessages": {
            "__events__": {},
            "__info__": {
                "kuid": "b77c0e501a784798ac3cdedb5d46e17a",
                "srcKUID": "e63f0b3b6c9a4e489cbf3f504463bb1a",
                "wType": "Segment"
            },
            "data": {
                "desktop": [
                    {
                        "imgWarning": {
                            "@class": "com.viz.ide.model.segment.ImageSegmentData",
                            "src": "imagedrag.png"
                        },
                        "lblAmount": {
                            "@class": "com.viz.ide.model.segment.SimpleTextSegmentData",
                            "text": ""
                        },
                        "lblDate": {
                            "@class": "com.viz.ide.model.segment.SimpleTextSegmentData",
                            "text": ""
                        },
                        "lblFormToNavigate": {
                            "@class": "com.viz.ide.model.segment.SimpleTextSegmentData",
                            "text": ""
                        },
                        "lblSeparator": {
                            "@class": "com.viz.ide.model.segment.SimpleTextSegmentData",
                            "text": ""
                        },
                        "lblTo": {
                            "@class": "com.viz.ide.model.segment.SimpleTextSegmentData",
                            "text": ""
                        },
                        "lblToValue": {
                            "@class": "com.viz.ide.model.segment.SimpleTextSegmentData",
                            "text": ""
                        }
                    }
                ]
            },
            "maxHeight": {
                "Default": {
                    "type": "string",
                    "value": "360dp"
                }
            },
            "top": {
                "Default": {
                    "type": "string",
                    "value": "0dp"
                }
            }
        },
        "upcomingTransactions": {
            "__events__": {},
            "__info__": {
                "isRoot": true,
                "kuid": "e9274f4dbf494bba84cb19f7bb51d41e",
                "srcKUID": "bdc0cfd88660415bb58134579a033a3b",
                "wType": "FlexContainer"
            },
            "autogrowMode": 1,
            "centerX": {},
            "height": {
                "Default": {
                    "type": "ref",
                    "value": "preferred"
                }
            },
            "left": {
                "Default": {
                    "type": "string",
                    "value": "15dp"
                }
            },
            "maxHeight": {
                "Default": {
                    "type": "string",
                    "value": ""
                }
            },
            "responsiveData": {
                "b1": {
                    "centerX": {
                        "type": "string",
                        "value": ""
                    },
                    "left": null
                },
                "b2": {
                    "left": null,
                    "right": {
                        "type": "string",
                        "value": "24dp"
                    },
                    "width": {
                        "type": "string",
                        "value": "45.50%"
                    }
                },
                "b3": {
                    "isVisible": true,
                    "left": null,
                    "right": {
                        "type": "string",
                        "value": "10dp"
                    },
                    "top": {
                        "type": "string",
                        "value": "435dp"
                    },
                    "width": {
                        "type": "string",
                        "value": ""
                    }
                }
            },
            "right": {},
            "top": {
                "Default": {
                    "type": "string",
                    "value": "0dp"
                }
            },
            "width": {
                "Default": {
                    "type": "string",
                    "value": "28.40%"
                }
            }
        }
    },
    "desktopweb": {
        "psp": {}
    },
    "id": "upcomingTransactions",
    "info": null,
    "ipad": {},
    "iphone": {},
    "isdatareferenced": false,
    "isvisible": true,
    "kiosk": {},
    "kuid": "e9274f4dbf494bba84cb19f7bb51d41e",
    "layouttype": 4,
    "masterType": 0,
    "maxheight": {
        "type": "string",
        "value": ""
    },
    "name": "kony.ui.UserWidgetInstance",
    "parent": "flxSecondaryDetails",
    "pf": "CopyfrmAccountsLanding",
    "responsiveData": {
        "b1": {
            "centerX": {
                "type": "string",
                "value": ""
            },
            "left": {
                "type": "string",
                "value": "35.80%"
            }
        },
        "b2": {
            "left": {
                "type": "string",
                "value": ""
            },
            "right": {
                "type": "string",
                "value": "24dp"
            },
            "width": {
                "type": "string",
                "value": "45.50%"
            }
        },
        "b3": {
            "isVisible": true,
            "left": {
                "type": "string",
                "value": "10dp"
            },
            "right": {
                "type": "string",
                "value": "10dp"
            },
            "top": {
                "type": "string",
                "value": "435dp"
            },
            "width": {
                "type": "string",
                "value": ""
            }
        }
    },
    "snaptogrid": true,
    "sourceUserWidget": "bdc0cfd88660415bb58134579a033a3b",
    "spa": {},
    "spaan": {},
    "spaandroidtablet": {},
    "spabb": {},
    "spaip": {},
    "spaipad": {},
    "spamobile": {},
    "spatablet": {},
    "spawindowstablet": {},
    "spawinphone8": {},
    "tabrcandroid": {},
    "vizProps": {
        "hidewidgethierarchy": false
    },
    "vizprops": {
        "hidewidgethierarchy": false
    },
    "wType": "UserWidgetInstance",
    "windows10": {},
    "windows8": {},
    "winphone10": {},
    "winphone8": {}
}