{
    "@class": "com.kony.gen.viz.model.component.KVizUserWidget",
    "DNDConfig": null,
    "__parentReadjusting__": false,
    "_android_": {},
    "_androidwearos_": {},
    "_children_": [],
    "_desktopweb_": {},
    "_height_": {
        "type": "string",
        "value": "111dp"
    },
    "_ipad_": {},
    "_iphone_": {},
    "_kiosk_": {},
    "_margin_": [
        0,
        0,
        0,
        0
    ],
    "_orientation_": 1,
    "_padding_": [
        0,
        0,
        0,
        0
    ],
    "_percent_": true,
    "_skin_": "s24c92fc23b14f5484b693ee9b8a9b35",
    "_spa_": {},
    "_spaan_": {},
    "_spaandroidtablet_": {},
    "_spabb_": {},
    "_spaip_": {},
    "_spaipad_": {},
    "_spamobile_": {},
    "_spatablet_": {},
    "_spawindowstablet_": {},
    "_spawinphone8_": {},
    "_tabrcandroid_": {},
    "_top_": {
        "type": "string",
        "value": "0dp"
    },
    "_vizProps_": {
        "hidewidgethierarchy": false
    },
    "_width_": {
        "type": "string",
        "value": "100%"
    },
    "_windows10_": {},
    "_windows8_": {},
    "_winphone10_": {},
    "_winphone8_": {},
    "areflexpropsreferenced": false,
    "autogrowmode": 0,
    "canUpdateUI": true,
    "centerx": {
        "type": "string",
        "value": "50%"
    },
    "clipbounds": true,
    "containerweight": 0,
    "dataDiffs": {
        "btnCancel": {
            "__events__": {},
            "__info__": {
                "kuid": "e7778be9a3b54a7e83688c755e8b17a0",
                "srcKUID": "u05c6a60532e44e2a105bdb1285e48ce",
                "wType": "Button"
            }
        },
        "btnNext": {
            "__events__": {},
            "__info__": {
                "kuid": "f293bbc4c4e64f8a86e9f87f8458742f",
                "srcKUID": "u7792f44a421403daa2db75b02da488a",
                "wType": "Button"
            }
        },
        "btnOption": {
            "__events__": {},
            "__info__": {
                "kuid": "fc51ee8ee0dc4e1898e74a120ddfce8e",
                "srcKUID": "u4aa85d524fd4c568e161b4690c9fad6",
                "wType": "Button"
            }
        },
        "flxMain": {
            "__events__": {},
            "__info__": {
                "kuid": "ba2094d06ce342199df87f5a1471613d",
                "srcKUID": "udf6b8b0e63949f5826be318d2fe63b3",
                "wType": "FlexContainer"
            }
        },
        "formActionsNewCopy": {
            "__events__": {},
            "__info__": {
                "isRoot": true,
                "kuid": "dbae1f1058f1482d8c5f36e0a5bc07dc",
                "srcKUID": "ud5b21dd946547fe9beada094bb14f8a",
                "wType": "FlexContainer"
            }
        }
    },
    "enablescrolling": true,
    "id": "formActionsNew",
    "info": null,
    "iscustomlayout": false,
    "isdatareferenced": false,
    "issegmentchild": false,
    "isvisible": true,
    "kuid": "dbae1f1058f1482d8c5f36e0a5bc07dc",
    "layouttype": 2,
    "masterType": 0,
    "name": "kony.ui.UserWidgetInstance",
    "parent": "flxBody",
    "pf": "userwidgetmodel",
    "retaincontentalignment": false,
    "retainflexpositionproperties": false,
    "snapgridsize": 10,
    "snaptogrid": true,
    "sourceUserWidget": "ud5b21dd946547fe9beada094bb14f8a",
    "wType": "UserWidgetInstance",
    "zindex": 1
}