{
    "BusinessControllerConfig": {
        "CommandHandler": [],
        "BusinessControllerClass": "PresentationInterruptHandler/BusinessControllers/BusinessController"
    },
    "ModuleName": "PresentationInterruptHandler"
}