{
    "@class": "com.kony.gen.viz.model.component.KVizButton",
    "DNDConfig": null,
    "__parentReadjusting__": false,
    "_bottom_": {
        "type": "number",
        "value": ""
    },
    "_height_": {
        "type": "string",
        "value": "50dp"
    },
    "_margin_": [
        6,
        6,
        6,
        6
    ],
    "_padding_": [
        0,
        0,
        0,
        0
    ],
    "_right_": {
        "type": "string",
        "value": "2.50%"
    },
    "_skin_": "sea1525e3fa24829a889b1fd650f3f24",
    "_text_": "SEND MONEY",
    "_top_": {
        "type": "string",
        "value": "30px"
    },
    "_width_": {
        "type": "string",
        "value": "32.49%"
    },
    "accessibilityconfig": {
        "a11yLabel": "Add Recipient"
    },
    "canUpdateUI": true,
    "containerweight": 100,
    "contentalignment": 5,
    "desktopweb": {
        "psp": {
            "hoverSkin": "s81054b5e2b74f17a5261991df565427"
        }
    },
    "disabledSkins": {
        "focusSkin": "sf44d06ca8224832827ea7fdff757013"
    },
    "displaytext": true,
    "id": "btnSendMoney",
    "info": null,
    "isvisible": true,
    "kuid": "d4d24b7cef634e06b6bb050209830136",
    "name": "kony.ui.Button",
    "parent": "flxButtons",
    "pf": "frmWireTransfersWindow",
    "responsiveData": {
        "b3": {
            "bottom": {
                "type": "string",
                "value": ""
            },
            "height": {
                "type": "string",
                "value": "40dp"
            },
            "isVisible": true,
            "top": {
                "type": "string",
                "value": "30px"
            },
            "width": {
                "type": "string",
                "value": "32.49%"
            }
        },
        "b4": {
            "bottom": {
                "type": "string",
                "value": ""
            },
            "height": {
                "type": "string",
                "value": "40dp"
            },
            "left": {
                "type": "string",
                "value": "10dp"
            },
            "right": {
                "type": "string",
                "value": "10dp"
            },
            "top": {
                "type": "string",
                "value": "20dp"
            },
            "width": {
                "type": "string",
                "value": ""
            }
        }
    },
    "texti18n": "i18n.PayAPerson.AddRecipient",
    "tooltip": "Add Recipient",
    "wType": "Button",
    "zindex": 2
}