{
    "AS_Button_d07917b246204ad39f224b8beb49af1f": {
        "id": "AS_Button_d07917b246204ad39f224b8beb49af1f",
        "type": "ACTION_SEQUENCE",
        "params": [{
            "datatype": "collection",
            "name": "eventobject"
        }],
        "contextObj": {
            "KUID": "u2955b3a21ea4d40bc9d0dcf4b101a62",
            "name": "uwu2955b3a21ea4d40bc9d0dcf4b101a62",
            "type": "userwidgets"
        },
        "language": "js",
        "actions": [{
            "id": "ADD_SNIPPET__ce59f792a5b7484685b5f2adff0c1a25",
            "type": "ADD_SNIPPET",
            "codeSnippet": "this.clickTab(eventobject);",
            "parentId": null,
            "callbackType": null
        }]
    }
}