{
    "AS_Button_f65dd40fc88f4e2cade46e41d479f534": {
        "id": "AS_Button_f65dd40fc88f4e2cade46e41d479f534",
        "type": "ACTION_SEQUENCE",
        "params": [{
            "datatype": "collection",
            "name": "eventobject"
        }],
        "language": "js",
        "actions": [{
            "id": "ADD_SNIPPET__e462d96eeae64e71ae7de75a4e02b010",
            "type": "ADD_SNIPPET",
            "codeSnippet": "this.clickTab(eventobject);",
            "parentId": null,
            "callbackType": null
        }]
    }
}