{
    "AS_Button_ge8f1970cf7240a7bdb249adcd6b3d5d": {
        "actions": [
            {
                "callbackType": null,
                "codeSnippet": "this.clickTab(eventobject);",
                "id": "ADD_SNIPPET__ae70f4243c2b42e094d6ea647018ce9f",
                "parentId": null,
                "type": "ADD_SNIPPET"
            }
        ],
        "contextObj": {
            "KUID": "u3f47d4299ff42938009a5fe8fa46b87",
            "name": "uwu3f47d4299ff42938009a5fe8fa46b87",
            "type": "userwidgets"
        },
        "id": "AS_Button_ge8f1970cf7240a7bdb249adcd6b3d5d",
        "language": "js",
        "params": [
            {
                "datatype": "collection",
                "name": "eventobject"
            }
        ],
        "type": "ACTION_SEQUENCE"
    }
}