{
    "AS_Button_c89ef1d5783f429aa138b9e3c69b1047": {
        "id": "AS_Button_c89ef1d5783f429aa138b9e3c69b1047",
        "type": "ACTION_SEQUENCE",
        "params": [{
            "datatype": "collection",
            "name": "eventobject"
        }],
        "contextObj": {
            "KUID": "u2955b3a21ea4d40bc9d0dcf4b101a62",
            "name": "uwu2955b3a21ea4d40bc9d0dcf4b101a62",
            "type": "userwidgets"
        },
        "language": "js",
        "actions": [{
            "id": "ADD_SNIPPET__d5fe83adfe6e43498d053c7766e78a96",
            "type": "ADD_SNIPPET",
            "codeSnippet": "this.clickTab(eventobject);",
            "parentId": null,
            "callbackType": null
        }]
    }
}