{
    "AS_Button_jf054eee48584ddf92884cdeaf62c683": {
        "id": "AS_Button_jf054eee48584ddf92884cdeaf62c683",
        "type": "ACTION_SEQUENCE",
        "params": [{
            "datatype": "collection",
            "name": "eventobject"
        }],
        "contextObj": {
            "name": "uwudd9d31efcba4acdbb3a846d25a17888",
            "type": "userwidgets",
            "KUID": "udd9d31efcba4acdbb3a846d25a17888"
        },
        "language": "js",
        "actions": []
    }
}