{
    "AS_Button_a3299f17962d4c53b5dd45264902b548": {
        "id": "AS_Button_a3299f17962d4c53b5dd45264902b548",
        "type": "ACTION_SEQUENCE",
        "params": [{
            "datatype": "collection",
            "name": "eventobject"
        }],
        "contextObj": {
            "KUID": "u4a468a71109436a9c43788144140de8",
            "name": "uwu4a468a71109436a9c43788144140de8",
            "type": "userwidgets"
        },
        "language": "js",
        "actions": [{
            "id": "ADD_SNIPPET__d18aea445e6a40569e9bb4797fb9ec33",
            "type": "ADD_SNIPPET",
            "codeSnippet": "this.showLocateUsPage();",
            "parentId": null,
            "callbackType": null
        }]
    }
}