{
    "AS_FlexContainer_f16c62fce53a4875a8bebf37b5007163": {
        "id": "AS_FlexContainer_f16c62fce53a4875a8bebf37b5007163",
        "type": "ACTION_SEQUENCE",
        "params": [{
            "datatype": "collection",
            "name": "eventobject"
        }],
        "contextObj": {
            "KUID": "uf89e39bce194c39bed1b805cebe4f94",
            "name": "uwuf89e39bce194c39bed1b805cebe4f94",
            "type": "userwidgets"
        },
        "language": "js",
        "actions": [{
            "id": "ADD_SNIPPET__c7e9a9da746d4b8cab4cba9706a80c43",
            "type": "ADD_SNIPPET",
            "codeSnippet": "this.showUserActions();",
            "parentId": null,
            "callbackType": null
        }]
    }
}