{
    "AS_FlexContainer_fa9f74d766704b76ad64b9b838c45d5e": {
        "id": "AS_FlexContainer_fa9f74d766704b76ad64b9b838c45d5e",
        "type": "ACTION_SEQUENCE",
        "params": [{
            "datatype": "collection",
            "name": "eventobject"
        }],
        "contextObj": {
            "KUID": "u31c707da7774d75a292fd9004a81deb",
            "name": "uwu31c707da7774d75a292fd9004a81deb",
            "type": "userwidgets"
        },
        "language": "js",
        "actions": [{
            "id": "ADD_SNIPPET__i8a665c189f547d2970d2fb631cb9ee4",
            "type": "ADD_SNIPPET",
            "codeSnippet": "this.showUserActions();",
            "parentId": null,
            "callbackType": null
        }]
    }
}