{
    "AS_FlexContainer_b227a7597b9943678492f5ada9c459dc": {
        "id": "AS_FlexContainer_b227a7597b9943678492f5ada9c459dc",
        "type": "ACTION_SEQUENCE",
        "params": [{
            "datatype": "collection",
            "name": "eventobject"
        }],
        "contextObj": {
            "name": "uwu5cdb7c5fbf34aec84fd1bf2010935de",
            "type": "userwidgets",
            "KUID": "u5cdb7c5fbf34aec84fd1bf2010935de"
        },
        "language": "js",
        "actions": [{
            "id": "INVOKE_FUNCTION__jdc37bbdce314035a21d1adbaa6f4479",
            "type": "INVOKE_FUNCTION",
            "sequenceKUID": "preShow",
            "display": "preShow",
            "inputparams": [],
            "parentId": null,
            "callbackType": null,
            "disabled": null,
            "source": "controller"
        }]
    }
}