{
    "AS_FlexContainer_dfb93542a6a04990892a2df58834e483": {
        "id": "AS_FlexContainer_dfb93542a6a04990892a2df58834e483",
        "type": "ACTION_SEQUENCE",
        "params": [{
            "datatype": "collection",
            "name": "eventobject"
        }, {
            "datatype": "number",
            "name": "breakpoint"
        }],
        "contextObj": {
            "name": "uwf3ded540f2c14ff9997681fb839f4d21",
            "type": "userwidgets",
            "KUID": "f3ded540f2c14ff9997681fb839f4d21"
        },
        "language": "js",
        "actions": [{
            "id": "INVOKE_FUNCTION__j1eb3e43fce94ff69b79da6e57fa4fc5",
            "type": "INVOKE_FUNCTION",
            "sequenceKUID": "onBreakpointChange",
            "display": "onBreakpointChange",
            "inputparams": [],
            "parentId": null,
            "callbackType": null,
            "disabled": null,
            "source": "controller"
        }]
    }
}