{
    "AS_FlexContainer_cab1fb3baea443f1a399700869a27f98": {
        "id": "AS_FlexContainer_cab1fb3baea443f1a399700869a27f98",
        "type": "ACTION_SEQUENCE",
        "params": [{
            "datatype": "collection",
            "name": "eventobject"
        }],
        "contextObj": {
            "name": "uwu061affc28134a43aad7bfab7786c25c",
            "type": "userwidgets",
            "KUID": "u061affc28134a43aad7bfab7786c25c"
        },
        "language": "js",
        "actions": [{
            "id": "ADD_SNIPPET__db352b988073425f8b1c6fc5579e38af",
            "type": "ADD_SNIPPET",
            "codeSnippet": "this.toggle(this.view.flxAboutUsSubMenu);",
            "parentId": null,
            "callbackType": null
        }]
    }
}