{
    "AS_FlexScrollContainer_bcbfcef9317e4113b82e46118adbea93": {
        "id": "AS_FlexScrollContainer_bcbfcef9317e4113b82e46118adbea93",
        "type": "ACTION_SEQUENCE",
        "params": [{
            "datatype": "collection",
            "name": "eventobject"
        }],
        "contextObj": {
            "KUID": "g1a7602f674d4b91a56e27a3e4949e03",
            "type": "userwidgets"
        },
        "language": "js",
        "actions": [{
            "id": "ADD_SNIPPET__gce84af61c6143418edf14238ebff6f7",
            "type": "ADD_SNIPPET",
            "codeSnippet": "//this.invokePreShow();",
            "parentId": null,
            "callbackType": null
        }]
    }
}