{
    "AS_FlexContainer_ge24a9ff08244d83a34477d24fcf263a": {
        "id": "AS_FlexContainer_ge24a9ff08244d83a34477d24fcf263a",
        "type": "ACTION_SEQUENCE",
        "params": [{
            "datatype": "collection",
            "name": "eventobject"
        }],
        "contextObj": {
            "name": "uwu36ac1d9b8804276b8eaaa7a22b61724",
            "type": "userwidgets",
            "KUID": "u36ac1d9b8804276b8eaaa7a22b61724"
        },
        "language": "js",
        "actions": [{
            "id": "INVOKE_FUNCTION__be6552bac244435f9ed60b697e165448",
            "type": "INVOKE_FUNCTION",
            "sequenceKUID": "postshow",
            "display": "postshow",
            "inputparams": [],
            "parentId": null,
            "callbackType": null,
            "disabled": null,
            "source": "controller"
        }]
    }
}