{
    "AS_FlexContainer_bca89a7e1dde423aa1d96244b2c22c76": {
        "id": "AS_FlexContainer_bca89a7e1dde423aa1d96244b2c22c76",
        "type": "ACTION_SEQUENCE",
        "params": [{
            "datatype": "collection",
            "name": "eventobject"
        }],
        "contextObj": {
            "name": "uwu53b0de3a8a648eaa6f120313abbdbec",
            "type": "userwidgets",
            "KUID": "u53b0de3a8a648eaa6f120313abbdbec"
        },
        "language": "js",
        "actions": [{
            "id": "ADD_SNIPPET__d71627e967574326941a5d9295d5f196",
            "type": "ADD_SNIPPET",
            "codeSnippet": "this.renderCalendar();",
            "parentId": null,
            "callbackType": null
        }]
    }
}