{
    "AS_FlexContainer_g27ae8fa84944646a7aa5ee73651d81c": {
        "id": "AS_FlexContainer_g27ae8fa84944646a7aa5ee73651d81c",
        "type": "ACTION_SEQUENCE",
        "params": [{
            "datatype": "collection",
            "name": "eventobject"
        }],
        "contextObj": {
            "name": "uwu28e99c0c2174a5b92450249324ba2b7",
            "type": "userwidgets",
            "KUID": "u28e99c0c2174a5b92450249324ba2b7"
        },
        "language": "js",
        "actions": [{
            "id": "INVOKE_FUNCTION__dff7842f4d5848dc9cc14b47bf73958e",
            "type": "INVOKE_FUNCTION",
            "sequenceKUID": "preShow",
            "display": "preShow",
            "inputparams": [],
            "parentId": null,
            "callbackType": null,
            "disabled": null,
            "source": "controller"
        }]
    }
}