{
    "AS_FlexContainer_e7805ede8fcd40b48d0a0dff3f424f00": {
        "id": "AS_FlexContainer_e7805ede8fcd40b48d0a0dff3f424f00",
        "type": "ACTION_SEQUENCE",
        "params": [{
            "datatype": "collection",
            "name": "eventobject"
        }],
        "contextObj": {
            "name": "uwuff8657ea2b54b84ac4bb271cd720b1d",
            "type": "userwidgets",
            "KUID": "uff8657ea2b54b84ac4bb271cd720b1d"
        },
        "language": "js",
        "actions": [{
            "id": "INVOKE_FUNCTION__ff0b849e543746008d25d99ceb05b283",
            "type": "INVOKE_FUNCTION",
            "sequenceKUID": "onBreakpointChange",
            "display": "onBreakpointChange",
            "inputparams": [],
            "parentId": null,
            "callbackType": null,
            "disabled": null,
            "source": "controller"
        }]
    }
}