{
    "AS_FlexContainer_d28b0edeaaad421cae93952578c5c56a": {
        "id": "AS_FlexContainer_d28b0edeaaad421cae93952578c5c56a",
        "type": "ACTION_SEQUENCE",
        "params": [{
            "datatype": "collection",
            "name": "eventobject"
        }],
        "contextObj": {
            "name": "uwue1a1386f9f8492fafe0048dab81ba70",
            "type": "userwidgets",
            "KUID": "ue1a1386f9f8492fafe0048dab81ba70"
        },
        "language": "js",
        "actions": [{
            "id": "ADD_SNIPPET_effb97d124c746c9afe1e2b938c7e21a",
            "type": "ADD_SNIPPET",
            "codeSnippet": "this.postShow();",
            "parentId": null
        }]
    }
}