{
    "AS_FlexContainer_dd9dfe87da9a4114af17bd873868e1d4": {
        "id": "AS_FlexContainer_dd9dfe87da9a4114af17bd873868e1d4",
        "type": "ACTION_SEQUENCE",
        "params": [{
            "datatype": "collection",
            "name": "eventobject"
        }],
        "contextObj": {
            "KUID": "ufcc37b5082d4c7683a827e363ebc747",
            "name": "uwufcc37b5082d4c7683a827e363ebc747",
            "type": "userwidgets"
        },
        "language": "js",
        "actions": [{
            "id": "ADD_SNIPPET__c7e9a9da746d4b8cab4cba9706a80c43",
            "type": "ADD_SNIPPET",
            "codeSnippet": "this.showUserActions();",
            "parentId": null,
            "callbackType": null
        }]
    }
}