{
    "AS_FlexContainer_ja8139434a454bd0b46528a31869d42e": {
        "id": "AS_FlexContainer_ja8139434a454bd0b46528a31869d42e",
        "type": "ACTION_SEQUENCE",
        "params": [{
            "datatype": "collection",
            "name": "eventobject"
        }],
        "contextObj": {
            "KUID": "u1878ce272bd47edb0a5f3d2e7f7424c",
            "name": "uwu1878ce272bd47edb0a5f3d2e7f7424c",
            "type": "userwidgets"
        },
        "language": "js",
        "actions": [{
            "id": "ADD_SNIPPET__b534adca7c3d43c2b083e3f0bf6eae75",
            "type": "ADD_SNIPPET",
            "codeSnippet": "this.headerPreShow();",
            "parentId": null,
            "callbackType": null
        }]
    }
}