{
    "AS_FlexContainer_ef7c6a670cab4ac2b66275ed2d761fcb": {
        "id": "AS_FlexContainer_ef7c6a670cab4ac2b66275ed2d761fcb",
        "type": "ACTION_SEQUENCE",
        "params": [{
            "datatype": "collection",
            "name": "eventobject"
        }],
        "contextObj": {
            "name": "uwu2b1d798d4594f63837ed9524b560443",
            "type": "userwidgets",
            "KUID": "u2b1d798d4594f63837ed9524b560443"
        },
        "language": "js",
        "actions": [{
            "id": "ADD_SNIPPET__fefade65f2f947b38d334e9da970e749",
            "type": "ADD_SNIPPET",
            "codeSnippet": "this.checkboxActionInternational();",
            "parentId": null,
            "callbackType": null
        }]
    }
}