{
    "AS_FlexContainer_d8c9a17bbe814a01a88d3815ea47b63e": {
        "id": "AS_FlexContainer_d8c9a17bbe814a01a88d3815ea47b63e",
        "type": "ACTION_SEQUENCE",
        "params": [{
            "datatype": "collection",
            "name": "eventobject"
        }],
        "contextObj": {
            "KUID": "u5319ed887214c078bec368126b2870b",
            "name": "uwu5319ed887214c078bec368126b2870b",
            "type": "userwidgets"
        },
        "language": "js",
        "actions": [{
            "id": "ADD_SNIPPET__f79194b16afd4c6db5059376befd6e61",
            "type": "ADD_SNIPPET",
            "codeSnippet": "this.initHamburger();",
            "parentId": null,
            "callbackType": null
        }]
    }
}