{
    "AS_FlexContainer_d558df92fc1346eda11b327201a79544": {
        "id": "AS_FlexContainer_d558df92fc1346eda11b327201a79544",
        "type": "ACTION_SEQUENCE",
        "params": [{
            "datatype": "collection",
            "name": "eventobject"
        }],
        "contextObj": {
            "KUID": "u60a2f8b1a7d455b989c2f515cf65715",
            "name": "uwu60a2f8b1a7d455b989c2f515cf65715",
            "type": "userwidgets"
        },
        "language": "js",
        "actions": [{
            "id": "ADD_SNIPPET_f7ff03dd10ec470b8dbe395673ec25ad",
            "type": "ADD_SNIPPET",
            "codeSnippet": "this.postShow();",
            "parentId": null
        }]
    }
}