{
    "AS_FlexContainer_d2e03bb8a3a6409a8e9c612e309a543b": {
        "actions": [
            {
                "callbackType": null,
                "codeSnippet": "this.headerPreShow();",
                "id": "ADD_SNIPPET__b534adca7c3d43c2b083e3f0bf6eae75",
                "parentId": null,
                "type": "ADD_SNIPPET"
            }
        ],
        "contextObj": {
            "KUID": "u51cf76f3d62457bbb392dda2f254bea",
            "name": "uwu2ebd3870c3341b5b611428ef56ae336",
            "type": "userwidgets"
        },
        "id": "AS_FlexContainer_d2e03bb8a3a6409a8e9c612e309a543b",
        "language": "js",
        "params": [
            {
                "datatype": "collection",
                "name": "eventobject"
            }
        ],
        "type": "ACTION_SEQUENCE"
    }
}