{
    "AS_FlexContainer_d11f1f194be546a6afab30dc3ac5925f": {
        "id": "AS_FlexContainer_d11f1f194be546a6afab30dc3ac5925f",
        "type": "ACTION_SEQUENCE",
        "params": [{
            "datatype": "collection",
            "name": "eventobject"
        }],
        "contextObj": {
            "KUID": "ua5b6dc2227c4b76baabaee306266b2b",
            "name": "uwua5b6dc2227c4b76baabaee306266b2b",
            "type": "userwidgets"
        },
        "language": "js",
        "actions": [{
            "id": "INVOKE_FUNCTION__h00ed39ba76849bfb5b7fccae55a01a8",
            "type": "INVOKE_FUNCTION",
            "sequenceKUID": "preShow",
            "display": "preShow",
            "inputparams": [],
            "parentId": null,
            "callbackType": null,
            "disabled": null,
            "source": "controller"
        }]
    }
}