{
    "AS_FlexContainer_b047a1fd0f1c4737883f46aa7e838ab8": {
        "id": "AS_FlexContainer_b047a1fd0f1c4737883f46aa7e838ab8",
        "type": "ACTION_SEQUENCE",
        "params": [{
            "datatype": "collection",
            "name": "eventobject"
        }],
        "contextObj": {
            "KUID": "uc9d89d46ceb4a01b91368016c5e67ae",
            "name": "uwuc9d89d46ceb4a01b91368016c5e67ae",
            "type": "userwidgets"
        },
        "language": "js",
        "actions": [{
            "id": "ADD_SNIPPET__j8ed2eba7c8f48429719c3d2a90650e8",
            "type": "ADD_SNIPPET",
            "codeSnippet": "this.fixContextualMenu();",
            "parentId": null,
            "callbackType": null
        }]
    }
}