{
    "AS_FlexContainer_de0422979b3841ec9300fd9c942a39c7": {
        "id": "AS_FlexContainer_de0422979b3841ec9300fd9c942a39c7",
        "type": "ACTION_SEQUENCE",
        "params": [{
            "datatype": "collection",
            "name": "eventobject"
        }],
        "contextObj": {
            "name": "uwu4dcd28858204dcfa8558beead10fd8d",
            "type": "userwidgets",
            "KUID": "u4dcd28858204dcfa8558beead10fd8d"
        },
        "language": "js",
        "actions": [{
            "id": "ADD_SNIPPET_ab227d2bd76c4e588ae03bcb301a1e42",
            "type": "ADD_SNIPPET",
            "codeSnippet": "this.postshow()",
            "parentId": null
        }]
    }
}