{
    "AS_FlexContainer_fca0c84c3db841de9f7d70e2d43defb2": {
        "id": "AS_FlexContainer_fca0c84c3db841de9f7d70e2d43defb2",
        "type": "ACTION_SEQUENCE",
        "params": [{
            "datatype": "collection",
            "name": "eventobject"
        }],
        "contextObj": {
            "name": "uwu061affc28134a43aad7bfab7786c25c",
            "type": "userwidgets",
            "KUID": "u061affc28134a43aad7bfab7786c25c"
        },
        "language": "js",
        "actions": [{
            "id": "ADD_SNIPPET__jbfa87ca0742468d8eeb30c0f6ea5aeb",
            "type": "ADD_SNIPPET",
            "codeSnippet": "this.toggle(this.view.flxBillPaySubMenu);",
            "parentId": null,
            "callbackType": null
        }]
    }
}