{
    "AS_FlexContainer_j7621df3a7374173b44f60f0b1184706": {
        "id": "AS_FlexContainer_j7621df3a7374173b44f60f0b1184706",
        "type": "ACTION_SEQUENCE",
        "params": [{
            "datatype": "collection",
            "name": "eventobject"
        }],
        "contextObj": {
            "name": "uw48f59ba1ac324f07b3ab3a83be7f3f93",
            "type": "userwidgets",
            "KUID": "48f59ba1ac324f07b3ab3a83be7f3f93"
        },
        "language": "js",
        "actions": [{
            "id": "ADD_SNIPPET__ec7fcab50a354bd5b39a6ec56650c6e1",
            "type": "ADD_SNIPPET",
            "codeSnippet": "this.toggleSearch();",
            "parentId": null,
            "callbackType": null
        }]
    }
}