{
    "AS_FlexContainer_e12f6de9fada47d0904fb233555848c4": {
        "id": "AS_FlexContainer_e12f6de9fada47d0904fb233555848c4",
        "type": "ACTION_SEQUENCE",
        "params": [{
            "datatype": "collection",
            "name": "eventobject"
        }, {
            "datatype": "number",
            "name": "breakpoint"
        }],
        "contextObj": {
            "name": "uwu852c47ac5c04206bcc30d7476f6b506",
            "type": "userwidgets",
            "KUID": "u852c47ac5c04206bcc30d7476f6b506"
        },
        "language": "js",
        "actions": [{
            "id": "INVOKE_FUNCTION__g9e4f3155c9a4431ab9be032f018d717",
            "type": "INVOKE_FUNCTION",
            "sequenceKUID": "onBreakpointChange",
            "display": "onBreakpointChange",
            "inputparams": [],
            "parentId": null,
            "callbackType": null,
            "disabled": null,
            "source": "controller"
        }]
    }
}