{
	"AS_FlexContainer_fcf6c743ef4f4dfe93cc8a2b4ff49e0c": {
		"id": "AS_FlexContainer_fcf6c743ef4f4dfe93cc8a2b4ff49e0c",
		"type": "ACTION_SEQUENCE",
		"params": [
			{
				"datatype": "collection",
				"name": "eventobject"
			}
		],
		"contextObj": {
			"name": "uwg475ed46d5a144c39bee1438ca979094",
			"type": "userwidgets",
			"KUID": "g475ed46d5a144c39bee1438ca979094"
		},
		"language": "js",
		"actions": [
			{
				"id": "ADD_SNIPPET_fd60a13043f44266b5bdcddf10519585",
				"type": "ADD_SNIPPET",
				"codeSnippet": "this.preShow();",
				"parentId": null,
				"callbackType": null
			}
		]
	}
}