{
    "AS_FlexContainer_e34ac981f9a949aba7b63ed3176a6425": {
        "id": "AS_FlexContainer_e34ac981f9a949aba7b63ed3176a6425",
        "type": "ACTION_SEQUENCE",
        "params": [{
            "datatype": "collection",
            "name": "eventobject"
        }],
        "contextObj": {
            "name": "uwu061affc28134a43aad7bfab7786c25c",
            "type": "userwidgets",
            "KUID": "u061affc28134a43aad7bfab7786c25c"
        },
        "language": "js",
        "actions": [{
            "id": "ADD_SNIPPET__a01cc0cb6b5141d4ba5c14e246e3d64a",
            "type": "ADD_SNIPPET",
            "codeSnippet": "this.toggle(this.view.flxAboutUsSubMenu, this.view.imgAboutUsCollapse)",
            "parentId": null,
            "callbackType": null
        }]
    }
}