{
    "AS_ListBox_c19f8005af794875954aa228e19a99c1": {
        "id": "AS_ListBox_c19f8005af794875954aa228e19a99c1",
        "type": "ACTION_SEQUENCE",
        "params": [{
            "datatype": "collection",
            "name": "eventobject"
        }],
        "contextObj": {
            "name": "uw188d39742fa641e3aea24186146b4b85",
            "type": "userwidgets",
            "KUID": "188d39742fa641e3aea24186146b4b85"
        },
        "language": "js",
        "actions": [{
            "id": "ADD_SNIPPET__f7799192630741f1bc67c4dc8567267b",
            "type": "ADD_SNIPPET",
            "codeSnippet": "this.showTransactionType();",
            "parentId": null,
            "callbackType": null
        }]
    }
}