{
    "AS_Segment_jbd55b60bffc4c729f245b1d94db0f33": {
        "id": "AS_Segment_jbd55b60bffc4c729f245b1d94db0f33",
        "type": "ACTION_SEQUENCE",
        "params": [{
            "datatype": "collection",
            "name": "eventobject"
        }, {
            "datatype": "number",
            "name": "sectionNumber"
        }, {
            "datatype": "number",
            "name": "rowNumber"
        }],
        "contextObj": {
            "name": "uwud831e014c674b0aa3905b63436a2225",
            "type": "userwidgets",
            "KUID": "ud831e014c674b0aa3905b63436a2225"
        },
        "language": "js",
        "actions": [{
            "id": "INVOKE_FUNCTION__b50e98704cc04fb0940e8e9df37d692c",
            "type": "INVOKE_FUNCTION",
            "sequenceKUID": "onTransferDurationSelection",
            "display": "onTransferDurationSelection",
            "inputparams": [{
                "name": "seg",
                "value": "this.view.segTransferDurationList"
            }, {
                "name": "lblSelectedValue",
                "value": "this.view.lblSelectedTransferDurationType"
            }, {
                "name": "imgDropdownIcon",
                "value": "this.view.imgTransferDurationTypeDropdownIcon"
            }, {
                "name": "flxDropdownList",
                "value": "this.view.flxTransferDurationTypeList"
            }],
            "parentId": null,
            "callbackType": null,
            "disabled": null,
            "source": "controller"
        }]
    }
}