{
    "AS_TextField_ae7491d8ec314629bbcad91150fb439e": {
        "id": "AS_TextField_ae7491d8ec314629bbcad91150fb439e",
        "type": "ACTION_SEQUENCE",
        "params": [{
            "datatype": "collection",
            "name": "eventobject"
        }],
        "contextObj": {
            "name": "uwa19e5ad444374d03bb8e80f65d5d1e53",
            "type": "userwidgets",
            "KUID": "a19e5ad444374d03bb8e80f65d5d1e53"
        },
        "language": "js",
        "actions": [{
            "id": "ADD_SNIPPET__a79c50b7bbff4ecda4c34c388988e682",
            "type": "ADD_SNIPPET",
            "codeSnippet": null,
            "parentId": null,
            "callbackType": null
        }]
    }
}