{
    "@class": "com.kony.gen.viz.model.component.KVizLabel",
    "DNDConfig": null,
    "__parentReadjusting__": false,
    "_height_": {
        "type": "string",
        "value": "45dp"
    },
    "_left_": {
        "type": "string",
        "value": "30dp"
    },
    "_margin_": [
        1,
        1,
        1,
        1
    ],
    "_padding_": [
        0,
        0,
        5,
        5
    ],
    "_skin_": "s415be662ebd4bc8b09a3193c2067ba6",
    "_text_": " Lorem ipsum dolor sit amet, consectetur adipising elit. Aenean euismod bibendum laoreet. Proin gravida dolor sit amet lacus accumsan et viverra justo commodo.Proin sodales pulvinar tempor. Cum sociis antoque penatibus et magnis dis parturient montes, Nam fermentum, nulla luctus pharetra vulputate, fellis tellus mollis orci, sed rhoncus sapien nunc eget. ",
    "_top_": {
        "type": "string",
        "value": "700dp"
    },
    "_width_": {
        "type": "string",
        "value": "79%"
    },
    "_wrapping_": 2,
    "android": {
        "textStyle": {
            "letterSpacing": 0,
            "strikeThrough": false
        }
    },
    "canUpdateUI": true,
    "containerweight": 100,
    "contentalignment": 1,
    "id": "lblEbillDetails",
    "info": null,
    "ipad": {
        "psp": {
            "wrapping": 2
        }
    },
    "iphone": {
        "psp": {
            "wrapping": 2
        }
    },
    "isvisible": true,
    "kuid": "b5a347a2d9a84f1fbe0046ac4fc12c23",
    "name": "kony.ui.Label",
    "paddinginpixel": false,
    "parent": "ViewEBill",
    "pf": "userwidgetmodel",
    "tooltip": "",
    "wType": "Label",
    "zindex": 1,
    "accessibilityconfig": {
        "a11yLabel": " Lorem ipsum dolor sit amet, consectetur adipising elit. Aenean euismod bibendum laoreet. Proin gravida dolor sit amet lacus accumsan et viverra justo commodo.Proin sodales pulvinar tempor. Cum sociis antoque penatibus et magnis dis parturient montes, Nam fermentum, nulla luctus pharetra vulputate, fellis tellus mollis orci, sed rhoncus sapien nunc eget. "
    }
}