{
    "@class": "com.kony.gen.viz.model.component.KVizButton",
    "DNDConfig": null,
    "__parentReadjusting__": false,
    "_height_": {
        "type": "string",
        "value": "40dp"
    },
    "_margin_": [
        6,
        6,
        6,
        6
    ],
    "_padding_": [
        0,
        0,
        0,
        0
    ],
    "_right_": {
        "type": "string",
        "value": "180dp"
    },
    "_skin_": "s83729feaa224e359d660d5af05c4bac",
    "_text_": "CANCEL",
    "_width_": {
        "type": "string",
        "value": "150dp"
    },
    "accessibilityconfig": {
        "a11yLabel": "Cancel"
    },
    "canUpdateUI": true,
    "centery": {
        "type": "string",
        "value": "50%"
    },
    "containerweight": 100,
    "contentalignment": 5,
    "desktopweb": {
        "psp": {
            "hoverSkin": "s83729feaa224e359d660d5af05c4bac"
        }
    },
    "disabledSkins": {
        "blockedUISkin": "s1400c825f384a46b15a0f8d6829ecef",
        "focusSkin": "sf44d06ca8224832827ea7fdff757013"
    },
    "displaytext": true,
    "focusskin": null,
    "id": "btnCardsCancel",
    "info": null,
    "isvisible": true,
    "kuid": "j73e8afa55894efab1d34ce37af0afaa",
    "name": "kony.ui.Button",
    "parent": "flxEligibleCardsButtons",
    "pf": "frmCardManagement",
    "texti18n": "i18n.transfers.Cancel",
    "tooltip": "Cancel",
    "wType": "Button",
    "zindex": 1
}