{
    "@class": "com.kony.gen.viz.model.component.KVizLabel",
    "DNDConfig": null,
    "__parentReadjusting__": false,
    "_height_": {
        "type": "string",
        "value": "49dp"
    },
    "_left_": {
        "type": "string",
        "value": "7.69%"
    },
    "_margin_": [
        1,
        1,
        1,
        1
    ],
    "_padding_": [
        0,
        0,
        0,
        0
    ],
    "_skin_": "s2a87b57d4c74bbd9330ca093b513b70",
    "_text_": "Label",
    "_top_": {
        "type": "string",
        "value": "0dp"
    },
    "_width_": {
        "type": "ref",
        "value": "preferred"
    },
    "_wrapping_": 2,
    "accessibilityconfig": {
        "a11yLabel": "My Previously Owned Cards"
    },
    "android": {
        "textStyle": {
            "letterSpacing": 0,
            "strikeThrough": false
        }
    },
    "canUpdateUI": true,
    "containerweight": 100,
    "contentalignment": 4,
    "id": "CopylblMyPreviousOwnedCards0c72dd01857364a",
    "info": null,
    "ipad": {
        "psp": {
            "wrapping": 2
        }
    },
    "iphone": {
        "psp": {
            "wrapping": 2
        }
    },
    "isvisible": true,
    "kuid": "eb4d652654594cf5984fb5906d1ab490",
    "name": "kony.ui.Label",
    "parent": "CopyflxMyPreviousOwnedCards0ia4a39b11e4e44",
    "pf": "frmCardManagement",
    "texti18n": "i18n.CardManagement.MyPreviousOwnedCards",
    "tooltip": "ADD INTERNATIONAL ACCOUNT",
    "wType": "Label",
    "zindex": 1
}