{
    "DNDConfig": null,
    "__parentReadjusting__": false,
    "_height_": {
        "type": "string",
        "value": "103dp"
    },
    "_left_": {
        "type": "string",
        "value": "0dp"
    },
    "_margin_": [
        0,
        0,
        0,
        0
    ],
    "_orientation_": 6,
    "_padding_": [
        0,
        0,
        0,
        0
    ],
    "_percent_": true,
    "_skin_": "s24c92fc23b14f5484b693ee9b8a9b35",
    "_top_": {
        "type": "string",
        "value": "30dp"
    },
    "_width_": {
        "type": "string",
        "value": "100%"
    },
    "allboxes": [],
    "canUpdateUI": true,
    "centery": {
        "type": "number",
        "value": ""
    },
    "children": [
        "btnNewCardCancel",
        "btnNewCardContinue",
        "lblSeparatorNew"
    ],
    "clipbounds": true,
    "containerweight": 100,
    "enablescrolling": true,
    "id": "flxNewcardButtons",
    "info": null,
    "iscustomlayout": false,
    "isvisible": true,
    "kuid": "hb772e5fc996490fa08f52383dbb9b6f",
    "layouttype": 2,
    "name": "kony.ui.FlexContainer",
    "parent": "flxCardBody",
    "pf": "frmCardManagement",
    "responsiveData": {
        "b2": {
            "height": {
                "type": "string",
                "value": "73dp"
            },
            "top": {
                "type": "string",
                "value": "20dp"
            }
        },
        "b3": {
            "centerY": {
                "type": "string",
                "value": ""
            },
            "height": {
                "type": "string",
                "value": "140dp"
            },
            "top": {
                "type": "string",
                "value": "20dp"
            }
        }
    },
    "retaincontentalignment": false,
    "retainflexpositionproperties": false,
    "snapgridsize": 10,
    "snaptogrid": true,
    "wType": "FlexContainer",
    "widgetalignment": 1
}