{
    "@class": "com.kony.gen.viz.model.component.KVizLabel",
    "DNDConfig": null,
    "__parentReadjusting__": false,
    "_height_": {
        "type": "string",
        "value": "25dp"
    },
    "_left_": {
        "type": "string",
        "value": "0dp"
    },
    "_margin_": [
        1,
        1,
        1,
        1
    ],
    "_padding_": [
        0,
        0,
        0,
        0
    ],
    "_skin_": "s18d3552bc4143569a7c5aef6bd5eaa1",
    "_text_": "Set Card Limits",
    "_top_": {
        "type": "string",
        "value": "25dp"
    },
    "_width_": {
        "type": "ref",
        "value": "preferred"
    },
    "_wrapping_": 2,
    "accessibilityconfig": {
        "a11yLabel": "Set Card Limits"
    },
    "android": {
        "textStyle": {
            "letterSpacing": 0,
            "strikeThrough": false
        }
    },
    "canUpdateUI": true,
    "containerweight": 100,
    "contentalignment": 4,
    "id": "lblSetCardLimitsHeader",
    "info": null,
    "ipad": {
        "psp": {
            "wrapping": 2
        }
    },
    "iphone": {
        "psp": {
            "wrapping": 2
        }
    },
    "iscustomlayout": false,
    "isvisible": true,
    "kuid": "a92945262b354cdd984a79b2949fda41",
    "name": "kony.ui.Label",
    "parent": "flxCardLimits",
    "pf": "frmCardManagement",
    "responsiveData": {
        "b1": {
            "left": {
                "type": "string",
                "value": "2dp"
            }
        },
        "b2": {
            "left": {
                "type": "string",
                "value": "2.50%"
            }
        },
        "b3": {
            "left": {
                "type": "string",
                "value": "2.50%"
            }
        },
        "b4": {
            "left": {
                "type": "string",
                "value": "10dp"
            }
        }
    },
    "retaincontentalignment": false,
    "retainflexpositionproperties": false,
    "texti18n": "i18n.CardManagement.SetCardLimits",
    "tooltip": "",
    "wType": "Label",
    "zindex": 1
}