{
    "@class": "com.kony.gen.viz.model.component.KVizUserWidget",
    "DNDConfig": null,
    "_children_": [],
    "_height_": {
        "type": "ref",
        "value": "preferred"
    },
    "_left_": {
        "type": "string",
        "value": "0dp"
    },
    "_margin_": [
        0,
        0,
        0,
        0
    ],
    "_orientation_": 1,
    "_padding_": [
        0,
        0,
        0,
        0
    ],
    "_percent_": true,
    "_render_": true,
    "_right_": {
        "type": "number",
        "value": ""
    },
    "_skin_": "s24c92fc23b14f5484b693ee9b8a9b35",
    "_top_": {
        "type": "string",
        "value": "0dp"
    },
    "_width_": {
        "type": "string",
        "value": "100%"
    },
    "areflexpropsreferenced": false,
    "autogrowmode": 1,
    "canUpdateUI": true,
    "clipbounds": false,
    "containerweight": 0,
    "dataDiffs": {
        "CopyimgCross0f2891aeff07e40": {
            "__events__": {},
            "__info__": {
                "kuid": "gaec12e0c72b4086a2467d919a482675",
                "srcKUID": "b5be59909185489fb9b37bb87b88a6e2",
                "wType": "Image"
            }
        },
        "accountTypesBillPayManagePayees": {
            "__events__": {},
            "__info__": {
                "kuid": "ca3efcf775cc4875b6d4f3456ef9b70d",
                "srcKUID": "f18071b945ec473685ede57107ebe9e8",
                "wType": "UserWidgetInstance"
            }
        },
        "accountTypesBillPayManagePayees.flxAccountTypesSegment": {
            "__events__": {},
            "__info__": {
                "kuid": "ef9963bd55394b13ac9f791207928026",
                "srcKUID": "jcc21d218d0347f3bced79a5379ab26b",
                "wType": "FlexContainer"
            }
        },
        "accountTypesBillPayManagePayees.imgToolTip": {
            "__events__": {},
            "__info__": {
                "kuid": "a4b58fb0fe644866a687a1dfefee197c",
                "srcKUID": "f8e4cd88e75649f48af893cbda4fcf75",
                "wType": "Image"
            }
        },
        "accountTypesBillPayManagePayees.segAccountTypes": {
            "__events__": {},
            "__info__": {
                "kuid": "f06426035a964fb7a0caa710d586be5f",
                "srcKUID": "bc0d72c7e78a4841bb3ca959eb0d1ad8",
                "wType": "Segment"
            }
        },
        "btnApplyForCard": {
            "__events__": {},
            "__info__": {
                "kuid": "af8056597e6543f3b39574048a4e8a76",
                "srcKUID": "h8d5b4387eec476799bbfe1f48ed7772",
                "wType": "Button"
            },
            "height": {
                "Default": {
                    "type": "string",
                    "value": "40dp"
                }
            },
            "i18n_text": "i18n.LocateUs.APPLY",
            "left": {},
            "responsiveData": {
                "b3": {
                    "left": {
                        "type": "string",
                        "value": "2.50%"
                    },
                    "right": {
                        "type": "string",
                        "value": "2.50%"
                    },
                    "width": {
                        "type": "string",
                        "value": "95%"
                    }
                },
                "b4": {
                    "left": {
                        "type": "string",
                        "value": ""
                    },
                    "right": {
                        "type": "string",
                        "value": "20dp"
                    },
                    "width": {
                        "type": "string",
                        "value": "150dp"
                    }
                }
            },
            "right": {},
            "width": {}
        },
        "btnConfirm": {
            "__events__": {},
            "__info__": {
                "kuid": "db98f3a86ad64ab1a7a5ca67c3c78875",
                "srcKUID": "i5aec97a3b6548e4be6dcfb72f8e906f",
                "wType": "FlexContainer"
            },
            "responsiveData": {
                "b3": {
                    "width": {
                        "type": "string",
                        "value": "8%"
                    }
                }
            },
            "width": {
                "Default": {
                    "type": "string",
                    "value": "4%"
                }
            }
        },
        "flxAccountName": {
            "__events__": {},
            "__info__": {
                "kuid": "e578373f7d1f4229a97efb0357fbad63",
                "srcKUID": "eb387b8c21eb4d78ad03e42a0cad78f7",
                "wType": "FlexContainer"
            },
            "left": {
                "Default": {
                    "type": "string",
                    "value": "0dp"
                }
            },
            "responsiveData": {
                "b1": {
                    "left": {
                        "type": "string",
                        "value": "10dp"
                    },
                    "width": {
                        "type": "string",
                        "value": "97.50%"
                    }
                },
                "b2": {
                    "left": {
                        "type": "string",
                        "value": "10dp"
                    },
                    "width": {
                        "type": "string",
                        "value": "97.50%"
                    }
                },
                "b3": {
                    "left": {
                        "type": "string",
                        "value": "10dp"
                    },
                    "width": {
                        "type": "string",
                        "value": "97%"
                    }
                },
                "b4": {
                    "left": {
                        "type": "string",
                        "value": "10dp"
                    },
                    "width": {
                        "type": "string",
                        "value": "97.50%"
                    }
                }
            },
            "width": {
                "Default": {
                    "type": "string",
                    "value": "100%"
                }
            }
        },
        "flxApplyForCards": {
            "__events__": {},
            "__info__": {
                "kuid": "fbbf40f7af0e463cb1e97245e446e748",
                "srcKUID": "d855f1cdad654e90820f58ef4d73df03",
                "wType": "FlexContainer"
            },
            "isVisible": true,
            "responsiveData": {}
        },
        "flxClearBtn": {
            "__events__": {},
            "__info__": {
                "kuid": "b382d8a1eaa443679478c06368700294",
                "srcKUID": "ed1aac6a76dc44bca547d4a4de646ca1",
                "wType": "FlexContainer"
            }
        },
        "flxDropdown": {
            "__events__": {},
            "__info__": {
                "kuid": "ba7cd3c68c7849c9a2093cb844717a96",
                "srcKUID": "ca95349d25534f0395585b5a4e1fecdc",
                "wType": "FlexContainer"
            }
        },
        "flxFiltersList": {
            "__events__": {},
            "__info__": {
                "kuid": "i05fc09362c34cd8a95094a10ecbb35e",
                "srcKUID": "be5c0edefb454df5a59529e4c5f2bc12",
                "wType": "FlexContainer"
            },
            "left": {
                "Default": {
                    "type": "string",
                    "value": "18dp"
                }
            },
            "responsiveData": {
                "b2": {
                    "width": {
                        "type": "string",
                        "value": "130px"
                    }
                },
                "b3": {
                    "left": {
                        "type": "string",
                        "value": "2%"
                    },
                    "right": {
                        "type": "string",
                        "value": "10dp"
                    },
                    "width": {
                        "type": "string",
                        "value": "29%"
                    }
                }
            },
            "right": {
                "Default": {
                    "type": "string",
                    "value": ""
                }
            },
            "width": {
                "Default": {
                    "type": "string",
                    "value": "150px"
                }
            }
        },
        "flxFiltersWrapper": {
            "__events__": {},
            "__info__": {
                "kuid": "f144367487cf4948b0330e761bf42d0e",
                "srcKUID": "e8a1af2a1c424c2b955411a6c46bd91a",
                "wType": "FlexContainer"
            }
        },
        "flxLblType": {
            "__events__": {},
            "__info__": {
                "kuid": "b6cb80faffbc432ca5165d95521869b9",
                "srcKUID": "c0c7e9f7cf0c4e6c8be64b0e93d4c127",
                "wType": "FlexContainer"
            }
        },
        "flxNoCardsError": {
            "__events__": {},
            "__info__": {
                "kuid": "g9a5c0534d644ecf8964abf1764742de",
                "srcKUID": "gbb183b8edda40938c61ad78dd108ece",
                "wType": "FlexContainer"
            },
            "isVisible": true,
            "left": {},
            "responsiveData": {
                "b1": {},
                "b2": {},
                "b3": {
                    "left": {
                        "type": "string",
                        "value": "2.50%"
                    }
                },
                "b4": {}
            },
            "top": {
                "Default": {
                    "type": "string",
                    "value": "30dp"
                }
            },
            "width": {
                "Default": {
                    "type": "string",
                    "value": "95%"
                }
            }
        },
        "flxNoError": {
            "__events__": {},
            "__info__": {
                "kuid": "efe2727e6bea49f1b62649c1bbbef227",
                "srcKUID": "i0a2ec7edaf245e19c9c0b8f932aecc2",
                "wType": "FlexContainer"
            },
            "autogrowMode": {
                "Default": 0
            },
            "centerX": {
                "Default": {
                    "type": "string",
                    "value": "50%"
                }
            },
            "clipBounds": false,
            "height": {
                "Default": {
                    "type": "string",
                    "value": "400dp"
                }
            },
            "isVisible": true,
            "responsiveData": {
                "b1": {
                    "isVisible": false
                },
                "b2": {
                    "isVisible": false,
                    "width": {
                        "type": "string",
                        "value": "97.50%"
                    }
                },
                "b3": {
                    "isVisible": false,
                    "width": {
                        "type": "string",
                        "value": "95.50%"
                    }
                },
                "b4": {
                    "isVisible": false
                }
            },
            "top": {
                "Default": {
                    "type": "string",
                    "value": "20dp"
                }
            },
            "width": {
                "Default": {
                    "type": "string",
                    "value": "97.70%"
                }
            }
        },
        "flxNoResultsSearch": {
            "__events__": {},
            "__info__": {
                "kuid": "ab5ef67b18644c7486d7f20d7f69b588",
                "srcKUID": "g664c4cfd25c43b9bd2c18b72dce7542",
                "wType": "FlexContainer"
            },
            "isVisible": false,
            "responsiveData": {
                "b1": {}
            }
        },
        "flxRequestANewCard": {
            "__events__": {},
            "__info__": {
                "kuid": "c818266d22004ac7b5a8fb5a182914ca",
                "srcKUID": "cd0ab3f58d5d4e02bf5f5370b41bb4e4",
                "wType": "FlexContainer"
            },
            "centerX": {
                "Default": {
                    "type": "number",
                    "value": ""
                }
            },
            "isVisible": false,
            "left": {
                "Default": {
                    "type": "string",
                    "value": "0dp"
                }
            },
            "responsiveData": {
                "b2": {
                    "isVisible": true,
                    "left": {
                        "type": "string",
                        "value": ""
                    },
                    "right": {
                        "type": "string",
                        "value": "15dp"
                    },
                    "width": {
                        "type": "string",
                        "value": "30%"
                    }
                },
                "b3": {
                    "centerX": {
                        "type": "string",
                        "value": "50%"
                    },
                    "isVisible": true,
                    "left": {
                        "type": "string",
                        "value": ""
                    },
                    "top": {
                        "type": "string",
                        "value": "11dp"
                    },
                    "width": {
                        "type": "string",
                        "value": "97%"
                    }
                }
            },
            "right": {},
            "top": {
                "Default": {
                    "type": "string",
                    "value": "0dp"
                }
            },
            "width": {
                "Default": {
                    "type": "string",
                    "value": "100%"
                }
            }
        },
        "flxSearch": {
            "__events__": {},
            "__info__": {
                "kuid": "b5e4756d385c45d9b899be86a60a660f",
                "srcKUID": "d76fd0ee0a1a4629aba5e4eca5df4123",
                "wType": "FlexContainer"
            },
            "centerX": {
                "Default": {
                    "type": "number",
                    "value": ""
                }
            },
            "left": {
                "Default": {
                    "type": "string",
                    "value": "0dp"
                }
            },
            "responsiveData": {
                "b1": {
                    "left": {
                        "type": "string",
                        "value": "10dp"
                    },
                    "top": {
                        "type": "string",
                        "value": "18dp"
                    },
                    "width": {
                        "type": "string",
                        "value": "97.50%"
                    }
                },
                "b2": {
                    "left": {
                        "type": "string",
                        "value": "10dp"
                    },
                    "width": {
                        "type": "string",
                        "value": "97.50%"
                    }
                },
                "b3": {
                    "centerX": {
                        "type": "string",
                        "value": "50%"
                    },
                    "left": {
                        "type": "string",
                        "value": ""
                    },
                    "width": {
                        "type": "string",
                        "value": "95.50%"
                    }
                },
                "b4": {
                    "left": {
                        "type": "string",
                        "value": "10dp"
                    },
                    "top": {
                        "type": "string",
                        "value": "18dp"
                    },
                    "width": {
                        "type": "string",
                        "value": "97.50%"
                    }
                }
            },
            "top": {
                "Default": {
                    "type": "string",
                    "value": "17dp"
                }
            },
            "width": {
                "Default": {
                    "type": "string",
                    "value": "100%"
                }
            }
        },
        "flxSearchContiner": {
            "__events__": {},
            "__info__": {
                "kuid": "be012ab361e54fdcbb0d994dfeab2f80",
                "srcKUID": "f74970a4a2934ff79efedd93b142b896",
                "wType": "FlexContainer"
            },
            "autogrowMode": {
                "Default": 0
            },
            "centerY": {
                "Default": {
                    "type": "string",
                    "value": "50%"
                }
            },
            "height": {
                "Default": {
                    "type": "string",
                    "value": "45dp"
                }
            },
            "responsiveData": {}
        },
        "flxSearchSegment": {
            "__events__": {},
            "__info__": {
                "kuid": "f25d4f42f75246459903e2759a9baf36",
                "srcKUID": "ab4d320b7a9e49c987021cee5af309a6",
                "wType": "FlexScrollContainer"
            },
            "isVisible": false,
            "left": {
                "Default": {
                    "type": "string",
                    "value": "20dp"
                }
            },
            "responsiveData": {
                "b1": {
                    "isVisible": false
                },
                "b2": {
                    "isVisible": false
                },
                "b3": {
                    "isVisible": false,
                    "left": {
                        "type": "string",
                        "value": "3%"
                    },
                    "width": {
                        "type": "string",
                        "value": "63%"
                    }
                },
                "b4": {
                    "isVisible": false
                }
            },
            "top": {
                "Default": {
                    "type": "string",
                    "value": "5dp"
                }
            },
            "width": {
                "Default": {
                    "type": "string",
                    "value": "75%"
                }
            }
        },
        "flxSeperator": {
            "__events__": {},
            "__info__": {
                "kuid": "b1e61ed172da4ddca4669692781e0ee6",
                "srcKUID": "f7ea63d1c70c4be2acc089c98a61c2a1",
                "wType": "FlexContainer"
            }
        },
        "flxtxtFilters": {
            "__events__": {},
            "__info__": {
                "kuid": "e842694383314db487ac1a0c7cb9a967",
                "srcKUID": "cae6bb5915154878b9736e5945b8a1f5",
                "wType": "FlexContainer"
            }
        },
        "flxtxtSearchandClearbtn": {
            "__events__": {},
            "__info__": {
                "kuid": "h449b6f43d3b476aa12d27180049d0a3",
                "srcKUID": "c97d348ca25e4588bda152b170ac74cc",
                "wType": "FlexContainer"
            },
            "left": {
                "Default": {
                    "type": "string",
                    "value": "20dp"
                }
            },
            "responsiveData": {
                "b3": {
                    "left": {
                        "type": "string",
                        "value": "3%"
                    },
                    "width": {
                        "type": "string",
                        "value": "63%"
                    }
                }
            },
            "width": {
                "Default": {
                    "type": "string",
                    "value": "75%"
                }
            }
        },
        "imgCross": {
            "__events__": {},
            "__info__": {
                "kuid": "ff9e8b7fe2754e6ea1092f512314c1ce",
                "srcKUID": "f320f6bb9b2442538c8be39e4ccc5d09",
                "wType": "Image"
            }
        },
        "imgNoCardsError": {
            "__events__": {},
            "__info__": {
                "kuid": "a2c8963b5324415bb7d0ff68b0e875f1",
                "srcKUID": "c43517d29f9b4ec7a09d57c56de88828",
                "wType": "Image"
            },
            "src": "error_yellow.png"
        },
        "lblAccountName": {
            "__events__": {},
            "__info__": {
                "kuid": "d37ede9c25254a36942d1a3ea3f18147",
                "srcKUID": "fa659b541a63423bb73fce65f80e0df1",
                "wType": "Label"
            }
        },
        "lblDropdown": {
            "__events__": {},
            "__info__": {
                "kuid": "b5a56867c8084413a7c4930ea8300141",
                "srcKUID": "i1a009c1d8ca498aaf2de361cf3c4676",
                "wType": "Label"
            }
        },
        "lblMyCardsHeader": {
            "__events__": {},
            "__info__": {
                "kuid": "hc0e5567eff743e8b0bd01668f414cd3",
                "srcKUID": "cd6e0def333d4294a4cf8d57470e1207",
                "wType": "Label"
            },
            "height": {
                "Default": {
                    "type": "string",
                    "value": "25dp"
                }
            },
            "i18n_text": "i18n.CardManagement.MyCards",
            "left": {},
            "responsiveData": {
                "b1": {
                    "left": {
                        "type": "string",
                        "value": "10dp"
                    }
                },
                "b2": {
                    "left": {
                        "type": "string",
                        "value": "10dp"
                    }
                },
                "b3": {
                    "isVisible": false,
                    "left": {
                        "type": "string",
                        "value": "10dp"
                    }
                },
                "b4": {
                    "left": {
                        "type": "string",
                        "value": "10dp"
                    }
                }
            },
            "top": {
                "Default": {
                    "type": "string",
                    "value": "25dp"
                }
            }
        },
        "lblNoCardsError": {
            "__events__": {},
            "__info__": {
                "kuid": "hf8d40e7a20848d8995e6b7f33799760",
                "srcKUID": "bf0acfb1863b4189873975609ced2be2",
                "wType": "Label"
            },
            "i18n_text": "i18n.CardManagement.Pageleveltransaction"
        },
        "lblNoResultsSearch": {
            "__events__": {},
            "__info__": {
                "kuid": "bcea798966434bf2b63163fa2b552242",
                "srcKUID": "a8caa598cfa5436b8366d211a3d94acb",
                "wType": "Label"
            }
        },
        "lblRequestANewCard": {
            "__events__": {},
            "__info__": {
                "kuid": "g68f9b86c92841dfad6d35fab21875bc",
                "srcKUID": "bf924f82e3d64dbcba3dc84bf6798d7c",
                "wType": "Label"
            },
            "centerX": {},
            "left": {
                "Default": {
                    "type": "string",
                    "value": "7.69%"
                }
            },
            "responsiveData": {
                "b2": {
                    "centerX": {
                        "type": "string",
                        "value": ""
                    },
                    "left": {
                        "type": "string",
                        "value": "20dp"
                    },
                    "width": {
                        "type": "string",
                        "value": "90%"
                    }
                },
                "b3": {
                    "left": {
                        "type": "string",
                        "value": "20dp"
                    },
                    "width": {
                        "type": "string",
                        "value": "90%"
                    }
                }
            },
            "width": {
                "Default": {
                    "type": "ref",
                    "value": "preferred"
                }
            }
        },
        "lblSearch": {
            "__events__": {},
            "__info__": {
                "kuid": "b2d3b2b84400498084fa3954462b24ea",
                "srcKUID": "e78c8dd7c282453cb930d0fff34b5fbd",
                "wType": "Label"
            },
            "bottom": {
                "Default": {
                    "type": "number",
                    "value": ""
                }
            },
            "left": {
                "Default": {
                    "type": "number",
                    "value": ""
                }
            },
            "responsiveData": {
                "b3": {
                    "bottom": {
                        "type": "string",
                        "value": "2dp"
                    },
                    "left": {
                        "type": "string",
                        "value": "0dp"
                    },
                    "top": {
                        "type": "string",
                        "value": "2dp"
                    },
                    "width": {
                        "type": "string",
                        "value": "90%"
                    }
                }
            },
            "top": {
                "Default": {
                    "type": "number",
                    "value": ""
                }
            },
            "width": {
                "Default": {
                    "type": "ref",
                    "value": "preferred"
                }
            }
        },
        "lblType": {
            "__events__": {},
            "__info__": {
                "kuid": "a076c3054e2745b7b68757a95047fe91",
                "srcKUID": "ccc05e894c4a40eaa911045dc51392e1",
                "wType": "Label"
            },
            "responsiveData": {
                "b1": {
                    "text": "All Accounts"
                },
                "b2": {
                    "text": "All Accounts"
                },
                "b3": {
                    "text": "All"
                },
                "b4": {
                    "text": "All Accounts"
                }
            }
        },
        "lbltxtFilters": {
            "__events__": {},
            "__info__": {
                "kuid": "i39aa94cafac46e1a2bb0e3025dc3411",
                "srcKUID": "cb7edda18c374e3f9e1758fd565a909f",
                "wType": "Label"
            }
        },
        "lstBoxFilters": {
            "__events__": {},
            "__info__": {
                "kuid": "jb05c1d603254ebb9682b8a02a50a542",
                "srcKUID": "e9b27870deaa4d5f975e678533604976",
                "wType": "ListBox"
            }
        },
        "myCards": {
            "__events__": {},
            "__info__": {
                "isRoot": true,
                "kuid": "a82777a4162b42a0869b81c709910026",
                "srcKUID": "b058869ff5e24840931ccbb9d58c2b1c",
                "wType": "FlexContainer"
            },
            "left": {
                "Default": {
                    "type": "string",
                    "value": "0dp"
                }
            },
            "responsiveData": {
                "b1": {
                    "left": {
                        "type": "string",
                        "value": "0dp"
                    },
                    "right": {
                        "type": "string",
                        "value": ""
                    },
                    "width": {
                        "type": "string",
                        "value": "100%"
                    }
                },
                "b4": {
                    "left": {
                        "type": "string",
                        "value": "0dp"
                    }
                }
            },
            "right": {
                "Default": {
                    "type": "number",
                    "value": ""
                }
            },
            "width": {
                "Default": {
                    "type": "string",
                    "value": "100%"
                }
            }
        },
        "segMyCards": {
            "__events__": {},
            "__info__": {
                "kuid": "f71a64598208444b9d7b1a9182398a8c",
                "srcKUID": "de673ea7b19d49838d82c888aa1b65cd",
                "wType": "Segment"
            },
            "data": {
                "desktop": [{
                        "btnAction1": {
                            "@class": "com.viz.ide.model.segment.SimpleTextSegmentData",
                            "text": "CHANGE PIN"
                        },
                        "btnAction2": {
                            "@class": "com.viz.ide.model.segment.SimpleTextSegmentData",
                            "text": "LOCK CARD"
                        },
                        "btnAction3": {
                            "@class": "com.viz.ide.model.segment.SimpleTextSegmentData",
                            "text": "REPORT LOST"
                        },
                        "btnAction4": {
                            "@class": "com.viz.ide.model.segment.SimpleTextSegmentData",
                            "text": "CANCEL CARD"
                        },
                        "btnAction5": {
                            "@class": "com.viz.ide.model.segment.SimpleTextSegmentData",
                            "text": "SET LIMITS"
                        },
                        "imgCard": {
                            "@class": "com.viz.ide.model.segment.ImageSegmentData",
                            "src": "golden_card.png"
                        },
                        "imgCollapse": {
                            "@class": "com.viz.ide.model.segment.ImageSegmentData",
                            "src": "arrow_down.png"
                        },
                        "imgIcon": {
                            "@class": "com.viz.ide.model.segment.SimpleTextSegmentData",
                            "text": "r"
                        },
                        "lblCardHeader": {
                            "@class": "com.viz.ide.model.segment.SimpleTextSegmentData",
                            "text": "My Platinum Credit Card"
                        },
                        "lblCardStatus": {
                            "@class": "com.viz.ide.model.segment.SimpleTextSegmentData",
                            "text": "Locked Card"
                        },
                        "lblIdentifier": {
                            "@class": "com.viz.ide.model.segment.SimpleTextSegmentData",
                            "text": "-$1000000.00"
                        },
                        "lblKey1": {
                            "@class": "com.viz.ide.model.segment.SimpleTextSegmentData",
                            "text": "Card Number:"
                        },
                        "lblKey2": {
                            "@class": "com.viz.ide.model.segment.SimpleTextSegmentData",
                            "text": "Valid Through:"
                        },
                        "lblKey3": {
                            "@class": "com.viz.ide.model.segment.SimpleTextSegmentData",
                            "text": "Daily Withdrawal limit:"
                        },
                        "lblKey4": {
                            "@class": "com.viz.ide.model.segment.SimpleTextSegmentData",
                            "text": "Available Credit:"
                        },
                        "lblSeparator1": {
                            "@class": "com.viz.ide.model.segment.SimpleTextSegmentData",
                            "text": "a"
                        },
                        "lblSeparator2": {
                            "@class": "com.viz.ide.model.segment.SimpleTextSegmentData",
                            "text": "a"
                        },
                        "lblTravelNotificationEnabled": {
                            "@class": "com.viz.ide.model.segment.SimpleTextSegmentData",
                            "text": "Travel Notification Enabled"
                        },
                        "rtxValue1": {
                            "@class": "com.viz.ide.model.segment.SimpleTextSegmentData",
                            "text": "XXXX XXXX XXXX 5404"
                        },
                        "rtxValue2": {
                            "@class": "com.viz.ide.model.segment.SimpleTextSegmentData",
                            "text": "02/20"
                        },
                        "rtxValue3": {
                            "@class": "com.viz.ide.model.segment.SimpleTextSegmentData",
                            "text": "$50,000"
                        },
                        "rtxValue4": {
                            "@class": "com.viz.ide.model.segment.SimpleTextSegmentData",
                            "text": "$32,500"
                        }
                    },
                    {
                        "btnAction1": {
                            "@class": "com.viz.ide.model.segment.SimpleTextSegmentData",
                            "text": "CHANGE PIN"
                        },
                        "btnAction2": {
                            "@class": "com.viz.ide.model.segment.SimpleTextSegmentData",
                            "text": "LOCK CARD"
                        },
                        "btnAction3": {
                            "@class": "com.viz.ide.model.segment.SimpleTextSegmentData",
                            "text": "REPORT LOST"
                        },
                        "btnAction4": {
                            "@class": "com.viz.ide.model.segment.SimpleTextSegmentData",
                            "text": "CANCEL CARD"
                        },
                        "btnAction5": {
                            "@class": "com.viz.ide.model.segment.SimpleTextSegmentData",
                            "text": "SET LIMITS"
                        },
                        "imgCard": {
                            "@class": "com.viz.ide.model.segment.ImageSegmentData",
                            "src": "golden_card.png"
                        },
                        "imgCollapse": {
                            "@class": "com.viz.ide.model.segment.ImageSegmentData",
                            "src": "arrow_down.png"
                        },
                        "imgIcon": {
                            "@class": "com.viz.ide.model.segment.SimpleTextSegmentData",
                            "text": "r"
                        },
                        "lblCardHeader": {
                            "@class": "com.viz.ide.model.segment.SimpleTextSegmentData",
                            "text": "My Platinum Credit Card"
                        },
                        "lblCardStatus": {
                            "@class": "com.viz.ide.model.segment.SimpleTextSegmentData",
                            "text": "Locked Card"
                        },
                        "lblIdentifier": {
                            "@class": "com.viz.ide.model.segment.SimpleTextSegmentData",
                            "text": "-$1000000.00"
                        },
                        "lblKey1": {
                            "@class": "com.viz.ide.model.segment.SimpleTextSegmentData",
                            "text": "Card Number:"
                        },
                        "lblKey2": {
                            "@class": "com.viz.ide.model.segment.SimpleTextSegmentData",
                            "text": "Valid Through:"
                        },
                        "lblKey3": {
                            "@class": "com.viz.ide.model.segment.SimpleTextSegmentData",
                            "text": "Daily Withdrawal limit:"
                        },
                        "lblKey4": {
                            "@class": "com.viz.ide.model.segment.SimpleTextSegmentData",
                            "text": "Available Credit:"
                        },
                        "lblSeparator1": {
                            "@class": "com.viz.ide.model.segment.SimpleTextSegmentData",
                            "text": "a"
                        },
                        "lblSeparator2": {
                            "@class": "com.viz.ide.model.segment.SimpleTextSegmentData",
                            "text": "a"
                        },
                        "lblTravelNotificationEnabled": {
                            "@class": "com.viz.ide.model.segment.SimpleTextSegmentData",
                            "text": "Travel Notification Enabled"
                        },
                        "rtxValue1": {
                            "@class": "com.viz.ide.model.segment.SimpleTextSegmentData",
                            "text": "XXXX XXXX XXXX 5404"
                        },
                        "rtxValue2": {
                            "@class": "com.viz.ide.model.segment.SimpleTextSegmentData",
                            "text": "02/20"
                        },
                        "rtxValue3": {
                            "@class": "com.viz.ide.model.segment.SimpleTextSegmentData",
                            "text": "$50,000"
                        },
                        "rtxValue4": {
                            "@class": "com.viz.ide.model.segment.SimpleTextSegmentData",
                            "text": "$32,500"
                        }
                    },
                    {
                        "btnAction1": {
                            "@class": "com.viz.ide.model.segment.SimpleTextSegmentData",
                            "text": "CHANGE PIN"
                        },
                        "btnAction2": {
                            "@class": "com.viz.ide.model.segment.SimpleTextSegmentData",
                            "text": "LOCK CARD"
                        },
                        "btnAction3": {
                            "@class": "com.viz.ide.model.segment.SimpleTextSegmentData",
                            "text": "REPORT LOST"
                        },
                        "btnAction4": {
                            "@class": "com.viz.ide.model.segment.SimpleTextSegmentData",
                            "text": "CANCEL CARD"
                        },
                        "btnAction5": {
                            "@class": "com.viz.ide.model.segment.SimpleTextSegmentData",
                            "text": "SET LIMITS"
                        },
                        "imgCard": {
                            "@class": "com.viz.ide.model.segment.ImageSegmentData",
                            "src": "golden_card.png"
                        },
                        "imgCollapse": {
                            "@class": "com.viz.ide.model.segment.ImageSegmentData",
                            "src": "arrow_down.png"
                        },
                        "imgIcon": {
                            "@class": "com.viz.ide.model.segment.SimpleTextSegmentData",
                            "text": "r"
                        },
                        "lblCardHeader": {
                            "@class": "com.viz.ide.model.segment.SimpleTextSegmentData",
                            "text": "My Platinum Credit Card"
                        },
                        "lblCardStatus": {
                            "@class": "com.viz.ide.model.segment.SimpleTextSegmentData",
                            "text": "Locked Card"
                        },
                        "lblIdentifier": {
                            "@class": "com.viz.ide.model.segment.SimpleTextSegmentData",
                            "text": "-$1000000.00"
                        },
                        "lblKey1": {
                            "@class": "com.viz.ide.model.segment.SimpleTextSegmentData",
                            "text": "Card Number:"
                        },
                        "lblKey2": {
                            "@class": "com.viz.ide.model.segment.SimpleTextSegmentData",
                            "text": "Valid Through:"
                        },
                        "lblKey3": {
                            "@class": "com.viz.ide.model.segment.SimpleTextSegmentData",
                            "text": "Daily Withdrawal limit:"
                        },
                        "lblKey4": {
                            "@class": "com.viz.ide.model.segment.SimpleTextSegmentData",
                            "text": "Available Credit:"
                        },
                        "lblSeparator1": {
                            "@class": "com.viz.ide.model.segment.SimpleTextSegmentData",
                            "text": "a"
                        },
                        "lblSeparator2": {
                            "@class": "com.viz.ide.model.segment.SimpleTextSegmentData",
                            "text": "a"
                        },
                        "lblTravelNotificationEnabled": {
                            "@class": "com.viz.ide.model.segment.SimpleTextSegmentData",
                            "text": "Travel Notification Enabled"
                        },
                        "rtxValue1": {
                            "@class": "com.viz.ide.model.segment.SimpleTextSegmentData",
                            "text": "XXXX XXXX XXXX 5404"
                        },
                        "rtxValue2": {
                            "@class": "com.viz.ide.model.segment.SimpleTextSegmentData",
                            "text": "02/20"
                        },
                        "rtxValue3": {
                            "@class": "com.viz.ide.model.segment.SimpleTextSegmentData",
                            "text": "$50,000"
                        },
                        "rtxValue4": {
                            "@class": "com.viz.ide.model.segment.SimpleTextSegmentData",
                            "text": "$32,500"
                        }
                    }
                ]
            },
            "isVisible": true,
            "minHeight": {},
            "responsiveData": {
                "b1": {},
                "b2": {
                    "isVisible": true,
                    "minHeight": {
                        "type": "string",
                        "value": ""
                    }
                },
                "b3": {
                    "isVisible": true
                },
                "b4": {
                    "isVisible": true
                }
            },
            "top": {
                "Default": {
                    "type": "string",
                    "value": "18dp"
                }
            }
        },
        "segSearch": {
            "__events__": {},
            "__info__": {
                "kuid": "j8b952352c0a4b50b695e7a45008cd69",
                "srcKUID": "e268fb74c4c348aea8e78ac61f11edef",
                "wType": "Segment"
            },
            "isVisible": true,
            "responsiveData": {
                "b1": {}
            }
        },
        "txtFilters": {
            "__events__": {},
            "__info__": {
                "kuid": "jc2764d8264f455797fc343c7ba05cb5",
                "srcKUID": "e2292fac0c1a4bf8b4826a57c1afa3ee",
                "wType": "TextField"
            }
        },
        "txtSearch": {
            "__events__": {},
            "__info__": {
                "kuid": "e60ae2dc7cae4b45a3f234cd979d211c",
                "srcKUID": "c63db0c7e0694e8eb5017e3edcf7467d",
                "wType": "TextField"
            },
            "i18n_placeholder": "i18n.CardsManagement.SearchByAccount"
        }
    },
    "id": "myCards",
    "info": null,
    "iscustomlayout": false,
    "isdatareferenced": false,
    "issegmentchild": false,
    "isvisible": true,
    "kuid": "a82777a4162b42a0869b81c709910026",
    "layouttype": 4,
    "masterType": 0,
    "name": "kony.ui.UserWidgetInstance",
    "parent": "flxMyCards",
    "pf": "frmCardManagement",
    "retaincontentalignment": false,
    "retainflexpositionproperties": false,
    "snaptogrid": true,
    "sourceUserWidget": "b058869ff5e24840931ccbb9d58c2b1c",
    "vizprops": {
        "hidewidgethierarchy": false
    },
    "wType": "UserWidgetInstance"
}