{
    "@class": "com.kony.gen.viz.model.component.KVizUserWidget",
    "DNDConfig": null,
    "__parentReadjusting__": false,
    "_children_": [],
    "_height_": {
        "type": "string",
        "value": "101dp"
    },
    "_left_": {
        "type": "string",
        "value": "0dp"
    },
    "_margin_": [
        0,
        0,
        0,
        0
    ],
    "_orientation_": 1,
    "_padding_": [
        0,
        0,
        0,
        0
    ],
    "_percent_": true,
    "_skin_": "s24c92fc23b14f5484b693ee9b8a9b35",
    "_top_": {
        "type": "string",
        "value": "0dp"
    },
    "_width_": {
        "type": "string",
        "value": "100%"
    },
    "android": {},
    "androidwearos": {},
    "areflexpropsreferenced": false,
    "autogrowmode": 0,
    "canUpdateUI": true,
    "clipbounds": false,
    "containerweight": 0,
    "dataDiffs": {
        "Search": {
            "__events__": {},
            "__info__": {
                "isRoot": true,
                "kuid": "gb803e4214c44cf99f6d7a76b99db958",
                "srcKUID": "afd57c04bad743bba99d0e5529f286ef",
                "wType": "FlexContainer"
            },
            "isVisible": true,
            "responsiveData": {}
        },
        "btnConfirm": {
            "__events__": {},
            "__info__": {
                "kuid": "ccbfcd45881c4064a2c15f0a15d16d21",
                "srcKUID": "e9702e4808614e879fc1c538e8418494",
                "wType": "FlexContainer"
            },
            "responsiveData": {
                "b3": {}
            },
            "width": {
                "Default": {
                    "type": "string",
                    "value": "40dp"
                }
            }
        },
        "btnConfirm1": {
            "__events__": {},
            "__info__": {
                "kuid": "d8bbab7154954b08ab7eb4b45b7d9a53",
                "srcKUID": "af76dace2e82450d9f162b8462c58110",
                "wType": "Button"
            },
            "responsiveData": {
                "b3": {
                    "isVisible": false
                }
            }
        },
        "flxClearBtn": {
            "__events__": {},
            "__info__": {
                "kuid": "a01e9c167b00486f8ee55e1b32a31e72",
                "srcKUID": "d3fe792123d04455b5f0b964efb41461",
                "wType": "FlexContainer"
            },
            "isVisible": false,
            "responsiveData": {
                "b3": {
                    "right": {
                        "type": "string",
                        "value": "3.70%"
                    },
                    "width": {
                        "type": "string",
                        "value": "5%"
                    }
                }
            },
            "right": {},
            "width": {}
        },
        "flxtxtSearchandClearbtn": {
            "__events__": {},
            "__info__": {
                "kuid": "db0aec18315f4aa58b745df1f618ce5f",
                "srcKUID": "c09f8d65274f4847b9b386da774ae9ed",
                "wType": "FlexContainer"
            },
            "centerX": {},
            "centerY": {
                "Default": {
                    "type": "string",
                    "value": "45%"
                }
            },
            "left": {
                "Default": {
                    "type": "string",
                    "value": "21dp"
                }
            },
            "responsiveData": {
                "b3": {
                    "centerX": {
                        "type": "string",
                        "value": "50%"
                    }
                }
            },
            "width": {
                "Default": {
                    "type": "number",
                    "value": ""
                }
            }
        },
        "imgCross": {
            "__events__": {},
            "__info__": {
                "kuid": "ae0901d67f1643089966f2f88cd592ef",
                "srcKUID": "eaa7b734e8034d52976bb1bb5a6ef8df",
                "wType": "Image"
            },
            "responsiveData": {},
            "src": "search_close.png"
        },
        "lblSearch": {
            "__events__": {},
            "__info__": {
                "kuid": "ab15d136fa2f4f11bf127bcff4709c99",
                "srcKUID": "ha872e5f14bd4b81be4c93f1a3c18480",
                "wType": "Label"
            },
            "responsiveData": {},
            "text": "e",
            "width": {
                "Default": {
                    "type": "string",
                    "value": "20dp"
                }
            }
        },
        "txtSearch": {
            "__events__": {},
            "__info__": {
                "kuid": "c5312c47cfeb4436abb3c04ff47e91cd",
                "srcKUID": "i3f8ddcc8538436280c67c4c0ccc7cb6",
                "wType": "TextField"
            },
            "centerY": {
                "Default": {
                    "type": "string",
                    "value": "50%"
                }
            },
            "i18n_placeholder": "i18n.billpay.searchForKeywords",
            "left": {
                "Default": {
                    "type": "string",
                    "value": "0%"
                }
            },
            "placeholder": "",
            "responsiveData": {
                "b1": {
                    "centerY": {
                        "type": "string",
                        "value": "50.00%"
                    },
                    "left": {
                        "type": "string",
                        "value": "0.00%"
                    }
                },
                "b3": {
                    "width": {
                        "type": "string",
                        "value": "86%"
                    }
                }
            },
            "text": "",
            "width": {}
        }
    },
    "desktopweb": {},
    "enablescrolling": true,
    "id": "Search",
    "info": null,
    "ipad": {},
    "iphone": {},
    "isdatareferenced": false,
    "isvisible": true,
    "kiosk": {},
    "kuid": "gb803e4214c44cf99f6d7a76b99db958",
    "layouttype": 2,
    "masterType": 0,
    "name": "kony.ui.UserWidgetInstance",
    "parent": "flxSearch",
    "pf": "frmBulkTemplateAddRecipients",
    "responsiveData": {},
    "snapgridsize": 10,
    "snaptogrid": true,
    "sourceUserWidget": "afd57c04bad743bba99d0e5529f286ef",
    "spa": {},
    "spaan": {},
    "spaandroidtablet": {},
    "spabb": {},
    "spaip": {},
    "spaipad": {},
    "spamobile": {},
    "spatablet": {},
    "spawindowstablet": {},
    "spawinphone8": {},
    "tabrcandroid": {},
    "vizProps": {
        "hidewidgethierarchy": false
    },
    "wType": "UserWidgetInstance",
    "windows10": {},
    "windows8": {},
    "winphone10": {},
    "winphone8": {}
}