{
    "DNDConfig": null,
    "_height_": {
        "type": "string",
        "value": "90px"
    },
    "_left_": {
        "type": "string",
        "value": "0dp"
    },
    "_margin_": [
        0,
        0,
        0,
        0
    ],
    "_orientation_": 6,
    "_padding_": [
        0,
        0,
        0,
        0
    ],
    "_percent_": true,
    "_skin_": "s68cde8c1c40436989962f3559a757ac",
    "_top_": {
        "type": "string",
        "value": "30dp"
    },
    "_width_": {
        "type": "string",
        "value": "100%"
    },
    "allboxes": [],
    "canUpdateUI": true,
    "children": [
        "flxSeperatorBtm",
        "flxCreateControlButtons"
    ],
    "clipbounds": true,
    "containerweight": 100,
    "enablescrolling": true,
    "id": "flxCreateUser",
    "info": null,
    "isvisible": true,
    "kuid": "gaa3086298b846e3acc52eacafef2999",
    "layouttype": 2,
    "name": "kony.ui.FlexContainer",
    "parent": "flxUserDetails",
    "pf": "frmCreateUserManually",
    "responsiveData": {
        "b1": {
            "height": {
                "type": "string",
                "value": "100px"
            }
        },
        "b2": {
            "height": {
                "type": "string",
                "value": "100dp"
            }
        },
        "b3": {
            "height": {
                "type": "string",
                "value": "150px"
            }
        },
        "b4": {
            "height": {
                "type": "string",
                "value": "100px"
            }
        }
    },
    "snapgridsize": 10,
    "snaptogrid": true,
    "wType": "FlexContainer",
    "widgetalignment": 1,
    "zindex": 1
}