{
    "DNDConfig": null,
    "_height_": {
        "type": "ref",
        "value": "preferred"
    },
    "_left_": {
        "type": "string",
        "value": "0"
    },
    "_margin_": [
        0,
        0,
        0,
        0
    ],
    "_orientation_": 6,
    "_padding_": [
        0,
        0,
        0,
        0
    ],
    "_percent_": true,
    "_skin_": "sfb6f68b71484e008daa306a1c7200b7",
    "_top_": {
        "type": "string",
        "value": "5dp"
    },
    "_width_": {
        "type": "string",
        "value": "100%"
    },
    "allboxes": [],
    "autogrowmode": 1,
    "canUpdateUI": true,
    "children": [
        "flxSearch",
        "flxSort",
        "flxSeparatorSort",
        "flxMakeBulkTransfer",
        "flxNoRecords"
    ],
    "clipbounds": true,
    "containerweight": 100,
    "enablescrolling": true,
    "id": "flxRetriveExistingUsersContainer",
    "info": null,
    "iscustomlayout": false,
    "isvisible": true,
    "kuid": "fe050176810246d1b43d8f23689da250",
    "layouttype": 4,
    "name": "kony.ui.FlexContainer",
    "parent": "flxUserDetails",
    "pf": "frmCreateUserManually",
    "responsiveData": {
        "b1": {
            "layoutType": 2,
            "skin": "s9f0c4bc0cd8418da924fd6b0065e2a7",
            "top": {
                "type": "string",
                "value": "0dp"
            },
            "zIndex": 10
        },
        "b2": {
            "top": {
                "type": "string",
                "value": "15dp"
            },
            "zIndex": 20
        },
        "b4": {
            "layoutType": 2,
            "skin": "s9f0c4bc0cd8418da924fd6b0065e2a7",
            "top": {
                "type": "string",
                "value": "0dp"
            },
            "zIndex": 20
        }
    },
    "retaincontentalignment": false,
    "retainflexpositionproperties": false,
    "snapgridsize": 10,
    "snaptogrid": true,
    "wType": "FlexContainer",
    "widgetalignment": 1,
    "zindex": 1
}