{
    "@class": "com.kony.gen.viz.model.component.KVizTextBox2",
    "DNDConfig": null,
    "_height_": {
        "type": "string",
        "value": "100%"
    },
    "_left_": {
        "type": "string",
        "value": "2.15%"
    },
    "_margin_": [
        0,
        0,
        0,
        0
    ],
    "_padding_": [
        3,
        0,
        2,
        0
    ],
    "_placeholder_": "Enter Phone Number",
    "_right_": {
        "type": "string",
        "value": "0%"
    },
    "_skin_": "s5fed1fa92e846d2b43ab73b00b33247",
    "_text_": "",
    "_width_": {
        "type": "string",
        "value": "100%"
    },
    "autocapitalize": "none",
    "autocomplete": false,
    "autocorrect": false,
    "autofilter": false,
    "canUpdateUI": true,
    "centery": {
        "type": "string",
        "value": "50%"
    },
    "containerheight": "",
    "containerheightmode": 1,
    "containerweight": 100,
    "contentalignment": 4,
    "desktopweb": {
        "placeholderSkin": "se881b7b34eb4e1bb82decfab9c35cfb"
    },
    "disabledSkins": {
        "focusSkin": "s227f630b9654ae58fba655b8d7722fb"
    },
    "id": "tbxPhoneNum",
    "info": null,
    "isvisible": true,
    "keyboardtype": "A",
    "kuid": "ab96dd25c0f540a58db5ce7e049dd14d",
    "mode": "A",
    "name": "kony.ui.TextBox2",
    "paddinginpixel": false,
    "parent": "flxPhoneNumber",
    "pf": "frmCreateUserManually",
    "responsiveData": {
        "b1": {
            "disabledSkins": {
                "placeholderSkin": "se881b7b34eb4e1bb82decfab9c35cfb"
            }
        },
        "b4": {
            "disabledSkins": {
                "placeholderSkin": "se881b7b34eb4e1bb82decfab9c35cfb"
            },
            "width": {
                "type": "string",
                "value": "100%"
            }
        }
    },
    "securetextentry": false,
    "textinputmode": "A",
    "viewtype": "default",
    "wType": "TextField",
    "zindex": 1
}