{
    "@class": "com.kony.gen.viz.model.component.KVizButton",
    "DNDConfig": null,
    "__parentReadjusting__": false,
    "_height_": {
        "type": "string",
        "value": "50dp"
    },
    "_left_": {
        "type": "string",
        "value": "5%"
    },
    "_margin_": [
        6,
        6,
        6,
        6
    ],
    "_padding_": [
        3,
        0,
        3,
        0
    ],
    "_skin_": "s103732f95484bb7a9990f84b7eba13d",
    "_text_": "Branch",
    "_top_": {
        "type": "string",
        "value": "0dp"
    },
    "_width_": {
        "type": "string",
        "value": "25%"
    },
    "accessibilityconfig": {
        "a11yLabel": "Branch"
    },
    "canUpdateUI": true,
    "containerweight": 100,
    "contentalignment": 5,
    "desktopweb": {
        "psp": {}
    },
    "disabledSkins": {
        "focusSkin": "sf44d06ca8224832827ea7fdff757013",
        "hoverSkin": "s14e5f4459414366a95c5a71c1f39486"
    },
    "displaytext": true,
    "focusskin": null,
    "id": "btnBranch",
    "info": null,
    "isvisible": true,
    "kuid": "be7d337baa174466a1d1e868556ecc99",
    "name": "kony.ui.Button",
    "paddingLocked": false,
    "paddinginpixel": false,
    "parent": "flxTabs",
    "pf": "userwidgetmodel",
    "texti18n": "i18n.LocateUs.BRANCH",
    "tooltip": "Branch",
    "wType": "Button",
    "zindex": 1
}