{
    "@class": "com.kony.gen.viz.model.component.KVizButton",
    "DNDConfig": null,
    "__parentReadjusting__": false,
    "_bottom_": {
        "type": "number",
        "value": "20"
    },
    "_height_": {
        "type": "string",
        "value": "40dp"
    },
    "_left_": {
        "type": "string",
        "value": "3.95%"
    },
    "_margin_": [
        6,
        6,
        6,
        6
    ],
    "_padding_": [
        0,
        0,
        0,
        0
    ],
    "_skin_": "s215ef7edf8c4ddb8f9f91fcc80f7b42",
    "_text_": "CANCEL",
    "_width_": {
        "type": "string",
        "value": "44.47%"
    },
    "accessibilityconfig": {
        "a11yLabel": "Cancel"
    },
    "canUpdateUI": true,
    "containerweight": 100,
    "contentalignment": 5,
    "desktopweb": {
        "psp": {
            "hoverSkin": "sba91fb5e9774521856508ab3e21943d"
        }
    },
    "disabledSkins": {},
    "displaytext": true,
    "focusskin": "sb23593b913b4005add4a246020aa1cc",
    "id": "btnCancelFilters",
    "info": null,
    "isvisible": true,
    "kuid": "ef9813db2502454396ff7dcec6f44943",
    "name": "kony.ui.Button",
    "parent": "flxViewsAndFiltersButtons",
    "pf": "userwidgetmodel",
    "texti18n": "i18n.transfers.Cancel",
    "tooltip": "Cancel",
    "wType": "Button",
    "zindex": 1
}