{
    "@class": "com.kony.gen.viz.model.component.KVizButton",
    "DNDConfig": null,
    "__parentReadjusting__": false,
    "_height_": {
        "type": "string",
        "value": "40dp"
    },
    "_left_": {
        "type": "string",
        "value": "59.94%"
    },
    "_margin_": [
        6,
        6,
        6,
        6
    ],
    "_padding_": [
        0,
        0,
        0,
        0
    ],
    "_right_": {
        "type": "string",
        "value": "20dp"
    },
    "_skin_": "sea1525e3fa24829a889b1fd650f3f24",
    "_text_": "GET DIRECTIONS",
    "_top_": {
        "type": "string",
        "value": "25dp"
    },
    "accessibilityconfig": {
        "a11yLabel": "GET DIRECTIONS"
    },
    "canUpdateUI": true,
    "containerweight": 100,
    "contentalignment": 5,
    "disabledSkins": {
        "focusSkin": "sf44d06ca8224832827ea7fdff757013"
    },
    "displaytext": true,
    "id": "btnProceed",
    "info": null,
    "isvisible": false,
    "kuid": "ef57214d252e4305b604c2750f6a18d2",
    "name": "kony.ui.Button",
    "parent": "flxBranchButtons",
    "pf": "userwidgetmodel",
    "wType": "Button",
    "zindex": 1
}