{
    "@class": "com.kony.gen.viz.model.component.KVizButton",
    "DNDConfig": null,
    "_bottom_": {
        "type": "number",
        "value": ""
    },
    "_height_": {
        "type": "string",
        "value": "44dp"
    },
    "_left_": {
        "type": "number",
        "value": "-2"
    },
    "_margin_": [
        6,
        6,
        6,
        6
    ],
    "_padding_": [
        0,
        0,
        0,
        0
    ],
    "_right_": {
        "type": "number",
        "value": ""
    },
    "_skin_": "s215ef7edf8c4ddb8f9f91fcc80f7b42",
    "_text_": "Sell",
    "_top_": {
        "type": "string",
        "value": "-2dp"
    },
    "_width_": {
        "type": "string",
        "value": "82dp"
    },
    "accessibilityconfig": {
        "a11yLabel": "Button"
    },
    "canUpdateUI": true,
    "centery": {
        "type": "string",
        "value": "50%"
    },
    "containerweight": 100,
    "contentalignment": 5,
    "desktopweb": {
        "psp": {
            "hoverSkin": "s81054b5e2b74f17a5261991df565427"
        }
    },
    "displaytext": true,
    "focusskin": "s5a4f67acd3e47b9be6d6910a7a6686f",
    "id": "btnSell",
    "info": null,
    "isvisible": true,
    "kuid": "bf924c64f3b84fabae4d914e7b398989",
    "name": "kony.ui.Button",
    "parent": "flxButtons",
    "pf": "userwidgetmodel",
    "responsiveData": {},
    "tooltip": "MAKE TRANSFER",
    "wType": "Button",
    "zindex": 1
}