{
    "@class": "com.kony.gen.viz.model.component.KVizButton",
    "DNDConfig": null,
    "__parentReadjusting__": false,
    "_bottom_": {
        "type": "number",
        "value": ""
    },
    "_height_": {
        "type": "string",
        "value": "50dp"
    },
    "_left_": {
        "type": "number",
        "value": ""
    },
    "_margin_": [
        6,
        6,
        6,
        6
    ],
    "_padding_": [
        0,
        0,
        0,
        0
    ],
    "_right_": {
        "type": "string",
        "value": "50.5%"
    },
    "_skin_": "sea1525e3fa24829a889b1fd650f3f24",
    "_text_": "",
    "_top_": {
        "type": "number",
        "value": ""
    },
    "_width_": {
        "type": "string",
        "value": "23.83%"
    },
    "accessibilityconfig": {
        "a11yLabel": "Save Recipient"
    },
    "canUpdateUI": true,
    "centery": {
        "type": "string",
        "value": "70%"
    },
    "containerweight": 100,
    "contentalignment": 5,
    "desktopweb": {
        "psp": {
            "hoverSkin": "s7ab6326aaf94c28b90b61fcb1b54547"
        }
    },
    "displaytext": true,
    "focusskin": "sfd0ce0d7f454c9f83c7e815a90a8a55",
    "id": "btnSaveRecipient",
    "info": null,
    "isvisible": true,
    "kuid": "ddc787a002c54b9195e55146bf4326a1",
    "name": "kony.ui.Button",
    "parent": "flxbuttons",
    "pf": "frmConfirmDetails",
    "responsiveData": {
        "b1": {
            "height": {
                "type": "string",
                "value": "40dp"
            }
        },
        "b2": {
            "height": {
                "type": "string",
                "value": "40dp"
            }
        },
        "b3": {
            "centerY": {
                "type": "string",
                "value": "50%"
            },
            "height": {
                "type": "string",
                "value": "40dp"
            },
            "left": {
                "type": "string",
                "value": ""
            },
            "right": {
                "type": "string",
                "value": "2%"
            },
            "width": {
                "type": "string",
                "value": "32%"
            }
        },
        "b4": {
            "bottom": {
                "type": "string",
                "value": ""
            },
            "centerY": {
                "type": "string",
                "value": ""
            },
            "height": {
                "type": "string",
                "value": "40dp"
            },
            "isVisible": false,
            "left": {
                "type": "string",
                "value": "0%"
            },
            "right": {
                "type": "string",
                "value": ""
            },
            "top": {
                "type": "string",
                "value": "140dp"
            },
            "width": {
                "type": "string",
                "value": "100%"
            }
        }
    },
    "texti18n": "i18n.payaperson.savereciepient",
    "tooltip": "",
    "wType": "Button",
    "zindex": 1
}