{
    "@class": "com.kony.gen.viz.model.component.KVizUserWidget",
    "DNDConfig": null,
    "__parentReadjusting__": false,
    "_children_": [],
    "_height_": {
        "type": "ref",
        "value": "preferred"
    },
    "_left_": {
        "type": "string",
        "value": "38%"
    },
    "_margin_": [
        0,
        0,
        0,
        0
    ],
    "_orientation_": 1,
    "_padding_": [
        0,
        0,
        0,
        0
    ],
    "_percent_": true,
    "_render_": true,
    "_skin_": "scbd4cac3526468089bf3013adff0549",
    "_top_": {
        "type": "string",
        "value": "270dp"
    },
    "_width_": {
        "type": "string",
        "value": "270dp"
    },
    "android": {},
    "androidwearos": {},
    "areflexpropsreferenced": false,
    "autogrowmode": 1,
    "canUpdateUI": true,
    "clipbounds": false,
    "containerweight": 0,
    "dataDiffs": {
        "AllForms": {
            "__events__": {},
            "__info__": {
                "isRoot": true,
                "kuid": "f73162aa574049f0a173592c4b24f2b0",
                "srcKUID": "aef6ac17436948abacbe12ea5a1d5e5b",
                "wType": "FlexContainer"
            },
            "isVisible": false,
            "left": {
                "Default": {
                    "type": "string",
                    "value": "38%"
                }
            },
            "responsiveData": {
                "b1": {
                    "isVisible": false,
                    "left": {
                        "type": "string",
                        "value": "8.05%"
                    },
                    "top": {
                        "type": "string",
                        "value": "170dp"
                    }
                },
                "b2": {
                    "isVisible": false,
                    "left": {
                        "type": "string",
                        "value": "8.09%"
                    },
                    "top": {
                        "type": "string",
                        "value": "170dp"
                    }
                },
                "b3": {
                    "centerY": {
                        "type": "string",
                        "value": ""
                    },
                    "desktopweb": {
                        "centerY": {
                            "type": "string",
                            "value": ""
                        }
                    },
                    "isVisible": false,
                    "left": {
                        "type": "string",
                        "value": "50dp"
                    },
                    "top": {
                        "type": "string",
                        "value": "360dp"
                    }
                },
                "b4": {
                    "left": {
                        "type": "string",
                        "value": "15%"
                    },
                    "top": {
                        "type": "string",
                        "value": "230dp"
                    }
                }
            },
            "top": {
                "Default": {
                    "type": "string",
                    "value": "270dp"
                }
            },
            "width": {
                "Default": {
                    "type": "string",
                    "value": "270dp"
                }
            },
            "zIndex": {
                "Default": 20
            }
        },
        "RichTextInfo": {
            "__events__": {},
            "__info__": {
                "kuid": "aadbe962b4294de0996f7d787700da0c",
                "srcKUID": "i86f020750564f6ba173ce46ea601ab5",
                "wType": "RichText"
            },
            "i18n_text": "i18n.TransfersEur.TransactionFee",
            "left": {
                "Default": {
                    "type": "string",
                    "value": "7.80%"
                }
            },
            "responsiveData": {
                "b2": {
                    "width": {
                        "type": "string",
                        "value": "83%"
                    }
                },
                "b3": {}
            },
            "text": "This number will be considered as your preferred communication number. ",
            "top": {
                "Default": {
                    "type": "string",
                    "value": "0dp"
                }
            },
            "width": {
                "Default": {
                    "type": "string",
                    "value": "83%"
                }
            }
        },
        "flxAccountType": {
            "__events__": {},
            "__info__": {
                "kuid": "g230eaf5d6f74e1e927572686323f5d6",
                "srcKUID": "ed52287fd449401ba9a5f005c99e3f35",
                "wType": "FlexContainer"
            }
        },
        "flxCross": {
            "__events__": {},
            "__info__": {
                "kuid": "i9c6167483f746858face7be8fa5e548",
                "srcKUID": "d452c358ed1445a58e5fdff55685498f",
                "wType": "FlexContainer"
            },
            "isVisible": true,
            "responsiveData": {}
        },
        "flxInformation": {
            "__events__": {},
            "__info__": {
                "kuid": "cf21be83273c4666badd3e316189995f",
                "srcKUID": "be414255ea60408894eb2a9b719b864e",
                "wType": "FlexContainer"
            },
            "left": {
                "Default": {
                    "type": "string",
                    "value": "0dp"
                }
            },
            "responsiveData": {
                "b2": {}
            },
            "top": {
                "Default": {
                    "type": "string",
                    "value": "0dp"
                }
            }
        },
        "flxInformationText": {
            "__events__": {},
            "__info__": {
                "kuid": "ed84cce56d1643fab490e5b83b6389bb",
                "srcKUID": "fa4dbab87ecf4647a21060118b02bd03",
                "wType": "FlexContainer"
            }
        },
        "imgCross": {
            "__events__": {},
            "__info__": {
                "kuid": "e374a9ffb0d04a05ac6e675e1505cf23",
                "srcKUID": "d86a08cea857467eae13f42ed033a771",
                "wType": "Image"
            },
            "src": "bbcloseicon.png"
        },
        "imgToolTip": {
            "__events__": {},
            "__info__": {
                "kuid": "a42177cc33fb494893e85eb1cda20dd7",
                "srcKUID": "f9274528aa6b41bfb057f17c510b73b5",
                "wType": "Image"
            },
            "left": {
                "Default": {
                    "type": "string",
                    "value": "51%"
                }
            },
            "src": "tool_tip.png"
        },
        "lblInfo": {
            "__events__": {},
            "__info__": {
                "kuid": "e0ef6e7fe8c7415cbe36c6e2d6c6bc98",
                "srcKUID": "c6ecc9c129c943b396152e99a30763f6",
                "wType": "Label"
            }
        },
        "lblSeperator": {
            "__events__": {},
            "__info__": {
                "kuid": "b573e6dc78984f1bb007a7e9e3683dfb",
                "srcKUID": "f142d5aa44384a3fb94504a874cbbb95",
                "wType": "Label"
            }
        }
    },
    "desktopweb": {},
    "id": "ProfileInfo",
    "info": null,
    "ipad": {},
    "iphone": {},
    "isdatareferenced": false,
    "issegmentchild": false,
    "isvisible": false,
    "kiosk": {},
    "kuid": "f73162aa574049f0a173592c4b24f2b0",
    "layouttype": 4,
    "masterType": 0,
    "name": "kony.ui.UserWidgetInstance",
    "parent": "flxMainWrapper",
    "pf": "frmConfirmDetails",
    "responsiveData": {
        "b1": {
            "isVisible": false,
            "left": {
                "type": "string",
                "value": "8.05%"
            },
            "top": {
                "type": "string",
                "value": "170dp"
            }
        },
        "b2": {
            "isVisible": false,
            "left": {
                "type": "string",
                "value": "8.09%"
            },
            "top": {
                "type": "string",
                "value": "170dp"
            }
        },
        "b3": {
            "centerY": {
                "type": "string",
                "value": ""
            },
            "desktopweb": {
                "centerY": {
                    "type": "string",
                    "value": ""
                }
            },
            "isVisible": false,
            "left": {
                "type": "string",
                "value": "50dp"
            },
            "top": {
                "type": "string",
                "value": "360dp"
            }
        }
    },
    "snaptogrid": true,
    "sourceUserWidget": "aef6ac17436948abacbe12ea5a1d5e5b",
    "spa": {},
    "spaan": {},
    "spaandroidtablet": {},
    "spabb": {},
    "spaip": {},
    "spaipad": {},
    "spamobile": {},
    "spatablet": {},
    "spawindowstablet": {},
    "spawinphone8": {},
    "tabrcandroid": {},
    "vizProps": {
        "hidewidgethierarchy": false
    },
    "wType": "UserWidgetInstance",
    "windows10": {},
    "windows8": {},
    "winphone10": {},
    "winphone8": {},
    "zindex": 20
}