{
    "DNDConfig": null,
    "__parentReadjusting__": false,
    "_height_": {
        "type": "string",
        "value": "40dp"
    },
    "_left_": {
        "type": "string",
        "value": "0dp"
    },
    "_margin_": [
        0,
        0,
        0,
        0
    ],
    "_orientation_": 6,
    "_padding_": [
        0,
        0,
        0,
        0
    ],
    "_percent_": true,
    "_skin_": "s8b9c3471e9f4cdcb3133f2cb3fec6fa",
    "_top_": {
        "type": "string",
        "value": "0dp"
    },
    "_width_": {
        "type": "string",
        "value": "100%"
    },
    "allboxes": [],
    "autogrowmode": 0,
    "canUpdateUI": true,
    "children": [
        "flxAccountName",
        "flxAccountNumber",
        "flxAccountType",
        "flxAction"
    ],
    "clipbounds": true,
    "containerId": true,
    "containerweight": 100,
    "enablescrolling": true,
    "id": "flxTemplates",
    "info": null,
    "iscustomlayout": false,
    "isvisible": true,
    "kuid": "a1af4ee5f6b54c3cad166e4f1a49fc5c",
    "layouttype": 2,
    "name": "kony.ui.FlexContainer",
    "parent": "flxBussinessAccountHeader",
    "pf": "segAddedAccountsHeader",
    "retaincontentalignment": false,
    "retainflexpositionproperties": false,
    "snapgridsize": 10,
    "snaptogrid": true,
    "wType": "FlexContainer",
    "widgetalignment": 1
}