{
    "@class": "com.kony.gen.viz.model.component.KVizUserWidget",
    "DNDConfig": null,
    "__parentReadjusting__": false,
    "_android_": {},
    "_androidwearos_": {},
    "_children_": [],
    "_desktopweb_": {},
    "_height_": {
        "type": "string",
        "value": "550dp"
    },
    "_ipad_": {},
    "_iphone_": {},
    "_kiosk_": {},
    "_left_": {
        "type": "string",
        "value": "0dp"
    },
    "_margin_": [
        0,
        0,
        0,
        0
    ],
    "_orientation_": 1,
    "_padding_": [
        0,
        0,
        0,
        0
    ],
    "_percent_": true,
    "_render_": true,
    "_responsiveData_": {
        "b1": {
            "height": {
                "type": "string",
                "value": "100%"
            }
        },
        "b4": {
            "height": {
                "type": "string",
                "value": "100%"
            }
        }
    },
    "_skin_": "s1d5d3417cb74ec9883e5f01b8521945",
    "_spa_": {},
    "_spaan_": {},
    "_spaandroidtablet_": {},
    "_spabb_": {},
    "_spaip_": {},
    "_spaipad_": {},
    "_spamobile_": {},
    "_spatablet_": {},
    "_spawindowstablet_": {},
    "_spawinphone8_": {},
    "_tabrcandroid_": {},
    "_top_": {
        "type": "string",
        "value": "0dp"
    },
    "_vizProps_": {
        "hidewidgethierarchy": false
    },
    "_width_": {
        "type": "string",
        "value": "100%"
    },
    "_windows10_": {},
    "_windows8_": {},
    "_winphone10_": {},
    "_winphone8_": {},
    "android": {},
    "androidwearos": {},
    "areflexpropsreferenced": false,
    "canUpdateUI": true,
    "clipbounds": false,
    "containerweight": 0,
    "dataDiffs": {
        "btnLoginLater": {
            "__events__": {},
            "__info__": {
                "kuid": "aaca2ff6106f4f2da8dfa64349d0c585",
                "srcKUID": "hc8a8e2f83db408d9139bfe9a8c7d6f1",
                "wType": "Button"
            },
            "left": {},
            "responsiveData": {
                "b1": {
                    "left": {
                        "type": "string",
                        "value": "7dp"
                    }
                }
            }
        },
        "btnProceed": {
            "__events__": {},
            "__info__": {
                "kuid": "h7ba5ed6d5334d44b903a1f2cc60ea6a",
                "srcKUID": "ga1b69e6acc44c0b8f054d948b142503",
                "wType": "Button"
            },
            "responsiveData": {
                "b1": {
                    "text": "Back To Login",
                    "top": {
                        "type": "string",
                        "value": "49.56%"
                    },
                    "width": {
                        "type": "string",
                        "value": "68%"
                    }
                },
                "b2": {
                    "top": {
                        "type": "string",
                        "value": "61.56%"
                    }
                },
                "b3": {
                    "top": {
                        "type": "string",
                        "value": "68.56%"
                    }
                },
                "b4": {
                    "top": {
                        "type": "string",
                        "value": "68.56%"
                    }
                }
            },
            "text": "B",
            "width": {}
        },
        "flxDoneLoginLater": {
            "__events__": {},
            "__info__": {
                "kuid": "b429441f04f149c2a435d296757f5cfc",
                "srcKUID": "f8698c9c7dff42e5ab300992eb8eeb90",
                "wType": "FlexContainer"
            },
            "centerX": {},
            "responsiveData": {
                "b1": {
                    "centerX": {
                        "type": "string",
                        "value": "51%"
                    },
                    "isVisible": false,
                    "top": {
                        "type": "string",
                        "value": "67.5%"
                    },
                    "width": {
                        "type": "string",
                        "value": "152dp"
                    }
                },
                "b2": {
                    "top": {
                        "type": "string",
                        "value": "87.5%"
                    }
                },
                "b3": {
                    "top": {
                        "type": "string",
                        "value": "94.5%"
                    }
                },
                "b4": {
                    "top": {
                        "type": "string",
                        "value": "94.5%"
                    }
                }
            },
            "width": {}
        },
        "flxPasswordSuccess": {
            "__events__": {},
            "__info__": {
                "kuid": "g32513b894e64b1fa918bcfceddef2a1",
                "srcKUID": "f10b205714144f639d613db9bda421f3",
                "wType": "FlexContainer"
            }
        },
        "flxUserImagewithTick": {
            "__events__": {},
            "__info__": {
                "kuid": "f1f6eafaf80e4488b368dd42a480a5fe",
                "srcKUID": "cdd41548c60f43d8b68cd86d703d7337",
                "wType": "FlexContainer"
            },
            "centerX": {},
            "left": {},
            "responsiveData": {
                "b1": {
                    "centerX": {
                        "type": "string",
                        "value": ""
                    },
                    "left": {
                        "type": "number",
                        "value": "78"
                    },
                    "top": {
                        "type": "string",
                        "value": "17.93%"
                    }
                },
                "b2": {
                    "centerX": {
                        "type": "string",
                        "value": "50%"
                    },
                    "top": {
                        "type": "string",
                        "value": "130dp"
                    }
                },
                "b3": {
                    "centerX": {
                        "type": "string",
                        "value": "50%"
                    },
                    "top": {
                        "type": "string",
                        "value": "130dp"
                    }
                },
                "b4": {
                    "centerX": {
                        "type": "string",
                        "value": "50%"
                    },
                    "top": {
                        "type": "string",
                        "value": "130dp"
                    }
                }
            },
            "top": {}
        },
        "imgTickFrame": {
            "__events__": {},
            "__info__": {
                "kuid": "b51df22ca88b47f09edd91b38fa3fc44",
                "srcKUID": "hea6b64cbe604807a0df4a67cdb2c6f8",
                "wType": "Image"
            },
            "src": "user_verify_success_frame.png"
        },
        "imgUserwithoutTick": {
            "__events__": {},
            "__info__": {
                "kuid": "j27c6430467e4a558193741abb033d63",
                "srcKUID": "g810bf5a043a477287298e5ef22e4463",
                "wType": "Image"
            },
            "src": "default_username.png"
        },
        "lblCongrats": {
            "__events__": {},
            "__info__": {
                "kuid": "e6ff0992d0a04380b6f0d86d8c61040f",
                "srcKUID": "a892f75f43dd430da5572fe6d1b3a806",
                "wType": "Label"
            },
            "centerX": {},
            "left": {},
            "responsiveData": {
                "b1": {
                    "centerX": {
                        "type": "string",
                        "value": ""
                    },
                    "left": {
                        "type": "number",
                        "value": "142"
                    },
                    "top": {
                        "type": "string",
                        "value": "19.50%"
                    }
                },
                "b2": {
                    "centerX": {
                        "type": "string",
                        "value": "50%"
                    },
                    "top": {
                        "type": "string",
                        "value": "192dp"
                    }
                },
                "b3": {
                    "centerX": {
                        "type": "string",
                        "value": "50%"
                    },
                    "top": {
                        "type": "string",
                        "value": "35.2%"
                    }
                },
                "b4": {
                    "centerX": {
                        "type": "string",
                        "value": "50%"
                    },
                    "top": {
                        "type": "string",
                        "value": "36.2%"
                    }
                }
            },
            "top": {}
        },
        "lblReserSuccessMsg": {
            "__events__": {},
            "__info__": {
                "kuid": "g67d328897d84f0995a0ae095353b805",
                "srcKUID": "b5649c61999947d2983196c97f13d7c3",
                "wType": "Label"
            },
            "centerX": {},
            "responsiveData": {
                "b1": {
                    "centerX": {
                        "type": "string",
                        "value": "50%"
                    },
                    "top": {
                        "type": "string",
                        "value": "35.019999999999996%"
                    },
                    "width": {
                        "type": "string",
                        "value": "70%"
                    }
                },
                "b2": {
                    "centerX": {
                        "type": "string",
                        "value": "50%"
                    },
                    "top": {
                        "type": "string",
                        "value": "47.019999999999996%"
                    },
                    "width": {
                        "type": "string",
                        "value": "70.03%"
                    }
                },
                "b3": {
                    "centerX": {
                        "type": "string",
                        "value": "50%"
                    },
                    "top": {
                        "type": "string",
                        "value": "47.019999999999996%"
                    },
                    "width": {
                        "type": "string",
                        "value": "53.90%"
                    }
                },
                "b4": {
                    "centerX": {
                        "type": "string",
                        "value": "50%"
                    },
                    "top": {
                        "type": "string",
                        "value": "47.019999999999996%"
                    },
                    "width": {
                        "type": "string",
                        "value": "54.88%"
                    }
                }
            },
            "width": {}
        },
        "orlineSuccess": {
            "__events__": {},
            "__info__": {
                "kuid": "be0d78a6637a4d5d82bb56a682243618",
                "srcKUID": "ee460917f1d14ce49bbb1f22fa881086",
                "wType": "UserWidgetInstance"
            },
            "autogrowMode": {
                "Default": 0
            },
            "height": {},
            "responsiveData": {
                "b1": {
                    "centerX": {
                        "type": "string",
                        "value": "50%"
                    },
                    "isVisible": false,
                    "top": {
                        "type": "string",
                        "value": "525dp"
                    }
                },
                "b2": {
                    "height": {
                        "type": "string",
                        "value": "30dp"
                    },
                    "top": {
                        "type": "string",
                        "value": "420dp"
                    }
                },
                "b3": {
                    "top": {
                        "type": "string",
                        "value": "460dp"
                    }
                },
                "b4": {
                    "top": {
                        "type": "string",
                        "value": "83%"
                    }
                }
            },
            "top": {}
        },
        "orlineSuccess.imgOr": {
            "__events__": {},
            "__info__": {
                "kuid": "b21835de84bc40c3a84c999e97c02b0a",
                "srcKUID": "dd1273f49c5c495fbaf92c0ee14e3a44",
                "wType": "Image"
            },
            "src": "or_circle.png"
        },
        "orlineSuccess.lblCrossOr": {
            "__events__": {},
            "__info__": {
                "kuid": "da7e9df2dcf14c6789151a91910e8ec8",
                "srcKUID": "ge4fcdb694ab4b528855bc427d0e7275",
                "wType": "Label"
            }
        },
        "passwordresetsuccess": {
            "__events__": {},
            "__info__": {
                "isRoot": true,
                "kuid": "d6de3c0b57dc42deb4ddf3b04733a61d",
                "srcKUID": "a0ad0f1501a647b59d9565e22ab21269",
                "wType": "FlexContainer"
            },
            "autogrowMode": {
                "Default": 0
            },
            "height": {},
            "responsiveData": {
                "b1": {
                    "height": {
                        "type": "string",
                        "value": "100%"
                    }
                },
                "b3": {
                    "height": {
                        "type": "string",
                        "value": "100%"
                    }
                }
            }
        },
        "rtxDoneLoginlater": {
            "__events__": {},
            "__info__": {
                "kuid": "ed51e6337d5d40ceaa032f5e5672f28d",
                "srcKUID": "ge59229877d94b64a082d491aa3a9020",
                "wType": "RichText"
            },
            "left": {},
            "responsiveData": {
                "b1": {
                    "left": {
                        "type": "string",
                        "value": "0dp"
                    }
                },
                "b2": {
                    "left": {
                        "type": "string",
                        "value": "39%"
                    }
                },
                "b3": {
                    "left": {
                        "type": "string",
                        "value": "38%"
                    }
                },
                "b4": {
                    "left": {
                        "type": "string",
                        "value": "37%"
                    }
                }
            }
        }
    },
    "desktopweb": {},
    "id": "passwordresetsuccess",
    "info": null,
    "ipad": {},
    "iphone": {},
    "isdatareferenced": false,
    "isvisible": true,
    "kiosk": {},
    "kuid": "d6de3c0b57dc42deb4ddf3b04733a61d",
    "layouttype": 4,
    "masterType": 0,
    "name": "kony.ui.UserWidgetInstance",
    "parent": "flxResetSuccessful",
    "pf": "frmResetPassword",
    "responsiveData": {
        "b1": {
            "height": {
                "type": "string",
                "value": "100%"
            }
        },
        "b3": {
            "height": {
                "type": "string",
                "value": "100%"
            }
        }
    },
    "snaptogrid": true,
    "sourceUserWidget": "a0ad0f1501a647b59d9565e22ab21269",
    "spa": {},
    "spaan": {},
    "spaandroidtablet": {},
    "spabb": {},
    "spaip": {},
    "spaipad": {},
    "spamobile": {},
    "spatablet": {},
    "spawindowstablet": {},
    "spawinphone8": {},
    "tabrcandroid": {},
    "vizProps": {
        "hidewidgethierarchy": false
    },
    "vizprops": {
        "hidewidgethierarchy": false
    },
    "wType": "UserWidgetInstance",
    "windows10": {},
    "windows8": {},
    "winphone10": {},
    "winphone8": {}
}