{
    "@class": "com.kony.gen.viz.model.component.KVizButton",
    "DNDConfig": null,
    "__parentReadjusting__": false,
    "_height_": {
        "type": "string",
        "value": "100%"
    },
    "_margin_": [
        6,
        6,
        6,
        6
    ],
    "_padding_": [
        0,
        0,
        0,
        0
    ],
    "_skin_": "sae54276696f477dbbd70e34725a8526",
    "_text_": "Button",
    "_top_": {
        "type": "string",
        "value": "0dp"
    },
    "_width_": {
        "type": "ref",
        "value": "preferred"
    },
    "accessibilityconfig": {
        "a11yLabel": "Transfer Money"
    },
    "canUpdateUI": true,
    "centerx": {
        "type": "string",
        "value": "50%"
    },
    "centery": {
        "type": "string",
        "value": "50%"
    },
    "containerId": true,
    "containerweight": 100,
    "contentalignment": 5,
    "disabledSkins": {
        "focusSkin": "sf44d06ca8224832827ea7fdff757013"
    },
    "displaytext": true,
    "id": "btnAction",
    "ide_onClick": "AS_Button_eceda0aa4a5b4e8fb50630d6e9f3e19b",
    "info": null,
    "isvisible": true,
    "kuid": "c2151e8e14eb46e8bff6003f1cf9d112",
    "name": "kony.ui.Button",
    "parent": "flxRowOne",
    "pf": "segMakeTransferWireTransfersMobileSelectedNew",
    "texti18n": "i18n.billPay.BillPayMakeTransfer",
    "tooltip": "VIEW REPORT",
    "wType": "Button",
    "zindex": 1
}