{
    "@class": "com.kony.gen.viz.model.component.KVizButton",
    "DNDConfig": null,
    "__parentReadjusting__": false,
    "_height_": {
        "type": "string",
        "value": "50dp"
    },
    "_left_": {
        "type": "string",
        "value": "5%"
    },
    "_margin_": [
        6,
        6,
        6,
        6
    ],
    "_padding_": [
        0,
        0,
        0,
        0
    ],
    "_skin_": "s6dd66d624c2424b8a4d5b93efef2f3d",
    "_text_": "",
    "_top_": {
        "type": "string",
        "value": "250px"
    },
    "_width_": {
        "type": "string",
        "value": "42.50%"
    },
    "canUpdateUI": true,
    "containerweight": 100,
    "contentalignment": 5,
    "desktopweb": {
        "psp": {
            "hoverSkin": "s83729feaa224e359d660d5af05c4bac"
        }
    },
    "displaytext": true,
    "focusskin": "sb23593b913b4005add4a246020aa1cc",
    "id": "btnNo",
    "info": null,
    "isvisible": true,
    "kuid": "d3c869d2c3d4474eb7916ba36e727ee3",
    "name": "kony.ui.Button",
    "parent": "DefaultAccount",
    "pf": "userwidgetmodel",
    "texti18n": "i18n.CustomerFeedback.MaybeLater",
    "tooltip": "Maybe Later",
    "wType": "Button",
    "zindex": 1,
    "accessibilityconfig": {
        "a11yLabel": "Maybe Later"
    }
}