{
    "DNDConfig": null,
    "_height_": {
        "type": "string",
        "value": "670dp"
    },
    "_margin_": [
        0,
        0,
        0,
        0
    ],
    "_orientation_": 6,
    "_padding_": [
        0,
        0,
        0,
        0
    ],
    "_percent_": true,
    "_skin_": "s344174b66d24a22be7a954acfcdefc5",
    "allboxes": [],
    "autogrowmode": 0,
    "canUpdateUI": true,
    "children": [
        "lblHeader",
        "lblSeparatorOne",
        "lblBillerName",
        "txtPayee",
        "lblAddress",
        "txtBankName",
        "lblCity",
        "txtAddress",
        "lblState",
        "txtCity",
        "lblCountry",
        "tbxState",
        "lblZipCode",
        "tbxPinCode",
        "lblSeparatorTwo",
        "flxSaveCancelAction"
    ],
    "clipbounds": true,
    "containerId": true,
    "containerweight": 100,
    "controllerInfo": {
        "default": {
            "channel": "desktop",
            "name": "flxBillPayManagePayeesEditMobileController"
        }
    },
    "enablescrolling": true,
    "id": "flxBillPayManagePayeesEditMobile",
    "info": null,
    "isTemplate": true,
    "isvisible": true,
    "kuid": "i905de17a03a42f19bfcef9972fecb40",
    "layouttype": 4,
    "name": "kony.ui.FlexContainer",
    "parent": "segBillPayManagePayeesEditMobile",
    "pf": "segBillPayManagePayeesEditMobile",
    "snapgridsize": 10,
    "snaptogrid": true,
    "wType": "FlexContainer",
    "widgetalignment": 1
}