{
    "DNDConfig": null,
    "_height_": {
        "type": "string",
        "value": "246px"
    },
    "_margin_": [
        0,
        0,
        0,
        0
    ],
    "_orientation_": 6,
    "_padding_": [
        0,
        0,
        0,
        0
    ],
    "_percent_": true,
    "_skin_": "s722b23b105b42fab367ac20a149a6b3",
    "_width_": {
        "type": "string",
        "value": "479px"
    },
    "accessibilityconfig": {},
    "allboxes": [],
    "autogrowmode": 0,
    "canUpdateUI": true,
    "centerx": {
        "type": "string",
        "value": "50.01%"
    },
    "centery": {
        "type": "string",
        "value": "49.99%"
    },
    "children": [
        "ldlPopupText",
        "imgLoading"
    ],
    "clipbounds": true,
    "containerweight": 100,
    "enablescrolling": true,
    "id": "flxPopup",
    "info": null,
    "iscustomlayout": false,
    "isvisible": true,
    "kuid": "hbe819e2c4f6407b83e2d298f750e12a",
    "layouttype": 2,
    "name": "kony.ui.FlexContainer",
    "parent": "Popup",
    "pf": "userwidgetmodel",
    "retaincontentalignment": false,
    "retainflexpositionproperties": false,
    "retainflowhorizontalalignment": false,
    "snapgridsize": 10,
    "snaptogrid": true,
    "wType": "FlexContainer",
    "widgetalignment": 1,
    "zindex": 1
}