{
    "@class": "com.kony.gen.viz.model.component.KVizButton",
    "DNDConfig": null,
    "__parentReadjusting__": false,
    "_height_": {
        "type": "string",
        "value": "50dp"
    },
    "_left_": {
        "type": "string",
        "value": "53.25%"
    },
    "_margin_": [
        6,
        6,
        6,
        6
    ],
    "_padding_": [
        0,
        0,
        0,
        0
    ],
    "_skin_": "s215ef7edf8c4ddb8f9f91fcc80f7b42",
    "_text_": "CANCEL",
    "_top_": {
        "type": "string",
        "value": "30dp"
    },
    "_width_": {
        "type": "string",
        "value": "21.50%"
    },
    "canUpdateUI": true,
    "containerweight": 100,
    "contentalignment": 5,
    "desktopweb": {
        "psp": {
            "hoverSkin": "s83729feaa224e359d660d5af05c4bac"
        }
    },
    "disabledSkins": {
        "focusSkin": "s35b7bf536354ff18a4f7f8e988f00e5"
    },
    "displaytext": true,
    "id": "btnCancel",
    "info": null,
    "isvisible": true,
    "kuid": "0200f8db752242d0949d6dd0dbe39047",
    "name": "kony.ui.Button",
    "parent": "Activatep2p",
    "pf": "userwidgetmodel",
    "texti18n": "i18n.transfers.Cancel",
    "tooltip": "Cancel",
    "wType": "Button",
    "zindex": 2,
    "accessibilityconfig": {
        "a11yLabel": "Cancel"
    }
}