{
	 "@class": "com.kony.gen.viz.model.component.KVizImage2",
	 "DNDConfig": null,
	 "__parentReadjusting__": false,
	 "_base64_": null,
	 "_height_": {
		 "type": "string",
		 "value": "15px"
	},
	 "_left_": {
		 "type": "string",
		 "value": "0%"
	},
	 "_margin_": [
		 0,
		 0,
		 0,
		 0
	],
	 "_padding_": [
		 0,
		 0,
		 0,
		 0
	],
	 "_skin_": "s78a5f26c9f14cec9ebed1bb46098f80",
	 "_src_": "info_large.png",
	 "_top_": {
		 "type": "string",
		 "value": "0dp"
	},
	 "_width_": {
		 "type": "string",
		 "value": "15dp"
	},
	 "canUpdateUI": true,
	 "containerweight": 100,
	 "context": {
		 "channel": "desktop",
		 "formID": "uw5514daf4719841ebb059096e6ebef5c8",
		 "platform": "desktopweb",
		 "templateType": "userwidgets",
		 "topLevelBox": null
	},
	 "id": "imgInfoIcon",
	 "imagescalemode": 0,
	 "imagewhiledownloading": "img_transparent.png",
	 "info": null,
	 "invokedProperty": "src",
	 "isvisible": true,
	 "kuid": "c944047cb92e409fa874ef23e11d7ef5",
	 "name": "kony.ui.Image2",
	 "parent": "flximgInfoIcon",
	 "pf": "userwidgetmodel",
	 "srcType": 1,
	 "wType": "Image",
	 "widgetalignment": 5,
	 "zindex": 1,
	 "accessibilityconfig": {
		 "a11yLabel": "Info",
		 "a11yValue": ""
	}
}