{
    "DNDConfig": null,
    "_height_": {
        "type": "ref",
        "value": "preferred"
    },
    "_left_": {
        "type": "string",
        "value": "0dp"
    },
    "_margin_": [
        0,
        0,
        0,
        0
    ],
    "_orientation_": 6,
    "_padding_": [
        0,
        0,
        0,
        0
    ],
    "_percent_": true,
    "_skin_": "s24c92fc23b14f5484b693ee9b8a9b35",
    "_top_": {
        "type": "string",
        "value": "0dp"
    },
    "_width_": {
        "type": "string",
        "value": "100%"
    },
    "allboxes": [],
    "autogrowmode": 1,
    "canUpdateUI": true,
    "children": [
        "flxAttachDocumentsSeparator",
        "flxAttachDocumentsLabel",
        "flxFilesList",
        "flxAttachmentUploadError"
    ],
    "clipbounds": false,
    "containerweight": 100,
    "enablescrolling": true,
    "id": "flxAttachDocuments",
    "info": null,
    "iscustomlayout": false,
    "isvisible": false,
    "kuid": "b41e716fe38a440c83ad195599a9ab90",
    "layouttype": 4,
    "name": "kony.ui.FlexContainer",
    "parent": "flxSupportingDocuments",
    "pf": "userwidgetmodel",
    "responsiveData": {
        "b1": {
            "isVisible": true,
            "zIndex": 1
        },
        "b2": {
            "isVisible": true,
            "zIndex": 1
        },
        "b3": {
            "isVisible": true,
            "zIndex": 1
        },
        "b4": {
            "isVisible": true,
            "zIndex": 1
        }
    },
    "retaincontentalignment": false,
    "retainflexpositionproperties": false,
    "retainflowhorizontalalignment": false,
    "snapgridsize": 10,
    "snaptogrid": true,
    "wType": "FlexContainer",
    "widgetalignment": 1,
    "zindex": 4
}