{
    "DNDConfig": null,
    "_height_": {
        "type": "string",
        "value": "65dp"
    },
    "_left_": {
        "type": "string",
        "value": "0dp"
    },
    "_margin_": [
        0,
        0,
        0,
        0
    ],
    "_orientation_": 6,
    "_padding_": [
        0,
        0,
        0,
        0
    ],
    "_percent_": true,
    "_skin_": "s24c92fc23b14f5484b693ee9b8a9b35",
    "_top_": {
        "type": "string",
        "value": "20dp"
    },
    "_width_": {
        "type": "string",
        "value": "90%"
    },
    "allboxes": [],
    "canUpdateUI": true,
    "children": [
        "flxFXRefRateField",
        "flxExchangeRate"
    ],
    "clipbounds": false,
    "containerweight": 100,
    "enablescrolling": true,
    "id": "flxFXRateReferenceExchangeRate",
    "info": null,
    "iscustomlayout": false,
    "isvisible": false,
    "kuid": "eea4db109d794e8e89e51e68bb6a073f",
    "layouttype": 3,
    "name": "kony.ui.FlexContainer",
    "parent": "flxFields",
    "pf": "userwidgetmodel",
    "responsiveData": {
        "b1": {
            "width": {
                "type": "string",
                "value": "100%"
            }
        },
        "b2": {
            "width": {
                "type": "string",
                "value": "100%"
            }
        },
        "b3": {
            "height": {
                "type": "string",
                "value": "110dp"
            },
            "isVisible": false,
            "layoutType": 4,
            "top": {
                "type": "string",
                "value": "10dp"
            },
            "width": {
                "type": "string",
                "value": "100%"
            },
            "zIndex": 1
        },
        "b4": {
            "width": {
                "type": "string",
                "value": "100%"
            }
        }
    },
    "retaincontentalignment": false,
    "retainflexpositionproperties": false,
    "retainflowhorizontalalignment": false,
    "snapgridsize": 10,
    "snaptogrid": true,
    "wType": "FlexContainer",
    "widgetalignment": 1,
    "zindex": 9
}