{
    "DNDConfig": null,
    "_height_": {
        "type": "string",
        "value": "100%"
    },
    "_left_": {
        "type": "string",
        "value": "1.80%"
    },
    "_margin_": [
        0,
        0,
        0,
        0
    ],
    "_orientation_": 6,
    "_padding_": [
        0,
        0,
        0,
        0
    ],
    "_percent_": true,
    "_skin_": "s24c92fc23b14f5484b693ee9b8a9b35",
    "_top_": {
        "type": "string",
        "value": "0dp"
    },
    "_width_": {
        "type": "string",
        "value": "47%"
    },
    "allboxes": [],
    "canUpdateUI": true,
    "children": [
        "flxPayeeDetailField4",
        "flxDetailField4Info"
    ],
    "clipbounds": false,
    "containerweight": 100,
    "enablescrolling": true,
    "id": "flxField4",
    "info": null,
    "iscustomlayout": false,
    "isvisible": true,
    "kuid": "g422d27212d74aea9927b58a5e312478",
    "layouttype": 2,
    "name": "kony.ui.FlexContainer",
    "parent": "flxPayeeDetailFieldRow2",
    "pf": "userwidgetmodel",
    "responsiveData": {
        "b1": {
            "width": {
                "type": "string",
                "value": "49.10%"
            }
        },
        "b2": {
            "width": {
                "type": "string",
                "value": "49.10%"
            }
        },
        "b3": {
            "height": {
                "type": "string",
                "value": "70dp"
            },
            "left": {
                "type": "string",
                "value": "0dp"
            },
            "width": {
                "type": "string",
                "value": "100%"
            }
        },
        "b4": {
            "width": {
                "type": "string",
                "value": "49.10%"
            }
        }
    },
    "retaincontentalignment": false,
    "retainflexpositionproperties": false,
    "retainflowhorizontalalignment": false,
    "snapgridsize": 10,
    "snaptogrid": true,
    "wType": "FlexContainer",
    "widgetalignment": 1
}