{
    "DNDConfig": null,
    "_height_": {
        "type": "string",
        "value": "370dp"
    },
    "_left_": {
        "type": "string",
        "value": "50.59%"
    },
    "_margin_": [
        0,
        0,
        0,
        0
    ],
    "_orientation_": 6,
    "_padding_": [
        0,
        0,
        0,
        0
    ],
    "_percent_": true,
    "_right_": {
        "type": "number",
        "value": ""
    },
    "_skin_": "sdc143f0e5b64ae3a3f155f691c73fa7",
    "_top_": {
        "type": "string",
        "value": "70dp"
    },
    "_width_": {
        "type": "string",
        "value": "43.27%"
    },
    "allboxes": [],
    "canUpdateUI": true,
    "children": [
        "ConfirmDialog"
    ],
    "clipbounds": false,
    "containerweight": 100,
    "enablescrolling": true,
    "id": "flxCardDetails",
    "info": null,
    "isvisible": true,
    "kuid": "dabe510feae4439cac19886438d4bcbc",
    "layouttype": 2,
    "name": "kony.ui.FlexContainer",
    "parent": "flxAcknowledgment",
    "pf": "CopyfrmCardManagement",
    "responsiveData": {
        "b2": {
            "height": {
                "type": "string",
                "value": "370dp"
            },
            "left": {
                "type": "string",
                "value": "2.50%"
            },
            "right": {
                "type": "string",
                "value": ""
            },
            "top": {
                "type": "string",
                "value": "460dp"
            },
            "width": {
                "type": "string",
                "value": "95%"
            }
        },
        "b3": {
            "height": {
                "type": "string",
                "value": "340dp"
            },
            "left": {
                "type": "string",
                "value": "2.50%"
            },
            "top": {
                "type": "string",
                "value": "420dp"
            },
            "width": {
                "type": "string",
                "value": "95%"
            }
        }
    },
    "snapgridsize": 10,
    "snaptogrid": true,
    "wType": "FlexContainer",
    "widgetalignment": 1,
    "zindex": 1
}