{
    "DNDConfig": null,
    "_height_": {
        "type": "ref",
        "value": "preferred"
    },
    "_left_": {
        "type": "string",
        "value": "30dp"
    },
    "_margin_": [
        0,
        0,
        0,
        0
    ],
    "_orientation_": 6,
    "_padding_": [
        0,
        0,
        0,
        0
    ],
    "_percent_": true,
    "_skin_": "s24c92fc23b14f5484b693ee9b8a9b35",
    "_top_": {
        "type": "string",
        "value": "20dp"
    },
    "_width_": {
        "type": "string",
        "value": "50.53%"
    },
    "allboxes": [],
    "autogrowmode": 1,
    "canUpdateUI": true,
    "children": [
        "flxDetailsRow1",
        "flxDetailsRow2",
        "flxDetailsRow3",
        "flxDetailsRow4",
        "flxDetailsRow5",
        "flxDetailsRow6"
    ],
    "clipbounds": true,
    "containerweight": 100,
    "enablescrolling": true,
    "id": "flxDetails",
    "info": null,
    "isvisible": true,
    "kuid": "e9dad7d149d54d58817d31711266d874",
    "layouttype": 4,
    "name": "kony.ui.FlexContainer",
    "parent": "flxConfirmBody",
    "pf": "CopyfrmCardManagement",
    "snapgridsize": 10,
    "snaptogrid": true,
    "wType": "FlexContainer",
    "widgetalignment": 1,
    "zindex": 1
}