{
    "@class": "com.kony.gen.viz.model.component.KVizSlider",
    "DNDConfig": null,
    "_height_": {
        "type": "ref",
        "value": "preferred"
    },
    "_left_": {
        "type": "string",
        "value": "0dp"
    },
    "_margin_": [
        0,
        0,
        0,
        0
    ],
    "_max_": 1000,
    "_min_": 0,
    "_padding_": [
        0,
        0,
        0,
        0
    ],
    "_step_": 1,
    "_thickness_": 2,
    "_top_": {
        "type": "string",
        "value": "14dp"
    },
    "_width_": {
        "type": "ref",
        "value": "preferred"
    },
    "android": {
        "thumbImage": "slider_android.png"
    },
    "androidwearos": {
        "thumbImage": "slider_android.png"
    },
    "canUpdateUI": true,
    "containerweight": 100,
    "desktopweb": {
        "psp": {
            "orientation": "horizontal",
            "viewType": "default"
        }
    },
    "id": "limitPurchaseSlider",
    "ide_onSlide": "AS_Slider_c8dbfb620d114a7a87984a6ecf00801a",
    "imgwt": 30,
    "info": null,
    "ipad": {
        "psp": {
            "enableThumbTintColor": true,
            "thumbTintColor": "ffffff00"
        },
        "thumbImage": "slider_ios7.png"
    },
    "iphone": {
        "psp": {
            "enableThumbTintColor": true,
            "thumbTintColor": "ffffff00"
        },
        "thumbImage": "slider_ios7.png"
    },
    "iscustomlayout": false,
    "isvisible": true,
    "kuid": "fc09783fb72c40908a7b1eb8e5e01315",
    "leftskin": "s552843c5d4d42918526bad85701c909",
    "minlabel": "",
    "name": "kony.ui.Slider",
    "noofsteps": 1000,
    "osPlatform": "desktopweb",
    "osVersion": "iOS7",
    "parent": "flxPrevPurchaseSlider",
    "pf": "CopyfrmCardManagement",
    "retaincontentalignment": false,
    "retainflexpositionproperties": false,
    "rightskin": "sfd3bf709b35447ba93d7a759d1791ae",
    "selectedvalue": 1,
    "stepwidth": 0.23,
    "tabrcandroid": {
        "thumbImage": "slider_android.png"
    },
    "thumbimage": "slider_knob_white_small.png",
    "wType": "Slider",
    "widgetalignment": 5,
    "zindex": 3
}