{
    "DNDConfig": null,
    "_height_": {
        "type": "string",
        "value": "60dp"
    },
    "_left_": {
        "type": "string",
        "value": "0%"
    },
    "_margin_": [
        0,
        0,
        0,
        0
    ],
    "_orientation_": 6,
    "_padding_": [
        0,
        0,
        0,
        0
    ],
    "_percent_": true,
    "_skin_": "scbd4cac3526468089bf3013adff0549",
    "_top_": {
        "type": "string",
        "value": "0dp"
    },
    "_width_": {
        "type": "string",
        "value": "100%"
    },
    "allboxes": [],
    "canUpdateUI": true,
    "children": [
        "flxSeparatorPrimaryActions",
        "btnViewAccountDetail",
        "btnViewStatement"
    ],
    "clipbounds": false,
    "containerweight": 100,
    "enablescrolling": true,
    "id": "flxPrimaryActions",
    "info": null,
    "isvisible": true,
    "kuid": "a44298bac683463581714cf438b204bc",
    "layouttype": 4,
    "name": "kony.ui.FlexContainer",
    "parent": "flxActions",
    "pf": "frmPayDueAmount",
    "responsiveData": {
        "b1": {
            "height": {
                "type": "string",
                "value": "0dp"
            },
            "isVisible": false
        },
        "b2": {
            "isVisible": false
        },
        "b3": {
            "isVisible": true
        },
        "b4": {
            "isVisible": true
        }
    },
    "snapgridsize": 10,
    "snaptogrid": true,
    "wType": "FlexContainer",
    "widgetalignment": 1,
    "zindex": 1
}