{
    "DNDConfig": null,
    "__parentReadjusting__": false,
    "_height_": {
        "type": "string",
        "value": "155%"
    },
    "_left_": {
        "type": "string",
        "value": "0dp"
    },
    "_margin_": [
        0,
        0,
        0,
        0
    ],
    "_orientation_": 6,
    "_padding_": [
        0,
        0,
        0,
        0
    ],
    "_percent_": true,
    "_skin_": "s0120c5910bf4f318a5807b459d34586",
    "_top_": {
        "type": "string",
        "value": "0dp"
    },
    "_width_": {
        "type": "string",
        "value": "100%"
    },
    "allboxes": [],
    "autogrowmode": 0,
    "canUpdateUI": true,
    "children": [
        "flxTC"
    ],
    "clipbounds": true,
    "containerweight": 100,
    "enablescrolling": true,
    "id": "flxTermsAndConditions",
    "info": null,
    "isvisible": false,
    "kuid": "gb9a7aee377749dcbd15c652f8ec5ed6",
    "layouttype": 2,
    "name": "kony.ui.FlexContainer",
    "parent": "frmShortTermDeposit",
    "pf": "frmShortTermDeposit",
    "responsiveData": {
        "b1": {},
        "b2": {},
        "b3": {
            "width": {
                "type": "string",
                "value": "100%"
            }
        },
        "b4": {}
    },
    "snapgridsize": 10,
    "snaptogrid": true,
    "wType": "FlexContainer",
    "widgetalignment": 1,
    "zindex": 1501
}