{
    "DNDConfig": null,
    "_height_": {
        "type": "string",
        "value": "650dp"
    },
    "_left_": {
        "type": "string",
        "value": "32.60%"
    },
    "_margin_": [
        0,
        0,
        0,
        0
    ],
    "_orientation_": 6,
    "_padding_": [
        0,
        0,
        0,
        0
    ],
    "_percent_": true,
    "_skin_": "s8823f92dd17459d8dbd603fe9224e85",
    "_top_": {
        "type": "string",
        "value": "51dp"
    },
    "_width_": {
        "type": "string",
        "value": "1px"
    },
    "allboxes": [],
    "autogrowmode": 0,
    "canUpdateUI": true,
    "children": [],
    "clipbounds": true,
    "containerweight": 100,
    "enablescrolling": true,
    "id": "flxVerticalSeparator",
    "info": null,
    "isvisible": true,
    "kuid": "f43030e8f1c34f9caea1738cfb3f25c1",
    "layouttype": 2,
    "name": "kony.ui.FlexContainer",
    "parent": "flxMessagesMain",
    "pf": "frmAlerts",
    "responsiveData": {
        "b3": {
            "isVisible": false
        }
    },
    "snapgridsize": 10,
    "snaptogrid": true,
    "wType": "FlexContainer",
    "widgetalignment": 1,
    "zindex": 1
}