{
    "@class": "com.kony.gen.viz.model.component.KVizLabel",
    "DNDConfig": null,
    "_height_": {
        "type": "ref",
        "value": "preferred"
    },
    "_left_": {
        "type": "number",
        "value": ""
    },
    "_margin_": [
        1,
        1,
        1,
        1
    ],
    "_padding_": [
        0,
        0,
        0,
        0
    ],
    "_skin_": "s7c5481167ef4f8dbefb3f332c9b7aca",
    "_text_": "Alerts & Messages",
    "_top_": {
        "type": "string",
        "value": "30dp"
    },
    "_width_": {
        "type": "string",
        "value": "1200dp"
    },
    "_wrapping_": 2,
    "accessibilityconfig": {
        "a11yLabel": "Add Non-Kony DBX Recipient"
    },
    "android": {
        "textStyle": {
            "letterSpacing": 0,
            "strikeThrough": false
        }
    },
    "canUpdateUI": true,
    "centerx": {
        "type": "string",
        "value": "50%"
    },
    "containerweight": 100,
    "contentalignment": 4,
    "id": "lblMessageas",
    "info": null,
    "ipad": {
        "psp": {
            "wrapping": 2
        }
    },
    "iphone": {
        "psp": {
            "wrapping": 2
        }
    },
    "isvisible": true,
    "kuid": "a30e12ae2fd04f10b3755d1c778a06dd",
    "name": "kony.ui.Label",
    "parent": "flxContainer",
    "pf": "frmAlerts",
    "responsiveData": {
        "b2": {
            "centerX": {
                "type": "string",
                "value": ""
            },
            "left": {
                "type": "string",
                "value": "0dp"
            },
            "top": {
                "type": "string",
                "value": "25dp"
            },
            "width": {
                "type": "string",
                "value": "95%"
            }
        },
        "b3": {
            "isVisible": false,
            "left": {
                "type": "string",
                "value": ""
            },
            "width": {
                "type": "string",
                "value": "95%"
            }
        },
        "b4": {
            "centerX": {
                "type": "string",
                "value": ""
            },
            "left": {
                "type": "string",
                "value": "0dp"
            },
            "width": {
                "type": "string",
                "value": "95%"
            }
        }
    },
    "texti18n": "i18n.AlertsAndMessages.AlertsAndMessages",
    "tooltip": "",
    "wType": "Label",
    "zindex": 1
}