{
    "DNDConfig": null,
    "__parentReadjusting__": false,
    "_height_": {
        "type": "ref",
        "value": "preferred"
    },
    "_left_": {
        "type": "string",
        "value": "0%"
    },
    "_margin_": [
        0,
        0,
        0,
        0
    ],
    "_orientation_": 6,
    "_padding_": [
        0,
        0,
        0,
        0
    ],
    "_percent_": true,
    "_skin_": "s24c92fc23b14f5484b693ee9b8a9b35",
    "_top_": {
        "type": "string",
        "value": "0dp"
    },
    "_width_": {
        "type": "string",
        "value": "100%"
    },
    "allboxes": [],
    "autogrowmode": 1,
    "canUpdateUI": true,
    "children": [
        "flxSubHeader",
        "flxHorizontalLine1",
        "segBill",
        "flxHorizontalLine2",
        "flxTotalAmount",
        "flxHorizontalLine3"
    ],
    "clipbounds": false,
    "containerweight": 100,
    "enablescrolling": true,
    "id": "flxHolder",
    "info": null,
    "isvisible": true,
    "kuid": "d395e79f511044279e1b6d6f5c66e913",
    "layouttype": 4,
    "name": "kony.ui.FlexContainer",
    "parent": "flxSubConfirmation",
    "pf": "frmBulkBillPayConfirm",
    "responsiveData": {
        "b1": {
            "isVisible": true
        },
        "b2": {},
        "b3": {
            "isVisible": true
        },
        "b4": {}
    },
    "snapgridsize": 10,
    "snaptogrid": true,
    "wType": "FlexContainer",
    "widgetalignment": 1,
    "zindex": 1
}