{
    "@class": "com.kony.gen.viz.model.component.KVizLabel",
    "DNDConfig": null,
    "__parentReadjusting__": false,
    "_height_": {
        "type": "ref",
        "value": "preferred"
    },
    "_left_": {
        "type": "string",
        "value": "594dp"
    },
    "_margin_": [
        1,
        1,
        1,
        1
    ],
    "_padding_": [
        0,
        0,
        0,
        0
    ],
    "_skin_": "s2a1de65ddd542a5bd16d1b98f5cd9da",
    "_text_": "Label",
    "_top_": {
        "type": "string",
        "value": "295dp"
    },
    "_width_": {
        "type": "string",
        "value": "50%"
    },
    "_wrapping_": 2,
    "accessibilityconfig": {
        "a11yLabel": "Integrated, easy-to-use web and mobile applications – built on the leading digital banking platform – to accelerate digital transformation, embrace rapid innovation, drive a frictionless customer experience and take control of your future."
    },
    "android": {
        "textStyle": {
            "letterSpacing": 0,
            "strikeThrough": false
        }
    },
    "canUpdateUI": true,
    "containerweight": 100,
    "contentalignment": 4,
    "id": "lblBeyondBankingDesc",
    "info": null,
    "ipad": {
        "psp": {
            "wrapping": 2
        }
    },
    "iphone": {
        "psp": {
            "wrapping": 2
        }
    },
    "iscustomlayout": false,
    "isvisible": true,
    "kuid": "d3a189bad0704221a98eaa31d2e1b908",
    "name": "kony.ui.Label",
    "parent": "flxMain",
    "pf": "frmPreTermsandCondition",
    "responsiveData": {
        "b1": {
            "contentAlignment": 1,
            "height": {
                "type": "string",
                "value": "80dp"
            },
            "isVisible": true,
            "left": {
                "type": "string",
                "value": "565dp"
            },
            "top": {
                "type": "string",
                "value": "300dp"
            },
            "width": {
                "type": "string",
                "value": "42%"
            }
        },
        "b2": {
            "isVisible": false
        },
        "b3": {
            "isVisible": false
        },
        "b4": {
            "isVisible": false
        }
    },
    "retaincontentalignment": false,
    "retainflexpositionproperties": false,
    "texti18n": "i18n.login.BeyondBankingDesc",
    "tooltip": "",
    "wType": "Label",
    "zindex": 20
}