{
    "DNDConfig": null,
    "__parentReadjusting__": false,
    "_height_": {
        "type": "string",
        "value": "160dp"
    },
    "_left_": {
        "type": "string",
        "value": "0dp"
    },
    "_margin_": [
        0,
        0,
        0,
        0
    ],
    "_orientation_": 6,
    "_padding_": [
        0,
        0,
        0,
        0
    ],
    "_percent_": true,
    "_skin_": "scf14515e2d444a590ca002fed32ff6d",
    "_top_": {
        "type": "string",
        "value": "0dp"
    },
    "_width_": {
        "type": "string",
        "value": "100%"
    },
    "allboxes": [],
    "autogrowmode": 0,
    "canUpdateUI": true,
    "children": [
        "flxDetails",
        "flxActions",
        "flxDetailsHighlighter"
    ],
    "clipbounds": true,
    "containerId": true,
    "containerweight": 100,
    "disabledSkins": {},
    "enablescrolling": true,
    "focusskin": "scf14515e2d444a590ca002fed32ff6d",
    "id": "flxUserDetails",
    "info": null,
    "iscustomlayout": false,
    "isvisible": true,
    "kuid": "he80ba553a8547578588bdb56cd4da01",
    "layouttype": 2,
    "name": "kony.ui.FlexContainer",
    "parent": "flxUserCommonRowDetails",
    "pf": "segBBAllUsersRowTemplateSelected",
    "retaincontentalignment": false,
    "retainflexpositionproperties": false,
    "snapgridsize": 10,
    "snaptogrid": true,
    "wType": "FlexContainer",
    "widgetalignment": 1,
    "zindex": 1
}