{
    "@class": "com.kony.gen.viz.model.component.KVizUserWidget",
    "DNDConfig": null,
    "__parentReadjusting__": false,
    "_children_": [],
    "_height_": {
        "type": "ref",
        "value": "preferred"
    },
    "_left_": {
        "type": "string",
        "value": "0dp"
    },
    "_margin_": [
        0,
        0,
        0,
        0
    ],
    "_orientation_": 1,
    "_padding_": [
        0,
        0,
        0,
        0
    ],
    "_percent_": true,
    "_skin_": "s24c92fc23b14f5484b693ee9b8a9b35",
    "_top_": {
        "type": "string",
        "value": "0dp"
    },
    "_width_": {
        "type": "string",
        "value": "100%"
    },
    "android": {},
    "androidwearos": {},
    "areflexpropsreferenced": false,
    "autogrowmode": 1,
    "canUpdateUI": true,
    "clipbounds": false,
    "containerweight": 0,
    "dataDiffs": {
        "accountTypes": {
            "__events__": {},
            "__info__": {
                "isRoot": true,
                "kuid": "ad6fab70fe1648a196b780a148bfbe93",
                "srcKUID": "b62c12eb1c8d4c288d0cc6b63f1eb6bb",
                "wType": "FlexContainer"
            },
            "isVisible": false,
            "responsiveData": {},
            "zIndex": {
                "Default": 5
            }
        },
        "flxAccountTypesSegment": {
            "__events__": {},
            "__info__": {
                "kuid": "e15aa30a80204f4786a1522a4c396d3b",
                "srcKUID": "012bfaa77f29418e90e76556de8e6db8",
                "wType": "FlexContainer"
            },
            "responsiveData": {},
            "zIndex": {
                "Default": 5
            }
        },
        "imgToolTip": {
            "__events__": {},
            "__info__": {
                "kuid": "abb3185a0c394600bca28470f7cd98b8",
                "srcKUID": "38b535966b4c476e9b87c15b828b2245",
                "wType": "Image"
            },
            "isVisible": false,
            "responsiveData": {}
        },
        "segAccountTypes": {
            "__events__": {},
            "__info__": {
                "kuid": "d3a9e96787a647c2979050a54923c81a",
                "srcKUID": "d42b5ca698e0494ca8a5e305a01a9418",
                "wType": "Segment"
            }
        }
    },
    "desktopweb": {},
    "enablescrolling": true,
    "id": "accountTypesWireTransfersRecent",
    "info": null,
    "ipad": {},
    "iphone": {},
    "isdatareferenced": false,
    "isvisible": false,
    "kiosk": {},
    "kuid": "ad6fab70fe1648a196b780a148bfbe93",
    "layouttype": 4,
    "masterType": 0,
    "name": "kony.ui.UserWidgetInstance",
    "parent": "flxFiltersList",
    "pf": "frmWireTransfersRecent",
    "responsiveData": {},
    "snapgridsize": 10,
    "snaptogrid": true,
    "sourceUserWidget": "b62c12eb1c8d4c288d0cc6b63f1eb6bb",
    "spa": {},
    "spaan": {},
    "spaandroidtablet": {},
    "spabb": {},
    "spaip": {},
    "spaipad": {},
    "spamobile": {},
    "spatablet": {},
    "spawindowstablet": {},
    "spawinphone8": {},
    "tabrcandroid": {},
    "vizProps": {
        "hidewidgethierarchy": false
    },
    "wType": "UserWidgetInstance",
    "windows10": {},
    "windows8": {},
    "winphone10": {},
    "winphone8": {},
    "zindex": 5
}