{
    "DNDConfig": null,
    "__parentReadjusting__": false,
    "_height_": {
        "type": "string",
        "value": "100%"
    },
    "_left_": {
        "type": "string",
        "value": "0dp"
    },
    "_margin_": [
        0,
        0,
        0,
        0
    ],
    "_orientation_": 6,
    "_padding_": [
        0,
        0,
        0,
        0
    ],
    "_percent_": true,
    "_skin_": "sba5a7627a5d4fa3befc93e669f0f2b0",
    "_top_": {
        "type": "string",
        "value": "0dp"
    },
    "_width_": {
        "type": "string",
        "value": "100%"
    },
    "allboxes": [],
    "allowhorizontalbounce": false,
    "allowverticalbounce": true,
    "bounces": true,
    "canUpdateUI": true,
    "children": [
        "flxImageContainer1"
    ],
    "clipbounds": true,
    "containerweight": 100,
    "decelerat": false,
    "dragg": false,
    "enablescrolling": true,
    "horizontalscrollindicator": true,
    "id": "flxImg",
    "info": null,
    "iscustomlayout": false,
    "isvisible": true,
    "kuid": "fcf62a1535074045b96b931f8eb2bba2",
    "layouttype": 2,
    "maxwidth": {
        "type": "number",
        "value": ""
    },
    "name": "kony.ui.FlexScrollContainer",
    "pagingenabled": false,
    "parent": "flxViewEbillContainer",
    "pf": "frmBulkBeneficiariesSelected",
    "responsiveData": {
        "b1": {
            "height": {
                "type": "string",
                "value": "330dp"
            }
        },
        "b2": {
            "height": {
                "type": "string",
                "value": "300px"
            }
        },
        "b4": {
            "height": {
                "type": "string",
                "value": "470dp"
            }
        }
    },
    "retaincontentalignment": false,
    "retainflexpositionproperties": false,
    "retainflowhorizontalalignment": false,
    "scrolldirection": 2,
    "snapgridsize": 10,
    "snaptogrid": true,
    "track": false,
    "verticalscrollindicator": true,
    "wType": "FlexScrollContainer",
    "widgetalignment": 1
}