{
    "DNDConfig": null,
    "__parentReadjusting__": false,
    "_height_": {
        "type": "string",
        "value": "110dp"
    },
    "_left_": {
        "type": "string",
        "value": "0"
    },
    "_margin_": [
        0,
        0,
        0,
        0
    ],
    "_orientation_": 6,
    "_padding_": [
        0,
        0,
        0,
        0
    ],
    "_percent_": true,
    "_skin_": "s24c92fc23b14f5484b693ee9b8a9b35",
    "_top_": {
        "type": "string",
        "value": "0"
    },
    "_width_": {
        "type": "string",
        "value": "100%"
    },
    "allboxes": [],
    "canUpdateUI": true,
    "children": [
        "btnAddRecepientContinue",
        "btnRecepientBack",
        "btnRecepientCancel",
        "flxSeperatorButtons"
    ],
    "clipbounds": true,
    "containerweight": 100,
    "enablescrolling": true,
    "id": "flxAddRecepientActions",
    "info": null,
    "iscustomlayout": false,
    "isvisible": true,
    "kuid": "bda02332b1de437ca93e99078ccdb2bf",
    "layouttype": 2,
    "name": "kony.ui.FlexContainer",
    "parent": "flxAddRecepientTo",
    "pf": "frmWireTransferAddInternationalAccountStep2",
    "responsiveData": {
        "b3": {
            "height": {
                "type": "string",
                "value": "200dp"
            },
            "left": {
                "type": "string",
                "value": "0dp"
            },
            "top": {
                "type": "string",
                "value": "100dp"
            }
        }
    },
    "retaincontentalignment": false,
    "retainflexpositionproperties": false,
    "retainflowhorizontalalignment": false,
    "snapgridsize": 10,
    "snaptogrid": true,
    "wType": "FlexContainer",
    "widgetalignment": 1
}