{
    "@class": "com.kony.gen.viz.model.component.KVizUserWidget",
    "DNDConfig": null,
    "__parentReadjusting__": false,
    "_android_": {},
    "_androidwearos_": {},
    "_children_": [],
    "_desktopweb_": {},
    "_height_": {
        "type": "string",
        "value": "80dp"
    },
    "_ipad_": {},
    "_iphone_": {},
    "_kiosk_": {},
    "_left_": {
        "type": "string",
        "value": "0dp"
    },
    "_margin_": [
        0,
        0,
        0,
        0
    ],
    "_orientation_": 1,
    "_padding_": [
        0,
        0,
        0,
        0
    ],
    "_percent_": true,
    "_render_": true,
    "_responsiveData_": {
        "b3": {
            "centerX": {
                "type": "string",
                "value": ""
            },
            "centerY": {
                "type": "string",
                "value": "50%"
            },
            "top": {
                "type": "string",
                "value": ""
            }
        }
    },
    "_skin_": "s24c92fc23b14f5484b693ee9b8a9b35",
    "_spa_": {},
    "_spaan_": {},
    "_spaandroidtablet_": {},
    "_spabb_": {},
    "_spaip_": {},
    "_spaipad_": {},
    "_spamobile_": {},
    "_spatablet_": {},
    "_spawindowstablet_": {},
    "_spawinphone8_": {},
    "_tabrcandroid_": {},
    "_top_": {
        "type": "string",
        "value": "0dp"
    },
    "_vizProps_": {
        "hidewidgethierarchy": false
    },
    "_width_": {
        "type": "string",
        "value": "100%"
    },
    "_windows10_": {},
    "_windows8_": {},
    "_winphone10_": {},
    "_winphone8_": {},
    "areflexpropsreferenced": false,
    "canUpdateUI": true,
    "clipbounds": false,
    "containerweight": 0,
    "dataDiffs": {
        "TermsAndConditions": {
            "__events__": {},
            "__info__": {
                "isRoot": true,
                "kuid": "b69f526e332f4342b1f242d1a5b80376",
                "srcKUID": "c16c4e0f518e42eea7570dfe08c59493",
                "wType": "FlexContainer"
            },
            "centerX": {},
            "centerY": {},
            "left": {
                "Default": {
                    "type": "string",
                    "value": "0dp"
                }
            },
            "responsiveData": {
                "b3": {
                    "centerX": {
                        "type": "string",
                        "value": ""
                    },
                    "centerY": {
                        "type": "string",
                        "value": "50%"
                    },
                    "top": {
                        "type": "string",
                        "value": ""
                    }
                }
            },
            "top": {}
        },
        "lblTermsAndConditions": {
            "__events__": {},
            "__info__": {
                "kuid": "a88a158a18d74cdf9467e821e85430a0",
                "srcKUID": "e89f6d70ff194996a07d3b608f705514",
                "wType": "Label"
            },
            "i18n_text": "i18n.WireTransfers.TandC"
        }
    },
    "id": "TermsAndConditions",
    "info": null,
    "isdatareferenced": false,
    "isvisible": true,
    "kuid": "b69f526e332f4342b1f242d1a5b80376",
    "layouttype": 2,
    "masterType": 0,
    "name": "kony.ui.UserWidgetInstance",
    "parent": "flxTermsAndConditions",
    "pf": "frmWireTransferAddInternationalAccountStep2",
    "snaptogrid": true,
    "sourceUserWidget": "c16c4e0f518e42eea7570dfe08c59493",
    "vizprops": {
        "hidewidgethierarchy": false
    },
    "wType": "UserWidgetInstance"
}