{
    "@class": "com.kony.gen.viz.model.component.KVizButton",
    "DNDConfig": null,
    "__parentReadjusting__": false,
    "_height_": {
        "type": "ref",
        "value": "preferred"
    },
    "_left_": {
        "type": "string",
        "value": "0%"
    },
    "_margin_": [
        6,
        6,
        6,
        6
    ],
    "_padding_": [
        0,
        0,
        0,
        0
    ],
    "_skin_": "se4cbdf6e51f48eda9966caa941c6a19",
    "_text_": "VIEW ACTIVITY",
    "_top_": {
        "type": "string",
        "value": "16px"
    },
    "_width_": {
        "type": "ref",
        "value": "preferred"
    },
    "accessibilityconfig": {
        "a11yLabel": "VIEW ACTIVITY"
    },
    "canUpdateUI": true,
    "containerId": true,
    "containerweight": 100,
    "contentalignment": 5,
    "desktopweb": {
        "psp": {
            "hoverSkin": "s4285319e4d34ae1b45e5ef82d61be6b"
        }
    },
    "disabledSkins": {
        "focusSkin": "sf44d06ca8224832827ea7fdff757013"
    },
    "displaytext": true,
    "id": "btnViewActivity",
    "ide_onClick": "AS_Button_d1cacdea79494f118f27d1a674b3b9f0",
    "info": null,
    "isvisible": true,
    "kuid": "gac32c8af53b40bd888cb1ef4fd7c0b0",
    "name": "kony.ui.Button",
    "parent": "flxColumn3",
    "pf": "segManageRecipientSelected",
    "wType": "Button",
    "zindex": 1
}