{
    "@class": "com.kony.gen.viz.model.component.KVizButton",
    "DNDConfig": null,
    "__parentReadjusting__": false,
    "_height_": {
        "type": "ref",
        "value": "preferred"
    },
    "_margin_": [
        6,
        6,
        6,
        6
    ],
    "_padding_": [
        0,
        0,
        0,
        0
    ],
    "_right_": {
        "type": "string",
        "value": "-2%"
    },
    "_skin_": "sf6ca31ec68641e5a2df8232c58cd39a",
    "_text_": "DISMISS",
    "_width_": {
        "type": "string",
        "value": "11%"
    },
    "accessibilityconfig": {
        "a11yLabel": "Dismiss"
    },
    "canUpdateUI": true,
    "centery": {
        "type": "string",
        "value": "60%"
    },
    "containerweight": 100,
    "contentalignment": 4,
    "disabledSkins": {
        "focusSkin": "sf44d06ca8224832827ea7fdff757013"
    },
    "displaytext": true,
    "id": "backToAlerts",
    "info": null,
    "isvisible": true,
    "kuid": "g54f8490a6ed4d7f8ad70fc8f9bb525b",
    "name": "kony.ui.Button",
    "parent": "flxNotificationHeader",
    "pf": "userwidgetmodel",
    "texti18n": "i18n.NotificationsAndMessages.Dismiss",
    "tooltip": "Dismiss",
    "wType": "Button",
    "zindex": 1
}