{
    "@class": "com.kony.gen.viz.model.component.KVizButton",
    "DNDConfig": null,
    "__parentReadjusting__": false,
    "_height_": {
        "type": "string",
        "value": "40dp"
    },
    "_margin_": [
        6,
        6,
        6,
        6
    ],
    "_padding_": [
        0,
        0,
        0,
        0
    ],
    "_right_": {
        "type": "string",
        "value": "4.34%"
    },
    "_skin_": "s3681a7211a345fba79d7013af78ba93",
    "_text_": "SEND",
    "_width_": {
        "type": "string",
        "value": "17.36%"
    },
    "accessibilityconfig": {
        "a11yLabel": "Send"
    },
    "canUpdateUI": true,
    "centery": {
        "type": "string",
        "value": "50%"
    },
    "containerweight": 100,
    "contentalignment": 5,
    "desktopweb": {
        "blockedUISkin": "s6296ebeb163492d973121eb1c4b9727",
        "psp": {
            "hoverSkin": "s3681a7211a345fba79d7013af78ba93"
        }
    },
    "disabledSkins": {},
    "displaytext": true,
    "focusskin": "s5a4f67acd3e47b9be6d6910a7a6686f",
    "id": "btnSendReply",
    "info": null,
    "isvisible": true,
    "kuid": "e366056740cc443f925ad14276670509",
    "name": "kony.ui.Button",
    "parent": "flxSendMessage",
    "pf": "userwidgetmodel",
    "texti18n": "i18n.common.send",
    "tooltip": "Send",
    "wType": "Button",
    "zindex": 1
}