{
    "@class": "com.kony.gen.viz.model.component.KVizLabel",
    "DNDConfig": null,
    "__parentReadjusting__": false,
    "_height_": {
        "type": "ref",
        "value": "preferred"
    },
    "_left_": {
        "type": "string",
        "value": "0%"
    },
    "_margin_": [
        1,
        1,
        1,
        1
    ],
    "_padding_": [
        0,
        0,
        0,
        0
    ],
    "_skin_": "sf7eee7225154cdab560765c8599ad14",
    "_text_": "https://Offersns.atlassian.net/wiki/spaces/ARB/pages/147369164/  Notification+Center",
    "_top_": {
        "type": "string",
        "value": "0dp"
    },
    "_width_": {
        "type": "string",
        "value": "72.50%"
    },
    "_wrapping_": 2,
    "accessibilityconfig": {
        "a11yLabel": "https://Offersns.atlassian.net/wiki/spaces/ARB/pages/147369164/  Notification+Center"
    },
    "android": {
        "textStyle": {
            "letterSpacing": 0,
            "strikeThrough": false
        }
    },
    "canUpdateUI": true,
    "containerweight": 100,
    "contentalignment": 4,
    "id": "lblOfferLink",
    "info": null,
    "ipad": {
        "psp": {
            "wrapping": 2
        }
    },
    "iphone": {
        "psp": {
            "wrapping": 2
        }
    },
    "isvisible": true,
    "kuid": "h20aafb4a058409a906ce189acd2de64",
    "name": "kony.ui.Label",
    "parent": "flxMockData",
    "pf": "userwidgetmodel",
    "tooltip": "",
    "wType": "Label",
    "zindex": 1
}