{
    "DNDConfig": null,
    "__parentReadjusting__": false,
    "_height_": {
        "type": "string",
        "value": "60dp"
    },
    "_left_": {
        "type": "string",
        "value": "2.50%"
    },
    "_margin_": [
        0,
        0,
        0,
        0
    ],
    "_orientation_": 6,
    "_padding_": [
        0,
        0,
        0,
        0
    ],
    "_percent_": true,
    "_skin_": "s24c92fc23b14f5484b693ee9b8a9b35",
    "_top_": {
        "type": "string",
        "value": "0dp"
    },
    "_width_": {
        "type": "string",
        "value": "95%"
    },
    "allboxes": [],
    "canUpdateUI": true,
    "children": [
        "lblDefautAccount",
        "flxinfo",
        "listbxAccountType",
        "flxFrom",
        "flxFromSegment"
    ],
    "clipbounds": false,
    "containerweight": 100,
    "enablescrolling": true,
    "id": "flxDefaultAccount",
    "info": null,
    "isvisible": true,
    "kuid": "acf0a46e75ef402cb13d9df9cec32309",
    "layouttype": 2,
    "name": "kony.ui.FlexContainer",
    "parent": "flxActivateMain",
    "pf": "frmBillPayActivation",
    "responsiveData": {
        "b2": {},
        "b3": {
            "height": {
                "type": "string",
                "value": "100dp"
            }
        }
    },
    "snapgridsize": 10,
    "snaptogrid": true,
    "wType": "FlexContainer",
    "widgetalignment": 1,
    "zindex": 100
}