{
    "DNDConfig": null,
    "_height_": {
        "type": "ref",
        "value": "preferred"
    },
    "_left_": {
        "type": "string",
        "value": ""
    },
    "_margin_": [
        0,
        0,
        0,
        0
    ],
    "_orientation_": 6,
    "_padding_": [
        0,
        0,
        0,
        0
    ],
    "_percent_": true,
    "_skin_": "se3abfa2b6a941d397e1bbc9651bae68",
    "_top_": {
        "type": "string",
        "value": "9dp"
    },
    "_width_": {
        "type": "string",
        "value": "87.50%"
    },
    "allboxes": [],
    "autogrowmode": 1,
    "canUpdateUI": true,
    "centerx": {
        "type": "string",
        "value": "50%"
    },
    "children": [
        "lblHeader",
        "lblSeparator",
        "lblDescription",
        "flxSearch",
        "flxContractsHeader",
        "segContract",
        "flxNoResultsFound",
        "flxSeperatorBottom"
    ],
    "clipbounds": false,
    "containerweight": 100,
    "enablescrolling": true,
    "id": "flxContract",
    "info": null,
    "iscustomlayout": false,
    "isvisible": true,
    "kuid": "a1c9b654306848568f5605e2e76adc5a",
    "layouttype": 4,
    "name": "kony.ui.FlexContainer",
    "parent": "contractList",
    "pf": "userwidgetmodel",
    "responsiveData": {
        "b1": {},
        "b2": {
            "width": {
                "type": "string",
                "value": "96%"
            }
        },
        "b3": {
            "width": {
                "type": "string",
                "value": "96%"
            }
        },
        "b4": {}
    },
    "retaincontentalignment": false,
    "retainflexpositionproperties": false,
    "retainflowhorizontalalignment": false,
    "snapgridsize": 10,
    "snaptogrid": true,
    "wType": "FlexContainer",
    "widgetalignment": 1,
    "zindex": 1
}