{
    "@class": "com.kony.gen.viz.model.component.KVizButton",
    "DNDConfig": null,
    "__parentReadjusting__": false,
    "_height_": {
        "type": "ref",
        "value": "preferred"
    },
    "_left_": {
        "type": "string",
        "value": "0dp"
    },
    "_margin_": [
        6,
        6,
        6,
        6
    ],
    "_padding_": [
        0,
        0,
        0,
        0
    ],
    "_skin_": "se39d7b9f84d4ba299550dd41aae2fde",
    "_text_": "ACTIVATE E-BILL",
    "_top_": {
        "type": "string",
        "value": "0dp"
    },
    "_width_": {
        "type": "string",
        "value": "80%"
    },
    "accessibilityconfig": {
        "a11yLabel": "ACTIVATE E-BILL"
    },
    "canUpdateUI": true,
    "centery": {
        "type": "string",
        "value": "50%"
    },
    "containerId": true,
    "containerweight": 100,
    "contentalignment": 4,
    "disabledSkins": {
        "focusSkin": "sf44d06ca8224832827ea7fdff757013"
    },
    "displaytext": true,
    "id": "btnActivateEbill",
    "ide_onClick": "AS_Button_b908d73637c84e6a84e2b2fe707ffb53",
    "info": null,
    "isvisible": false,
    "kuid": "j89e0c52bd5f481482b4b26e7b421bcf",
    "name": "kony.ui.Button",
    "parent": "flxDate",
    "pf": "segBillPaymentAllPayeesMobileSelected",
    "tooltip": "View E-Bill",
    "wType": "Button",
    "zindex": 1
}