{
    "@class": "com.kony.gen.viz.model.component.KVizUserWidget",
    "DNDConfig": null,
    "_children_": [],
    "_height_": {
        "type": "ref",
        "value": "preferred"
    },
    "_left_": {
        "type": "string",
        "value": "0dp"
    },
    "_margin_": [
        0,
        0,
        0,
        0
    ],
    "_orientation_": 1,
    "_padding_": [
        0,
        0,
        0,
        0
    ],
    "_percent_": true,
    "_skin_": "s24c92fc23b14f5484b693ee9b8a9b35",
    "_top_": {
        "type": "string",
        "value": "0dp"
    },
    "_width_": {
        "type": "ref",
        "value": "preferred"
    },
    "canUpdateUI": true,
    "containerweight": 0,
    "data": {
        "paginationText": "{\"default\":\"{$.t.currentPage}  of {$.t.totalPages} pages\",\"$.BREAKPTS.BP1\":\"{$.t.currentPage}  of {$.t.totalPages} pages\"}"
    },
    "id": "pagination",
    "info": null,
    "iscustomlayout": false,
    "isvisible": true,
    "kuid": "ae7b8f407b2a4cc3a537e65e97fc36cc",
    "masterType": 1,
    "name": "kony.ui.UserWidgetInstance",
    "parent": "flxPagination",
    "pf": "frmDirectDebits",
    "responsiveData": {
        "b1": {
            "height": {
                "type": "string",
                "value": "50dp"
            },
            "left": {
                "type": "string",
                "value": "0dp"
            }
        },
        "b2": {
            "height": {
                "type": "string",
                "value": "50dp"
            }
        },
        "b3": {
            "height": {
                "type": "string",
                "value": "89dp"
            },
            "layoutType": 2,
            "left": {
                "type": "number",
                "value": "0"
            },
            "width": {
                "type": "string",
                "value": "100%"
            }
        },
        "b4": {
            "height": {
                "type": "string",
                "value": "50dp"
            }
        }
    },
    "retaincontentalignment": false,
    "retainflexpositionproperties": false,
    "retainflowhorizontalalignment": false,
    "sourceUserWidget": "ja4cffe908ff4567bab1f863940d735b",
    "wType": "UserWidgetInstance",
    "zindex": 10
}