{
    "@class": "com.kony.gen.viz.model.component.KVizListBox",
    "DNDConfig": null,
    "_height_": {
        "type": "string",
        "value": "100%"
    },
    "_left_": {
        "type": "string",
        "value": "0dp"
    },
    "_margin_": [
        0,
        0,
        0,
        0
    ],
    "_padding_": [
        3,
        0,
        3,
        0
    ],
    "_placeholder_": "Please Select",
    "_skin_": "seac89d56be642dd91c4534612c4f3f9",
    "_top_": {
        "type": "string",
        "value": "0dp"
    },
    "_width_": {
        "type": "string",
        "value": "100%"
    },
    "canUpdateUI": true,
    "containerweight": 100,
    "contentalignment": 4,
    "focusskin": "seac89d56be642dd91c4534612c4f3f9",
    "groupcells": false,
    "id": "ListBox1",
    "info": null,
    "iscustomlayout": false,
    "isvisible": true,
    "kuid": "b0a7b72e32104f07822b5fe5298d781b",
    "masterdata": [
        [
            "lb1",
            "Select User Role"
        ],
        [
            "lb2",
            "Admin 1"
        ],
        [
            "lb3",
            "Admin 2"
        ]
    ],
    "name": "kony.ui.ListBox",
    "paddinginpixel": false,
    "parent": "flxListBox",
    "pf": "segUserManagementAutoAcessEdit",
    "retaincontentalignment": false,
    "retainflexpositionproperties": false,
    "selectedkey": "lb1",
    "selectedkeys": null,
    "selectedkeyvalue": [
        "lb1",
        "Select User Role"
    ],
    "selectedkeyvalues": null,
    "size": 18,
    "viewconfig": {
        "toggleViewConfig": {
            "viewStyle": 0
        }
    },
    "viewtype": 0,
    "wType": "ListBox",
    "zindex": 1
}