{
    "@class": "com.kony.gen.viz.model.component.KVizTextBox2",
    "DNDConfig": null,
    "__parentReadjusting__": false,
    "_height_": {
        "type": "ref",
        "value": "preferred"
    },
    "_left_": {
        "type": "string",
        "value": "23%"
    },
    "_margin_": [
        0,
        0,
        0,
        0
    ],
    "_padding_": [
        3,
        0,
        0,
        0
    ],
    "_placeholder_": "June Salary Payment",
    "_skin_": "s799a74a824d4905a1e3afce7059c4ab",
    "_text_": "",
    "_top_": {
        "type": "string",
        "value": "0dp"
    },
    "_width_": {
        "type": "string",
        "value": "30%"
    },
    "accessibilityconfig": {
        "a11yLabel": "City"
    },
    "autocapitalize": "none",
    "autocomplete": false,
    "autocorrect": false,
    "autofilter": false,
    "canUpdateUI": true,
    "containerId": true,
    "containerheight": "",
    "containerheightmode": 1,
    "containerweight": 100,
    "contentalignment": 4,
    "focusskin": "s2faf9c2766d4142ab33d0bf97445ae0",
    "id": "txtDescription",
    "info": null,
    "isvisible": true,
    "keyboardtype": "A",
    "kiosk": {
        "render": false
    },
    "kuid": "ef2a4f150ac74e449cd03458ace6b147",
    "mode": "A",
    "name": "kony.ui.TextBox2",
    "parent": "flxMain",
    "pf": "segEditableTextBoxDetails",
    "securetextentry": false,
    "textinputmode": "A",
    "viewtype": "default",
    "wType": "TextField",
    "watchos": {
        "render": false
    },
    "windows10": {
        "render": false
    },
    "winphone10": {
        "render": false
    },
    "zindex": 1
}