{
    "DNDConfig": null,
    "_height_": {
        "type": "string",
        "value": "152dp"
    },
    "_left_": {
        "type": "string",
        "value": "0dp"
    },
    "_margin_": [
        0,
        0,
        0,
        0
    ],
    "_orientation_": 6,
    "_padding_": [
        0,
        0,
        0,
        0
    ],
    "_percent_": true,
    "_skin_": "sf5b9e4099cc4642932edbef06f1341f",
    "_top_": {
        "type": "string",
        "value": "0dp"
    },
    "_width_": {
        "type": "string",
        "value": "50%"
    },
    "allboxes": [],
    "autogrowmode": 0,
    "canUpdateUI": true,
    "children": [],
    "clipbounds": true,
    "containerweight": 100,
    "enablescrolling": true,
    "id": "sknrightcontainer",
    "info": null,
    "isvisible": true,
    "kuid": "d3ad79efef23476fa88a453c269e8dbb",
    "layouttype": 3,
    "name": "kony.ui.FlexContainer",
    "parent": "flxskncontainer",
    "pf": "frmUserCreationSuccess",
    "snapgridsize": 10,
    "snaptogrid": true,
    "wType": "FlexContainer",
    "widgetalignment": 1,
    "zindex": 1
}