{
    "BusinessControllerConfig": {
        "BusinessControllerClass": "AccountServicesModule/BusinessControllers/BusinessController",
        "CommandHandler": []
    },
    "Forms": {
        "desktop": {
            "frmConsolidatedStatements": {
                "ControllerExtensions": [],
                "FormController": "kony.mvc.MDAFormController",
                "Controller": "AccountServicesModule/frmConsolidatedStatementsController",
                "FormName": "AccountServicesModule/frmConsolidatedStatements",
                "friendlyName": "frmConsolidatedStatements"
            }
        }
    },
    "ModuleName": "AccountServicesModule",
    "PresentationControllerConfig": {
        "Default": {
            "PresentationControllerClass": "AccountServicesModule/PresentationControllers/PresentationController",
            "PresentationExtensions": []
        }
    }
}