{
    "@class": "com.kony.gen.viz.model.component.KVizUserWidget",
    "DNDConfig": null,
    "__parentReadjusting__": false,
    "_android_": {},
    "_androidwearos_": {},
    "_children_": [],
    "_desktopweb_": {},
    "_height_": {
        "type": "string",
        "value": "0dp"
    },
    "_ipad_": {},
    "_iphone_": {},
    "_kiosk_": {},
    "_left_": {
        "type": "string",
        "value": "0dp"
    },
    "_margin_": [
        0,
        0,
        0,
        0
    ],
    "_orientation_": 1,
    "_padding_": [
        0,
        0,
        0,
        0
    ],
    "_percent_": true,
    "_render_": true,
    "_responsiveData_": {
        "b3": {
            "minWidth": {
                "type": "string",
                "value": ""
            },
            "top": {
                "type": "string",
                "value": ""
            }
        }
    },
    "_skin_": "s2ce93a13331476c8dd4bdd20e9a2e14",
    "_spa_": {},
    "_spaan_": {},
    "_spaandroidtablet_": {},
    "_spabb_": {},
    "_spaip_": {},
    "_spaipad_": {},
    "_spamobile_": {},
    "_spatablet_": {},
    "_spawindowstablet_": {},
    "_spawinphone8_": {},
    "_tabrcandroid_": {},
    "_top_": {
        "type": "string",
        "value": "0dp"
    },
    "_vizProps_": {
        "hidewidgethierarchy": false
    },
    "_width_": {
        "type": "string",
        "value": "0%"
    },
    "_windows10_": {},
    "_windows8_": {},
    "_winphone10_": {},
    "_winphone8_": {},
    "areflexpropsreferenced": false,
    "autogrowmode": 0,
    "canUpdateUI": true,
    "clipbounds": true,
    "containerweight": 0,
    "dataDiffs": {
        "breadcrumb": {
            "__events__": {},
            "__info__": {
                "isRoot": true,
                "kuid": "a390e1cfdece46f8abc818205bfe7408",
                "srcKUID": "jdbd779e0c7743739197ebb17ae3c27e",
                "wType": "FlexContainer"
            },
            "autogrowMode": {
                "Default": 0
            },
            "height": {
                "Default": {
                    "type": "string",
                    "value": "0dp"
                }
            },
            "isVisible": false,
            "minWidth": {},
            "responsiveData": {
                "b3": {
                    "minWidth": {
                        "type": "string",
                        "value": ""
                    },
                    "top": {
                        "type": "string",
                        "value": ""
                    }
                }
            },
            "top": {},
            "width": {
                "Default": {
                    "type": "string",
                    "value": "0%"
                }
            }
        },
        "btnBreadcrumb1": {
            "__events__": {},
            "__info__": {
                "kuid": "ieb21f9260da4f93bf9e2a767d5e919d",
                "srcKUID": "j8c10426f5ad4cc5abe5b3dafa2dbb1c",
                "wType": "Button"
            },
            "i18n_text": "i18n.p2p.PayAPerson",
            "text": "PAY A PERSON"
        },
        "btnBreadcrumb2": {
            "__events__": {},
            "__info__": {
                "kuid": "ea346b51de614fde8b3e38b29d7c2715",
                "srcKUID": "e8107b226c2b40cf90a9a46174bc7f1d",
                "wType": "Button"
            },
            "text": "                 "
        },
        "flxBottomBorder": {
            "__events__": {},
            "__info__": {
                "kuid": "f7269b1dd6404d93a846b13b863d1c05",
                "srcKUID": "i0ec1627a998464aade04cd886ef46aa",
                "wType": "FlexContainer"
            }
        },
        "flxBreadcrumbcontainer": {
            "__events__": {},
            "__info__": {
                "kuid": "i6d53ffef2804d3cb681583814a18ead",
                "srcKUID": "j0c7057677fd4a26b82f7fa59cdd360e",
                "wType": "FlexContainer"
            },
            "autogrowMode": {
                "Default": 0
            },
            "centerX": {
                "Default": {
                    "type": "string",
                    "value": "50%"
                }
            },
            "height": {
                "Default": {
                    "type": "string",
                    "value": "50dp"
                }
            },
            "top": {
                "Default": {
                    "type": "string",
                    "value": "1dp"
                }
            },
            "width": {
                "Default": {
                    "type": "string",
                    "value": "1366dp"
                }
            }
        },
        "flxTopBorder": {
            "__events__": {},
            "__info__": {
                "kuid": "cb052ad774534cbfb80ce5bc46fecdd7",
                "srcKUID": "bb6bda1822574264b7678002ffe888d6",
                "wType": "FlexContainer"
            },
            "top": {
                "Default": {
                    "type": "string",
                    "value": "0dp"
                }
            }
        },
        "imgBreadcrumb": {
            "__events__": {},
            "__info__": {
                "kuid": "eb39972f68ef4045a080ca52ea0adf4a",
                "srcKUID": "f5a4304fad2f41a3b5b783c4326dfc7f",
                "wType": "Image"
            },
            "src": "breadcrumb_icon.png"
        },
        "imgBreadcrumb2": {
            "__events__": {},
            "__info__": {
                "kuid": "b2bd40159ef4436aa8235678adcab4c8",
                "srcKUID": "ec657451494941c9970301e279e7bf1a",
                "wType": "Image"
            },
            "src": "breadcrumb_icon.png"
        },
        "lblBreadcrumb2": {
            "__events__": {},
            "__info__": {
                "kuid": "d5bc4826092b49389eda94fd79433766",
                "srcKUID": "c087aea595bb4c9fa3e64e58b7e245f9",
                "wType": "Label"
            },
            "i18n_text": "i18n.AccountDetails.MAKETRANSFER"
        },
        "lblBreadcrumb3": {
            "__events__": {},
            "__info__": {
                "kuid": "h5496c3eb58f4f7d9357b7deeac52f18",
                "srcKUID": "ec107db8650a4c9db78a5676ab665c29",
                "wType": "Label"
            },
            "i18n_text": "i18n.hamburger.transfers"
        }
    },
    "id": "breadcrumb",
    "info": null,
    "isdatareferenced": false,
    "isvisible": false,
    "kuid": "gb2a58d12a1c4002a1cff4315d5632c2",
    "layouttype": 2,
    "masterType": 0,
    "minwidth": {
        "type": "number",
        "value": ""
    },
    "name": "kony.ui.UserWidgetInstance",
    "parent": "flxContainer",
    "pf": "frmPayAPerson",
    "snaptogrid": true,
    "sourceUserWidget": "jdbd779e0c7743739197ebb17ae3c27e",
    "vizprops": {
        "hidewidgethierarchy": false
    },
    "wType": "UserWidgetInstance"
}