{
    "DNDConfig": null,
    "__parentReadjusting__": false,
    "_height_": {
        "type": "ref",
        "value": "preferred"
    },
    "_left_": {
        "type": "string",
        "value": "0dp"
    },
    "_margin_": [
        0,
        0,
        0,
        0
    ],
    "_orientation_": 6,
    "_padding_": [
        0,
        0,
        0,
        0
    ],
    "_percent_": true,
    "_skin_": "s24c92fc23b14f5484b693ee9b8a9b35",
    "_top_": {
        "type": "string",
        "value": "0dp"
    },
    "_width_": {
        "type": "string",
        "value": "1366dp"
    },
    "allboxes": [],
    "autogrowmode": 1,
    "canUpdateUI": true,
    "centerx": {
        "type": "string",
        "value": "50%"
    },
    "children": [
        "lblLetsAuthenticate",
        "flxOptionToRecieveAccessCode",
        "flxSecureAccessCode",
        "flxEnterCVVCode",
        "flxAnswerSecurityQuestions"
    ],
    "clipbounds": false,
    "containerweight": 100,
    "enablescrolling": true,
    "id": "flxLetsAuthenticateModule",
    "info": null,
    "isvisible": false,
    "kuid": "e7a56c5d236c40a68225770092fc395e",
    "layouttype": 4,
    "name": "kony.ui.FlexContainer",
    "parent": "flxMainContainer",
    "pf": "frmPayAPerson",
    "responsiveData": {
        "b1": {
            "isVisible": false,
            "width": {
                "type": "string",
                "value": "100%"
            }
        },
        "b2": {
            "isVisible": false
        },
        "b3": {
            "isVisible": false,
            "width": {
                "type": "string",
                "value": "100%"
            }
        },
        "b4": {
            "isVisible": false,
            "width": {
                "type": "string",
                "value": "100%"
            }
        }
    },
    "snapgridsize": 10,
    "snaptogrid": true,
    "wType": "FlexContainer",
    "widgetalignment": 1,
    "zindex": 1
}