{
    "@class": "com.kony.gen.viz.model.component.KVizUserWidget",
    "DNDConfig": null,
    "__parentReadjusting__": false,
    "_android_": {},
    "_androidwearos_": {},
    "_children_": [],
    "_desktopweb_": {},
    "_height_": {
        "type": "ref",
        "value": "preferred"
    },
    "_ipad_": {},
    "_iphone_": {},
    "_kiosk_": {},
    "_left_": "0dp",
    "_margin_": [
        0,
        0,
        0,
        0
    ],
    "_orientation_": 1,
    "_padding_": [
        0,
        0,
        0,
        0
    ],
    "_percent_": true,
    "_render_": true,
    "_responsiveData_": {},
    "_skin_": "sdc143f0e5b64ae3a3f155f691c73fa7",
    "_spa_": {},
    "_spaan_": {},
    "_spaandroidtablet_": {},
    "_spabb_": {},
    "_spaip_": {},
    "_spaipad_": {},
    "_spamobile_": {},
    "_spatablet_": {},
    "_spawindowstablet_": {},
    "_spawinphone8_": {},
    "_tabrcandroid_": {},
    "_top_": "0dp",
    "_vizProps_": {
        "hidewidgethierarchy": false
    },
    "_width_": {
        "type": "string",
        "value": "100%"
    },
    "_windows10_": {},
    "_windows8_": {},
    "_winphone10_": {},
    "_winphone8_": {},
    "areflexpropsreferenced": false,
    "autogrowmode": 1,
    "canUpdateUI": true,
    "clipbounds": false,
    "containerweight": 0,
    "dataDiffs": {
        "OptionsAndProceed": {
            "__events__": {},
            "__info__": {
                "isRoot": true,
                "kuid": "i68c4e1ef4694bd4a327b05bcc6f2f78",
                "srcKUID": "fe5b3607215e4dad8025dcc0c97516a9",
                "wType": "FlexContainer"
            },
            "autogrowMode": {
                "Default": 1
            },
            "height": {
                "Default": {
                    "type": "ref",
                    "value": "preferred"
                }
            },
            "isVisible": true,
            "width": {
                "Default": {
                    "type": "string",
                    "value": "100%"
                }
            }
        },
        "btnCancel": {
            "__events__": {},
            "__info__": {
                "kuid": "eb92b681ea424a46aa60b47ce715931c",
                "srcKUID": "gafeb189c46844789784b8956a54b246",
                "wType": "Button"
            },
            "height": {
                "Default": {
                    "type": "string",
                    "value": "40dp"
                }
            },
            "i18n_text": "i18n.transfers.Cancel",
            "responsiveData": {
                "b3": {
                    "right": {
                        "type": "string",
                        "value": "5%"
                    },
                    "top": {
                        "type": "string",
                        "value": "10dp"
                    },
                    "width": {
                        "type": "string",
                        "value": "90%"
                    }
                }
            },
            "right": {},
            "top": {},
            "width": {}
        },
        "btnProceed": {
            "__events__": {
                "ide_onClick": "AS_Button_ebda37155f7c486bb195079c32d50a07"
            },
            "__info__": {
                "kuid": "i2d045d4902e4293bb24b499a121a8e7",
                "srcKUID": "b4e2ba2add2245f68b5847a8f3730e69",
                "wType": "Button"
            },
            "height": {
                "Default": {
                    "type": "string",
                    "value": "40dp"
                }
            },
            "i18n_text": "i18n.common.proceed",
            "left": {},
            "responsiveData": {
                "b3": {
                    "left": {
                        "type": "string",
                        "value": "5%"
                    },
                    "top": {
                        "type": "string",
                        "value": "20dp"
                    },
                    "width": {
                        "type": "string",
                        "value": "90%"
                    }
                },
                "b4": {
                    "left": {
                        "type": "string",
                        "value": ""
                    },
                    "right": {
                        "type": "string",
                        "value": "20dp"
                    }
                }
            },
            "right": {},
            "top": {},
            "width": {}
        },
        "btnTC": {
            "__events__": {},
            "__info__": {
                "kuid": "af50f1c57d7c498798cec2bede959597",
                "srcKUID": "d47061cd961c49e78b6efe4f59d169b6",
                "wType": "Button"
            },
            "centerY": {},
            "left": {},
            "responsiveData": {
                "b1": {
                    "left": {
                        "type": "string",
                        "value": "1%"
                    },
                    "text": "terms and conditions"
                },
                "b2": {
                    "centerY": {
                        "type": "string",
                        "value": "50%"
                    },
                    "left": {
                        "type": "string",
                        "value": "1%"
                    },
                    "text": "terms and conditions"
                },
                "b3": {
                    "left": {
                        "type": "string",
                        "value": "1%"
                    }
                },
                "b4": {
                    "left": {
                        "type": "string",
                        "value": "1%"
                    }
                }
            },
            "text": "terms and conditions"
        },
        "flxActions": {
            "__events__": {},
            "__info__": {
                "kuid": "a15414ac2aaf437e9cc9f1aa2118281b",
                "srcKUID": "d997c0bf9abe435398b39271b10c8f35",
                "wType": "FlexContainer"
            },
            "autogrowMode": {
                "Default": 0
            },
            "height": {},
            "responsiveData": {
                "b3": {
                    "height": {
                        "type": "string",
                        "value": "150dp"
                    },
                    "layoutType": 4
                }
            },
            "top": {
                "Default": {
                    "type": "string",
                    "value": "0dp"
                }
            }
        },
        "flxDetails": {
            "__events__": {},
            "__info__": {
                "kuid": "g505d82299a74db89e042a3553eb7c69",
                "srcKUID": "gd8d0eb81e234557ba342df3777878f9",
                "wType": "FlexContainer"
            },
            "autogrowMode": {
                "Default": 1
            },
            "height": {
                "Default": {
                    "type": "ref",
                    "value": "preferred"
                }
            },
            "isVisible": true,
            "responsiveData": {
                "b3": {
                    "isVisible": true
                }
            },
            "width": {
                "Default": {
                    "type": "string",
                    "value": "100%"
                }
            }
        },
        "flxFour": {
            "__events__": {},
            "__info__": {
                "kuid": "f38775da050a4c0f81cf53f4c54709ca",
                "srcKUID": "abe9839117da4001b7e1ab5db01871b9",
                "wType": "FlexContainer"
            },
            "responsiveData": {
                "b3": {
                    "width": {
                        "type": "string",
                        "value": "95%"
                    }
                }
            },
            "width": {}
        },
        "flxHeader": {
            "__events__": {},
            "__info__": {
                "kuid": "caa19f1b3de541be9ec070659a7ac221",
                "srcKUID": "ae104c286b814ab686999de6d490f972",
                "wType": "FlexContainer"
            }
        },
        "flxIAgree": {
            "__events__": {},
            "__info__": {
                "kuid": "g225cb8d0bbc403ab4e62db6264adc02",
                "srcKUID": "ieaad53d04ed47588a8404911ca2f83d",
                "wType": "FlexContainer"
            },
            "autogrowMode": {
                "Default": 1
            },
            "bottom": {},
            "height": {
                "Default": {
                    "type": "ref",
                    "value": "preferred"
                }
            },
            "responsiveData": {
                "b1": {
                    "bottom": {
                        "type": "string",
                        "value": "5px"
                    },
                    "layoutType": 3
                },
                "b2": {
                    "layoutType": 3
                },
                "b3": {
                    "isVisible": true,
                    "layoutType": 3
                },
                "b4": {
                    "layoutType": 3
                }
            }
        },
        "flxSeparator": {
            "__events__": {},
            "__info__": {
                "kuid": "id757f0fcd9041ceaa1af744e2080e17",
                "srcKUID": "d08e946660424f7d969ca7b33b057b95",
                "wType": "FlexContainer"
            }
        },
        "flxSeparator2": {
            "__events__": {},
            "__info__": {
                "kuid": "d76815a8bc294e20968cd983b7be813f",
                "srcKUID": "cafd52eca3614153ae58fd1faa9f2559",
                "wType": "FlexContainer"
            }
        },
        "flxThree": {
            "__events__": {},
            "__info__": {
                "kuid": "j737afc27d2c4fa8ab834ba590f41b19",
                "srcKUID": "d9ce36e1a2c44ed8a13556ddcb2a2ac8",
                "wType": "FlexContainer"
            },
            "responsiveData": {
                "b3": {
                    "width": {
                        "type": "string",
                        "value": "95%"
                    }
                }
            },
            "width": {}
        },
        "flxWarning": {
            "__events__": {},
            "__info__": {
                "kuid": "g52881e699df42c6ad8a2861c7252ad2",
                "srcKUID": "j5a0ac02ee764469883bc1ba421afea0",
                "wType": "FlexContainer"
            },
            "isVisible": true,
            "width": {
                "Default": {
                    "type": "string",
                    "value": "95%"
                }
            }
        },
        "flxbullet": {
            "__events__": {},
            "__info__": {
                "kuid": "b413b102c5704432a092c2388dd98d0f",
                "srcKUID": "be58371239654dbdb9858f2df4f64736",
                "wType": "FlexContainer"
            },
            "responsiveData": {
                "b3": {
                    "width": {
                        "type": "string",
                        "value": "8dp"
                    }
                }
            },
            "width": {}
        },
        "flxbullet2": {
            "__events__": {},
            "__info__": {
                "kuid": "ad2415cd6e834b8e95f00c6c90027ab7",
                "srcKUID": "e496453e7c2747918a8134ab1ede6433",
                "wType": "FlexContainer"
            },
            "responsiveData": {
                "b3": {
                    "width": {
                        "type": "string",
                        "value": "8dp"
                    }
                }
            },
            "width": {}
        },
        "flxbullet3": {
            "__events__": {},
            "__info__": {
                "kuid": "b5675cd2ca914cfba2e787c342c6877a",
                "srcKUID": "i55724f33e6b488ab3d0cac744fa97ea",
                "wType": "FlexContainer"
            },
            "autogrowMode": {
                "Default": 0
            },
            "centerY": {},
            "height": {},
            "responsiveData": {
                "b3": {
                    "centerY": {
                        "type": "string",
                        "value": ""
                    },
                    "top": {
                        "type": "number",
                        "value": "5"
                    },
                    "width": {
                        "type": "string",
                        "value": "8dp"
                    }
                },
                "b4": {
                    "height": {
                        "type": "string",
                        "value": "8dp"
                    },
                    "top": {
                        "type": "string",
                        "value": "0dp"
                    },
                    "width": {
                        "type": "string",
                        "value": "8dp"
                    }
                }
            },
            "top": {},
            "width": {}
        },
        "flxbullet4": {
            "__events__": {},
            "__info__": {
                "kuid": "a34cd7beabe14649b09f6fe8a1d9348d",
                "srcKUID": "e798ac4eb787439db4ac148787ff162c",
                "wType": "FlexContainer"
            },
            "centerY": {},
            "responsiveData": {
                "b3": {
                    "centerY": {
                        "type": "string",
                        "value": ""
                    },
                    "top": {
                        "type": "string",
                        "value": "5dp"
                    },
                    "width": {
                        "type": "string",
                        "value": "8dp"
                    }
                }
            },
            "top": {},
            "width": {}
        },
        "flxone": {
            "__events__": {},
            "__info__": {
                "kuid": "b036c6ffca3447a8ae57300c2590c3dc",
                "srcKUID": "f0820fd3195d48c7acd30056e07e9283",
                "wType": "FlexContainer"
            },
            "responsiveData": {
                "b3": {
                    "width": {
                        "type": "string",
                        "value": "95%"
                    }
                }
            },
            "width": {}
        },
        "flxtwo": {
            "__events__": {},
            "__info__": {
                "kuid": "icdd5638fd984f139cd4308e811dbf43",
                "srcKUID": "e7d44f8c5359419a8cf563fffd600299",
                "wType": "FlexContainer"
            },
            "responsiveData": {
                "b3": {
                    "width": {
                        "type": "string",
                        "value": "95%"
                    }
                }
            },
            "width": {}
        },
        "imgWarning": {
            "__events__": {},
            "__info__": {
                "kuid": "b5d13249d1e0487f813e393eeb52941c",
                "srcKUID": "c08f8e10f5694feda9fac97c50828ad2",
                "wType": "Image"
            },
            "src": "error_yellow.png"
        },
        "lblAgree": {
            "__events__": {},
            "__info__": {
                "kuid": "d0e94214626e406094e62ac4be26159d",
                "srcKUID": "ff1e55c9e283479b8db4365008602231",
                "wType": "Label"
            },
            "centerY": {},
            "left": {},
            "responsiveData": {
                "b1": {
                    "left": {
                        "type": "string",
                        "value": "1%"
                    }
                },
                "b2": {
                    "centerY": {
                        "type": "string",
                        "value": "50%"
                    },
                    "left": {
                        "type": "string",
                        "value": "2%"
                    },
                    "text": "I agree all the ",
                    "top": {
                        "type": "string",
                        "value": ""
                    }
                },
                "b3": {
                    "left": {
                        "type": "string",
                        "value": "1dp"
                    },
                    "width": {
                        "type": "ref",
                        "value": "preferred"
                    }
                },
                "b4": {
                    "left": {
                        "type": "string",
                        "value": "1%"
                    }
                }
            },
            "text": "I agree all the ",
            "top": {},
            "width": {}
        },
        "lblCheckbox": {
            "__events__": {},
            "__info__": {
                "kuid": "cbfea1befd714da499ef2191df52c9aa",
                "srcKUID": "dfcce71655654d309837b004e034505a",
                "wType": "Label"
            },
            "centerY": {},
            "left": {},
            "responsiveData": {
                "b1": {
                    "left": {
                        "type": "string",
                        "value": "2.30%"
                    },
                    "top": {
                        "type": "string",
                        "value": "18dp"
                    }
                },
                "b2": {
                    "centerY": {
                        "type": "string",
                        "value": "50%"
                    },
                    "left": {
                        "type": "string",
                        "value": "2.30%"
                    },
                    "top": {
                        "type": "string",
                        "value": ""
                    }
                },
                "b3": {
                    "left": {
                        "type": "string",
                        "value": "2.30%"
                    },
                    "top": {
                        "type": "string",
                        "value": "18dp"
                    }
                },
                "b4": {
                    "left": {
                        "type": "string",
                        "value": "2.30%"
                    }
                }
            },
            "top": {}
        },
        "lblHeader": {
            "__events__": {},
            "__info__": {
                "kuid": "fac3431820a1412eb0468eb3a7e83d6f",
                "srcKUID": "a5206884dd244176b067f9b55f042f9d",
                "wType": "Label"
            },
            "i18n_text": "i18n.PayAPerson.activatePayAPerson"
        },
        "lblHeading2": {
            "__events__": {},
            "__info__": {
                "kuid": "e96b7f0f07d34fa1b91307b2ef16c854",
                "srcKUID": "abfc0ba9fb984625a052b5ffaa5b1fc3",
                "wType": "Label"
            },
            "width": {
                "Default": {
                    "type": "string",
                    "value": "90%"
                }
            }
        },
        "lblIns1": {
            "__events__": {},
            "__info__": {
                "kuid": "c0b4f3b8ce3b4282ac5f6f9996e4ffa8",
                "srcKUID": "b48d9844c97e43c395ad5a398fdfac9d",
                "wType": "Label"
            },
            "i18n_text": "i18n.p2p.activateP2pGuidelineOne",
            "top": {
                "Default": {
                    "type": "string",
                    "value": "2dp"
                }
            },
            "width": {
                "Default": {
                    "type": "string",
                    "value": "90%"
                }
            }
        },
        "lblIns2": {
            "__events__": {},
            "__info__": {
                "kuid": "if1d40426a9445a69bb5d9226c0befc1",
                "srcKUID": "f926e257474e4fa79205cf5c87d1f435",
                "wType": "Label"
            },
            "centerY": {
                "Default": {
                    "type": "string",
                    "value": ""
                }
            },
            "i18n_text": "i18n.p2p.activateP2pGuidelineTwo",
            "responsiveData": {},
            "width": {
                "Default": {
                    "type": "string",
                    "value": "90%"
                }
            }
        },
        "lblIns3": {
            "__events__": {},
            "__info__": {
                "kuid": "d203ff4f2d9a45a592d60ecdf133f5a0",
                "srcKUID": "jaa496b537b74c20b403438a1ef97e0e",
                "wType": "Label"
            },
            "centerY": {
                "Default": {
                    "type": "string",
                    "value": ""
                }
            },
            "height": {},
            "i18n_text": "i18n.p2p.activateP2pGuidelineThree",
            "left": {
                "Default": {
                    "type": "string",
                    "value": "0.77%"
                }
            },
            "responsiveData": {
                "b3": {
                    "height": {
                        "type": "ref",
                        "value": "preferred"
                    },
                    "top": {
                        "type": "string",
                        "value": "0dp"
                    }
                },
                "b4": {
                    "height": {
                        "type": "ref",
                        "value": "preferred"
                    },
                    "top": {
                        "type": "string",
                        "value": "0dp"
                    }
                }
            },
            "top": {},
            "width": {
                "Default": {
                    "type": "string",
                    "value": "90%"
                }
            }
        },
        "lblIns4": {
            "__events__": {},
            "__info__": {
                "kuid": "d1b496b0c9dc466ba49a4823da609c0a",
                "srcKUID": "e77465ea14e34e8f92aeaf1c77c82c7f",
                "wType": "Label"
            },
            "centerY": {
                "Default": {
                    "type": "string",
                    "value": ""
                }
            },
            "height": {},
            "i18n_text": "i18n.p2p.activateP2pGuidelineFour",
            "responsiveData": {
                "b3": {
                    "height": {
                        "type": "ref",
                        "value": "preferred"
                    },
                    "top": {
                        "type": "string",
                        "value": "0dp"
                    }
                }
            },
            "top": {},
            "width": {
                "Default": {
                    "type": "string",
                    "value": "90%"
                }
            }
        },
        "lblWarning": {
            "__events__": {},
            "__info__": {
                "kuid": "d0121ea805d9435ebf5589c12acb38d9",
                "srcKUID": "h7e830d668c14d8782ca9c8f54f2aedb",
                "wType": "Label"
            }
        }
    },
    "id": "OptionsAndProceed",
    "info": null,
    "isdatareferenced": false,
    "issegmentchild": false,
    "isvisible": true,
    "kuid": "i68c4e1ef4694bd4a327b05bcc6f2f78",
    "layouttype": 4,
    "masterType": 0,
    "name": "kony.ui.UserWidgetInstance",
    "parent": "flxOptionsAndProceed",
    "pf": "frmPayAPerson",
    "snaptogrid": true,
    "sourceUserWidget": "fe5b3607215e4dad8025dcc0c97516a9",
    "vizprops": {
        "hidewidgethierarchy": false
    },
    "wType": "UserWidgetInstance"
}