{
	 "@class": "com.kony.gen.viz.model.component.KVizLabel",
	 "DNDConfig": null,
	 "__parentReadjusting__": false,
	 "_height_": {
		 "type": "string",
		 "value": "2px"
	},
	 "_left_": {
		 "type": "string",
		 "value": "30dp"
	},
	 "_margin_": [
		 1,
		 1,
		 1,
		 1
	],
	 "_padding_": [
		 0,
		 0,
		 0,
		 0
	],
	 "_right_": {
		 "type": "string",
		 "value": "30dp"
	},
	 "_skin_": "s284604f72ed4720b0351eff49faadce",
	 "_text_": "a",
	 "_top_": {
		 "type": "string",
		 "value": "20dp"
	},
	 "_width_": {
		 "type": "string",
		 "value": "93%"
	},
	 "_wrapping_": 2,
	 "android": {
		 "textStyle": {
			 "letterSpacing": 0,
			 "strikeThrough": false
		}
	},
	 "canUpdateUI": true,
	 "containerId": true,
	 "containerweight": 100,
	 "contentalignment": 4,
	 "id": "lblQuestionSeperator",
	 "info": null,
	 "ipad": {
		 "psp": {
			 "wrapping": 2
		}
	},
	 "iphone": {
		 "psp": {
			 "wrapping": 2
		}
	},
	 "isvisible": true,
	 "kuid": "fa5b13aa452b4f508b7b238f5c6915d8",
	 "name": "kony.ui.Label",
	 "parent": "flxNUOQuestion",
	 "pf": "segNUOQuestion",
	 "texti18n": "i18n.NUO.ThisNumberIsAlreadyRegisteredWithCustomer",
	 "tooltip": "",
	 "wType": "Label",
	 "zindex": 1,
	 "accessibilityconfig": {
		 "a11yLabel": "This number is already registered with a customer. Do you want to log in now?",
		 "a11yHidden": true,
		 "a11yARIA": {
			 "tabindex": -1
		}
	}
}