{
    "AS_AppEvents_c46982b2ddb840c8968e3d128fb49d07": {
        "id": "AS_AppEvents_c46982b2ddb840c8968e3d128fb49d07",
        "type": "ACTION_SEQUENCE",
        "params": [{
            "datatype": "collection",
            "name": "eventobject"
        }],
        "language": "js",
        "actions": [{
            "id": "ADD_SNIPPET__fb86a8f973c04b7d842e24636a53b6a4",
            "type": "ADD_SNIPPET",
            "codeSnippet": "",
            "parentId": null,
            "callbackType": null
        }]
    }
}