{
    "AS_Button_efef58950b734e4b97d8a32e2ede4f40": {
        "id": "AS_Button_efef58950b734e4b97d8a32e2ede4f40",
        "type": "ACTION_SEQUENCE",
        "params": [{
            "datatype": "collection",
            "name": "eventobject"
        }],
        "contextObj": {
            "name": "frmP2PManageRecipientsTab",
            "type": "forms",
            "platform": null,
            "KUID": "a7a161dba6df498f9918e18fc891593d"
        },
        "language": "js",
        "actions": [{
            "id": "ADD_SNIPPET_ide_onClick_j2ee8de576bb4ec9ab37ba2ed56c7b39",
            "type": "ADD_SNIPPET",
            "codeSnippet": "this.showAddRecipient();",
            "callbackType": null
        }]
    }
}