{
    "AS_Button_f5d7c3ed4af04f9285d2926333ea33da": {
        "id": "AS_Button_f5d7c3ed4af04f9285d2926333ea33da",
        "type": "ACTION_SEQUENCE",
        "params": [{
            "datatype": "collection",
            "name": "eventobject"
        }],
        "contextObj": {
            "name": "frmPayDueAmount",
            "type": "forms",
            "platform": "",
            "KUID": "ba0b4f38b88d4ad7a2c69bb7d0d38c44"
        },
        "language": "js",
        "actions": [{
            "id": "ADD_SNIPPET__e71a86d6a1344feb8e71803bae8fee13",
            "type": "ADD_SNIPPET",
            "codeSnippet": "this.loanDataAfterConfirmation();",
            "parentId": null,
            "callbackType": null
        }]
    }
}