{
    "AS_Button_e7299653cad34e01a6b43ccfe320a78e": {
        "id": "AS_Button_e7299653cad34e01a6b43ccfe320a78e",
        "type": "ACTION_SEQUENCE",
        "name": "AS_Button_df0cbb68e51b4f26a4e0fa397281714f",
        "params": [{
            "datatype": "collection",
            "name": "eventobject"
        }],
        "contextObj": {
            "name": "frmNotificationsAndMessages",
            "type": "forms",
            "platform": "",
            "KUID": "a83a23bb52bc4894a44b027a89964c1b"
        },
        "language": "js",
        "actions": [{
            "id": "ADD_SNIPPET__c2215addca7d40bc9b69798a913cc42e",
            "type": "ADD_SNIPPET",
            "codeSnippet": "this.setMessagesSegmentData();",
            "parentId": null,
            "callbackType": null
        }]
    }
}