{
    "AS_Button_c6f7ca85df3747b1b99a2fd7087914d9": {
        "id": "AS_Button_c6f7ca85df3747b1b99a2fd7087914d9",
        "type": "ACTION_SEQUENCE",
        "params": [{
            "datatype": "collection",
            "name": "eventobject"
        }],
        "contextObj": {
            "name": "frmAccountsDetails",
            "type": "forms",
            "platform": "",
            "KUID": "f22d64f7cb454ad980b530de61c4240a"
        },
        "language": "js",
        "actions": [{
            "id": "ADD_SNIPPET__c3bd6eb2567245a483027a868e6f1c8f",
            "type": "ADD_SNIPPET",
            "codeSnippet": "this.toggleSearch();",
            "parentId": null,
            "callbackType": null
        }]
    }
}