{
    "AS_Button_a465ff760b7443a6aa23b6f875c842ee": {
        "id": "AS_Button_a465ff760b7443a6aa23b6f875c842ee",
        "type": "ACTION_SEQUENCE",
        "params": [{
            "datatype": "collection",
            "name": "eventobject"
        }, {
            "datatype": "collection",
            "name": "context"
        }],
        "contextObj": {
            "name": "segScheduledTransactionsSelected",
            "type": "templates",
            "platform": null,
            "KUID": "c21f11e1206d4b2ca80fc588af6576b6"
        },
        "language": "js",
        "actions": [{
            "id": "ADD_SNIPPET_ide_onClick_d2d3ca0564704ddfa6c6cfd9b5f24a2f",
            "type": "ADD_SNIPPET",
            "codeSnippet": "this.showEditRule();",
            "callbackType": null
        }]
    }
}