{
    "AS_Button_c7d53a797ed042769bd9acadf29fc589": {
        "id": "AS_Button_c7d53a797ed042769bd9acadf29fc589",
        "type": "ACTION_SEQUENCE",
        "params": [{
            "datatype": "collection",
            "name": "eventobject"
        }, {
            "datatype": "collection",
            "name": "context"
        }],
        "contextObj": {
            "name": "segExternalAccountsTransfersEdit",
            "type": "templates",
            "platform": "",
            "KUID": "jb64c14da60f45c1b572828ff4d8f399"
        },
        "language": "js",
        "actions": [{
            "id": "ADD_SNIPPET__if975bb8e48b43ff8a1c3c5dff7879e1",
            "type": "ADD_SNIPPET",
            "codeSnippet": null,
            "parentId": null,
            "callbackType": null
        }]
    }
}