{
    "AS_Button_i5723d09ed3144868ed264028168790c": {
        "id": "AS_Button_i5723d09ed3144868ed264028168790c",
        "type": "ACTION_SEQUENCE",
        "params": [{
            "datatype": "collection",
            "name": "eventobject"
        }],
        "contextObj": {
            "type": "forms",
            "platform": null,
            "KUID": "fefecc2daf7b46699434d209b330569d"
        },
        "language": "js",
        "actions": [{
            "id": "ADD_SNIPPET_ide_onClick_a3a1701b241c4bc28b0a68858a971d6f",
            "type": "ADD_SNIPPET",
            "codeSnippet": "//this.openAddPayeeForm();\nthis.LoanPayOff();",
            "callbackType": null
        }]
    }
}