{
    "AS_Button_e4ce8bc115964c499cd3141ef5d31474": {
        "id": "AS_Button_e4ce8bc115964c499cd3141ef5d31474",
        "type": "ACTION_SEQUENCE",
        "params": [{
            "datatype": "collection",
            "name": "eventobject"
        }],
        "language": "js",
        "actions": [{
            "id": "ADD_SNIPPET_ide_onClick_e371cb87334948bbbe9cb0a5b4b4f459",
            "type": "ADD_SNIPPET",
            "codeSnippet": "this.showAddRecipient();",
            "callbackType": null
        }]
    }
}