{
    "AS_Button_b36ad8f28907423d835293cdecbece04": {
        "id": "AS_Button_b36ad8f28907423d835293cdecbece04",
        "type": "ACTION_SEQUENCE",
        "params": [{
            "datatype": "collection",
            "name": "eventobject"
        }],
        "contextObj": {
            "name": "frmPayAPerson",
            "type": "forms",
            "platform": "",
            "KUID": "b19e9f55ebab4254b5eadf20d2a4c409"
        },
        "language": "js",
        "actions": [{
            "id": "ADD_SNIPPET_ide_onClick_f11a4dd82e0047e3a409deb0ab61e4e6",
            "type": "ADD_SNIPPET",
            "codeSnippet": "this.showAddRecipient();",
            "callbackType": null
        }]
    }
}