{
    "AS_Button_c8474ca96cc24691a212350fd834049d": {
        "id": "AS_Button_c8474ca96cc24691a212350fd834049d",
        "type": "ACTION_SEQUENCE",
        "params": [{
            "datatype": "collection",
            "name": "eventobject"
        }],
        "contextObj": {
            "name": "frmPayDueAmount",
            "type": "forms",
            "platform": "",
            "KUID": "ba0b4f38b88d4ad7a2c69bb7d0d38c44"
        },
        "language": "js",
        "actions": []
    }
}