{
    "AS_Button_h65b39ec780f4e048936a7ec493714f2": {
        "id": "AS_Button_h65b39ec780f4e048936a7ec493714f2",
        "type": "ACTION_SEQUENCE",
        "params": [{
            "datatype": "collection",
            "name": "eventobject"
        }],
        "contextObj": {
            "name": "CopyfrmAddPayee1",
            "type": "forms",
            "platform": null,
            "KUID": "e3156ddd0243498ab3842669c7088601"
        },
        "language": "js",
        "actions": [{
            "id": "ADD_SNIPPET_ide_onClick_f9fbc95c00c54d56a9dfa01ff2bbcae9",
            "type": "ADD_SNIPPET",
            "codeSnippet": "this.navigateToBillPayHistoryTab();",
            "callbackType": null
        }]
    }
}