{
    "AS_Button_g145cf6d3bba44a086eafebdcddb8cc8": {
        "id": "AS_Button_g145cf6d3bba44a086eafebdcddb8cc8",
        "type": "ACTION_SEQUENCE",
        "params": [{
            "datatype": "collection",
            "name": "eventobject"
        }],
        "contextObj": {
            "name": "frmNotificationsAndMessages",
            "type": "forms",
            "platform": "",
            "KUID": "a83a23bb52bc4894a44b027a89964c1b"
        },
        "language": "js",
        "actions": [{
            "id": "ADD_SNIPPET__b83530464c6b42e9a9ee586aba3eccf4",
            "type": "ADD_SNIPPET",
            "codeSnippet": "this.Dismiss();",
            "parentId": null,
            "callbackType": null
        }]
    }
}