{
    "AS_Button_f5eeb2d7317b405e972c7c64fdb0ea13": {
        "id": "AS_Button_f5eeb2d7317b405e972c7c64fdb0ea13",
        "type": "ACTION_SEQUENCE",
        "params": [{
            "datatype": "collection",
            "name": "eventobject"
        }],
        "contextObj": {
            "name": "frmWireTransfer",
            "type": "forms",
            "platform": "",
            "KUID": "g6761289d328438db40a889bdbda5720"
        },
        "language": "js",
        "actions": [{
            "id": "ADD_SNIPPET__hf4be767b84a44648b6648d837cd3c87",
            "type": "ADD_SNIPPET",
            "codeSnippet": "this.onRecentTabClick();",
            "parentId": null,
            "callbackType": null
        }]
    }
}