{
    "AS_Button_cfccea8cb45a4c05a0bc3d22aa6381fe": {
        "id": "AS_Button_cfccea8cb45a4c05a0bc3d22aa6381fe",
        "type": "ACTION_SEQUENCE",
        "params": [{
            "datatype": "collection",
            "name": "eventobject"
        }, {
            "datatype": "collection",
            "name": "context"
        }],
        "contextObj": {
            "name": "segManageRecipientP2P",
            "type": "templates",
            "platform": null,
            "KUID": "d8f2cd36f49949499a3a80117b8836e1"
        },
        "language": "js",
        "actions": [{
            "id": "ADD_SNIPPET_ide_onClick_ab56e73a123f4dd395de00accb466ee4",
            "type": "ADD_SNIPPET",
            "codeSnippet": "//adding this comment due to platform bug.",
            "callbackType": null
        }]
    }
}