{
    "AS_Button_g252bc18e65e46e0986c198ce5672230": {
        "id": "AS_Button_g252bc18e65e46e0986c198ce5672230",
        "type": "ACTION_SEQUENCE",
        "params": [{
            "datatype": "collection",
            "name": "eventobject"
        }],
        "contextObj": {
            "type": "forms",
            "platform": null,
            "KUID": "f480bdfaa2cc43c4acab57cc42ee8737"
        },
        "language": "js",
        "actions": [{
            "id": "ADD_SNIPPET_ide_onClick_g34d6bf11d2d4f34ba1580e44a4e7024",
            "type": "ADD_SNIPPET",
            "codeSnippet": "this.btnYesTakeSurvey();",
            "callbackType": null
        }]
    }
}