{
    "AS_Button_bf4caabd049345b9b0f653cc14d90ce5": {
        "id": "AS_Button_bf4caabd049345b9b0f653cc14d90ce5",
        "type": "ACTION_SEQUENCE",
        "params": [{
            "datatype": "collection",
            "name": "eventobject"
        }, {
            "datatype": "collection",
            "name": "context"
        }],
        "contextObj": {
            "name": "segRecentTransfers",
            "type": "templates",
            "platform": "",
            "KUID": "ed5a7e30f33d4793b95c969aca19d5ff"
        },
        "language": "js",
        "actions": [{
            "id": "ADD_SNIPPET__c37e7d70fdb74c58b91aa330e7c34dbe",
            "type": "ADD_SNIPPET",
            "codeSnippet": "this.executeOnParent(\"viewTransactionReport\");",
            "parentId": null,
            "callbackType": null
        }]
    }
}