{
    "AS_Button_e3d812b7374a41aab7c08ad7061def15": {
        "id": "AS_Button_e3d812b7374a41aab7c08ad7061def15",
        "type": "ACTION_SEQUENCE",
        "params": [{
            "datatype": "collection",
            "name": "eventobject"
        }],
        "contextObj": {
            "name": "frmLogin",
            "type": "forms",
            "platform": "",
            "KUID": "j0329c6c64654440bf366abc8de81b74"
        },
        "language": "js",
        "actions": [{
            "id": "ADD_SNIPPET__a3f614eaebcc45709aba9ce273c52829",
            "type": "ADD_SNIPPET",
            "codeSnippet": "this.showResetPasswordPage();",
            "parentId": null,
            "callbackType": null
        }]
    }
}