{
    "AS_Button_e6227a89fd5e4389bab3617b7c421105": {
        "id": "AS_Button_e6227a89fd5e4389bab3617b7c421105",
        "type": "ACTION_SEQUENCE",
        "params": [{
            "datatype": "collection",
            "name": "eventobject"
        }],
        "contextObj": {
            "name": "frmEnrollNowBusiness",
            "type": "forms",
            "platform": null,
            "KUID": "c34b0397365a4e57a311fd6ef8e410ce"
        },
        "language": "js",
        "actions": [{
            "id": "ADD_SNIPPET_ide_onClick_idfe58e5450744bf95e127acf889848a",
            "type": "ADD_SNIPPET",
            "codeSnippet": "this.btnYesTakeSurvey();",
            "callbackType": null
        }]
    }
}