{
    "AS_Button_g865fedf9bbb493abb8e548db8c1fe63": {
        "id": "AS_Button_g865fedf9bbb493abb8e548db8c1fe63",
        "type": "ACTION_SEQUENCE",
        "params": [{
            "datatype": "collection",
            "name": "eventobject"
        }],
        "contextObj": {
            "name": "frmEnrollNow",
            "type": "forms",
            "platform": null,
            "KUID": "bd78051f2239477699cd5b3d036cf72a"
        },
        "language": "js",
        "actions": [{
            "id": "ADD_SNIPPET_ide_onClick_c8618f1344f9496caa404f8315a05f40",
            "type": "ADD_SNIPPET",
            "codeSnippet": "var self = this;\nthis.login();\nthis.presenter.onLogin(this, {\n  \"username\": this.view.main.tbxUserName.text,\n    \"password\": this.view.main.tbxPassword.text\n        });",
            "callbackType": null
        }]
    }
}