{
    "AS_Button_e174af32a1f647aba94efeb52ef9f4a9": {
        "id": "AS_Button_e174af32a1f647aba94efeb52ef9f4a9",
        "type": "ACTION_SEQUENCE",
        "params": [{
            "datatype": "collection",
            "name": "eventobject"
        }],
        "contextObj": {
            "name": "frmVerifyAccountEur",
            "type": "forms",
            "platform": null,
            "KUID": "e4fe1a12814546a2a3fe8fae1a02d68d"
        },
        "language": "js",
        "actions": [{
            "id": "ADD_SNIPPET_ide_onClick_daffaccf0b8249f29ab47f12e7473581",
            "type": "ADD_SNIPPET",
            "codeSnippet": "this.showLocateUsPage();",
            "callbackType": null
        }]
    }
}