{
    "AS_Button_e0cc229ab4ea4f4b8d29e23288547877": {
        "id": "AS_Button_e0cc229ab4ea4f4b8d29e23288547877",
        "type": "ACTION_SEQUENCE",
        "params": [{
            "datatype": "collection",
            "name": "eventobject"
        }],
        "contextObj": {
            "name": "frmNotificationsAndMessages",
            "type": "forms",
            "platform": "",
            "KUID": "a83a23bb52bc4894a44b027a89964c1b"
        },
        "language": "js",
        "actions": [{
            "id": "ADD_SNIPPET__ac150cf247174d748faab9f08c89ef9c",
            "type": "ADD_SNIPPET",
            "codeSnippet": "this.NewMessage();",
            "parentId": null,
            "callbackType": null
        }]
    }
}