{
    "AS_Button_cbf7cae253b24265a0d1d2171b274a42": {
        "id": "AS_Button_cbf7cae253b24265a0d1d2171b274a42",
        "type": "ACTION_SEQUENCE",
        "params": [{
            "datatype": "collection",
            "name": "eventobject"
        }, {
            "datatype": "collection",
            "name": "context"
        }],
        "contextObj": {
            "name": "segBillPayManagePayeesEdit",
            "type": "templates",
            "platform": null,
            "KUID": "fb48d13896b14343872f3c37384f39de"
        },
        "language": "js",
        "actions": [{
            "id": "ADD_SNIPPET_ide_onClick_g1a766e2043d4e9c922d5a363fc2d8db",
            "type": "ADD_SNIPPET",
            "codeSnippet": "this.showPayABill();",
            "callbackType": null
        }]
    }
}