{
    "AS_Button_e75efb356a074b91b18fdf8c2ce5f95e": {
        "id": "AS_Button_e75efb356a074b91b18fdf8c2ce5f95e",
        "type": "ACTION_SEQUENCE",
        "params": [{
            "datatype": "collection",
            "name": "eventobject"
        }],
        "contextObj": {
            "name": "frmAddExternalAccountEur",
            "type": "forms",
            "platform": null,
            "KUID": "b4d3cf5fda1141e78858debbef0eb064"
        },
        "language": "js",
        "actions": [{
            "id": "ADD_SNIPPET_ide_onClick_j9693445a20e48b3b9b0c07cc3a4d6aa",
            "type": "ADD_SNIPPET",
            "codeSnippet": "this.showTermsAndConditions();",
            "callbackType": null
        }]
    }
}