{
    "AS_Button_bb66dd37b89641ed8ae8a5fda7e40cfb": {
        "id": "AS_Button_bb66dd37b89641ed8ae8a5fda7e40cfb",
        "type": "ACTION_SEQUENCE",
        "params": [{
            "datatype": "collection",
            "name": "eventobject"
        }, {
            "datatype": "collection",
            "name": "context"
        }],
        "contextObj": {
            "name": "segProfileManagementAddresses",
            "type": "templates",
            "platform": "",
            "KUID": "af668aa724a24c11aa887e2ddd721b4f"
        },
        "language": "js",
        "actions": [{
            "id": "ADD_SNIPPET__fc169ed4c3cd4f279d96f296aa308352",
            "type": "ADD_SNIPPET",
            "codeSnippet": "kony.print(\"Clicked\");",
            "parentId": null,
            "callbackType": null
        }]
    }
}