{
    "AS_Button_c0b27a4e2d3c45c1b512c819b09cddf8": {
        "id": "AS_Button_c0b27a4e2d3c45c1b512c819b09cddf8",
        "type": "ACTION_SEQUENCE",
        "params": [{
            "datatype": "collection",
            "name": "eventobject"
        }, {
            "datatype": "collection",
            "name": "context"
        }],
        "contextObj": {
            "name": "segBillPayManagePayeesSelected",
            "type": "templates",
            "platform": "",
            "KUID": "i6b4ba8f0c5e418e8f5082c832ec6a6a"
        },
        "language": "js",
        "actions": [{
            "id": "ADD_SNIPPET__fd736e15d3f14dcb87daa51d47fc3871",
            "type": "ADD_SNIPPET",
            "codeSnippet": "//comment",
            "parentId": null,
            "callbackType": null
        }]
    }
}