{
    "AS_Button_e8a543514dd4494ea1f7a73672b1f0b4": {
        "id": "AS_Button_e8a543514dd4494ea1f7a73672b1f0b4",
        "type": "ACTION_SEQUENCE",
        "params": [{
            "datatype": "collection",
            "name": "eventobject"
        }],
        "contextObj": {
            "name": "frmTransfers",
            "type": "forms",
            "platform": "",
            "KUID": "e9f47be88ab64765a96b1fae7d2a7720"
        },
        "language": "js",
        "actions": [{
            "id": "ADD_SNIPPET__f0e3da16733a49dca4390a089c99b23a",
            "type": "ADD_SNIPPET",
            "codeSnippet": "this.getUserScheduledTransactions();",
            "parentId": null,
            "callbackType": null
        }]
    }
}