{
    "AS_Button_a1e269cce5134cf8b6ecb0c62960550e": {
        "id": "AS_Button_a1e269cce5134cf8b6ecb0c62960550e",
        "type": "ACTION_SEQUENCE",
        "params": [{
            "datatype": "collection",
            "name": "eventobject"
        }, {
            "datatype": "collection",
            "name": "context"
        }],
        "contextObj": {
            "name": "segSentSelectedP2P",
            "type": "templates",
            "platform": null,
            "KUID": "f31391cb62794512a1ff29c515f91a66"
        },
        "language": "js",
        "actions": [{
            "id": "ADD_SNIPPET_ide_onClick_dfc970cba45a4dc5afcf5d1a3a1a7760",
            "type": "ADD_SNIPPET",
            "codeSnippet": "kony.print(\"Empty Action for View Activity due to platform defect\");",
            "callbackType": null
        }]
    }
}