{
    "AS_Button_icb64e39074a46459b01be994db02e0a": {
        "id": "AS_Button_icb64e39074a46459b01be994db02e0a",
        "type": "ACTION_SEQUENCE",
        "params": [{
            "datatype": "collection",
            "name": "eventobject"
        }, {
            "datatype": "collection",
            "name": "context"
        }],
        "contextObj": {
            "name": "segBillPayAllPayees",
            "type": "templates",
            "platform": "",
            "KUID": "j3b42045f1fa401dbfd2614d5accb518"
        },
        "language": "js",
        "actions": [{
            "id": "ADD_SNIPPET__b5ccdbcc1f4c4eaaa0b2738652605bd2",
            "type": "ADD_SNIPPET",
            "codeSnippet": "this.viewEBill();",
            "parentId": null,
            "callbackType": null
        }]
    }
}