{
    "AS_Button_h638f37beec842c9abc8583bb5ff4f6a": {
        "id": "AS_Button_h638f37beec842c9abc8583bb5ff4f6a",
        "type": "ACTION_SEQUENCE",
        "params": [{
            "datatype": "collection",
            "name": "eventobject"
        }],
        "language": "js",
        "actions": [{
            "id": "ADD_SNIPPET_ide_onClick_aa586f56ce7f41f0a8590386b34288bb",
            "type": "ADD_SNIPPET",
            "codeSnippet": "this.showAddRecipient();",
            "callbackType": null
        }]
    }
}