{
    "AS_Button_d8a74b663cec44ddb1d0c0c8813c806d": {
        "id": "AS_Button_d8a74b663cec44ddb1d0c0c8813c806d",
        "type": "ACTION_SEQUENCE",
        "params": [{
            "datatype": "collection",
            "name": "eventobject"
        }, {
            "datatype": "collection",
            "name": "context"
        }],
        "contextObj": {
            "name": "segSentSelectedP2P",
            "type": "templates",
            "platform": null,
            "KUID": "f31391cb62794512a1ff29c515f91a66"
        },
        "language": "js",
        "actions": [{
            "id": "ADD_SNIPPET_ide_onClick_f5f79ad773f34de89b5367a0eb9907ea",
            "type": "ADD_SNIPPET",
            "codeSnippet": "this.showSendMoney();",
            "callbackType": null
        }]
    }
}