{
    "AS_Button_j41bfa261abd448da16a354e296e650a": {
        "id": "AS_Button_j41bfa261abd448da16a354e296e650a",
        "type": "ACTION_SEQUENCE",
        "params": [{
            "datatype": "collection",
            "name": "eventobject"
        }],
        "contextObj": {
            "name": "frmPayAPerson",
            "type": "forms",
            "platform": "",
            "KUID": "b19e9f55ebab4254b5eadf20d2a4c409"
        },
        "language": "js",
        "actions": [{
            "id": "ADD_SNIPPET__h216c17145424f89aefc472c631b7324",
            "type": "ADD_SNIPPET",
            "codeSnippet": "this.setManageRecipientSegmentData();",
            "parentId": null,
            "callbackType": null
        }]
    }
}