{
    "AS_Button_h102fc41814e43d2b5570310ec72cdca": {
        "id": "AS_Button_h102fc41814e43d2b5570310ec72cdca",
        "type": "ACTION_SEQUENCE",
        "params": [{
            "datatype": "collection",
            "name": "eventobject"
        }],
        "contextObj": {
            "type": "forms",
            "platform": null,
            "KUID": "f480bdfaa2cc43c4acab57cc42ee8737"
        },
        "language": "js",
        "actions": [{
            "id": "ADD_SNIPPET_ide_onClick_ge575ff6ddb1417bbada56161f4c1429",
            "type": "ADD_SNIPPET",
            "codeSnippet": "this.btnNoTakeSurvey();\n",
            "callbackType": null
        }]
    }
}