{
    "AS_Button_f8afbdc600c8465e91379a924c6f9788": {
        "id": "AS_Button_f8afbdc600c8465e91379a924c6f9788",
        "type": "ACTION_SEQUENCE",
        "params": [{
            "datatype": "collection",
            "name": "eventobject"
        }, {
            "datatype": "collection",
            "name": "context"
        }],
        "language": "js",
        "actions": [{
            "id": "ADD_SNIPPET_ide_onClick_g90b84c976d94f7db8f4eba55d02ffc5",
            "type": "ADD_SNIPPET",
            "codeSnippet": "this.viewactivitypopup();",
            "callbackType": null
        }]
    }
}