{
    "AS_Button_c6ec1250198e4da0bb461b25abca15e6": {
        "id": "AS_Button_c6ec1250198e4da0bb461b25abca15e6",
        "type": "ACTION_SEQUENCE",
        "params": [{
            "datatype": "collection",
            "name": "eventobject"
        }, {
            "datatype": "collection",
            "name": "context"
        }],
        "language": "js",
        "actions": [{
            "id": "ADD_SNIPPET_ide_onClick_f7b4dcd921d844b6899a83d636be8bc4",
            "type": "ADD_SNIPPET",
            "codeSnippet": "//Just adding comment to register action, will update in form controller",
            "callbackType": null
        }]
    }
}