{
    "AS_Button_g3bbf93c6239439f9e1156c2a9159665": {
        "id": "AS_Button_g3bbf93c6239439f9e1156c2a9159665",
        "type": "ACTION_SEQUENCE",
        "params": [{
            "datatype": "collection",
            "name": "eventobject"
        }, {
            "datatype": "collection",
            "name": "context"
        }],
        "language": "js",
        "actions": [{
            "id": "ADD_SNIPPET_ide_onClick_j52a25edcc5e407aa8be14b8fdbf3a2f",
            "type": "ADD_SNIPPET",
            "codeSnippet": "this.MakeTransferAction();",
            "callbackType": null
        }]
    }
}