{
    "AS_Button_f5a672211dd6450596707e4131aa4a6c": {
        "id": "AS_Button_f5a672211dd6450596707e4131aa4a6c",
        "type": "ACTION_SEQUENCE",
        "params": [{
            "datatype": "collection",
            "name": "eventobject"
        }],
        "contextObj": {
            "name": "frmAddExternalAccount",
            "type": "forms",
            "platform": "",
            "KUID": "g44e89ee0cb445b982945b6b358d77eb"
        },
        "language": "js",
        "actions": [{
            "id": "ADD_SNIPPET__hc684c2024f34e58b8eba9862beaa1ab",
            "type": "ADD_SNIPPET",
            "codeSnippet": "this.addDomesticAccount();",
            "parentId": null,
            "callbackType": null
        }]
    }
}