{
    "AS_Button_abe9618c0a9142fb9f45b3d9162fe341": {
        "id": "AS_Button_abe9618c0a9142fb9f45b3d9162fe341",
        "type": "ACTION_SEQUENCE",
        "params": [{
            "datatype": "collection",
            "name": "eventobject"
        }, {
            "datatype": "collection",
            "name": "context"
        }],
        "contextObj": {
            "name": "segBillPayScheduled",
            "type": "templates",
            "platform": null,
            "KUID": "fc90d061b92947e1b7b96eaee9c9bfb1"
        },
        "language": "js",
        "actions": [{
            "id": "ADD_SNIPPET_ide_onClick_c7dee8d762404259b84db7775f164bca",
            "type": "ADD_SNIPPET",
            "codeSnippet": "this.showPayABill();",
            "callbackType": null
        }]
    }
}