{
    "AS_Button_he6cf577812b4291a5f7c29119deb4f8": {
        "id": "AS_Button_he6cf577812b4291a5f7c29119deb4f8",
        "type": "ACTION_SEQUENCE",
        "params": [{
            "datatype": "collection",
            "name": "eventobject"
        }],
        "contextObj": {
            "name": "frmAddInternalAccount",
            "type": "forms",
            "platform": null,
            "KUID": "i0c7320b49fe40e1a3a168c136395e15"
        },
        "language": "js",
        "actions": [{
            "id": "ADD_SNIPPET__bd95f8b3938149778aea8df8dee80f68",
            "type": "ADD_SNIPPET",
            "codeSnippet": "this.addInternalAccount();\n",
            "parentId": null,
            "callbackType": null
        }]
    }
}