{
    "AS_Button_b35f1d64dc214c29bce77deb47ea56ce": {
        "id": "AS_Button_b35f1d64dc214c29bce77deb47ea56ce",
        "type": "ACTION_SEQUENCE",
        "name": "AS_Button_hc1d32a7766549559ad5e0b8ec237745",
        "params": [{
            "datatype": "collection",
            "name": "eventobject"
        }],
        "contextObj": {
            "name": "frmAccountsDetails",
            "type": "forms",
            "platform": "",
            "KUID": "f22d64f7cb454ad980b530de61c4240a"
        },
        "language": "js",
        "actions": []
    }
}