{
    "AS_Button_ccc571982e3e405893be709160a38195": {
        "id": "AS_Button_ccc571982e3e405893be709160a38195",
        "type": "ACTION_SEQUENCE",
        "params": [{
            "datatype": "collection",
            "name": "eventobject"
        }],
        "language": "js",
        "actions": [{
            "id": "ADD_SNIPPET_ide_onClick_df91d04fd2df4560b4af7a49da396b57",
            "type": "ADD_SNIPPET",
            "codeSnippet": "this.checkVerificationOptions();",
            "callbackType": null
        }]
    }
}