{
    "AS_Button_e895e0b883f047d0a69cea3140aa13fb": {
        "id": "AS_Button_e895e0b883f047d0a69cea3140aa13fb",
        "type": "ACTION_SEQUENCE",
        "params": [{
            "datatype": "collection",
            "name": "eventobject"
        }],
        "contextObj": {
            "name": "frmPayDueAmount",
            "type": "forms",
            "platform": "",
            "KUID": "ba0b4f38b88d4ad7a2c69bb7d0d38c44"
        },
        "language": "js",
        "actions": [{
            "id": "ADD_SNIPPET__ac35eb34760a4b5190495957cfd3999a",
            "type": "ADD_SNIPPET",
            "codeSnippet": "this.quitPopUpNo();",
            "parentId": null,
            "callbackType": null
        }]
    }
}