{
    "AS_Button_d82d0ca6b46545538ad44879c31cdec5": {
        "id": "AS_Button_d82d0ca6b46545538ad44879c31cdec5",
        "type": "ACTION_SEQUENCE",
        "params": [{
            "datatype": "collection",
            "name": "eventobject"
        }],
        "contextObj": {
            "name": "frmPayAPerson",
            "type": "forms",
            "platform": "",
            "KUID": "b19e9f55ebab4254b5eadf20d2a4c409"
        },
        "language": "js",
        "actions": [{
            "id": "ADD_SNIPPET__d53663087ee74bfbac9fed1e8eddc80b",
            "type": "ADD_SNIPPET",
            "codeSnippet": "this.showConfirmationRequestMoney();",
            "parentId": null,
            "callbackType": null
        }]
    }
}