{
    "AS_Button_ga0bf95b16044b6db7f90c494744ff33": {
        "id": "AS_Button_ga0bf95b16044b6db7f90c494744ff33",
        "type": "ACTION_SEQUENCE",
        "params": [{
            "datatype": "collection",
            "name": "eventobject"
        }, {
            "datatype": "collection",
            "name": "context"
        }],
        "contextObj": {
            "name": "segProfileManagementPhoneNumbers",
            "type": "templates",
            "platform": "",
            "KUID": "db445a79675a41389d8fbbb8d3c49235"
        },
        "language": "js",
        "actions": [{
            "id": "ADD_SNIPPET__g10479da737948b2897d0711f3e8494b",
            "type": "ADD_SNIPPET",
            "codeSnippet": "this.showEditPhoneNumber();",
            "parentId": null,
            "callbackType": null
        }]
    }
}