{
    "AS_Button_e4b21abd40b84a05ad8012d555021d13": {
        "id": "AS_Button_e4b21abd40b84a05ad8012d555021d13",
        "type": "ACTION_SEQUENCE",
        "params": [{
            "datatype": "collection",
            "name": "eventobject"
        }],
        "contextObj": {
            "name": "frmConfirmEur",
            "type": "forms",
            "platform": null,
            "KUID": "bd60bcd5cc2045c0b96a76158d5137ff"
        },
        "language": "js",
        "actions": [{
            "id": "ADD_SNIPPET_ide_onClick_cd6946858fc9409c96d6334f275648b0",
            "type": "ADD_SNIPPET",
            "codeSnippet": "this.navigateForm();",
            "callbackType": null
        }]
    }
}