{
    "AS_Button_dba3fff12d5342a9abfd2871bc96f51b": {
        "id": "AS_Button_dba3fff12d5342a9abfd2871bc96f51b",
        "type": "ACTION_SEQUENCE",
        "params": [{
            "datatype": "collection",
            "name": "eventobject"
        }],
        "contextObj": {
            "name": "CopyfrmFastActiveRecipient",
            "type": "forms",
            "platform": null,
            "KUID": "b0706403e9c64a0098a2192c453890a7"
        },
        "language": "js",
        "actions": [{
            "id": "ADD_SNIPPET_ide_onClick_e4bf9320fe1f4ee2aa46860adb9ec1a6",
            "type": "ADD_SNIPPET",
            "codeSnippet": "this.hideCancelPopUp();",
            "callbackType": null
        }]
    }
}