{
    "AS_Button_c34d0fcd47c246d49b9217017038a1d2": {
        "id": "AS_Button_c34d0fcd47c246d49b9217017038a1d2",
        "type": "ACTION_SEQUENCE",
        "params": [{
            "datatype": "collection",
            "name": "eventobject"
        }],
        "contextObj": {
            "name": "CopyfrmAddPayee1",
            "type": "forms",
            "platform": null,
            "KUID": "e3156ddd0243498ab3842669c7088601"
        },
        "language": "js",
        "actions": [{
            "id": "ADD_SNIPPET_ide_onClick_c1942bd8ccdc45939b9285304c5f0d0e",
            "type": "ADD_SNIPPET",
            "codeSnippet": "this.showFlxEnterPayeeInfo();",
            "callbackType": null
        }]
    }
}