{
    "AS_Button_b359206746b44d209b15b1a054193173": {
        "id": "AS_Button_b359206746b44d209b15b1a054193173",
        "type": "ACTION_SEQUENCE",
        "params": [{
            "datatype": "collection",
            "name": "eventobject"
        }, {
            "datatype": "collection",
            "name": "context"
        }],
        "contextObj": {
            "name": "segMyCardsExpanded",
            "type": "templates",
            "platform": "",
            "KUID": "bcb7e9b1d89d483981ba4a6c43a8a0c3"
        },
        "language": "js",
        "actions": [{
            "id": "ADD_SNIPPET__a7544a1ef6e64451a80a2c32b508b9f7",
            "type": "ADD_SNIPPET",
            "codeSnippet": "//",
            "parentId": null,
            "callbackType": null
        }]
    }
}