{
    "AS_Button_a1807b8af43d45afa616e5fe92d92021": {
        "id": "AS_Button_a1807b8af43d45afa616e5fe92d92021",
        "type": "ACTION_SEQUENCE",
        "params": [{
            "datatype": "collection",
            "name": "eventobject"
        }],
        "contextObj": {
            "name": "frmEnrollNow",
            "type": "forms",
            "platform": null,
            "KUID": "bd78051f2239477699cd5b3d036cf72a"
        },
        "language": "js",
        "actions": [{
            "id": "ADD_SNIPPET_ide_onClick_d2efb8eb11d4473f8d2d2c6c7945ce7a",
            "type": "ADD_SNIPPET",
            "codeSnippet": "this.showResetPasswordPageFromOTP();",
            "callbackType": null
        }]
    }
}