{
    "AS_Button_bfa48a414d5144049af31a88f5a7e49e": {
        "id": "AS_Button_bfa48a414d5144049af31a88f5a7e49e",
        "type": "ACTION_SEQUENCE",
        "params": [{
            "datatype": "collection",
            "name": "eventobject"
        }],
        "contextObj": {
            "name": "frmEnrollNow",
            "type": "forms",
            "platform": "",
            "KUID": "bd78051f2239477699cd5b3d036cf72a"
        },
        "language": "js",
        "actions": [{
            "id": "ADD_SNIPPET__h337407f8d104c60adc84bf5bac6acb0",
            "type": "ADD_SNIPPET",
            "codeSnippet": "this.showUsernamePasswordAck();",
            "parentId": null,
            "callbackType": null
        }]
    }
}