{
    "AS_Button_cf45d0af4ef64eb4b1e88f8ea5b792ed": {
        "id": "AS_Button_cf45d0af4ef64eb4b1e88f8ea5b792ed",
        "type": "ACTION_SEQUENCE",
        "name": "AS_Button_ccb80f3ec04d4bcfb0f5ebc6ab201305",
        "params": [{
            "datatype": "collection",
            "name": "eventobject"
        }],
        "contextObj": {
            "name": "frmBillPay",
            "type": "forms",
            "platform": "",
            "KUID": "h754f638fe6d4c56aac376a2f3adf18b"
        },
        "language": "js",
        "actions": []
    }
}