{
    "AS_Button_gc72d8299601492686627695cad8365e": {
        "id": "AS_Button_gc72d8299601492686627695cad8365e",
        "type": "ACTION_SEQUENCE",
        "params": [{
            "datatype": "collection",
            "name": "eventobject"
        }],
        "contextObj": {
            "name": "frmConfirmEur",
            "type": "forms",
            "platform": null,
            "KUID": "bd60bcd5cc2045c0b96a76158d5137ff"
        },
        "language": "js",
        "actions": [{
            "id": "ADD_SNIPPET_ide_onClick_f928fb83a68d49f1a48492f79e442705",
            "type": "ADD_SNIPPET",
            "codeSnippet": "this.navigateForm();",
            "callbackType": null
        }]
    }
}