{
    "AS_Button_e4c7cafa6aea46569a6a0f92fc625d72": {
        "id": "AS_Button_e4c7cafa6aea46569a6a0f92fc625d72",
        "type": "ACTION_SEQUENCE",
        "params": [{
            "datatype": "collection",
            "name": "eventobject"
        }, {
            "datatype": "collection",
            "name": "context"
        }],
        "contextObj": {
            "name": "segSendRequestP2P",
            "type": "templates",
            "platform": null,
            "KUID": "e7b0ee8298674d13b53dd8f53c557543"
        },
        "language": "js",
        "actions": [{
            "id": "ADD_SNIPPET_ide_onClick_d7e88e19df8341919feaca29faa75e27",
            "type": "ADD_SNIPPET",
            "codeSnippet": "this.showSendMoney();",
            "callbackType": null
        }]
    }
}