{
    "AS_Button_d6f447a92d554855ae218fca072a7957": {
        "id": "AS_Button_d6f447a92d554855ae218fca072a7957",
        "type": "ACTION_SEQUENCE",
        "params": [{
            "datatype": "collection",
            "name": "eventobject"
        }, {
            "datatype": "collection",
            "name": "context"
        }],
        "contextObj": {
            "name": "segReceived",
            "type": "templates",
            "platform": "",
            "KUID": "fab626d747fb4923aa7c34a425f3d2a4"
        },
        "language": "js",
        "actions": [{
            "id": "ADD_SNIPPET__d0e8dc782a1c4e11970aeaa04b9d5603",
            "type": "ADD_SNIPPET",
            "codeSnippet": "this.showRequestMoney();",
            "parentId": null,
            "callbackType": null
        }]
    }
}