{
    "AS_Button_b32963118e5e49c88aa9f3cfc6a57464": {
        "id": "AS_Button_b32963118e5e49c88aa9f3cfc6a57464",
        "type": "ACTION_SEQUENCE",
        "params": [{
            "datatype": "collection",
            "name": "eventobject"
        }, {
            "datatype": "collection",
            "name": "context"
        }],
        "language": "js",
        "actions": [{
            "id": "ADD_SNIPPET_ide_onClick_bdc112fa67454aef8dd0c52f006b9681",
            "type": "ADD_SNIPPET",
            "codeSnippet": "this.MakeTransferAction();",
            "callbackType": null
        }]
    }
}