{
    "AS_Button_b4ab0f793b104d3e9fbdea0082d35a0a": {
        "id": "AS_Button_b4ab0f793b104d3e9fbdea0082d35a0a",
        "type": "ACTION_SEQUENCE",
        "name": "AS_Button_h3561348da50440db56e8505fa310354",
        "params": [{
            "datatype": "collection",
            "name": "eventobject"
        }],
        "contextObj": {
            "name": "frmBillPay",
            "type": "forms",
            "platform": "",
            "KUID": "h754f638fe6d4c56aac376a2f3adf18b"
        },
        "language": "js",
        "actions": []
    }
}