{
    "AS_Button_bacd8fcb788d4d94a634a2d866817844": {
        "id": "AS_Button_bacd8fcb788d4d94a634a2d866817844",
        "type": "ACTION_SEQUENCE",
        "params": [{
            "datatype": "collection",
            "name": "eventobject"
        }],
        "contextObj": {
            "name": "frmAddPayee",
            "type": "forms",
            "platform": "",
            "KUID": "a6f26a85f86b40cca7b9347666e596a5"
        },
        "language": "js",
        "actions": [{
            "id": "ADD_SNIPPET__a4e7f925287143adb519a85265b26379",
            "type": "ADD_SNIPPET",
            "codeSnippet": "this.showFlxEnterPayeeInfo();",
            "parentId": null,
            "callbackType": null
        }]
    }
}