{
    "AS_Button_i6373924d341409aa127394352844b0d": {
        "id": "AS_Button_i6373924d341409aa127394352844b0d",
        "type": "ACTION_SEQUENCE",
        "params": [{
            "datatype": "collection",
            "name": "eventobject"
        }],
        "contextObj": {
            "name": "frmAccountsDetails",
            "type": "forms",
            "platform": "",
            "KUID": "f22d64f7cb454ad980b530de61c4240a"
        },
        "language": "js",
        "actions": [{
            "id": "ADD_SNIPPET__b09954cb8bf743738274b9268af115fb",
            "type": "ADD_SNIPPET",
            "codeSnippet": "this.toggleSearchResults();",
            "parentId": null,
            "callbackType": null
        }]
    }
}