{
    "AS_Button_c307a2436c65413b901b185f7308b3f2": {
        "id": "AS_Button_c307a2436c65413b901b185f7308b3f2",
        "type": "ACTION_SEQUENCE",
        "params": [{
            "datatype": "collection",
            "name": "eventobject"
        }],
        "contextObj": {
            "name": "frmP2PSendMoney",
            "type": "forms",
            "platform": null,
            "KUID": "g5f140022172483bab1cccd6202ddc65"
        },
        "language": "js",
        "actions": [{
            "id": "ADD_SNIPPET_ide_onClick_he7489bab3ee42bd8afd49f2f787995c",
            "type": "ADD_SNIPPET",
            "codeSnippet": "this.showAddRecipient();",
            "callbackType": null
        }]
    }
}