{
    "AS_Button_a55ca9619bce46f4985127c70be8c763": {
        "id": "AS_Button_a55ca9619bce46f4985127c70be8c763",
        "type": "ACTION_SEQUENCE",
        "params": [{
            "datatype": "collection",
            "name": "eventobject"
        }],
        "contextObj": {
            "name": "frmLogin",
            "type": "forms",
            "platform": "",
            "KUID": "j0329c6c64654440bf366abc8de81b74"
        },
        "language": "js",
        "actions": [{
            "id": "ADD_SNIPPET__c4c5636ea51b4e5c9c6c7b6d5ed13d4d",
            "type": "ADD_SNIPPET",
            "codeSnippet": "this.welcomeVerifiedUser();",
            "parentId": null,
            "callbackType": null
        }]
    }
}