{
    "AS_Button_ce8269bf276145c294a70772a87eb64f": {
        "id": "AS_Button_ce8269bf276145c294a70772a87eb64f",
        "type": "ACTION_SEQUENCE",
        "params": [{
            "datatype": "collection",
            "name": "eventobject"
        }, {
            "datatype": "collection",
            "name": "context"
        }],
        "contextObj": {
            "KUID": "d257ee74458f4983b7c19a659f6380b8",
            "name": "segCreateACHAccountDetails",
            "platform": "",
            "type": "templates"
        },
        "language": "js",
        "actions": [{
            "id": "ADD_SNIPPET__i2ce0e1af28b44b2911956e735de9f73",
            "type": "ADD_SNIPPET",
            "codeSnippet": "this.executeOnParent(\"removeTransactionRow\");",
            "parentId": null,
            "callbackType": null
        }]
    }
}