{
    "AS_Button_g994d7f710cc499282ebcc78b810b35e": {
        "id": "AS_Button_g994d7f710cc499282ebcc78b810b35e",
        "type": "ACTION_SEQUENCE",
        "params": [{
            "datatype": "collection",
            "name": "eventobject"
        }],
        "contextObj": {
            "name": "CopyfrmFastActiveRecipient",
            "type": "forms",
            "platform": null,
            "KUID": "b0706403e9c64a0098a2192c453890a7"
        },
        "language": "js",
        "actions": [{
            "id": "ADD_SNIPPET_ide_onClick_f380f75f8a0a4ea8b722e9d477ae4018",
            "type": "ADD_SNIPPET",
            "codeSnippet": "this.showTermsAndConditions();",
            "callbackType": null
        }]
    }
}