{
    "AS_Button_f9c80b94d94548b6b0281f1adc797d0c": {
        "id": "AS_Button_f9c80b94d94548b6b0281f1adc797d0c",
        "type": "ACTION_SEQUENCE",
        "params": [{
            "datatype": "collection",
            "name": "eventobject"
        }],
        "contextObj": {
            "name": "frmConfirmAccount",
            "type": "forms",
            "platform": "",
            "KUID": "fa720a3845e84444a32d1129de3a2f6b"
        },
        "language": "js",
        "actions": [{
            "id": "ADD_SNIPPET__g3fa999475734dc3a709173a048e95c6",
            "type": "ADD_SNIPPET",
            "codeSnippet": " var navObj = new kony.mvc.Navigation(kony.application.getPreviousForm().id);\n navObj.navigate();",
            "parentId": null,
            "callbackType": null
        }]
    }
}