{
    "AS_Button_bb82db19faf442e68464d3924f4caf3b": {
        "id": "AS_Button_bb82db19faf442e68464d3924f4caf3b",
        "type": "ACTION_SEQUENCE",
        "params": [{
            "datatype": "collection",
            "name": "eventobject"
        }, {
            "datatype": "collection",
            "name": "context"
        }],
        "contextObj": {
            "type": "templates",
            "platform": "",
            "KUID": "ed3aa5114dbc4d248b15c1cbebde372b"
        },
        "language": "js",
        "actions": [{
            "id": "ADD_SNIPPET__h77a2c73e90a45cb8efb1d63c1e036a9",
            "type": "ADD_SNIPPET",
            "codeSnippet": "var currForm = kony.application.getCurrentForm();\ncurrForm.flxLogoutStopCheckPayment.setVisibility(true);\ncurrForm.forceLayout();",
            "parentId": null,
            "callbackType": null
        }]
    }
}