{
    "AS_Button_c601810bdf3d41159940d41a1821be15": {
        "id": "AS_Button_c601810bdf3d41159940d41a1821be15",
        "type": "ACTION_SEQUENCE",
        "params": [{
            "datatype": "collection",
            "name": "eventobject"
        }],
        "contextObj": {
            "name": "CopyfrmFastActiveRecipient",
            "type": "forms",
            "platform": null,
            "KUID": "b0706403e9c64a0098a2192c453890a7"
        },
        "language": "js",
        "actions": [{
            "id": "ADD_SNIPPET_ide_onClick_ec4f8b20b7a24337a6c5a58997c280d9",
            "type": "ADD_SNIPPET",
            "codeSnippet": "this.hideTermsAndConditions();",
            "callbackType": null
        }]
    }
}