{
    "AS_FlexContainer_ic0d8d3ff3d1453c9e52185e5a41378c": {
        "id": "AS_FlexContainer_ic0d8d3ff3d1453c9e52185e5a41378c",
        "type": "ACTION_SEQUENCE",
        "params": [{
            "datatype": "collection",
            "name": "eventobject"
        }, {
            "datatype": "collection",
            "name": "context"
        }],
        "contextObj": {
            "name": "segUserManagementFeaturePermissionsTablet",
            "type": "templates",
            "platform": "",
            "KUID": "d5da1ba04a1c4e3696de8119289e2ba2"
        },
        "language": "js",
        "actions": [{
            "id": "ADD_SNIPPET_fb07f23b9bd3464e93c362cedb5cde31",
            "type": "ADD_SNIPPET",
            "codeSnippet": "this.selectOrUnselectParentFeature(eventobject, context);",
            "parentId": null
        }]
    }
}