{
    "AS_Form_jc1129c0c2f145709704d2b8a2540551": {
        "id": "AS_Form_jc1129c0c2f145709704d2b8a2540551",
        "type": "ACTION_SEQUENCE",
        "params": [{
            "datatype": "collection",
            "name": "eventobject"
        }],
        "contextObj": {
            "name": "frmFastAddInternationalAccount",
            "type": "forms",
            "platform": "",
            "KUID": "c8df149cfa204d7993ef52a08f140db1"
        },
        "language": "js",
        "actions": [{
            "id": "ADD_SNIPPET__j0c34446152c48a5b29f7e6c268075eb",
            "type": "ADD_SNIPPET",
            "codeSnippet": "this.postShowAddInternationalAccount();",
            "parentId": null,
            "callbackType": null
        }]
    }
}