{
    "AS_Form_hdd4d6b7d2e64b0e81a1485b13ea4964": {
        "id": "AS_Form_hdd4d6b7d2e64b0e81a1485b13ea4964",
        "type": "ACTION_SEQUENCE",
        "params": [{
            "datatype": "collection",
            "name": "eventobject"
        }],
        "contextObj": {
            "name": "frmCardManagementDeactivateCard",
            "type": "forms",
            "platform": "",
            "KUID": "a9cdb9136711491aa52f6d25e09500b9"
        },
        "language": "js",
        "actions": [{
            "id": "ADD_SNIPPET_id9386838395462f99a352916f9f35ab",
            "type": "ADD_SNIPPET",
            "codeSnippet": "this.init();",
            "parentId": null
        }]
    }
}