{
    "AS_FlexContainer_f766a5b0b2c14ca7a39eff83d5dc3e97": {
        "id": "AS_FlexContainer_f766a5b0b2c14ca7a39eff83d5dc3e97",
        "type": "ACTION_SEQUENCE",
        "params": [{
            "datatype": "collection",
            "name": "eventobject"
        }, {
            "datatype": "collection",
            "name": "context"
        }],
        "contextObj": {
            "name": "segMakeTransferWireTransfersSelected",
            "type": "templates",
            "platform": "",
            "KUID": "be5e79c772964b6aa7a4b49263e527d0"
        },
        "language": "js",
        "actions": [{
            "id": "ADD_SNIPPET__c4cc3ba0ffb641019b583c68dda9c12b",
            "type": "ADD_SNIPPET",
            "codeSnippet": "this.showSelectedRow();",
            "parentId": null,
            "callbackType": null
        }]
    }
}