{
    "AS_Form_ede5c008139640f9b22d7f2aaf04ec9b": {
        "id": "AS_Form_ede5c008139640f9b22d7f2aaf04ec9b",
        "type": "ACTION_SEQUENCE",
        "params": [{
            "datatype": "collection",
            "name": "eventobject"
        }],
        "contextObj": {
            "name": "frmWatchlist",
            "type": "forms",
            "platform": "",
            "KUID": "j5009d8a779a4a488549baef06b2b2f8"
        },
        "language": "js",
        "actions": [{
            "id": "ADD_SNIPPET_e8ecf02b73d849dc8ccb4740079fc0b0",
            "type": "ADD_SNIPPET",
            "codeSnippet": "this.init();",
            "parentId": null,
            "callbackType": null
        }]
    }
}