{
    "AS_Form_cd6e46172dbc40e990b318b2627a1ebd": {
        "id": "AS_Form_cd6e46172dbc40e990b318b2627a1ebd",
        "type": "ACTION_SEQUENCE",
        "params": [{
            "datatype": "collection",
            "name": "eventobject"
        }],
        "contextObj": {
            "name": "frmP2PTransferAcknowledgement",
            "type": "forms",
            "platform": "",
            "KUID": "f1597f3f77ca47289ff416291a5105d4"
        },
        "language": "js",
        "actions": [{
            "id": "ADD_SNIPPET_i445d86bf1f44d07bff442225b57b03d",
            "type": "ADD_SNIPPET",
            "codeSnippet": "kony.print(\"Back Navigation Disabled\");",
            "parentId": null
        }]
    }
}