{
    "AS_Form_e47d8c545eba41328a1c66c21b0a5cce": {
        "id": "AS_Form_e47d8c545eba41328a1c66c21b0a5cce",
        "type": "ACTION_SEQUENCE",
        "params": [{
            "datatype": "collection",
            "name": "eventobject"
        }],
        "contextObj": {
            "name": "frmShortTermLoan",
            "type": "forms",
            "platform": "",
            "KUID": "c39ab0ec017d4d4fb10709bf77a59b22"
        },
        "language": "js",
        "actions": [{
            "id": "ADD_SNIPPET__b79266b1af8f415c924e9d6662877920",
            "type": "ADD_SNIPPET",
            "codeSnippet": "this.preShow();",
            "parentId": null,
            "callbackType": null
        }]
    }
}