{
    "AS_Form_cc34b970d1a84132b79dd4448b931d9a": {
        "id": "AS_Form_cc34b970d1a84132b79dd4448b931d9a",
        "type": "ACTION_SEQUENCE",
        "params": [{
            "datatype": "collection",
            "name": "eventobject"
        }],
        "contextObj": {
            "name": "frmAddPayeeInformation",
            "type": "forms",
            "platform": "",
            "KUID": "e0236d8f686f48078123f2bfa4ebc2e2"
        },
        "language": "js",
        "actions": [{
            "id": "ADD_SNIPPET__bf38e932713d4b30a9c80aea51540254",
            "type": "ADD_SNIPPET",
            "codeSnippet": "this.init();",
            "parentId": null
        }]
    }
}