{
    "AS_Form_f7def3c7d01541ab8159e6fd173aa980": {
        "id": "AS_Form_f7def3c7d01541ab8159e6fd173aa980",
        "type": "ACTION_SEQUENCE",
        "params": [{
            "datatype": "collection",
            "name": "eventobject"
        }],
        "contextObj": {
            "name": "CopyfrmBBMyApprovals",
            "type": "forms",
            "platform": null,
            "KUID": "fc06a723c5364d18bf3a40538ed736d5"
        },
        "language": "js",
        "actions": [{
            "id": "ADD_SNIPPET_ide_postShow_g25ec90215b34a64b5b9e854ec87c3c8",
            "type": "ADD_SNIPPET",
            "codeSnippet": "applicationManager.getNavigationManager().applyUpdates(this);\nthis.adjustScreen(0);",
            "callbackType": null
        }]
    }
}