{
    "AS_FlexContainer_hb77cab41b8a4fb2ad3225db2c54c4a3": {
        "id": "AS_FlexContainer_hb77cab41b8a4fb2ad3225db2c54c4a3",
        "type": "ACTION_SEQUENCE",
        "params": [{
            "datatype": "collection",
            "name": "eventobject"
        }, {
            "datatype": "collection",
            "name": "context"
        }],
        "contextObj": {
            "name": "segCustomListBox",
            "type": "templates",
            "KUID": "f9974c2797cb4a9bb46f8d3ff8f6bc6a"
        },
        "language": "js",
        "actions": [{
            "id": "ADD_SNIPPET__f6171b77e8b74b998c587773dff9a5ec",
            "type": "ADD_SNIPPET",
            "codeSnippet": "//this.getTop();",
            "parentId": null,
            "callbackType": null
        }]
    }
}