{
    "AS_Form_hadea4e5727b42edaccda9c01cfd8c29": {
        "id": "AS_Form_hadea4e5727b42edaccda9c01cfd8c29",
        "type": "ACTION_SEQUENCE",
        "params": [{
            "datatype": "collection",
            "name": "eventobject"
        }],
        "contextObj": {
            "name": "frmEditApprovalMatrixLimits",
            "type": "forms",
            "platform": "",
            "KUID": "ia48a8311cc54fab9504011e4a973a5f"
        },
        "language": "js",
        "actions": [{
            "id": "INVOKE_FUNCTION__h21d01d7030b42b1ba0524c857e78ff2",
            "type": "INVOKE_FUNCTION",
            "sequenceKUID": "onPreShow",
            "display": "onPreShow",
            "inputparams": [],
            "parentId": null,
            "callbackType": null,
            "disabled": null,
            "source": "controller"
        }]
    }
}