{
    "AS_FlexContainer_e4cd8ee1cab947108226c3d5443fe81f": {
        "id": "AS_FlexContainer_e4cd8ee1cab947108226c3d5443fe81f",
        "type": "ACTION_SEQUENCE",
        "params": [{
            "datatype": "collection",
            "name": "eventobject"
        }],
        "contextObj": {
            "name": "frmCustomerFeedback",
            "type": "forms",
            "platform": "",
            "KUID": "f9a0e499fabf424ba4982ce72ecd3bd2"
        },
        "language": "js",
        "actions": [{
            "id": "ADD_SNIPPET__g6a291bf39154c999be7fc43576a041a",
            "type": "ADD_SNIPPET",
            "codeSnippet": "this.showRatingAction(this.view.Feedback.imgRating2,2);",
            "parentId": null,
            "callbackType": null
        }]
    }
}