{
    "AS_Form_f99856d4b00c40e4b89104d9590a8dd6": {
        "id": "AS_Form_f99856d4b00c40e4b89104d9590a8dd6",
        "type": "ACTION_SEQUENCE",
        "params": [{
            "datatype": "collection",
            "name": "eventobject"
        }],
        "contextObj": {
            "name": "frmBillPay",
            "type": "forms",
            "platform": "",
            "KUID": "h754f638fe6d4c56aac376a2f3adf18b"
        },
        "language": "js",
        "actions": [{
            "id": "ADD_SNIPPET__da5524b474044af19d0af09a6e1d0ec8",
            "type": "ADD_SNIPPET",
            "codeSnippet": "this.loadMyPaymentAccountsData();",
            "parentId": null,
            "callbackType": null
        }]
    }
}