{
    "AS_FlexContainer_e5a46919ab3645bebb3cb09c79f88d58": {
        "id": "AS_FlexContainer_e5a46919ab3645bebb3cb09c79f88d58",
        "type": "ACTION_SEQUENCE",
        "params": [{
            "datatype": "collection",
            "name": "eventobject"
        }, {
            "datatype": "collection",
            "name": "context"
        }],
        "contextObj": {
            "name": "segExternalAccountsTransfersUnselected",
            "type": "templates",
            "platform": null,
            "KUID": "a1e4944abef64fa581ad9ac45aa4bfa8"
        },
        "language": "js",
        "actions": [{
            "id": "ADD_SNIPPET_ide_onClick_g0503e2bacbb46eb88efb8d6989a14a0",
            "type": "ADD_SNIPPET",
            "codeSnippet": "//this.pendingRowOnClick();\nthis.showSelectedRow();",
            "callbackType": null
        }]
    }
}