{
    "AS_Form_a2e2f9a8fbd64f00a8033cd9cd1c8fd9": {
        "id": "AS_Form_a2e2f9a8fbd64f00a8033cd9cd1c8fd9",
        "type": "ACTION_SEQUENCE",
        "params": [{
            "datatype": "collection",
            "name": "eventobject"
        }],
        "contextObj": {
            "name": "frmProfileManagement",
            "type": "forms",
            "platform": "",
            "KUID": "e136103788ec406cab0b1d0f2087f12b"
        },
        "language": "js",
        "actions": [{
            "id": "ADD_SNIPPET__b528a40713474c09bfd5b969ce46c536",
            "type": "ADD_SNIPPET",
            "codeSnippet": "this.initProfileSettingsMenu();",
            "parentId": null,
            "callbackType": null
        }]
    }
}