{
    "AS_Form_jce8c301abad400688ca23e71a3aab00": {
        "id": "AS_Form_jce8c301abad400688ca23e71a3aab00",
        "type": "ACTION_SEQUENCE",
        "params": [{
            "datatype": "collection",
            "name": "eventobject"
        }],
        "contextObj": {
            "name": "CopyfrmLogin",
            "type": "forms",
            "platform": null,
            "KUID": "d6328cf267c248a6b559c500d837ea14"
        },
        "language": "js",
        "actions": [{
            "id": "ADD_SNIPPET_ide_onDeviceBack_ed7f68786d794cb19dd80db6057af79c",
            "type": "ADD_SNIPPET",
            "codeSnippet": "kony.print(\"User pressed back button\");",
            "callbackType": null
        }]
    }
}