{
    "AS_Form_cd4a800d4a604858ace0382480d20d9b": {
        "id": "AS_Form_cd4a800d4a604858ace0382480d20d9b",
        "type": "ACTION_SEQUENCE",
        "params": [{
            "datatype": "collection",
            "name": "eventobject"
        }],
        "contextObj": {
            "name": "CopyfrmAccountsLanding",
            "type": "forms",
            "platform": null,
            "KUID": "bf91e396313e4705bf48003c6c6efcf0"
        },
        "language": "js",
        "actions": [{
            "id": "ADD_SNIPPET_ide_init_j3bdd60cb6834afa8d7eae3741d8473b",
            "type": "ADD_SNIPPET",
            "codeSnippet": "this.initActions();",
            "callbackType": null
        }]
    }
}