{
    "AS_FlexContainer_d4191e35ba274a7e9395390189363cc3": {
        "id": "AS_FlexContainer_d4191e35ba274a7e9395390189363cc3",
        "type": "ACTION_SEQUENCE",
        "params": [{
            "datatype": "collection",
            "name": "eventobject"
        }],
        "language": "js",
        "actions": [{
            "id": "ADD_SNIPPET_ide_onClick_dfbc407585ab4f8ebad189f2b6aa70d3",
            "type": "ADD_SNIPPET",
            "codeSnippet": "this.toggleCheckbox();",
            "callbackType": null
        }]
    }
}