{
    "AS_Form_gb18032c211947d2abec4fc945fc3e9b": {
        "id": "AS_Form_gb18032c211947d2abec4fc945fc3e9b",
        "type": "ACTION_SEQUENCE",
        "params": [{
            "datatype": "collection",
            "name": "eventobject"
        }],
        "contextObj": {
            "name": "frmTransfersEur",
            "type": "forms",
            "platform": null,
            "KUID": "ce91c8ed58094b46825ffa2ecbf979d7"
        },
        "language": "js",
        "actions": [{
            "id": "ADD_SNIPPET_ide_postShow_a035cc72db4a4e86846f15efd00c7395",
            "type": "ADD_SNIPPET",
            "codeSnippet": "this.postShowtransfers();",
            "callbackType": null
        }]
    }
}