{
    "AS_Form_c198e5fdf908417bb06d11c18e078ebb": {
        "id": "AS_Form_c198e5fdf908417bb06d11c18e078ebb",
        "type": "ACTION_SEQUENCE",
        "params": [{
            "datatype": "collection",
            "name": "eventobject"
        }],
        "contextObj": {
            "name": "frmTransfersEur",
            "type": "forms",
            "platform": null,
            "KUID": "ce91c8ed58094b46825ffa2ecbf979d7"
        },
        "language": "js",
        "actions": [{
            "id": "ADD_SNIPPET_ide_init_gc9437d861904546a62db07279a9e027",
            "type": "ADD_SNIPPET",
            "codeSnippet": "this.initActions();",
            "callbackType": null
        }]
    }
}