{
    "AS_FlexContainer_ga88ad86080143a39a5810a5822e0e6d": {
        "id": "AS_FlexContainer_ga88ad86080143a39a5810a5822e0e6d",
        "type": "ACTION_SEQUENCE",
        "params": [{
            "datatype": "collection",
            "name": "eventobject"
        }],
        "language": "js",
        "actions": [{
            "id": "ADD_SNIPPET_ide_onClick_ec0afe9858644eed9737100b94b67c71",
            "type": "ADD_SNIPPET",
            "codeSnippet": "this.hideTermsAndConditions();",
            "callbackType": null
        }]
    }
}