{
    "AS_FlexContainer_fcde603976e64f77b7fc441f9dca0cad": {
        "id": "AS_FlexContainer_fcde603976e64f77b7fc441f9dca0cad",
        "type": "ACTION_SEQUENCE",
        "params": [{
            "datatype": "collection",
            "name": "eventobject"
        }, {
            "datatype": "collection",
            "name": "context"
        }],
        "language": "js",
        "actions": [{
            "id": "ADD_SNIPPET_ide_onClick_f5449c83d1c94cc48098a3897296557f",
            "type": "ADD_SNIPPET",
            "codeSnippet": "this.showUnselectedRow();",
            "callbackType": null
        }]
    }
}