{
    "AS_Form_h0bb6d3386e24ecc81b4cc89fef74d57": {
        "id": "AS_Form_h0bb6d3386e24ecc81b4cc89fef74d57",
        "type": "ACTION_SEQUENCE",
        "params": [{
            "datatype": "collection",
            "name": "eventobject"
        }],
        "contextObj": {
            "name": "frmWatchlist",
            "type": "forms",
            "platform": "",
            "KUID": "j5009d8a779a4a488549baef06b2b2f8"
        },
        "language": "js",
        "actions": [{
            "id": "INVOKE_FUNCTION__j5f473fe25564b639c2ccde3a2041963",
            "type": "INVOKE_FUNCTION",
            "sequenceKUID": "preShow",
            "display": "preShow",
            "inputparams": [],
            "parentId": null,
            "callbackType": null,
            "disabled": null,
            "source": "controller"
        }]
    }
}