{
    "AS_FlexContainer_f7455d86ced54b86a6149ef3b633f201": {
        "id": "AS_FlexContainer_f7455d86ced54b86a6149ef3b633f201",
        "type": "ACTION_SEQUENCE",
        "params": [{
            "datatype": "collection",
            "name": "eventobject"
        }, {
            "datatype": "collection",
            "name": "context"
        }],
        "contextObj": {
            "name": "segProfileManagementAddresses",
            "type": "templates",
            "platform": "",
            "KUID": "af668aa724a24c11aa887e2ddd721b4f"
        },
        "language": "js",
        "actions": []
    }
}