{
    "AS_Form_a0bfe0d720154c10b4e7576fdc87f871": {
        "id": "AS_Form_a0bfe0d720154c10b4e7576fdc87f871",
        "type": "ACTION_SEQUENCE",
        "params": [{
            "datatype": "collection",
            "name": "eventobject"
        }],
        "contextObj": {
            "name": "frmEditApprovalMatrixLimits",
            "type": "forms",
            "platform": "",
            "KUID": "ia48a8311cc54fab9504011e4a973a5f"
        },
        "language": "js",
        "actions": [{
            "id": "INVOKE_FUNCTION__a41e78faccf848a6a73d0e812e101234",
            "type": "INVOKE_FUNCTION",
            "sequenceKUID": "onInit",
            "display": "onInit",
            "inputparams": [],
            "parentId": null,
            "callbackType": null,
            "disabled": null,
            "source": "controller"
        }]
    }
}