{
    "AS_FlexContainer_fd56475a258b4363bf8e0646a83688dc": {
        "id": "AS_FlexContainer_fd56475a258b4363bf8e0646a83688dc",
        "type": "ACTION_SEQUENCE",
        "params": [{
            "datatype": "collection",
            "name": "eventobject"
        }],
        "language": "js",
        "actions": [{
            "id": "ADD_SNIPPET_ide_onClick_j51452d9b0e44f838b7dd6c90e53f958",
            "type": "ADD_SNIPPET",
            "codeSnippet": "this.toggleCheckbox();",
            "callbackType": null
        }]
    }
}