{
    "AS_FlexContainer_j455871603364d54be967dc912e8293f": {
        "id": "AS_FlexContainer_j455871603364d54be967dc912e8293f",
        "type": "ACTION_SEQUENCE",
        "params": [{
            "datatype": "collection",
            "name": "eventobject"
        }],
        "contextObj": {
            "name": "frmAccountsDetails",
            "type": "forms",
            "platform": "",
            "KUID": "f22d64f7cb454ad980b530de61c4240a"
        },
        "language": "js",
        "actions": [{
            "id": "ADD_SNIPPET__c1a473ec43c24dc7913e12bdfd3d08e5",
            "type": "ADD_SNIPPET",
            "codeSnippet": "this.toggleSearch();",
            "parentId": null,
            "callbackType": null
        }]
    }
}