{
    "AS_FlexContainer_d311bf231af746c79ea149267be478fd": {
        "id": "AS_FlexContainer_d311bf231af746c79ea149267be478fd",
        "type": "ACTION_SEQUENCE",
        "params": [{
            "datatype": "collection",
            "name": "eventobject"
        }],
        "contextObj": {
            "name": "frmEnrollNow",
            "type": "forms",
            "platform": "",
            "KUID": "bd78051f2239477699cd5b3d036cf72a"
        },
        "language": "js",
        "actions": [{
            "id": "ADD_SNIPPET__ec61800b680b4ecdabef56377966d1fa",
            "type": "ADD_SNIPPET",
            "codeSnippet": "this.showRulesUsername();",
            "parentId": null,
            "callbackType": null
        }]
    }
}