{
    "AS_FlexContainer_iefcb76a7f7047498cbe379804943807": {
        "id": "AS_FlexContainer_iefcb76a7f7047498cbe379804943807",
        "type": "ACTION_SEQUENCE",
        "params": [{
            "datatype": "collection",
            "name": "eventobject"
        }, {
            "datatype": "string",
            "name": "x"
        }, {
            "datatype": "string",
            "name": "y"
        }],
        "contextObj": {
            "name": "frmNotificationsAndMessages",
            "type": "forms",
            "platform": "",
            "KUID": "a83a23bb52bc4894a44b027a89964c1b"
        },
        "language": "js",
        "actions": [{
            "id": "ADD_SNIPPET__b75c8a784efc4648926ee95b705e415d",
            "type": "ADD_SNIPPET",
            "codeSnippet": "this.DismissNo();",
            "parentId": null,
            "callbackType": null
        }]
    }
}