{
    "AS_FlexContainer_ed4b1cb09ed94ab89d3c194ecca6ffc6": {
        "id": "AS_FlexContainer_ed4b1cb09ed94ab89d3c194ecca6ffc6",
        "type": "ACTION_SEQUENCE",
        "params": [{
            "datatype": "collection",
            "name": "eventobject"
        }, {
            "datatype": "collection",
            "name": "context"
        }],
        "contextObj": {
            "name": "segUserManagementNonAccountTablet",
            "type": "templates",
            "platform": "",
            "KUID": "e274ce6c6813497db5db3e45c51d7286"
        },
        "language": "js",
        "actions": [{
            "id": "ADD_SNIPPET_c7d422e1b1644609ae0db4738b83f733",
            "type": "ADD_SNIPPET",
            "codeSnippet": "this.selectOrUnselectParentFeature(eventobject, context);",
            "parentId": null
        }]
    }
}