{
    "AS_FlexContainer_b130cf3e7a2942469b5b01edbc902aef": {
        "id": "AS_FlexContainer_b130cf3e7a2942469b5b01edbc902aef",
        "type": "ACTION_SEQUENCE",
        "params": [{
            "datatype": "collection",
            "name": "eventobject"
        }, {
            "datatype": "collection",
            "name": "context"
        }],
        "language": "js",
        "actions": [{
            "id": "ADD_SNIPPET_ide_onClick_f179dd4d34394432b8c6bcd2412dc915",
            "type": "ADD_SNIPPET",
            "codeSnippet": "this.executeOnParent(\"checkUnCheckTransferAccess\");",
            "callbackType": null
        }]
    }
}