{
    "AS_FlexContainer_df073d195a67484fa42b1db1ab59f3fa": {
        "id": "AS_FlexContainer_df073d195a67484fa42b1db1ab59f3fa",
        "type": "ACTION_SEQUENCE",
        "params": [{
            "datatype": "collection",
            "name": "eventobject"
        }, {
            "datatype": "collection",
            "name": "context"
        }],
        "contextObj": {
            "name": "segProfileManagementAccounts",
            "type": "templates",
            "platform": null,
            "KUID": "b7b49663a590477097ec0ee49abb866b"
        },
        "language": "js",
        "actions": [{
            "id": "ADD_SNIPPET_ide_onClick_i1185b9b87e54d4582eb2a09a687dd55",
            "type": "ADD_SNIPPET",
            "codeSnippet": "// var ntf = new kony.mvc.Navigation(\"frmAccountsDetails\");\n// ntf.navigate();\nthis.accountPressed();",
            "callbackType": null
        }]
    }
}