{
    "AS_FlexContainer_a8180d1fbced4a24916f3845fe9b1d7a": {
        "id": "AS_FlexContainer_a8180d1fbced4a24916f3845fe9b1d7a",
        "type": "ACTION_SEQUENCE",
        "params": [{
            "datatype": "collection",
            "name": "eventobject"
        }],
        "contextObj": {
            "name": "frmLogin",
            "type": "forms",
            "platform": "",
            "KUID": "j0329c6c64654440bf366abc8de81b74"
        },
        "language": "js",
        "actions": [{
            "id": "ADD_SNIPPET__e8590095ce894241902f91afbd03ce49",
            "type": "ADD_SNIPPET",
            "codeSnippet": "this.rememberMe();",
            "parentId": null,
            "callbackType": null
        }]
    }
}