{
    "AS_FlexContainer_j4e8104f167d45848b9ef48662835136": {
        "id": "AS_FlexContainer_j4e8104f167d45848b9ef48662835136",
        "type": "ACTION_SEQUENCE",
        "params": [{
            "datatype": "collection",
            "name": "eventobject"
        }, {
            "datatype": "collection",
            "name": "context"
        }],
        "language": "js",
        "actions": [{
            "id": "ADD_SNIPPET_ide_onClick_e82a7aabc40248cd8ada592a264d6472",
            "type": "ADD_SNIPPET",
            "codeSnippet": "//this.pendingRowOnClick();\nthis.showSelectedRow();",
            "callbackType": null
        }]
    }
}