{
    "AS_FlexContainer_c4816063f18a48d89e368a34cb9048c1": {
        "id": "AS_FlexContainer_c4816063f18a48d89e368a34cb9048c1",
        "type": "ACTION_SEQUENCE",
        "params": [{
            "datatype": "collection",
            "name": "eventobject"
        }],
        "language": "js",
        "actions": [{
            "id": "ADD_SNIPPET_ide_onClick_gdc30066692841e6a980c5b942b25f4d",
            "type": "ADD_SNIPPET",
            "codeSnippet": "this.toggleCheckbox();",
            "callbackType": null
        }]
    }
}