{
    "AS_Form_h6817ed6bef8463da3e4100df6f4c741": {
        "id": "AS_Form_h6817ed6bef8463da3e4100df6f4c741",
        "type": "ACTION_SEQUENCE",
        "params": [{
            "datatype": "collection",
            "name": "eventobject"
        }],
        "contextObj": {
            "name": "frmReview",
            "type": "forms",
            "platform": "",
            "KUID": "e9ea35af06c748c0b66b07826552d3a7"
        },
        "language": "js",
        "actions": [{
            "id": "ADD_SNIPPET__f1cfcab3048246fdbff6fee4b337d556",
            "type": "ADD_SNIPPET",
            "codeSnippet": "this.postShowFrmReview();",
            "parentId": null,
            "callbackType": null
        }]
    }
}