{
    "AS_FlexContainer_a2f65689ba37449f97dc589e1df25778": {
        "id": "AS_FlexContainer_a2f65689ba37449f97dc589e1df25778",
        "type": "ACTION_SEQUENCE",
        "params": [{
            "datatype": "collection",
            "name": "eventobject"
        }, {
            "datatype": "collection",
            "name": "context"
        }],
        "contextObj": {
            "name": "segSurveyQuestion2",
            "type": "templates",
            "platform": "",
            "KUID": "a8117dcfdf714dafbc6437eb5acb6e3f"
        },
        "language": "js",
        "actions": [{
            "id": "ADD_SNIPPET__fa11fc61ab204b2cb7614a62782ee6e6",
            "type": "ADD_SNIPPET",
            "codeSnippet": "this.toggleSurveyQuestionBillPayCheckBox();",
            "parentId": null,
            "callbackType": null
        }]
    }
}