{
    "AS_Form_jc698f604b5a48a587367c1e2218dd4a": {
        "id": "AS_Form_jc698f604b5a48a587367c1e2218dd4a",
        "type": "ACTION_SEQUENCE",
        "params": [{
            "datatype": "collection",
            "name": "eventobject"
        }],
        "contextObj": {
            "name": "frmP2PAddRecipientDetails",
            "type": "forms",
            "platform": null,
            "KUID": "e7a7f51def8e4630865042fbbd1015e0"
        },
        "language": "js",
        "actions": [{
            "id": "INVOKE_FUNCTION__ide_init_ea5d1a0936874a10834d7b87b562faf8",
            "type": "INVOKE_FUNCTION",
            "sequenceKUID": "init",
            "display": "init",
            "inputparams": [],
            "callbackType": null,
            "disabled": null,
            "source": "controller"
        }]
    }
}