{
    "AS_FlexContainer_d9b6f2a37a4b45139e3c03301be56a13": {
        "id": "AS_FlexContainer_d9b6f2a37a4b45139e3c03301be56a13",
        "type": "ACTION_SEQUENCE",
        "params": [{
            "datatype": "collection",
            "name": "eventobject"
        }, {
            "datatype": "collection",
            "name": "context"
        }],
        "contextObj": {
            "name": "segUserManagementFeaturePermissionsDesktop",
            "type": "templates",
            "platform": "",
            "KUID": "e96c23d4262a4fdcad68c44d85793905"
        },
        "language": "js",
        "actions": [{
            "id": "ADD_SNIPPET_a682bcb27c9440d38977a5ecaeafc825",
            "type": "ADD_SNIPPET",
            "codeSnippet": "this.selectOrUnselectParentFeature(eventobject, context);",
            "parentId": null
        }]
    }
}