{
    "AS_FlexContainer_hf7c3cad8f3f4218a5b3cc09ba3c0b26": {
        "id": "AS_FlexContainer_hf7c3cad8f3f4218a5b3cc09ba3c0b26",
        "type": "ACTION_SEQUENCE",
        "params": [{
            "datatype": "collection",
            "name": "eventobject"
        }, {
            "datatype": "collection",
            "name": "context"
        }],
        "contextObj": {
            "name": "segUserManagementFeaturePermissionsTablet",
            "type": "templates",
            "platform": "",
            "KUID": "d5da1ba04a1c4e3696de8119289e2ba2"
        },
        "language": "js",
        "actions": [{
            "id": "ADD_SNIPPET_bf481ef895f04f578390b9e1484f3a67",
            "type": "ADD_SNIPPET",
            "codeSnippet": "this.selectOrUnselectEntireFeature(eventobject, context);",
            "parentId": null
        }]
    }
}