{
    "AS_FlexContainer_d846cf83c8a14a988f9dfb11e6ffbd77": {
        "id": "AS_FlexContainer_d846cf83c8a14a988f9dfb11e6ffbd77",
        "type": "ACTION_SEQUENCE",
        "params": [{
            "datatype": "collection",
            "name": "eventobject"
        }, {
            "datatype": "collection",
            "name": "context"
        }],
        "contextObj": {
            "name": "segFeaturePermissions",
            "type": "templates",
            "platform": "",
            "KUID": "f0b706cc9ea7461cbd75bd9ee8a67c31"
        },
        "language": "js",
        "actions": [{
            "id": "INVOKE_FUNCTION___d4aaa877c9964ade8c09f1c397ecfaf8",
            "type": "INVOKE_FUNCTION",
            "sequenceKUID": "selectOrUnselectParentFeature",
            "display": "selectOrUnselectParentFeature",
            "inputparams": [{
                "name": "eventobject",
                "value": " eventobject"
            }, {
                "name": "context",
                "value": " context"
            }],
            "parentId": null,
            "callbackType": null,
            "disabled": null,
            "source": "controller"
        }]
    }
}