{
    "AS_FlexContainer_cdc9bf121b0d44bfbdf7ae65556b8af7": {
        "id": "AS_FlexContainer_cdc9bf121b0d44bfbdf7ae65556b8af7",
        "type": "ACTION_SEQUENCE",
        "params": [{
            "datatype": "collection",
            "name": "eventobject"
        }],
        "contextObj": {
            "name": "frmNotificationsAndMessages",
            "type": "forms",
            "platform": "",
            "KUID": "a83a23bb52bc4894a44b027a89964c1b"
        },
        "language": "js",
        "actions": [{
            "id": "ADD_SNIPPET__c51ba6eb1f5b4b9a99d6c1652feb1bc9",
            "type": "ADD_SNIPPET",
            "codeSnippet": "this.SearchAnimate();",
            "parentId": null,
            "callbackType": null
        }]
    }
}