{
    "AS_Form_b7aedbe40c1c4dfead9836cbc190b0f5": {
        "id": "AS_Form_b7aedbe40c1c4dfead9836cbc190b0f5",
        "type": "ACTION_SEQUENCE",
        "params": [{
            "datatype": "collection",
            "name": "eventobject"
        }],
        "contextObj": {
            "name": "frmFastAddExternalAccount",
            "type": "forms",
            "platform": "",
            "KUID": "ibd12100ce3e4011bb182bcaa8703fa5"
        },
        "language": "js",
        "actions": []
    }
}