{
    "AS_FlexContainer_i412db0bd6874fb3ae06e24eea023c96": {
        "id": "AS_FlexContainer_i412db0bd6874fb3ae06e24eea023c96",
        "type": "ACTION_SEQUENCE",
        "params": [{
            "datatype": "collection",
            "name": "eventobject"
        }],
        "contextObj": {
            "name": "frmPayDueAmount",
            "type": "forms",
            "platform": "",
            "KUID": "ba0b4f38b88d4ad7a2c69bb7d0d38c44"
        },
        "language": "js",
        "actions": [{
            "id": "ADD_SNIPPET__h60c7db8c8df44deb5f5bd1606468e10",
            "type": "ADD_SNIPPET",
            "codeSnippet": "this.payDueAmountRadioButton(\"Other\");",
            "parentId": null,
            "callbackType": null
        }]
    }
}