{
    "AS_Form_bdef72c423424d8bb29c833e77b235f8": {
        "id": "AS_Form_bdef72c423424d8bb29c833e77b235f8",
        "type": "ACTION_SEQUENCE",
        "params": [{
            "datatype": "collection",
            "name": "eventobject"
        }, {
            "datatype": "string",
            "name": "x"
        }, {
            "datatype": "string",
            "name": "y"
        }],
        "contextObj": {
            "name": "frmConfirmEur",
            "type": "forms",
            "platform": null,
            "KUID": "bd60bcd5cc2045c0b96a76158d5137ff"
        },
        "language": "js",
        "actions": [{
            "id": "ADD_SNIPPET_ide_onTouchEnd_a3410a84004943fca0a3724b12b264e0",
            "type": "ADD_SNIPPET",
            "codeSnippet": "hidePopups();",
            "callbackType": null
        }]
    }
}