{
    "AS_FlexContainer_e990ee5c94a5411b933f5df79f1acea7": {
        "id": "AS_FlexContainer_e990ee5c94a5411b933f5df79f1acea7",
        "type": "ACTION_SEQUENCE",
        "params": [{
            "datatype": "collection",
            "name": "eventobject"
        }, {
            "datatype": "collection",
            "name": "context"
        }],
        "contextObj": {
            "name": "segSendRequestSelectedMobile",
            "type": "templates",
            "platform": null,
            "KUID": "b3b5f3b44aeb4744bed03c3d1850eb08"
        },
        "language": "js",
        "actions": [{
            "id": "ADD_SNIPPET_ide_onClick_h83c7e6473a04b0381f16260e77c3327",
            "type": "ADD_SNIPPET",
            "codeSnippet": "this.showSelectedRow();",
            "callbackType": null
        }]
    }
}