{
    "AS_Form_ae1c1dc7fb444621b93c11ea3ac3a2da": {
        "id": "AS_Form_ae1c1dc7fb444621b93c11ea3ac3a2da",
        "type": "ACTION_SEQUENCE",
        "params": [{
            "datatype": "collection",
            "name": "eventobject"
        }],
        "contextObj": {
            "type": "forms",
            "platform": null,
            "KUID": "f480bdfaa2cc43c4acab57cc42ee8737"
        },
        "language": "js",
        "actions": [{
            "id": "ADD_SNIPPET_ide_preShow_a0100027e6204c93803e2a4c1ce2f856",
            "type": "ADD_SNIPPET",
            "codeSnippet": "this.preShow();",
            "callbackType": null
        }]
    }
}