{
    "AS_FlexContainer_aa740e510d734217bba9b46a7cbbf84f": {
        "id": "AS_FlexContainer_aa740e510d734217bba9b46a7cbbf84f",
        "type": "ACTION_SEQUENCE",
        "params": [{
            "datatype": "collection",
            "name": "eventobject"
        }, {
            "datatype": "collection",
            "name": "context"
        }],
        "contextObj": {
            "name": "segFastScheduledTransfersSelectedMobile",
            "type": "templates",
            "platform": "",
            "KUID": "d6b00d7f60644e79ba8bcda68fa3d7b1"
        },
        "language": "js",
        "actions": [{
            "id": "ADD_SNIPPET__b805c9833eb240eb803ab6d743c580bc",
            "type": "ADD_SNIPPET",
            "codeSnippet": "this.showUnselectedRow();",
            "parentId": null,
            "callbackType": null
        }]
    }
}