{
    "AS_Form_ab3b1bc651e24417b3fc5bae3350381e": {
        "id": "AS_Form_ab3b1bc651e24417b3fc5bae3350381e",
        "type": "ACTION_SEQUENCE",
        "params": [{
            "datatype": "collection",
            "name": "eventobject"
        }],
        "contextObj": {
            "type": "forms",
            "platform": "",
            "KUID": "i8ed287fcbf940a08ff5de5a2699eb8c"
        },
        "language": "js",
        "actions": [{
            "id": "ADD_SNIPPET__b967207bd25c4417b2212e6b3d7b88c4",
            "type": "ADD_SNIPPET",
            "codeSnippet": "this.MultiFactorAuthenticationPostShow();",
            "parentId": null,
            "callbackType": null
        }]
    }
}