{
    "AS_FlexContainer_e2113baea2fd4827b10c1fa32067e4d5": {
        "id": "AS_FlexContainer_e2113baea2fd4827b10c1fa32067e4d5",
        "type": "ACTION_SEQUENCE",
        "params": [{
            "datatype": "collection",
            "name": "eventobject"
        }],
        "contextObj": {
            "name": "CopyfrmBillPayScheduled",
            "type": "forms",
            "platform": null,
            "KUID": "aea68f49940f4618a329754f124a955d"
        },
        "language": "js",
        "actions": [{
            "id": "ADD_SNIPPET_ide_onClick_ce4e024e258f41f280c0b1d68b42a168",
            "type": "ADD_SNIPPET",
            "codeSnippet": "this.hideCancelPopup();",
            "callbackType": null
        }]
    }
}