{
    "AS_FlexContainer_c3ba7965892440cc9d4a7f5aae0dd69a": {
        "id": "AS_FlexContainer_c3ba7965892440cc9d4a7f5aae0dd69a",
        "type": "ACTION_SEQUENCE",
        "params": [{
            "datatype": "collection",
            "name": "eventobject"
        }, {
            "datatype": "collection",
            "name": "context"
        }],
        "contextObj": {
            "name": "segAccountsRowTemplate",
            "type": "templates",
            "platform": "",
            "KUID": "be4a8effaf974437a65287c72b6945bd"
        },
        "language": "js",
        "actions": [{
            "id": "ADD_SNIPPET_be17b622f6bb40d7ab2b37e06dabb630",
            "type": "ADD_SNIPPET",
            "codeSnippet": "this.accountPressed(context);",
            "parentId": null
        }]
    }
}