{
    "AS_FlexContainer_f1159265018c413fb008a253c33c686f": {
        "id": "AS_FlexContainer_f1159265018c413fb008a253c33c686f",
        "type": "ACTION_SEQUENCE",
        "params": [{
            "datatype": "collection",
            "name": "eventobject"
        }],
        "contextObj": {
            "name": "frmPayDueAmount",
            "type": "forms",
            "platform": "",
            "KUID": "ba0b4f38b88d4ad7a2c69bb7d0d38c44"
        },
        "language": "js",
        "actions": [{
            "id": "ADD_SNIPPET__g60c61392f01435387afd5b415803e7f",
            "type": "ADD_SNIPPET",
            "codeSnippet": "this.quitPopUpNo();",
            "parentId": null,
            "callbackType": null
        }]
    }
}