{
    "AS_Form_f30eee316822440e860f62761b5ecf10": {
        "id": "AS_Form_f30eee316822440e860f62761b5ecf10",
        "type": "ACTION_SEQUENCE",
        "params": [{
            "datatype": "collection",
            "name": "eventobject"
        }],
        "contextObj": {
            "name": "frmFastAddInternationalAccountConfirm",
            "type": "forms",
            "platform": "",
            "KUID": "fb33f4f7d857400fa252d48b753642b7"
        },
        "language": "js",
        "actions": [{
            "id": "ADD_SNIPPET__b41dbe0d3eec4d4b8176be9089dc2c6f",
            "type": "ADD_SNIPPET",
            "codeSnippet": "this.postShowActions();",
            "parentId": null,
            "callbackType": null
        }]
    }
}