{
    "AS_FlexContainer_f7aafd365abc49e082dc59f85100c378": {
        "id": "AS_FlexContainer_f7aafd365abc49e082dc59f85100c378",
        "type": "ACTION_SEQUENCE",
        "params": [{
            "datatype": "collection",
            "name": "eventobject"
        }, {
            "datatype": "collection",
            "name": "context"
        }],
        "contextObj": {
            "name": "segCheckImagesMobile",
            "type": "templates",
            "platform": null,
            "KUID": "g58cf7d6254846fda5dfc0a4f76f1f43"
        },
        "language": "js",
        "actions": [{
            "id": "ADD_SNIPPET_ide_onClick_afe902d701e04caaa111620a8a563222",
            "type": "ADD_SNIPPET",
            "codeSnippet": "this.showUnselectedRow();",
            "callbackType": null
        }]
    }
}