{
    "AS_Form_daa35f7e6b924ec88c390ba1a152a96c": {
        "id": "AS_Form_daa35f7e6b924ec88c390ba1a152a96c",
        "type": "ACTION_SEQUENCE",
        "params": [{
            "datatype": "collection",
            "name": "eventobject"
        }],
        "contextObj": {
            "name": "frmAddBulkTransferFile",
            "type": "forms",
            "platform": "",
            "KUID": "ce74089d84ea4d2d9243ff2517f6c483"
        },
        "language": "js",
        "actions": [{
            "id": "ADD_SNIPPET__fefc82e981984953ac6cd3a81b3f12fe",
            "type": "ADD_SNIPPET",
            "codeSnippet": "this.init();",
            "parentId": null
        }]
    }
}