{
    "AS_FlexContainer_c9ceffbd88af4168a02d6e36c248570f": {
        "id": "AS_FlexContainer_c9ceffbd88af4168a02d6e36c248570f",
        "type": "ACTION_SEQUENCE",
        "params": [{
            "datatype": "collection",
            "name": "eventobject"
        }, {
            "datatype": "collection",
            "name": "context"
        }],
        "contextObj": {
            "name": "segSendRequestSelectedP2P",
            "type": "templates",
            "platform": null,
            "KUID": "h6beaca8cdfb49b7982b120e825214b9"
        },
        "language": "js",
        "actions": [{
            "id": "ADD_SNIPPET_ide_onClick_g972f8e11d5c41b39bf9d8a8362efd0f",
            "type": "ADD_SNIPPET",
            "codeSnippet": "this.showSelectedRow();",
            "callbackType": null
        }]
    }
}