{
    "AS_Form_ge940f461aa74ccd855f1c5006c434a7": {
        "id": "AS_Form_ge940f461aa74ccd855f1c5006c434a7",
        "type": "ACTION_SEQUENCE",
        "params": [{
            "datatype": "collection",
            "name": "eventobject"
        }],
        "contextObj": {
            "name": "frmPayaPersonAddBeneficiary",
            "type": "forms",
            "platform": "",
            "KUID": "g321b9dc4cf74890b67f81013353900b"
        },
        "language": "js",
        "actions": [{
            "id": "INVOKE_FUNCTION__e5f9fde56e3b4903a232187850613ca8",
            "type": "INVOKE_FUNCTION",
            "sequenceKUID": "preShow",
            "display": "preShow",
            "inputparams": [],
            "parentId": null,
            "callbackType": null,
            "disabled": null,
            "source": "controller"
        }]
    }
}