{
    "AS_Form_b5500af099b14cea848e50b5d3ef8f8c": {
        "id": "AS_Form_b5500af099b14cea848e50b5d3ef8f8c",
        "type": "ACTION_SEQUENCE",
        "params": [{
            "datatype": "collection",
            "name": "eventobject"
        }],
        "contextObj": {
            "name": "frmFastAddDBXAccountConfirm",
            "type": "forms",
            "platform": "",
            "KUID": "h3df95a1df1549739e46fd205f99cbe7"
        },
        "language": "js",
        "actions": [{
            "id": "ADD_SNIPPET__a62bc558edc144db94ddc063104818f6",
            "type": "ADD_SNIPPET",
            "codeSnippet": "this.postShowActions();",
            "parentId": null,
            "callbackType": null
        }]
    }
}