{
    "AS_Form_fcab8d2939f3498cb1d8761f3af1eb06": {
        "id": "AS_Form_fcab8d2939f3498cb1d8761f3af1eb06",
        "type": "ACTION_SEQUENCE",
        "params": [{
            "datatype": "collection",
            "name": "eventobject"
        }],
        "contextObj": {
            "name": "frmDomesticAddBeneficiary",
            "type": "forms",
            "platform": "",
            "KUID": "dead584a2c9b4c2aa91b8158a602d83f"
        },
        "language": "js",
        "actions": [{
            "id": "INVOKE_FUNCTION__hc1846cb20534fc883520582a8bd968e",
            "type": "INVOKE_FUNCTION",
            "sequenceKUID": "postShow",
            "display": "postShow",
            "inputparams": [],
            "parentId": null,
            "callbackType": null,
            "disabled": null,
            "source": "controller"
        }]
    }
}