{
    "AS_Form_ib66883022a840b6b92989a6a6e43fdd": {
        "id": "AS_Form_ib66883022a840b6b92989a6a6e43fdd",
        "type": "ACTION_SEQUENCE",
        "params": [{
            "datatype": "collection",
            "name": "eventobject"
        }],
        "contextObj": {
            "name": "frmUserManagementTransactionLimit",
            "type": "forms",
            "platform": "",
            "KUID": "j3fa8ce934b24ee48c5dbf4e3494a0ef"
        },
        "language": "js",
        "actions": [{
            "id": "ADD_SNIPPET_d685fdfe66534e25b52956381527ae1a",
            "type": "ADD_SNIPPET",
            "codeSnippet": "this.initActions();",
            "parentId": null
        }]
    }
}