{
    "AS_Form_ac7b65f7163a42c880db7a8666933837": {
        "id": "AS_Form_ac7b65f7163a42c880db7a8666933837",
        "type": "ACTION_SEQUENCE",
        "params": [{
            "datatype": "collection",
            "name": "eventobject"
        }],
        "contextObj": {
            "name": "frmLanding",
            "type": "forms",
            "platform": "",
            "KUID": "bfc5f5556b3248bd9c1c085be6d838e5"
        },
        "language": "js",
        "actions": [{
            "id": "ADD_SNIPPET_f739e3727e544806a988c608474da9af",
            "type": "ADD_SNIPPET",
            "codeSnippet": "alert(\"Device back clicked\");",
            "parentId": null,
            "callbackType": null
        }]
    }
}