{
    "AS_FlexContainer_e8548f1abafa4153806d165548994d3e": {
        "id": "AS_FlexContainer_e8548f1abafa4153806d165548994d3e",
        "type": "ACTION_SEQUENCE",
        "params": [{
            "datatype": "collection",
            "name": "eventobject"
        }],
        "language": "js",
        "actions": [{
            "id": "ADD_SNIPPET_ide_onClick_fd52aec563384058af07ab1d20967fb7",
            "type": "ADD_SNIPPET",
            "codeSnippet": "this.showInternationalAccount();",
            "callbackType": null
        }]
    }
}