{
    "AS_FlexContainer_e878b0bb1eb8422f8257dc2acd3a2620": {
        "id": "AS_FlexContainer_e878b0bb1eb8422f8257dc2acd3a2620",
        "type": "ACTION_SEQUENCE",
        "params": [{
            "datatype": "collection",
            "name": "eventobject"
        }, {
            "datatype": "string",
            "name": "x"
        }, {
            "datatype": "string",
            "name": "y"
        }],
        "contextObj": {
            "name": "CopyfrmFastActiveRecipient",
            "type": "forms",
            "platform": null,
            "KUID": "b0706403e9c64a0098a2192c453890a7"
        },
        "language": "js",
        "actions": [{
            "id": "ADD_SNIPPET_ide_onTouchEnd_j6d046398b884937991d15fbb68a1b06",
            "type": "ADD_SNIPPET",
            "codeSnippet": "this.view.flxContextualMenu.setVisibility(false);",
            "callbackType": null
        }]
    }
}