{
    "AS_FlexContainer_j960ad1e5302489aa68eb1b4fb943c9e": {
        "id": "AS_FlexContainer_j960ad1e5302489aa68eb1b4fb943c9e",
        "type": "ACTION_SEQUENCE",
        "params": [{
            "datatype": "collection",
            "name": "eventobject"
        }],
        "contextObj": {
            "name": "frmConfirmAccount",
            "type": "forms",
            "platform": "",
            "KUID": "fa720a3845e84444a32d1129de3a2f6b"
        },
        "language": "js",
        "actions": [{
            "id": "ADD_SNIPPET__ba06aed38abc471691914ff49aec8035",
            "type": "ADD_SNIPPET",
            "codeSnippet": "this.hideCancelPopup();",
            "parentId": null,
            "callbackType": null
        }]
    }
}