{
    "AS_Form_f790a844b860491aba0e68f097fc2ff7": {
        "id": "AS_Form_f790a844b860491aba0e68f097fc2ff7",
        "type": "ACTION_SEQUENCE",
        "params": [{
            "datatype": "collection",
            "name": "eventobject"
        }],
        "contextObj": {
            "name": "frmFastTransfers",
            "type": "forms",
            "platform": "",
            "KUID": "dafe58294c114b15bb1f0099cc24b9a8"
        },
        "language": "js",
        "actions": [{
            "id": "ADD_SNIPPET__e99ab6333c274e9bbfab9196d611d551",
            "type": "ADD_SNIPPET",
            "codeSnippet": "this.initActionsFastTransfers();",
            "parentId": null,
            "callbackType": null
        }]
    }
}