{
    "AS_FlexContainer_e4bab795cded4f20a4fddaa4f8e4ca5a": {
        "id": "AS_FlexContainer_e4bab795cded4f20a4fddaa4f8e4ca5a",
        "type": "ACTION_SEQUENCE",
        "params": [{
            "datatype": "collection",
            "name": "eventobject"
        }, {
            "datatype": "collection",
            "name": "context"
        }],
        "contextObj": {
            "name": "segBillPayManagePayeesSelectedMobile",
            "type": "templates",
            "platform": null,
            "KUID": "da5494edf09843409b7bb4694b1766b6"
        },
        "language": "js",
        "actions": [{
            "id": "ADD_SNIPPET_ide_onClick_d925eaf7ad3d4e02ab4c1007a5c4bde3",
            "type": "ADD_SNIPPET",
            "codeSnippet": "this.segmentManagePayeesRowClick();",
            "callbackType": null
        }]
    }
}