{
    "AS_FlexContainer_c1a464692efb4d3b836551e19e6aadfb": {
        "id": "AS_FlexContainer_c1a464692efb4d3b836551e19e6aadfb",
        "type": "ACTION_SEQUENCE",
        "params": [{
            "datatype": "collection",
            "name": "eventobject"
        }, {
            "datatype": "collection",
            "name": "context"
        }],
        "contextObj": {
            "name": "segBillPayAllPayeesSelected",
            "type": "templates",
            "platform": "",
            "KUID": "aa5112e31eab49b59336be8157829851"
        },
        "language": "js",
        "actions": [{
            "id": "ADD_SNIPPET__c6f0746db1774f9c9bc77ee654a343ab",
            "type": "ADD_SNIPPET",
            "codeSnippet": "//this.viewCategoryListBoxController();",
            "parentId": null,
            "callbackType": null
        }]
    }
}