{
    "AS_Form_a04c0fcf671f4d559eaa3cbb036f5f9e": {
        "id": "AS_Form_a04c0fcf671f4d559eaa3cbb036f5f9e",
        "type": "ACTION_SEQUENCE",
        "params": [{
            "datatype": "collection",
            "name": "eventobject"
        }],
        "contextObj": {
            "name": "frmACHDashboard",
            "type": "forms",
            "platform": "",
            "KUID": "c2ba18e95cc34afb9afdd6df8130ae80"
        },
        "language": "js",
        "actions": [{
            "id": "ADD_SNIPPET_e54a5dece6db43aa80afbf2e82c441ea",
            "type": "ADD_SNIPPET",
            "codeSnippet": "kony.print(\"Back Button Pressed\");",
            "parentId": null
        }]
    }
}