{
    "AS_FlexContainer_c402cfa4a34c4c56aaffa4d464d63b22": {
        "id": "AS_FlexContainer_c402cfa4a34c4c56aaffa4d464d63b22",
        "type": "ACTION_SEQUENCE",
        "params": [{
            "datatype": "collection",
            "name": "eventobject"
        }, {
            "datatype": "collection",
            "name": "context"
        }],
        "contextObj": {
            "name": "segScheduledTransactionsSelected",
            "type": "templates",
            "platform": null,
            "KUID": "c21f11e1206d4b2ca80fc588af6576b6"
        },
        "language": "js",
        "actions": [{
            "id": "ADD_SNIPPET_ide_onClick_a99d5f960ca14bd090bad54a17e2ba11",
            "type": "ADD_SNIPPET",
            "codeSnippet": "this.showSelectedRow();",
            "callbackType": null
        }]
    }
}