{
    "AS_Form_eb5a600ba5c64dffab298e339e2a9960": {
        "id": "AS_Form_eb5a600ba5c64dffab298e339e2a9960",
        "type": "ACTION_SEQUENCE",
        "params": [{
            "datatype": "collection",
            "name": "eventobject"
        }],
        "contextObj": {
            "name": "frmFastAddExternalAccount",
            "type": "forms",
            "platform": "",
            "KUID": "ibd12100ce3e4011bb182bcaa8703fa5"
        },
        "language": "js",
        "actions": [{
            "id": "ADD_SNIPPET__c7734b47366d4907868682e44c081127",
            "type": "ADD_SNIPPET",
            "codeSnippet": "this.postShowAddExternalAccount();",
            "parentId": null,
            "callbackType": null
        }]
    }
}