{
    "AS_FlexContainer_f67a44d570bf4722b5071962ff199656": {
        "id": "AS_FlexContainer_f67a44d570bf4722b5071962ff199656",
        "type": "ACTION_SEQUENCE",
        "params": [{
            "datatype": "collection",
            "name": "eventobject"
        }],
        "contextObj": {
            "name": "frmTransfers",
            "type": "forms",
            "platform": "",
            "KUID": "e9f47be88ab64765a96b1fae7d2a7720"
        },
        "language": "js",
        "actions": [{
            "id": "ADD_SNIPPET__h7f459e34cae49249bd1a49ced2c62a7",
            "type": "ADD_SNIPPET",
            "codeSnippet": "//this.addExternalAccount();\nthis.presenter.showDomesticAccounts();",
            "parentId": null,
            "callbackType": null
        }]
    }
}