{
    "AS_FlexContainer_icb1499749794882a4843f7ce8ca5f6f": {
        "id": "AS_FlexContainer_icb1499749794882a4843f7ce8ca5f6f",
        "type": "ACTION_SEQUENCE",
        "params": [{
            "datatype": "collection",
            "name": "eventobject"
        }],
        "contextObj": {
            "name": "frmAddExternalAccountEur",
            "type": "forms",
            "platform": null,
            "KUID": "b4d3cf5fda1141e78858debbef0eb064"
        },
        "language": "js",
        "actions": [{
            "id": "ADD_SNIPPET_ide_onClick_fe31f987b04846efa22dbb987d74928b",
            "type": "ADD_SNIPPET",
            "codeSnippet": "//this.closeHamburgerMenu();",
            "callbackType": null
        }]
    }
}