{
    "AS_Form_dc3024b457b9461e8708c8800f035d4b": {
        "id": "AS_Form_dc3024b457b9461e8708c8800f035d4b",
        "type": "ACTION_SEQUENCE",
        "params": [{
            "datatype": "collection",
            "name": "eventobject"
        }],
        "contextObj": {
            "name": "frmAddInternalAccountEur",
            "type": "forms",
            "platform": null,
            "KUID": "f6d47ee3559a49b9a84a9fcd7d6fce64"
        },
        "language": "js",
        "actions": [{
            "id": "ADD_SNIPPET_ide_preShow_d6d8640e5d304932a9422a82b873cafd",
            "type": "ADD_SNIPPET",
            "codeSnippet": "this.preshowFrmAddAccount();",
            "callbackType": null
        }]
    }
}