{
    "AS_Form_c19eed724b57466ea509c5803cc6ca2d": {
        "id": "AS_Form_c19eed724b57466ea509c5803cc6ca2d",
        "type": "ACTION_SEQUENCE",
        "params": [{
            "datatype": "collection",
            "name": "eventobject"
        }],
        "contextObj": {
            "name": "frmTransfersGateway",
            "type": "forms",
            "platform": null,
            "KUID": "f52cee97e2344f239205585b7ea81b33"
        },
        "language": "js",
        "actions": [{
            "id": "ADD_SNIPPET_ide_onDeviceBack_fca14de39da045a19d8a6c76196c2e3a",
            "type": "ADD_SNIPPET",
            "codeSnippet": "//Need to Consolidate\nkony.print(\"Back button pressed\");",
            "callbackType": null
        }]
    }
}