{
    "AS_FlexContainer_h157340439b843c9a13cf324da991d5e": {
        "id": "AS_FlexContainer_h157340439b843c9a13cf324da991d5e",
        "type": "ACTION_SEQUENCE",
        "params": [{
            "datatype": "collection",
            "name": "eventobject"
        }],
        "contextObj": {
            "name": "frmBillPay",
            "type": "forms",
            "platform": "",
            "KUID": "h754f638fe6d4c56aac376a2f3adf18b"
        },
        "language": "js",
        "actions": [{
            "id": "ADD_SNIPPET__jb9737f7fe2c4b8eb3f93e185c61bde7",
            "type": "ADD_SNIPPET",
            "codeSnippet": "this.presenter.showPayABill([],'quickAction');\n",
            "parentId": null,
            "callbackType": null
        }]
    }
}