{
    "AS_Form_c1a50c3f78094d83905d740169e0e2d3": {
        "id": "AS_Form_c1a50c3f78094d83905d740169e0e2d3",
        "type": "ACTION_SEQUENCE",
        "params": [{
            "datatype": "collection",
            "name": "eventobject"
        }],
        "contextObj": {
            "name": "frmCustomerFeedbackSurvey",
            "type": "forms",
            "platform": "",
            "KUID": "ad9d39604a4348e1b3724c4bc446e1b4"
        },
        "language": "js",
        "actions": [{
            "id": "ADD_SNIPPET__c0e7d0881cde49dba0de27f64c3ef3e5",
            "type": "ADD_SNIPPET",
            "codeSnippet": "this.preShowCustomerFeedbackSurvey();",
            "parentId": null,
            "callbackType": null
        }]
    }
}