{
    "AS_FlexContainer_db7f095a1b8b4388b269fc7f1a920893": {
        "id": "AS_FlexContainer_db7f095a1b8b4388b269fc7f1a920893",
        "type": "ACTION_SEQUENCE",
        "params": [{
            "datatype": "collection",
            "name": "eventobject"
        }],
        "contextObj": {
            "name": "CopyfrmFastTransfersActivites",
            "type": "forms",
            "platform": null,
            "KUID": "cdf13e1b9b934ebf9498f344e35d2817"
        },
        "language": "js",
        "actions": [{
            "id": "ADD_SNIPPET_ide_onClick_jdd3d76187584f7590428e62ec1d7961",
            "type": "ADD_SNIPPET",
            "codeSnippet": "this.showUserActions();",
            "callbackType": null
        }]
    }
}