{
    "AS_Form_d8bbcc2f39c44ff2a6381d4b51fc34da": {
        "id": "AS_Form_d8bbcc2f39c44ff2a6381d4b51fc34da",
        "type": "ACTION_SEQUENCE",
        "params": [{
            "datatype": "collection",
            "name": "eventobject"
        }],
        "contextObj": {
            "name": "frmVerifyAccountEur",
            "type": "forms",
            "platform": null,
            "KUID": "e4fe1a12814546a2a3fe8fae1a02d68d"
        },
        "language": "js",
        "actions": [{
            "id": "ADD_SNIPPET_ide_postShow_abd933eaa04c482ca8dd14ca64ecac21",
            "type": "ADD_SNIPPET",
            "codeSnippet": "this.postShowVerifyAccount();",
            "callbackType": null
        }]
    }
}