{
    "AS_FlexContainer_a5b5201925f447aeb0c76287b44a38d3": {
        "id": "AS_FlexContainer_a5b5201925f447aeb0c76287b44a38d3",
        "type": "ACTION_SEQUENCE",
        "params": [{
            "datatype": "collection",
            "name": "eventobject"
        }, {
            "datatype": "string",
            "name": "x"
        }, {
            "datatype": "string",
            "name": "y"
        }, {
            "datatype": "collection",
            "name": "context"
        }],
        "contextObj": {
            "name": "segUserManagementFeaturePermissionsDesktop",
            "type": "templates",
            "platform": "",
            "KUID": "e96c23d4262a4fdcad68c44d85793905"
        },
        "language": "js",
        "actions": [{
            "id": "ADD_SNIPPET_g9054821177f4dc2bde559604f54bd2d",
            "type": "ADD_SNIPPET",
            "codeSnippet": "this.onInfoTouchStart(eventobject, context);",
            "parentId": null
        }]
    }
}