{
    "AS_Form_b61534baeb4a46729f7a7c0bb24ffab8": {
        "id": "AS_Form_b61534baeb4a46729f7a7c0bb24ffab8",
        "type": "ACTION_SEQUENCE",
        "params": [{
            "datatype": "collection",
            "name": "eventobject"
        }],
        "contextObj": {
            "name": "frmTransfers",
            "type": "forms",
            "platform": "",
            "KUID": "e9f47be88ab64765a96b1fae7d2a7720"
        },
        "language": "js",
        "actions": [{
            "id": "ADD_SNIPPET__j43f7b62e25d474f9c7d322f5f9d51ad",
            "type": "ADD_SNIPPET",
            "codeSnippet": "this.initTabsActions();",
            "parentId": null,
            "callbackType": null
        }]
    }
}