{
    "AS_FlexContainer_je53ce3ed1974c15b2e9cfbf93bd28bc": {
        "id": "AS_FlexContainer_je53ce3ed1974c15b2e9cfbf93bd28bc",
        "type": "ACTION_SEQUENCE",
        "params": [{
            "datatype": "collection",
            "name": "eventobject"
        }],
        "contextObj": {
            "name": "frmAcknowledgementEur",
            "type": "forms",
            "platform": null,
            "KUID": "e2cae5afb56745e6a52230a4491e7b40"
        },
        "language": "js",
        "actions": [{
            "id": "ADD_SNIPPET_ide_onClick_b6ae7af1e86f4222aaa558fac42c6a32",
            "type": "ADD_SNIPPET",
            "codeSnippet": "this.showUserActions();",
            "callbackType": null
        }]
    }
}