{
    "AS_Form_e80264ac20c94960992eb1f5bb003959": {
        "id": "AS_Form_e80264ac20c94960992eb1f5bb003959",
        "type": "ACTION_SEQUENCE",
        "params": [{
            "datatype": "collection",
            "name": "eventobject"
        }],
        "contextObj": {
            "name": "frmP2PNoRecipients",
            "type": "forms",
            "platform": null,
            "KUID": "fc7b17e2a9a844418af128b01c004fcf"
        },
        "language": "js",
        "actions": [{
            "id": "INVOKE_FUNCTION__ide_init_c2b844554f034aa2959a33c3615dc8fd",
            "type": "INVOKE_FUNCTION",
            "sequenceKUID": "init",
            "display": "init",
            "inputparams": [],
            "callbackType": null,
            "disabled": null,
            "source": "controller"
        }]
    }
}