{
    "AS_Form_cc3cab8bb0d5429ea242be19075b396c": {
        "id": "AS_Form_cc3cab8bb0d5429ea242be19075b396c",
        "type": "ACTION_SEQUENCE",
        "params": [{
            "datatype": "collection",
            "name": "eventobject"
        }],
        "contextObj": {
            "name": "frmPreTermsandCondition",
            "type": "forms",
            "platform": "",
            "KUID": "a4a21dc3e5404996a8400fd8c7924aad"
        },
        "language": "js",
        "actions": [{
            "id": "ADD_SNIPPET__a5d32265b8ab4dd8bfda752b484b41df",
            "type": "ADD_SNIPPET",
            "codeSnippet": "this.preShow();",
            "parentId": null,
            "callbackType": null
        }]
    }
}