{
    "AS_Form_jc4a91130ad94da2bd50d8f808e85dfc": {
        "id": "AS_Form_jc4a91130ad94da2bd50d8f808e85dfc",
        "type": "ACTION_SEQUENCE",
        "params": [{
            "datatype": "collection",
            "name": "eventobject"
        }],
        "contextObj": {
            "name": "frmFastAddDBXAccount",
            "type": "forms",
            "platform": "",
            "KUID": "i0280e7888ca4720b70043cde654be9b"
        },
        "language": "js",
        "actions": [{
            "id": "ADD_SNIPPET__jd3ccc23e0cb429bb8a42331cbf0ba49",
            "type": "ADD_SNIPPET",
            "codeSnippet": "this.preShowAddDBXAccount();",
            "parentId": null,
            "callbackType": null
        }]
    }
}