{
    "AS_FlexContainer_b24cad1262bd4a188d19a5ac090e2cd7": {
        "id": "AS_FlexContainer_b24cad1262bd4a188d19a5ac090e2cd7",
        "type": "ACTION_SEQUENCE",
        "params": [{
            "datatype": "collection",
            "name": "eventobject"
        }],
        "contextObj": {
            "name": "frmAddInternalAccount",
            "type": "forms",
            "platform": "",
            "KUID": "i0c7320b49fe40e1a3a168c136395e15"
        },
        "language": "js",
        "actions": [{
            "id": "ADD_SNIPPET__cdb949145b9d422aa674bf651124e978",
            "type": "ADD_SNIPPET",
            "codeSnippet": "//this.addExternalAccount();\nthis.presenter.showDomesticAccounts();",
            "parentId": null,
            "callbackType": null
        }]
    }
}