{
    "AS_FlexContainer_c0611f33995f4a79a9f47554d0ed2e90": {
        "id": "AS_FlexContainer_c0611f33995f4a79a9f47554d0ed2e90",
        "type": "ACTION_SEQUENCE",
        "params": [{
            "datatype": "collection",
            "name": "eventobject"
        }],
        "contextObj": {
            "name": "frmAddExternalAccountEur",
            "type": "forms",
            "platform": null,
            "KUID": "b4d3cf5fda1141e78858debbef0eb064"
        },
        "language": "js",
        "actions": [{
            "id": "ADD_SNIPPET_ide_onClick_idd7e3138ad14b0cb9ff55d00899d5e8",
            "type": "ADD_SNIPPET",
            "codeSnippet": "this.checkboxActionInternational();",
            "callbackType": null
        }]
    }
}