{
    "AS_FlexContainer_ba4c3932794949cba934da78cb66eb3c": {
        "id": "AS_FlexContainer_ba4c3932794949cba934da78cb66eb3c",
        "type": "ACTION_SEQUENCE",
        "params": [{
            "datatype": "collection",
            "name": "eventobject"
        }],
        "contextObj": {
            "name": "frmTransfers",
            "type": "forms",
            "platform": "",
            "KUID": "e9f47be88ab64765a96b1fae7d2a7720"
        },
        "language": "js",
        "actions": [{
            "id": "ADD_SNIPPET__c56113560ed242098dbbed3893ff0de5",
            "type": "ADD_SNIPPET",
            "codeSnippet": "//this.addInternationalAccount();\nthis.presenter.showInternationalAccounts();",
            "parentId": null,
            "callbackType": null
        }]
    }
}