{
    "AS_FlexContainer_dac00cab1d664cc5af0cf7312eb1ab36": {
        "id": "AS_FlexContainer_dac00cab1d664cc5af0cf7312eb1ab36",
        "type": "ACTION_SEQUENCE",
        "params": [{
            "datatype": "collection",
            "name": "eventobject"
        }],
        "contextObj": {
            "name": "frmAddExternalAccountEur",
            "type": "forms",
            "platform": null,
            "KUID": "b4d3cf5fda1141e78858debbef0eb064"
        },
        "language": "js",
        "actions": [{
            "id": "ADD_SNIPPET_ide_onClick_e33fd32b6c4d468d9d096c2bca91483c",
            "type": "ADD_SNIPPET",
            "codeSnippet": "this.showUserActions();",
            "callbackType": null
        }]
    }
}