{
    "AS_Form_d75d9d816e6f4e14b51e23c02125d26d": {
        "id": "AS_Form_d75d9d816e6f4e14b51e23c02125d26d",
        "type": "ACTION_SEQUENCE",
        "params": [{
            "datatype": "collection",
            "name": "eventobject"
        }, {
            "datatype": "number",
            "name": "breakpoint"
        }],
        "contextObj": {
            "name": "frmAccountsLanding",
            "type": "forms",
            "platform": "",
            "KUID": "c0567b2e5ece4b0cbbe1b35e3c8f3103"
        },
        "language": "js",
        "actions": [{
            "id": "ADD_SNIPPET__b06d8a529d25477aba3d6ceeee8abe72",
            "type": "ADD_SNIPPET",
            "codeSnippet": "this.onBreakpointChange(breakpoint);",
            "parentId": null,
            "callbackType": null
        }]
    }
}