{
    "AS_Form_j8f3e23d143d43cd9dc6bb231366f5d1": {
        "id": "AS_Form_j8f3e23d143d43cd9dc6bb231366f5d1",
        "type": "ACTION_SEQUENCE",
        "params": [{
            "datatype": "collection",
            "name": "eventobject"
        }, {
            "datatype": "string",
            "name": "x"
        }, {
            "datatype": "string",
            "name": "y"
        }],
        "contextObj": {
            "name": "frmAddInternalAccount",
            "type": "forms",
            "platform": "",
            "KUID": "i0c7320b49fe40e1a3a168c136395e15"
        },
        "language": "js",
        "actions": [{
            "id": "ADD_SNIPPET__c1f904fbc1de44aea52200bf8b47559b",
            "type": "ADD_SNIPPET",
            "codeSnippet": "hidePopups();",
            "parentId": null,
            "callbackType": null
        }]
    }
}