{
    "AS_Form_j19588d955894f58b0ba41c576755f49": {
        "id": "AS_Form_j19588d955894f58b0ba41c576755f49",
        "type": "ACTION_SEQUENCE",
        "params": [{
            "datatype": "collection",
            "name": "eventobject"
        }, {
            "datatype": "string",
            "name": "x"
        }, {
            "datatype": "string",
            "name": "y"
        }],
        "contextObj": {
            "name": "frmAccountsDetails",
            "type": "forms",
            "platform": "",
            "KUID": "f22d64f7cb454ad980b530de61c4240a"
        },
        "language": "js",
        "actions": [{
            "id": "ADD_SNIPPET__bd5ae74e7330405281d64649937a04b9",
            "type": "ADD_SNIPPET",
            "codeSnippet": "hidePopups();",
            "parentId": null,
            "callbackType": null
        }]
    }
}