{
    "AS_Form_a12755caa0b14c6fa62975fa564fe6c4": {
        "id": "AS_Form_a12755caa0b14c6fa62975fa564fe6c4",
        "type": "ACTION_SEQUENCE",
        "params": [{
            "datatype": "collection",
            "name": "eventobject"
        }],
        "contextObj": {
            "name": "frmAcknowledgementEur",
            "type": "forms",
            "platform": null,
            "KUID": "a6931f4472b444e19ecff6cf00252086"
        },
        "language": "js",
        "actions": [{
            "id": "ADD_SNIPPET_ide_postShow_hc8d5d89141b477098d3fbc52d2f02cf",
            "type": "ADD_SNIPPET",
            "codeSnippet": "this.postShowFrmAcknowledgement();",
            "callbackType": null
        }]
    }
}