{
    "AS_Form_c48d38044195415aa3f7a1d21572cc9b": {
        "id": "AS_Form_c48d38044195415aa3f7a1d21572cc9b",
        "type": "ACTION_SEQUENCE",
        "params": [{
            "datatype": "collection",
            "name": "eventobject"
        }],
        "contextObj": {
            "name": "frmFastAddDBXAccount",
            "type": "forms",
            "platform": "",
            "KUID": "i0280e7888ca4720b70043cde654be9b"
        },
        "language": "js",
        "actions": [{
            "id": "ADD_SNIPPET__c09d3fc900b1409fb17d0e7e210967fe",
            "type": "ADD_SNIPPET",
            "codeSnippet": "this.postShowAddDBXAccount();",
            "parentId": null,
            "callbackType": null
        }]
    }
}