{
    "AS_Form_fabc7c3173fc4362ac1f336443bcaffc": {
        "id": "AS_Form_fabc7c3173fc4362ac1f336443bcaffc",
        "type": "ACTION_SEQUENCE",
        "params": [{
            "datatype": "collection",
            "name": "eventobject"
        }],
        "contextObj": {
            "name": "CopyfrmBBMyApprovals",
            "type": "forms",
            "platform": null,
            "KUID": "fc06a723c5364d18bf3a40538ed736d5"
        },
        "language": "js",
        "actions": [{
            "id": "ADD_SNIPPET_ide_onDeviceBack_a6e82d5d738345ce9bebbd0500acf89d",
            "type": "ADD_SNIPPET",
            "codeSnippet": "kony.print(\"Back Button Pressed\");"
        }]
    }
}