{
    "AS_Image_f16e764f9c3c48b18366b581afb605c7": {
        "id": "AS_Image_f16e764f9c3c48b18366b581afb605c7",
        "type": "ACTION_SEQUENCE",
        "params": [{
            "datatype": "collection",
            "name": "eventobject"
        }, {
            "datatype": "string",
            "name": "x"
        }, {
            "datatype": "string",
            "name": "y"
        }],
        "contextObj": {
            "name": "frmProfileManagement",
            "type": "forms",
            "platform": "",
            "KUID": "e136103788ec406cab0b1d0f2087f12b"
        },
        "language": "js",
        "actions": [{
            "id": "ADD_SNIPPET__a57eb581279645a6a33918b295eb38a5",
            "type": "ADD_SNIPPET",
            "codeSnippet": "this.showOTP();",
            "parentId": null,
            "callbackType": null
        }]
    }
}