{
    "AS_Image_ha4bb08d2e2444bc80e77bcb53fdf941": {
        "id": "AS_Image_ha4bb08d2e2444bc80e77bcb53fdf941",
        "type": "ACTION_SEQUENCE",
        "params": [{
            "datatype": "collection",
            "name": "eventobject"
        }, {
            "datatype": "string",
            "name": "x"
        }, {
            "datatype": "string",
            "name": "y"
        }],
        "contextObj": {
            "name": "frmEnrollNow",
            "type": "forms",
            "platform": "",
            "KUID": "bd78051f2239477699cd5b3d036cf72a"
        },
        "language": "js",
        "actions": [{
            "id": "ADD_SNIPPET__b0d8b131f6f847ee9654c766f42d1031",
            "type": "ADD_SNIPPET",
            "codeSnippet": "this.show();",
            "parentId": null,
            "callbackType": null
        }]
    }
}