{
    "AS_Image_ed59f85120d14ebab5264d5b6b469b29": {
        "id": "AS_Image_ed59f85120d14ebab5264d5b6b469b29",
        "type": "ACTION_SEQUENCE",
        "params": [{
            "datatype": "collection",
            "name": "eventobject"
        }, {
            "datatype": "string",
            "name": "x"
        }, {
            "datatype": "string",
            "name": "y"
        }],
        "contextObj": {
            "name": "frmLogin",
            "type": "forms",
            "platform": "",
            "KUID": "j0329c6c64654440bf366abc8de81b74"
        },
        "language": "js",
        "actions": [{
            "id": "ADD_SNIPPET__ec926b76d1354663a019dd2d06361983",
            "type": "ADD_SNIPPET",
            "codeSnippet": "this.showLanguageOptions();",
            "parentId": null,
            "callbackType": null
        }]
    }
}