{
    "AS_Image_e1af69b13e3b40c39a9cad6005ac3d8d": {
        "id": "AS_Image_e1af69b13e3b40c39a9cad6005ac3d8d",
        "type": "ACTION_SEQUENCE",
        "params": [{
            "datatype": "collection",
            "name": "eventobject"
        }, {
            "datatype": "string",
            "name": "x"
        }, {
            "datatype": "string",
            "name": "y"
        }],
        "contextObj": {
            "name": "frmLogin",
            "type": "forms",
            "platform": "",
            "KUID": "j0329c6c64654440bf366abc8de81b74"
        },
        "language": "js",
        "actions": [{
            "id": "ADD_SNIPPET__g8c3cba3f54b49b7a19bca4308ffe9a4",
            "type": "ADD_SNIPPET",
            "codeSnippet": "this.showSAC();",
            "parentId": null,
            "callbackType": null
        }]
    }
}