{
    "AS_Image_h7f5624c53a64238a536aff53a4f5b58": {
        "id": "AS_Image_h7f5624c53a64238a536aff53a4f5b58",
        "type": "ACTION_SEQUENCE",
        "params": [{
            "datatype": "collection",
            "name": "eventobject"
        }, {
            "datatype": "string",
            "name": "x"
        }, {
            "datatype": "string",
            "name": "y"
        }],
        "contextObj": {
            "name": "frmLogin",
            "type": "forms",
            "platform": "",
            "KUID": "j0329c6c64654440bf366abc8de81b74"
        },
        "language": "js",
        "actions": [{
            "id": "ADD_SNIPPET__b6d6b5174417499cadf417e39fdd9f0b",
            "type": "ADD_SNIPPET",
            "codeSnippet": "this.showCVV();",
            "parentId": null,
            "callbackType": null
        }]
    }
}