{
    "AS_Label_i5715c4ce4674d34b549d7d56cb7df1f": {
        "id": "AS_Label_i5715c4ce4674d34b549d7d56cb7df1f",
        "type": "ACTION_SEQUENCE",
        "params": [{
            "datatype": "collection",
            "name": "eventobject"
        }, {
            "datatype": "string",
            "name": "x"
        }, {
            "datatype": "string",
            "name": "y"
        }, {
            "datatype": "collection",
            "name": "context"
        }],
        "contextObj": {
            "name": "segAccountsConsolidatedSectionHeader",
            "type": "templates",
            "platform": null,
            "KUID": "dd754b57d2484770a04392e5c61e8c80"
        },
        "language": "js",
        "actions": [{
            "id": "ADD_SNIPPET_a0a1831e742d4ea4aa1fe805ca5b8040",
            "type": "ADD_SNIPPET",
            "codeSnippet": "this.toggleCheckBox(eventobject,context);",
            "parentId": null
        }]
    }
}