{
    "AS_ListBox_b35dd736922f47ae9bcbc32535bcbc09": {
        "id": "AS_ListBox_b35dd736922f47ae9bcbc32535bcbc09",
        "type": "ACTION_SEQUENCE",
        "params": [{
            "datatype": "collection",
            "name": "eventobject"
        }],
        "contextObj": {
            "name": "frmTransfersEur",
            "type": "forms",
            "platform": null,
            "KUID": "ce91c8ed58094b46825ffa2ecbf979d7"
        },
        "language": "js",
        "actions": [{
            "id": "ADD_SNIPPET_ide_onSelection_f8b378be3f99475f8919f476f323abd0",
            "type": "ADD_SNIPPET",
            "codeSnippet": "this.getForHowLongandFormLayout();",
            "callbackType": null
        }]
    }
}