{
    "AS_ListBox_bcee014d1916494bb40f0211468bef85": {
        "id": "AS_ListBox_bcee014d1916494bb40f0211468bef85",
        "type": "ACTION_SEQUENCE",
        "params": [{
            "datatype": "collection",
            "name": "eventobject"
        }],
        "contextObj": {
            "name": "frmProfileManagement",
            "type": "forms",
            "platform": "",
            "KUID": "e136103788ec406cab0b1d0f2087f12b"
        },
        "language": "js",
        "actions": [{
            "id": "ADD_SNIPPET__c2d2e934a27648f3a6236c26c224bfd3",
            "type": "ADD_SNIPPET",
            "codeSnippet": "this.setQuestionForListBox1(); ",
            "parentId": null,
            "callbackType": null
        }]
    }
}