{
    "AS_Label_d587dfe417fb4b11b70a9dfe6faa82a9": {
        "id": "AS_Label_d587dfe417fb4b11b70a9dfe6faa82a9",
        "type": "ACTION_SEQUENCE",
        "params": [{
            "datatype": "collection",
            "name": "eventobject"
        }, {
            "datatype": "string",
            "name": "x"
        }, {
            "datatype": "string",
            "name": "y"
        }],
        "contextObj": {
            "name": "frmLogin",
            "type": "forms",
            "platform": "",
            "KUID": "j0329c6c64654440bf366abc8de81b74"
        },
        "language": "js",
        "actions": [{
            "id": "ADD_SNIPPET__ad0e514376594340a1efed8e71824533",
            "type": "ADD_SNIPPET",
            "codeSnippet": "this.verifyUser();",
            "parentId": null,
            "callbackType": null
        }]
    }
}