{
    "AS_Label_f55b5810bd8f48249f94aa731663c743": {
        "id": "AS_Label_f55b5810bd8f48249f94aa731663c743",
        "type": "ACTION_SEQUENCE",
        "params": [{
            "datatype": "collection",
            "name": "eventobject"
        }, {
            "datatype": "string",
            "name": "x"
        }, {
            "datatype": "string",
            "name": "y"
        }],
        "contextObj": {
            "name": "frmLogin",
            "type": "forms",
            "platform": "",
            "KUID": "j0329c6c64654440bf366abc8de81b74"
        },
        "language": "js",
        "actions": [{
            "id": "ADD_SNIPPET__c635adaf36bf4f05a20cd3970024c79e",
            "type": "ADD_SNIPPET",
            "codeSnippet": "this.verifyUser();",
            "parentId": null,
            "callbackType": null
        }]
    }
}