{
    "AS_Segment_i76f4b293b0a49e9adc3d42e03760f00": {
        "id": "AS_Segment_i76f4b293b0a49e9adc3d42e03760f00",
        "type": "ACTION_SEQUENCE",
        "params": [{
            "datatype": "collection",
            "name": "eventobject"
        }, {
            "datatype": "number",
            "name": "sectionNumber"
        }, {
            "datatype": "number",
            "name": "rowNumber"
        }],
        "contextObj": {
            "name": "frmLogin",
            "type": "forms",
            "platform": "",
            "KUID": "j0329c6c64654440bf366abc8de81b74"
        },
        "language": "js",
        "actions": [{
            "id": "ADD_SNIPPET__b2175eb0269e4d298a9b9de1bc5800a0",
            "type": "ADD_SNIPPET",
            "codeSnippet": "this.selectUserName();",
            "parentId": null,
            "callbackType": null
        }]
    }
}