{
    "AS_Segment_eeea8778ce274ccb8290946c18c100b9": {
        "id": "AS_Segment_eeea8778ce274ccb8290946c18c100b9",
        "type": "ACTION_SEQUENCE",
        "params": [{
            "datatype": "collection",
            "name": "eventobject"
        }, {
            "datatype": "number",
            "name": "sectionNumber"
        }, {
            "datatype": "number",
            "name": "rowNumber"
        }],
        "contextObj": {
            "name": "frmLogin",
            "type": "forms",
            "platform": "",
            "KUID": "j0329c6c64654440bf366abc8de81b74"
        },
        "language": "js",
        "actions": [{
            "id": "ADD_SNIPPET__eb768ec44ff746879278c584d42ead2e",
            "type": "ADD_SNIPPET",
            "codeSnippet": "this.selectUserName();\n",
            "parentId": null,
            "callbackType": null
        }]
    }
}