{
    "AS_Segment_d4fac4ce9068476bab74c73106f9109a": {
        "id": "AS_Segment_d4fac4ce9068476bab74c73106f9109a",
        "type": "ACTION_SEQUENCE",
        "params": [{
            "datatype": "collection",
            "name": "eventobject"
        }, {
            "datatype": "number",
            "name": "sectionNumber"
        }, {
            "datatype": "number",
            "name": "rowNumber"
        }],
        "contextObj": {
            "name": "frmNotificationsAndMessages",
            "type": "forms",
            "platform": "",
            "KUID": "a83a23bb52bc4894a44b027a89964c1b"
        },
        "language": "js",
        "actions": [{
            "id": "ADD_SNIPPET__c77bf648da584905b7226c9c48ee88be",
            "type": "ADD_SNIPPET",
            "codeSnippet": "this.onRowSelection();",
            "parentId": null,
            "callbackType": null
        }]
    }
}