{
    "AS_TextField_d22996d4234440998ff818c083c4d073": {
        "id": "AS_TextField_d22996d4234440998ff818c083c4d073",
        "type": "ACTION_SEQUENCE",
        "params": [{
            "datatype": "collection",
            "name": "eventobject"
        }],
        "contextObj": {
            "name": "frmProfileManagement",
            "type": "forms",
            "platform": "",
            "KUID": "e136103788ec406cab0b1d0f2087f12b"
        },
        "language": "js",
        "actions": [{
            "id": "ADD_SNIPPET__eabb0e35e7a34962b646790cd4e5050d",
            "type": "ADD_SNIPPET",
            "codeSnippet": "this.ValidatePassword();",
            "parentId": null,
            "callbackType": null
        }]
    }
}