{
    "AS_TextField_h23f45a311d14032ad8a32272de7c77e": {
        "id": "AS_TextField_h23f45a311d14032ad8a32272de7c77e",
        "type": "ACTION_SEQUENCE",
        "params": [{
            "datatype": "collection",
            "name": "eventobject"
        }, {
            "datatype": "string",
            "name": "changedtext"
        }],
        "contextObj": {
            "name": "frmProfileManagement",
            "type": "forms",
            "platform": "",
            "KUID": "e136103788ec406cab0b1d0f2087f12b"
        },
        "language": "js",
        "actions": [{
            "id": "ADD_SNIPPET__ff93ecdf5f7a4bf19ef61dda17a16068",
            "type": "ADD_SNIPPET",
            "codeSnippet": "this.checkOTP();",
            "parentId": null,
            "callbackType": null
        }]
    }
}