{
    "AS_TextField_ccf2c426632e4aa4914da08fca82ead0": {
        "id": "AS_TextField_ccf2c426632e4aa4914da08fca82ead0",
        "type": "ACTION_SEQUENCE",
        "params": [{
            "datatype": "collection",
            "name": "eventobject"
        }],
        "contextObj": {
            "name": "frmAddExternalAccountEur",
            "type": "forms",
            "platform": null,
            "KUID": "b4d3cf5fda1141e78858debbef0eb064"
        },
        "language": "js",
        "actions": [{
            "id": "ADD_SNIPPET_ide_onKeyUp_f9407f58a1b24b37b76f776ae7b7cfbb",
            "type": "ADD_SNIPPET",
            "codeSnippet": "this.validateDomesticFields();",
            "callbackType": null
        }]
    }
}