{
    "AS_TextField_j7169f29e6854a96ac88e533d7f1ebe3": {
        "id": "AS_TextField_j7169f29e6854a96ac88e533d7f1ebe3",
        "type": "ACTION_SEQUENCE",
        "params": [{
            "datatype": "collection",
            "name": "eventobject"
        }],
        "contextObj": {
            "name": "frmProfileManagement",
            "type": "forms",
            "platform": "",
            "KUID": "e136103788ec406cab0b1d0f2087f12b"
        },
        "language": "js",
        "actions": [{
            "id": "ADD_SNIPPET__hb338b2d2dfc45f08cf06f0c19309c04",
            "type": "ADD_SNIPPET",
            "codeSnippet": "this.ValidatePassword();",
            "parentId": null,
            "callbackType": null
        }]
    }
}