{
    "AS_TextField_h3ed55645fe94eda8d0523f43a7a00ac": {
        "id": "AS_TextField_h3ed55645fe94eda8d0523f43a7a00ac",
        "type": "ACTION_SEQUENCE",
        "params": [{
            "datatype": "collection",
            "name": "eventobject"
        }, {
            "datatype": "collection",
            "name": "context"
        }],
        "contextObj": {
            "name": "segAdvanceTransLimitRowTab",
            "type": "templates",
            "platform": null,
            "KUID": "c67f22ad8de14a5fbc647fd7989208ff"
        },
        "language": "js",
        "actions": [{
            "id": "ADD_SNIPPET_ide_onKeyUp_dd3297b672cd4019b3790d7cadb86366",
            "type": "ADD_SNIPPET",
            "codeSnippet": "var self = this;\nreturn self.validateTransactionLimits.call(this, eventobject, context);"
        }]
    }
}