{
    "AS_TextField_cc6837cd982746debee5dab3a241eff9": {
        "id": "AS_TextField_cc6837cd982746debee5dab3a241eff9",
        "type": "ACTION_SEQUENCE",
        "params": [{
            "datatype": "collection",
            "name": "eventobject"
        }],
        "contextObj": {
            "name": "frmAddExternalAccount",
            "type": "forms",
            "platform": "",
            "KUID": "g44e89ee0cb445b982945b6b358d77eb"
        },
        "language": "js",
        "actions": [{
            "id": "ADD_SNIPPET__dd38c2cfbc1d4cfbbd5439992c520c9c",
            "type": "ADD_SNIPPET",
            "codeSnippet": "this.validateDomesticFields();",
            "parentId": null,
            "callbackType": null
        }]
    }
}