{
    "AS_TextField_f90cfadf9acc46fb80dff4291910b8ac": {
        "id": "AS_TextField_f90cfadf9acc46fb80dff4291910b8ac",
        "type": "ACTION_SEQUENCE",
        "params": [{
            "datatype": "collection",
            "name": "eventobject"
        }, {
            "datatype": "collection",
            "name": "context"
        }],
        "contextObj": {
            "name": "segEditApprovalLimit",
            "type": "templates",
            "platform": "",
            "KUID": "b75ef7ab43364c63bed0dcb6a093274b"
        },
        "language": "js",
        "actions": [{
            "id": "INVOKE_FUNCTION___d0ba4213e0de4e5385ba6352db796ab5",
            "type": "INVOKE_FUNCTION",
            "sequenceKUID": "onLimitValueChange",
            "display": "onLimitValueChange",
            "inputparams": [{
                "name": "eventObject",
                "value": "eventobject\n"
            }, {
                "name": "context",
                "value": "context\n"
            }],
            "parentId": null,
            "callbackType": null,
            "disabled": null,
            "source": "controller"
        }]
    }
}