{
    "AS_TextField_f595939442a44e48956dca966305934a": {
        "id": "AS_TextField_f595939442a44e48956dca966305934a",
        "type": "ACTION_SEQUENCE",
        "params": [{
            "datatype": "collection",
            "name": "eventobject"
        }, {
            "datatype": "string",
            "name": "changedtext"
        }],
        "contextObj": {
            "name": "frmLogin",
            "type": "forms",
            "platform": "",
            "KUID": "j0329c6c64654440bf366abc8de81b74"
        },
        "language": "js",
        "actions": [{
            "id": "ADD_SNIPPET__hdc04265f5b84698b076f921b567ed21",
            "type": "ADD_SNIPPET",
            "codeSnippet": "this.showUserNameSuggestions();",
            "parentId": null,
            "callbackType": null
        }]
    }
}