{
    "AS_TextField_h57ebe916ce543be952bdd2e720c6f1a": {
        "id": "AS_TextField_h57ebe916ce543be952bdd2e720c6f1a",
        "type": "ACTION_SEQUENCE",
        "params": [{
            "datatype": "collection",
            "name": "eventobject"
        }, {
            "datatype": "string",
            "name": "changedtext"
        }, {
            "datatype": "collection",
            "name": "context"
        }],
        "contextObj": {
            "name": "segAdvanceTransLimitRowTab",
            "type": "templates",
            "platform": null,
            "KUID": "c67f22ad8de14a5fbc647fd7989208ff"
        },
        "language": "js",
        "actions": [{
            "id": "ADD_SNIPPET_ide_onEndEditing_b85f50d10ea44934adaa1891d362a368",
            "type": "ADD_SNIPPET",
            "codeSnippet": "var self = this;\nreturn self.validateTransactionLimitsOnEndEditing.call(self, eventobject, changedtext, context);"
        }]
    }
}