{
    "AS_TextField_f5ba95246210403c9b801df841b6ffb1": {
        "id": "AS_TextField_f5ba95246210403c9b801df841b6ffb1",
        "type": "ACTION_SEQUENCE",
        "params": [{
            "datatype": "collection",
            "name": "eventobject"
        }, {
            "datatype": "collection",
            "name": "context"
        }],
        "contextObj": {
            "KUID": "d15540d3c1d24cbba1434dfb4e00f4b2",
            "name": "segACHTemplateRecordDetails",
            "platform": "",
            "type": "templates"
        },
        "language": "js",
        "actions": [{
            "id": "ADD_SNIPPET__h46fa98df5004afdbdd77ab9bb8f4ff4",
            "type": "ADD_SNIPPET",
            "codeSnippet": "this.executeOnParent(\"updateTotal\",eventobject);",
            "parentId": null,
            "callbackType": null
        }]
    }
}