{
    "AS_TextField_e6e75dc4bf9041a0b942115da4e1e69b": {
        "id": "AS_TextField_e6e75dc4bf9041a0b942115da4e1e69b",
        "type": "ACTION_SEQUENCE",
        "params": [{
            "datatype": "collection",
            "name": "eventobject"
        }, {
            "datatype": "string",
            "name": "changedtext"
        }, {
            "datatype": "collection",
            "name": "context"
        }],
        "contextObj": {
            "name": "segAdvanceTransLimitRowTab",
            "type": "templates",
            "platform": null,
            "KUID": "c67f22ad8de14a5fbc647fd7989208ff"
        },
        "language": "js",
        "actions": [{
            "id": "ADD_SNIPPET_ide_onEndEditing_j187ab72c4cf4953b084d47fafd0ebe8",
            "type": "ADD_SNIPPET",
            "codeSnippet": "var self = this;\nreturn self.validateTransactionLimitsOnEndEditing.call(self, eventobject, changedtext, context);"
        }]
    }
}