{
    "AS_TextField_b2f8fc1131f643d1a7b537a62c2093d2": {
        "id": "AS_TextField_b2f8fc1131f643d1a7b537a62c2093d2",
        "type": "ACTION_SEQUENCE",
        "params": [{
            "datatype": "collection",
            "name": "eventobject"
        }, {
            "datatype": "string",
            "name": "changedtext"
        }, {
            "datatype": "collection",
            "name": "context"
        }],
        "language": "js",
        "actions": [{
            "id": "ADD_SNIPPET_ide_onEndEditing_ee08c6287b1a494993db9fd395ebd03f",
            "type": "ADD_SNIPPET",
            "codeSnippet": "var self = this;\nreturn self.validateTransactionLimitsOnEndEditing.call(self, eventobject, changedtext, context);"
        }]
    }
}