{
    "AS_UWI_c5bd70a220834a199ec938124edf6a0f": {
        "id": "AS_UWI_c5bd70a220834a199ec938124edf6a0f",
        "type": "ACTION_SEQUENCE",
        "params": [{
            "name": "response",
            "datatype": "collection"
        }],
        "contextObj": {
            "name": "frmLogin",
            "type": "forms",
            "platform": "",
            "KUID": "j0329c6c64654440bf366abc8de81b74"
        },
        "language": "js",
        "actions": [{
            "id": "INVOKE_FUNCTION__j3a271b891eb47188e6fb4f61752e7ae",
            "type": "INVOKE_FUNCTION",
            "sequenceKUID": "MFANavigation",
            "display": "MFANavigation",
            "inputparams": [{
                "name": "response",
                "value": "response"
            }],
            "parentId": null,
            "callbackType": null,
            "disabled": null,
            "source": "controller"
        }]
    }
}