{
    "AS_UWI_cf3087dec71a4607a13db983144dace0": {
        "id": "AS_UWI_cf3087dec71a4607a13db983144dace0",
        "type": "ACTION_SEQUENCE",
        "params": [{
            "name": "data",
            "datatype": "collection"
        }],
        "contextObj": {
            "name": "frmAccountsDetails",
            "type": "forms",
            "platform": "",
            "KUID": "f22d64f7cb454ad980b530de61c4240a"
        },
        "language": "js",
        "actions": [{
            "id": "ADD_SNIPPET_g13c5776d57e42d3aa9c443cf2221a5c",
            "type": "ADD_SNIPPET",
            "codeSnippet": "this.getContextualData(data);",
            "parentId": null
        }]
    }
}