{
    "AS_UWI_gde84198a9194bf68c34bd38686c8859": {
        "id": "AS_UWI_gde84198a9194bf68c34bd38686c8859",
        "type": "ACTION_SEQUENCE",
        "params": [],
        "contextObj": {
            "name": "frmLogin",
            "type": "forms",
            "platform": "",
            "KUID": "j0329c6c64654440bf366abc8de81b74"
        },
        "language": "js",
        "actions": [{
            "id": "INVOKE_FUNCTION__d64342ec29d44179bcdb66974147cb05",
            "type": "INVOKE_FUNCTION",
            "sequenceKUID": "cantSignIn",
            "display": "cantSignIn",
            "inputparams": [],
            "parentId": null,
            "callbackType": null,
            "disabled": null,
            "source": "controller"
        }]
    }
}