{
    "AS_UWI_bbe86893c7944767899fb25753847f5a": {
        "id": "AS_UWI_bbe86893c7944767899fb25753847f5a",
        "type": "ACTION_SEQUENCE",
        "params": [],
        "contextObj": {
            "name": "frmLogin",
            "type": "forms",
            "platform": "",
            "KUID": "j0329c6c64654440bf366abc8de81b74"
        },
        "language": "js",
        "actions": [{
            "id": "INVOKE_FUNCTION__gdd66649929843809a5288897d02c5d5",
            "type": "INVOKE_FUNCTION",
            "sequenceKUID": "closeActivateProfile",
            "display": "closeActivateProfile",
            "inputparams": [],
            "parentId": null,
            "callbackType": null,
            "disabled": null,
            "source": "controller"
        }]
    }
}