{
    "@class": "com.kony.gen.viz.model.component.KVizListBox",
    "DNDConfig": null,
    "__parentReadjusting__": false,
    "_height_": {
        "type": "string",
        "value": "40dp"
    },
    "_left_": {
        "type": "string",
        "value": "30dp"
    },
    "_margin_": [
        0,
        0,
        0,
        0
    ],
    "_padding_": [
        2,
        0,
        0,
        0
    ],
    "_skin_": "s8dc220d2379477bb1363dc81d9ecf61",
    "_top_": {
        "type": "string",
        "value": "7dp"
    },
    "_width_": {
        "type": "string",
        "value": "90%"
    },
    "canUpdateUI": true,
    "containerweight": 100,
    "contentalignment": 4,
    "groupcells": false,
    "id": "lstbxTransactionType",
    "info": null,
    "isvisible": true,
    "kiosk": {
        "psp": {
            "toolTip": "Transaction Type"
        }
    },
    "kuid": "c708bf39110348628ff01238088565ca",
    "masterdata": [
        [
            "lstAllStatus",
            "All Status"
        ],
        [
            "lstIssued",
            "Issued"
        ],
        [
            "lstReturned",
            "Returned"
        ],
        [
            "lstStopped",
            "Stopped"
        ],
        [
            "lstCleared",
            "Cleared "
        ]
    ],
    "name": "kony.ui.ListBox",
    "paddinginpixel": false,
    "parent": "flxLeftSearch",
    "pf": "userwidgetmodel",
    "selectedkey": "lstAllStatus",
    "selectedkeys": null,
    "selectedkeyvalue": [
        "lstAllStatus",
        "All Status"
    ],
    "selectedkeyvalues": null,
    "size": 18,
    "viewconfig": {
        "toggleViewConfig": {
            "viewStyle": 0
        }
    },
    "viewtype": 0,
    "wType": "ListBox",
    "zindex": 1
}