{
    "DNDConfig": null,
    "_height_": {
        "type": "string",
        "value": "40dp"
    },
    "_left_": {
        "type": "string",
        "value": "0dp"
    },
    "_margin_": [
        0,
        0,
        0,
        0
    ],
    "_orientation_": 6,
    "_padding_": [
        0,
        0,
        0,
        0
    ],
    "_percent_": true,
    "_skin_": "s8b9c3471e9f4cdcb3133f2cb3fec6fa",
    "_top_": {
        "type": "string",
        "value": "0dp"
    },
    "_width_": {
        "type": "string",
        "value": "100%"
    },
    "allboxes": [],
    "autogrowmode": 0,
    "canUpdateUI": true,
    "children": [
        "flxDescription",
        "flxDate",
        "flxStatus",
        "lblActions"
    ],
    "clipbounds": true,
    "containerId": true,
    "containerweight": 100,
    "enablescrolling": true,
    "id": "flxOngoingPayments",
    "info": null,
    "iscustomlayout": false,
    "isvisible": false,
    "kuid": "gd364d1704624865866bd50a40b0bae8",
    "layouttype": 2,
    "name": "kony.ui.FlexContainer",
    "parent": "flxBulkPaymentsViewHeader",
    "pf": "segBulkPaymentsViewHeader",
    "retaincontentalignment": false,
    "retainflexpositionproperties": false,
    "snapgridsize": 10,
    "snaptogrid": true,
    "wType": "FlexContainer",
    "widgetalignment": 1
}