{
    "DNDConfig": null,
    "_bottom_": {
        "type": "number",
        "value": ""
    },
    "_height_": {
        "type": "string",
        "value": "20dp"
    },
    "_left_": {
        "type": "string",
        "value": "0dp"
    },
    "_margin_": [
        0,
        0,
        0,
        0
    ],
    "_orientation_": 6,
    "_padding_": [
        0,
        0,
        0,
        0
    ],
    "_percent_": true,
    "_skin_": "s24c92fc23b14f5484b693ee9b8a9b35",
    "_top_": {
        "type": "string",
        "value": "200dp"
    },
    "_width_": {
        "type": "string",
        "value": "60%"
    },
    "allboxes": [],
    "canUpdateUI": true,
    "children": [
        "lblAccountsSelected",
        "lblAccountsValue"
    ],
    "clipbounds": true,
    "containerweight": 100,
    "enablescrolling": true,
    "id": "flxAccountsCount",
    "info": null,
    "iscustomlayout": false,
    "isvisible": true,
    "kuid": "cc442a1cffe140dfa17dc5ba5b0c5c45",
    "layouttype": 2,
    "name": "kony.ui.FlexContainer",
    "parent": "flxResetToDefault",
    "pf": "frmBBAccountAccessAndRole",
    "responsiveData": {
        "b1": {
            "bottom": {
                "type": "string",
                "value": ""
            },
            "height": {
                "type": "string",
                "value": "25dp"
            },
            "layoutType": 3,
            "top": {
                "type": "number",
                "value": "10"
            },
            "width": {
                "type": "string",
                "value": "60%"
            }
        },
        "b2": {
            "height": {
                "type": "string",
                "value": "20dp"
            },
            "layoutType": 3,
            "left": {
                "type": "string",
                "value": "0dp"
            },
            "top": {
                "type": "string",
                "value": "0dp"
            },
            "width": {
                "type": "string",
                "value": "70%"
            }
        },
        "b4": {
            "height": {
                "type": "string",
                "value": "20dp"
            },
            "layoutType": 3,
            "top": {
                "type": "string",
                "value": "10dp"
            },
            "width": {
                "type": "string",
                "value": "70%"
            }
        }
    },
    "retaincontentalignment": false,
    "retainflexpositionproperties": false,
    "retainflowhorizontalalignment": false,
    "snapgridsize": 10,
    "snaptogrid": true,
    "wType": "FlexContainer",
    "widgetalignment": 1
}