{
    "DNDConfig": null,
    "_height_": {
        "type": "string",
        "value": "1dp"
    },
    "_left_": {
        "type": "string",
        "value": "0dp"
    },
    "_margin_": [
        0,
        0,
        0,
        0
    ],
    "_orientation_": 6,
    "_padding_": [
        0,
        0,
        0,
        0
    ],
    "_percent_": true,
    "_skin_": "s47c798875da45eb876a3a2eac29c538",
    "_top_": {
        "type": "string",
        "value": "0dp"
    },
    "_width_": {
        "type": "string",
        "value": "94.90%"
    },
    "allboxes": [],
    "autogrowmode": 0,
    "canUpdateUI": true,
    "centerx": {
        "type": "string",
        "value": "50%"
    },
    "children": [],
    "clipbounds": true,
    "containerweight": 100,
    "enablescrolling": true,
    "id": "flxSeperatorBtm2",
    "info": null,
    "isvisible": true,
    "kuid": "be2e32a3d176449caac3706e8cbc8e98",
    "layouttype": 2,
    "minwidth": {
        "type": "number",
        "value": ""
    },
    "name": "kony.ui.FlexContainer",
    "parent": "flxSearchRoleButton",
    "pf": "frmBBAccountAccessAndRole",
    "responsiveData": {
        "b1": {
            "minWidth": {
                "type": "string",
                "value": ""
            },
            "width": {
                "type": "string",
                "value": "96%"
            }
        },
        "b2": {
            "minWidth": {
                "type": "string",
                "value": ""
            },
            "width": {
                "type": "string",
                "value": "96%"
            }
        },
        "b4": {
            "isVisible": false,
            "width": {
                "type": "string",
                "value": "96%"
            }
        }
    },
    "snapgridsize": 10,
    "snaptogrid": true,
    "wType": "FlexContainer",
    "widgetalignment": 1,
    "zindex": 1
}