{
    "@class": "com.kony.gen.viz.model.component.KVizUserWidget",
    "DNDConfig": null,
    "_children_": [],
    "_height_": {
        "type": "string",
        "value": "80dp"
    },
    "_left_": {
        "type": "string",
        "value": "0dp"
    },
    "_margin_": [
        0,
        0,
        0,
        0
    ],
    "_orientation_": 1,
    "_padding_": [
        0,
        0,
        0,
        0
    ],
    "_percent_": true,
    "_render_": true,
    "_skin_": "s24c92fc23b14f5484b693ee9b8a9b35",
    "_top_": {
        "type": "string",
        "value": "0dp"
    },
    "_width_": {
        "type": "string",
        "value": "90%"
    },
    "android": {},
    "androidwearos": {},
    "areflexpropsreferenced": false,
    "canUpdateUI": true,
    "clipbounds": false,
    "containerweight": 0,
    "dataDiffs": {
        "Search": {
            "__events__": {},
            "__info__": {
                "isRoot": true,
                "kuid": "ddc6464071074d63afd6e608dc9d290a",
                "srcKUID": "afd57c04bad743bba99d0e5529f286ef",
                "wType": "FlexContainer"
            },
            "autogrowMode": {
                "Default": 0
            },
            "height": {
                "Default": {
                    "type": "string",
                    "value": "80dp"
                }
            },
            "isVisible": true,
            "left": {
                "Default": {
                    "type": "string",
                    "value": "0dp"
                }
            },
            "responsiveData": {
                "b1": {
                    "isVisible": true,
                    "width": {
                        "type": "string",
                        "value": "90%"
                    }
                },
                "b2": {
                    "left": {
                        "type": "string",
                        "value": "0dp"
                    },
                    "width": {
                        "type": "string",
                        "value": "90px"
                    }
                },
                "b4": {
                    "width": {
                        "type": "string",
                        "value": "10%"
                    }
                }
            },
            "top": {
                "Default": {
                    "type": "string",
                    "value": "0dp"
                }
            },
            "width": {
                "Default": {
                    "type": "string",
                    "value": "90%"
                }
            },
            "zIndex": {
                "Default": 1
            }
        },
        "btnConfirm": {
            "__events__": {},
            "__info__": {
                "kuid": "d78281e232954d568dd7f951b46f7278",
                "srcKUID": "e9702e4808614e879fc1c538e8418494",
                "wType": "FlexContainer"
            },
            "centerX": {
                "Default": {
                    "type": "string",
                    "value": ""
                }
            },
            "left": {
                "Default": {
                    "type": "string",
                    "value": "15px"
                }
            },
            "responsiveData": {},
            "width": {
                "Default": {
                    "type": "string",
                    "value": "25dp"
                }
            }
        },
        "btnConfirm1": {
            "__events__": {},
            "__info__": {
                "kuid": "fea7c3b3af994906b5244b599026efff",
                "srcKUID": "af76dace2e82450d9f162b8462c58110",
                "wType": "Button"
            },
            "isVisible": false,
            "responsiveData": {
                "b2": {
                    "isVisible": false
                }
            }
        },
        "flxClearBtn": {
            "__events__": {},
            "__info__": {
                "kuid": "bc84b2c5dad84120852aa5f25aae7e2c",
                "srcKUID": "d3fe792123d04455b5f0b964efb41461",
                "wType": "FlexContainer"
            },
            "isVisible": false,
            "width": {
                "Default": {
                    "type": "string",
                    "value": "40dp"
                }
            }
        },
        "flxtxtSearchandClearbtn": {
            "__events__": {},
            "__info__": {
                "kuid": "j37e649482d34bf5bf659be102d98ca6",
                "srcKUID": "c09f8d65274f4847b9b386da774ae9ed",
                "wType": "FlexContainer"
            },
            "autogrowMode": {
                "Default": 0
            },
            "height": {
                "Default": {
                    "type": "string",
                    "value": "50dp"
                }
            },
            "layoutType": 2,
            "left": {
                "Default": {
                    "type": "string",
                    "value": "2%"
                }
            },
            "responsiveData": {
                "b1": {
                    "left": {
                        "type": "string",
                        "value": "20dp"
                    },
                    "right": {
                        "type": "string",
                        "value": "0dp"
                    },
                    "width": {
                        "type": "string",
                        "value": "100%"
                    }
                },
                "b2": {
                    "left": {
                        "type": "string",
                        "value": "20dp"
                    },
                    "width": {
                        "type": "string",
                        "value": "96%"
                    }
                },
                "b4": {
                    "left": {
                        "type": "string",
                        "value": "20dp"
                    },
                    "right": {
                        "type": "string",
                        "value": ""
                    },
                    "width": {
                        "type": "string",
                        "value": "96.90%"
                    }
                }
            },
            "right": {
                "Default": {
                    "type": "string",
                    "value": "2%"
                }
            },
            "top": {
                "Default": {
                    "type": "string",
                    "value": "0dp"
                }
            },
            "width": {
                "Default": {
                    "type": "string",
                    "value": "976dp"
                }
            }
        },
        "imgCross": {
            "__events__": {},
            "__info__": {
                "kuid": "c6f8b383b35743b8a23678bddb881026",
                "srcKUID": "eaa7b734e8034d52976bb1bb5a6ef8df",
                "wType": "Image"
            },
            "src": "search_close.png"
        },
        "lblSearch": {
            "__events__": {},
            "__info__": {
                "kuid": "b0ffca1d7fc74021a4c1e3a3e58851da",
                "srcKUID": "ha872e5f14bd4b81be4c93f1a3c18480",
                "wType": "Label"
            },
            "height": {
                "Default": {
                    "type": "string",
                    "value": "100%"
                }
            },
            "responsiveData": {},
            "width": {
                "Default": {
                    "type": "string",
                    "value": "100%"
                }
            }
        },
        "txtSearch": {
            "__events__": {},
            "__info__": {
                "kuid": "e746ae8c4063471b908988a7e87f725f",
                "srcKUID": "i3f8ddcc8538436280c67c4c0ccc7cb6",
                "wType": "TextField"
            },
            "i18n_placeholder": "i18n.FastTransfers.SearchByAccountNameOrNumber",
            "left": {
                "Default": {
                    "type": "string",
                    "value": "42px"
                }
            },
            "placeholder": "Search by keywords",
            "responsiveData": {
                "b1": {
                    "text": ""
                }
            },
            "right": {
                "Default": {
                    "type": "string",
                    "value": "0px"
                }
            },
            "text": "",
            "width": {
                "Default": {
                    "type": "string",
                    "value": ""
                }
            }
        }
    },
    "desktopweb": {},
    "id": "Search",
    "info": null,
    "ipad": {},
    "iphone": {},
    "isdatareferenced": false,
    "isvisible": true,
    "kiosk": {},
    "kuid": "ddc6464071074d63afd6e608dc9d290a",
    "layouttype": 2,
    "masterType": 0,
    "name": "kony.ui.UserWidgetInstance",
    "parent": "flxSearch",
    "pf": "frmBBAccountAccessAndRole",
    "responsiveData": {
        "b1": {
            "isVisible": true,
            "width": {
                "type": "string",
                "value": "90%"
            }
        },
        "b2": {
            "left": {
                "type": "string",
                "value": "0dp"
            },
            "width": {
                "type": "string",
                "value": "90%"
            }
        },
        "b4": {
            "width": null
        }
    },
    "snapgridsize": 10,
    "snaptogrid": true,
    "sourceUserWidget": "afd57c04bad743bba99d0e5529f286ef",
    "spa": {},
    "spaan": {},
    "spaandroidtablet": {},
    "spabb": {},
    "spaip": {},
    "spaipad": {},
    "spamobile": {},
    "spatablet": {},
    "spawindowstablet": {},
    "spawinphone8": {},
    "tabrcandroid": {},
    "vizProps": {
        "hidewidgethierarchy": false
    },
    "wType": "UserWidgetInstance",
    "windows10": {},
    "windows8": {},
    "winphone10": {},
    "winphone8": {},
    "zindex": 1
}