{
    "DNDConfig": null,
    "__parentReadjusting__": false,
    "_bottom_": {
        "type": "string",
        "value": "10dp"
    },
    "_height_": {
        "type": "ref",
        "value": "preferred"
    },
    "_left_": {
        "type": "string",
        "value": "0px"
    },
    "_margin_": [
        0,
        0,
        0,
        0
    ],
    "_orientation_": 6,
    "_padding_": [
        0,
        0,
        0,
        0
    ],
    "_percent_": true,
    "_skin_": "sd8d02531529489a8d85487257bc0ccb",
    "_top_": {
        "type": "string",
        "value": "10px"
    },
    "_width_": {
        "type": "string",
        "value": "97.50%"
    },
    "allboxes": [],
    "autogrowmode": 1,
    "canUpdateUI": true,
    "children": [
        "flxbulletTwo",
        "lblTermTwo"
    ],
    "clipbounds": true,
    "containerweight": 100,
    "enablescrolling": true,
    "id": "flxTermTwo",
    "info": null,
    "isvisible": true,
    "kuid": "ba565fd2ef9b417fbdaa712bf631171e",
    "layouttype": 3,
    "name": "kony.ui.FlexContainer",
    "parent": "flxNote",
    "pf": "frmFastAddExternalAccount",
    "responsiveData": {
        "b1": {
            "bottom": {
                "type": "string",
                "value": "10dp"
            }
        },
        "b3": {}
    },
    "snapgridsize": 10,
    "snaptogrid": true,
    "wType": "FlexContainer",
    "widgetalignment": 1,
    "zindex": 1
}