{
    "@class": "com.kony.gen.viz.model.component.KVizTextBox2",
    "DNDConfig": null,
    "__parentReadjusting__": false,
    "_height_": {
        "type": "string",
        "value": "40dp"
    },
    "_left_": {
        "type": "string",
        "value": "0dp"
    },
    "_margin_": [
        0,
        0,
        0,
        0
    ],
    "_padding_": [
        3,
        0,
        0,
        0
    ],
    "_placeholder_": "Default: Beneficiary Name",
    "_skin_": "s26c65e1ba054da39dd45c5a46abc5f0",
    "_text_": "",
    "_top_": {
        "type": "string",
        "value": "6px"
    },
    "_width_": {
        "type": "string",
        "value": "99%"
    },
    "accessibilityconfig": {
        "a11yLabel": "Default: Beneficiary Name"
    },
    "autocapitalize": "none",
    "autocomplete": false,
    "autocorrect": false,
    "autofilter": false,
    "canUpdateUI": true,
    "containerheight": "",
    "containerheightmode": 1,
    "containerweight": 100,
    "contentalignment": 4,
    "desktopweb": {
        "ide_onKeyUp": "AS_TextField_c8da45d1bf874b8c8a01a95edfa971da",
        "psp": {
            "hoverSkin": "s80a8c5539a441ee9b9b49917cc45cc2"
        }
    },
    "disabledSkins": {},
    "focusskin": "s2faf9c2766d4142ab33d0bf97445ae0",
    "id": "tbxAccountNickNameKA",
    "info": null,
    "isvisible": true,
    "keyboardtype": "A",
    "kiosk": {
        "psp": {
            "toolTip": "Account Nick Name"
        }
    },
    "kuid": "e05d1d09b657404fa5a57fc17fbd9269",
    "mode": "A",
    "name": "kony.ui.TextBox2",
    "parent": "flxAccountNickNameKA",
    "pf": "frmFastAddExternalAccount",
    "placeholderi18n": "i18n.FastTransfers.DefaultBeneficiaryName",
    "placeholderskin": "",
    "responsiveData": {
        "b3": {
            "desktopweb": {
                "placeholderSkin": "sdef800abb3a4d9ba16067ac291a3e33"
            },
            "disabledSkins": {},
            "placeholderSkin": ""
        }
    },
    "securetextentry": false,
    "textinputmode": "A",
    "viewtype": "default",
    "wType": "TextField",
    "zindex": 1
}