{
    "@class": "com.kony.gen.viz.model.component.KVizRichText",
    "DNDConfig": null,
    "__parentReadjusting__": false,
    "_height_": {
        "type": "ref",
        "value": "preferred"
    },
    "_left_": {
        "type": "string",
        "value": "0dp"
    },
    "_margin_": [
        0,
        0,
        0,
        0
    ],
    "_padding_": [
        0,
        0,
        0,
        0
    ],
    "_skin_": "sf9eda51ff18423180d6643f182ca4b3",
    "_text_": "Phone numbers.",
    "_top_": {
        "type": "string",
        "value": "0dp"
    },
    "_width_": {
        "type": "ref",
        "value": "preferred"
    },
    "_wrapping_": 2,
    "accessibilityconfig": {
        "a11yLabel": "Phone numbers."
    },
    "canUpdateUI": true,
    "containerweight": 100,
    "contentalignment": 4,
    "id": "RichText0bfcfe81705e240",
    "info": null,
    "isvisible": true,
    "kuid": "cf2dbeb4437f48d88e879f15fe0d85f6",
    "name": "kony.ui.RichText",
    "parent": "flxValueAmount",
    "pf": "userwidgetmodel",
    "wType": "RichText",
    "widgetalignment": 5,
    "zindex": 1
}