{
    "@class": "com.kony.gen.viz.model.component.KVizUserWidget",
    "DNDConfig": null,
    "__parentReadjusting__": false,
    "_children_": [],
    "_height_": {
        "type": "string",
        "value": "80dp"
    },
    "_left_": {
        "type": "string",
        "value": "0dp"
    },
    "_margin_": [
        0,
        0,
        0,
        0
    ],
    "_orientation_": 1,
    "_padding_": [
        0,
        0,
        0,
        0
    ],
    "_percent_": true,
    "_render_": true,
    "_skin_": "s24c92fc23b14f5484b693ee9b8a9b35",
    "_top_": {
        "type": "string",
        "value": "0dp"
    },
    "_width_": {
        "type": "string",
        "value": "150dp"
    },
    "canUpdateUI": true,
    "containerweight": 0,
    "data": {
        "cashFlowTypeImgSource": "total_payable.png",
        "totalCashFlowTypeTitle": "Total Payables",
        "totalCashFlowTypeValue": "$9,30,000"
    },
    "id": "TotalReceivablePayable1",
    "info": null,
    "iscustomlayout": false,
    "isvisible": true,
    "kuid": "f7aa63e789ef49b28350e731fd8c5bba",
    "masterType": 1,
    "name": "kony.ui.UserWidgetInstance",
    "parent": "flxChartFooter",
    "pf": "frmBBAccountsLanding",
    "retaincontentalignment": false,
    "retainflexpositionproperties": false,
    "sourceUserWidget": "ga9fd039f27c48339462ce388a48607a",
    "wType": "UserWidgetInstance"
}