{
    "DNDConfig": null,
    "_height_": {
        "type": "string",
        "value": "65dp"
    },
    "_left_": {
        "type": "string",
        "value": "4%"
    },
    "_margin_": [
        0,
        0,
        0,
        0
    ],
    "_orientation_": 6,
    "_padding_": [
        0,
        0,
        0,
        0
    ],
    "_percent_": true,
    "_skin_": "s24c92fc23b14f5484b693ee9b8a9b35",
    "_top_": {
        "type": "string",
        "value": "0px"
    },
    "_width_": {
        "type": "string",
        "value": "45%"
    },
    "allboxes": [],
    "canUpdateUI": true,
    "children": [
        "flxRow2Heading",
        "flxOrderType",
        "lbxOrderType"
    ],
    "clipbounds": true,
    "containerweight": 100,
    "enablescrolling": true,
    "id": "flxOrder",
    "info": null,
    "iscustomlayout": false,
    "isvisible": true,
    "kuid": "d7f5df0a999c4973b5176e8491ef36b8",
    "layouttype": 2,
    "name": "kony.ui.FlexContainer",
    "parent": "flxRow2",
    "pf": "frmPlaceOrder",
    "responsiveData": {
        "b2": {},
        "b3": {
            "height": {
                "type": "string",
                "value": "70dp"
            }
        }
    },
    "retaincontentalignment": false,
    "retainflexpositionproperties": false,
    "retainflowhorizontalalignment": false,
    "snapgridsize": 10,
    "snaptogrid": true,
    "wType": "FlexContainer",
    "widgetalignment": 1,
    "zindex": 1
}