{
    "DNDConfig": null,
    "_height_": {
        "type": "string",
        "value": "65dp"
    },
    "_left_": {
        "type": "string",
        "value": "0dp"
    },
    "_margin_": [
        0,
        0,
        0,
        0
    ],
    "_orientation_": 6,
    "_padding_": [
        0,
        0,
        0,
        0
    ],
    "_percent_": true,
    "_skin_": "s24c92fc23b14f5484b693ee9b8a9b35",
    "_top_": {
        "type": "string",
        "value": "15dp"
    },
    "_width_": {
        "type": "string",
        "value": "100%"
    },
    "allboxes": [],
    "canUpdateUI": true,
    "children": [
        "flxOrder",
        "flxLimitPrice",
        "flxStopLimitPriceRow2"
    ],
    "clipbounds": true,
    "containerweight": 100,
    "enablescrolling": true,
    "id": "flxRow2",
    "info": null,
    "isvisible": true,
    "kuid": "e159b4e22fc84e6c96c9e5447e888ff6",
    "layouttype": 2,
    "name": "kony.ui.FlexContainer",
    "parent": "flxOrderDetails",
    "pf": "frmPlaceOrder",
    "responsiveData": {
        "b3": {
            "height": {
                "type": "string",
                "value": "65dp"
            },
            "layoutType": 2
        }
    },
    "snapgridsize": 10,
    "snaptogrid": true,
    "wType": "FlexContainer",
    "widgetalignment": 1,
    "zindex": 1
}