{
    "@class": "com.kony.gen.viz.model.component.KVizButton",
    "DNDConfig": null,
    "_bottom_": {
        "type": "number",
        "value": "10"
    },
    "_height_": {
        "type": "string",
        "value": "40dp"
    },
    "_left_": {
        "type": "string",
        "value": "35%"
    },
    "_margin_": [
        6,
        6,
        6,
        6
    ],
    "_padding_": [
        0,
        0,
        0,
        0
    ],
    "_skin_": "sd3d7d8bf6784b30adadc45c3bbb44e0",
    "_text_": "Cancel",
    "_top_": {
        "type": "number",
        "value": "10"
    },
    "_width_": {
        "type": "string",
        "value": "20%"
    },
    "canUpdateUI": true,
    "centerx": {
        "type": "number",
        "value": ""
    },
    "containerweight": 100,
    "contentalignment": 5,
    "displaytext": true,
    "focusskin": "sd3d7d8bf6784b30adadc45c3bbb44e0",
    "id": "btnCancelFilter",
    "info": null,
    "iscustomlayout": false,
    "isvisible": true,
    "kuid": "a932a8d5185a4603acc8f9c46aaeb7eb",
    "name": "kony.ui.Button",
    "parent": "flxButtons",
    "pf": "userwidgetmodel",
    "responsiveData": {
        "b3": {
            "centerX": {
                "type": "string",
                "value": "50%"
            },
            "left": {
                "type": "string",
                "value": "0%"
            },
            "skin": "sbf6bf21c3fa48d3b91dc224e8057ad7",
            "width": {
                "type": "string",
                "value": "80%"
            }
        }
    },
    "retaincontentalignment": false,
    "retainflexpositionproperties": false,
    "texti18n": "i18n.transfers.Cancel",
    "wType": "Button"
}