{
    "@class": "com.kony.gen.viz.model.component.KVizLabel",
    "DNDConfig": null,
    "__parentReadjusting__": false,
    "_height_": {
        "type": "ref",
        "value": "preferred"
    },
    "_left_": {
        "type": "string",
        "value": "15dp"
    },
    "_margin_": [
        1,
        1,
        1,
        1
    ],
    "_padding_": [
        0,
        0,
        0,
        0
    ],
    "_skin_": "saba7a95163a455f8f2f131435e16122",
    "_text_": "I don't have an Account Number with this payee",
    "_top_": {
        "type": "string",
        "value": "0dp"
    },
    "_width_": {
        "type": "ref",
        "value": "preferred"
    },
    "_wrapping_": 2,
    "accessibilityconfig": {
        "a11yLabel": "I dont have an Account Number with this Payee"
    },
    "android": {
        "textStyle": {
            "letterSpacing": 0,
            "strikeThrough": false
        }
    },
    "canUpdateUI": true,
    "centery": {
        "type": "string",
        "value": "50%"
    },
    "containerweight": 100,
    "contentalignment": 4,
    "id": "lblRememberMe",
    "info": null,
    "ipad": {
        "psp": {
            "wrapping": 2
        }
    },
    "iphone": {
        "psp": {
            "wrapping": 2
        }
    },
    "isvisible": true,
    "kuid": "fc01efa89cfa4fa2ace6df65340520d2",
    "name": "kony.ui.Label",
    "paddinginpixel": false,
    "parent": "flxRememberMe",
    "pf": "frmAddPayeeInformation",
    "responsiveData": {
        "b2": {},
        "b3": {
            "width": {
                "type": "string",
                "value": "85%"
            }
        }
    },
    "texti18n": "i18n.AddPayee.IdonthaveanAccount",
    "tooltip": "",
    "wType": "Label",
    "zindex": 1
}