{
    "@class": "com.kony.gen.viz.model.component.KVizTextBox2",
    "DNDConfig": null,
    "__parentReadjusting__": false,
    "_height_": {
        "type": "string",
        "value": "40dp"
    },
    "_left_": {
        "type": "string",
        "value": "0%"
    },
    "_margin_": [
        0,
        0,
        0,
        0
    ],
    "_padding_": [
        3,
        0,
        0,
        0
    ],
    "_placeholder_": "Enter Payee's City",
    "_skin_": "sbad3c0dbd09447ea3f81eebcfc69002",
    "_text_": "",
    "_top_": {
        "type": "number",
        "value": ""
    },
    "_width_": {
        "type": "string",
        "value": "100%"
    },
    "accessibilityconfig": {
        "a11yLabel": "Enter Payees City"
    },
    "autocapitalize": "none",
    "autocomplete": false,
    "autocorrect": false,
    "autofilter": false,
    "canUpdateUI": true,
    "containerheight": "",
    "containerheightmode": 1,
    "containerweight": 100,
    "contentalignment": 4,
    "desktopweb": {
        "psp": {
            "hoverSkin": "s80a8c5539a441ee9b9b49917cc45cc2"
        }
    },
    "focusskin": "s2faf9c2766d4142ab33d0bf97445ae0",
    "id": "tbxCity",
    "info": null,
    "isvisible": true,
    "keyboardtype": "A",
    "kuid": "cf4aada6f83546c7bd5b36e57eb38e17",
    "maxtextlength": 50,
    "mode": "A",
    "name": "kony.ui.TextBox2",
    "paddinginpixel": false,
    "parent": "flxCityState",
    "pf": "frmAddPayeeInformation",
    "placeholderi18n": "i18n.AddPayee.EnterPayeesCity",
    "responsiveData": {
        "b1": {
            "top": {
                "type": "string",
                "value": "5dp"
            }
        },
        "b2": {
            "top": {
                "type": "string",
                "value": "5dp"
            }
        },
        "b3": {
            "top": {
                "type": "string",
                "value": "7dp"
            }
        },
        "b4": {
            "top": {
                "type": "string",
                "value": "5dp"
            }
        }
    },
    "securetextentry": false,
    "textinputmode": "A",
    "viewtype": "default",
    "wType": "TextField",
    "zindex": 1
}