{
    "@class": "com.kony.gen.viz.model.component.KVizLabel",
    "DNDConfig": null,
    "__parentReadjusting__": false,
    "_height_": {
        "type": "ref",
        "value": "preferred"
    },
    "_left_": {
        "type": "string",
        "value": "5dp"
    },
    "_margin_": [
        1,
        1,
        1,
        1
    ],
    "_padding_": [
        0,
        0,
        0,
        0
    ],
    "_right_": {
        "type": "string",
        "value": "30dp"
    },
    "_skin_": "s14b5921a566439e9ae8c94da666e722",
    "_text_": "INDIVIDUAL",
    "_width_": {
        "type": "ref",
        "value": "preferred"
    },
    "_wrapping_": 2,
    "accessibilityconfig": {
        "a11yLabel": "INDIVIDUAL"
    },
    "android": {
        "textStyle": {
            "letterSpacing": 0,
            "strikeThrough": false
        }
    },
    "canUpdateUI": true,
    "centery": {
        "type": "string",
        "value": "50%"
    },
    "containerweight": 100,
    "contentalignment": 4,
    "id": "lblRadioOpt1",
    "info": null,
    "ipad": {
        "psp": {
            "wrapping": 2
        }
    },
    "iphone": {
        "psp": {
            "wrapping": 2
        }
    },
    "isvisible": true,
    "kuid": "d891e5c41e9a4e7382aaabf24337fa06",
    "name": "kony.ui.Label",
    "parent": "flxRecipientTypeRadioButtons",
    "pf": "frmWireTransferOneTimePaymentStep1",
    "responsiveData": {
        "b3": {
            "centerY": {
                "type": "string",
                "value": "43%"
            }
        },
        "b4": {
            "centerY": {
                "type": "string",
                "value": "45%"
            }
        }
    },
    "texti18n": "i18n.WireTransfer.Individual",
    "tooltip": "",
    "wType": "Label",
    "zindex": 1
}