{
	 "@class": "com.kony.gen.viz.model.component.KVizImage2",
	 "DNDConfig": null,
	 "__parentReadjusting__": false,
	 "_base64_": null,
	 "_height_": {
		 "type": "string",
		 "value": "40dp"
	},
	 "_margin_": [
		 0,
		 0,
		 0,
		 0
	],
	 "_padding_": [
		 0,
		 0,
		 0,
		 0
	],
	 "_right_": {
		 "type": "string",
		 "value": "0dp"
	},
	 "_skin_": "s8ee487de5774c1eb668e74bf92f5cdd",
	 "_src_": "icon_close_grey.png",
	 "_top_": {
		 "type": "string",
		 "value": "10dp"
	},
	 "_width_": {
		 "type": "string",
		 "value": "5%"
	},
	 "canUpdateUI": true,
	 "centery": {
		 "type": "number",
		 "value": ""
	},
	 "containerweight": 100,
	 "context": {
		 "channel": "desktop",
		 "formID": "uwuae22d5a6c0b4d8cad52b2e5ed3198a3",
		 "platform": "desktopweb",
		 "templateType": "userwidgets",
		 "topLevelBox": null
	},
	 "id": "imgCloseDowntimeWarning",
	 "imagescalemode": 1,
	 "imagewhiledownloading": "img_transparent.png",
	 "info": null,
	 "invokedProperty": "src",
	 "isvisible": true,
	 "kuid": "g82d5629a6d84f2bb97834b2d0f428bb",
	 "name": "kony.ui.Image2",
	 "parent": "flxDowntimeWarning",
	 "pf": "userwidgetmodel",
	 "responsiveData": {
		 "b2": {
			 "right": {
				 "type": "string",
				 "value": "5dp"
			}
		},
		 "b3": {
			 "centerY": {
				 "type": "string",
				 "value": ""
			},
			 "height": {
				 "type": "string",
				 "value": "50dp"
			},
			 "right": {
				 "type": "string",
				 "value": "5dp"
			},
			 "width": {
				 "type": "string",
				 "value": "30dp"
			}
		}
	},
	 "srcType": 1,
	 "tooltip": "Close",
	 "wType": "Image",
	 "widgetalignment": 5,
	 "zindex": 1,
	 "accessibilityconfig": {
		 "a11yLabel": "Close",
		 "a11yValue": ""
	}
}