{
	 "@class": "com.kony.gen.viz.model.component.KVizImage2",
	 "DNDConfig": null,
	 "__parentReadjusting__": false,
	 "_base64_": null,
	 "_height_": {
		 "type": "string",
		 "value": "24dp"
	},
	 "_left_": {
		 "type": "string",
		 "value": "0dp"
	},
	 "_margin_": [
		 0,
		 0,
		 0,
		 0
	],
	 "_padding_": [
		 0,
		 0,
		 0,
		 0
	],
	 "_right_": {
		 "type": "string",
		 "value": "0dp"
	},
	 "_skin_": "s78a5f26c9f14cec9ebed1bb46098f80",
	 "_src_": "pagination_inactive.png",
	 "_width_": {
		 "type": "string",
		 "value": "24dp"
	},
	 "accessibilityconfig": {
		 "a11yLabel": "Pagination Left",
		 "a11yValue": ""
	},
	 "canUpdateUI": true,
	 "centery": {
		 "type": "string",
		 "value": "50%"
	},
	 "containerweight": 100,
	 "context": {
		 "channel": "desktop",
		 "formID": "uwu506561349f944c98dd99ed7db6c1d7b",
		 "platform": "desktopweb",
		 "templateType": "userwidgets",
		 "topLevelBox": null
	},
	 "id": "imgPaginationFirst",
	 "imagescalemode": 1,
	 "imagewhiledownloading": "img_transparent.png",
	 "info": null,
	 "isvisible": true,
	 "kuid": "imgPaginationFirst",
	 "name": "kony.ui.Image2",
	 "parent": "flxPaginationFirst",
	 "pf": "userwidgetmodel",
	 "srcType": 1,
	 "tooltip": "First",
	 "wType": "Image",
	 "widgetalignment": 5,
	 "zindex": 1
}