{
    "@class": "com.kony.gen.viz.model.component.KVizButton",
    "DNDConfig": null,
    "_height_": {
        "type": "string",
        "value": "40dp"
    },
    "_left_": {
        "type": "string",
        "value": "2.10%"
    },
    "_margin_": [
        6,
        6,
        6,
        6
    ],
    "_padding_": [
        0,
        0,
        0,
        0
    ],
    "_skin_": "s20e73ead89f47ff86c04075c2a66b64",
    "_text_": "December 2018",
    "_top_": {
        "type": "number",
        "value": "0"
    },
    "_width_": {
        "type": "ref",
        "value": "preferred"
    },
    "accessibilityconfig": {
        "a11yLabel": "STATEMENTS (22K,PDF) "
    },
    "canUpdateUI": true,
    "centery": {
        "type": "string",
        "value": "50%"
    },
    "containerId": true,
    "containerweight": 100,
    "contentalignment": 4,
    "desktopweb": {
        "psp": {}
    },
    "disabledSkins": {
        "focusSkin": "sf44d06ca8224832827ea7fdff757013",
        "hoverSkin": "s5606bce66e44c39a33fc23d07211059"
    },
    "displaytext": true,
    "id": "btnStatement1",
    "ide_onClick": "AS_Button_bc02ba5dcc5a430282ffb3ff912432a1",
    "info": null,
    "isvisible": true,
    "kuid": "e2f8351bcaed425780fe4214b39a5311",
    "name": "kony.ui.Button",
    "parent": "flxMonthStatementsNewMobile",
    "pf": "segMonthStatementsNewMobile",
    "wType": "Button",
    "zindex": 1
}