{
    "DNDConfig": null,
    "_height_": {
        "type": "string",
        "value": "41dp"
    },
    "_margin_": [
        0,
        0,
        0,
        0
    ],
    "_orientation_": 6,
    "_padding_": [
        0,
        0,
        0,
        0
    ],
    "_percent_": true,
    "_skin_": "s3c3bad5cf514ba48a8bd63c03585664",
    "allboxes": [],
    "autogrowmode": 0,
    "canUpdateUI": true,
    "children": [
        "btnStatement1",
        "flxHorizontalLine2"
    ],
    "clipbounds": true,
    "containerId": true,
    "containerweight": 100,
    "controllerInfo": {
        "default": {
            "channel": "desktop",
            "name": "flxMonthStatementsNewMobileController"
        }
    },
    "desktopweb": {
        "psp": {}
    },
    "disabledSkins": {
        "focusSkin": "s8166360b1e64d2e9110f1854fe73431",
        "hoverSkin": "s8166360b1e64d2e9110f1854fe73431"
    },
    "enablescrolling": true,
    "id": "flxMonthStatementsNewMobile",
    "info": null,
    "isTemplate": true,
    "isvisible": true,
    "kuid": "d6e0ecca8c5645e4898ad28c9c8cf71f",
    "layouttype": 4,
    "name": "kony.ui.FlexContainer",
    "parent": "segMonthStatementsNewMobile",
    "pf": "segMonthStatementsNewMobile",
    "snapgridsize": 10,
    "snaptogrid": true,
    "wType": "FlexContainer",
    "widgetalignment": 1
}