{
    "DNDConfig": null,
    "_height_": {
        "type": "string",
        "value": "103dp"
    },
    "_margin_": [
        0,
        0,
        0,
        0
    ],
    "_orientation_": 6,
    "_padding_": [
        0,
        0,
        0,
        0
    ],
    "_percent_": true,
    "_skin_": "s282ae8616b74efb83f4abf39f1af7f3",
    "allboxes": [],
    "autogrowmode": 0,
    "canUpdateUI": true,
    "children": [
        "flxIndicator",
        "imgBuildingType",
        "flxDetails",
        "flxDistanceAndGo",
        "lblSeperator"
    ],
    "clipbounds": true,
    "containerId": true,
    "containerweight": 100,
    "controllerInfo": {
        "default": {
            "channel": "desktop",
            "name": "flxSearchResultsController"
        }
    },
    "desktopweb": {
        "psp": {
            "hoverSkin": "s369b475257f4ae682a81948e2dee6b3"
        }
    },
    "enablescrolling": true,
    "id": "flxSearchResults",
    "info": null,
    "isTemplate": true,
    "isvisible": true,
    "kuid": "c5db461318ae4069bc2732ddf78ce632",
    "layouttype": 2,
    "name": "kony.ui.FlexContainer",
    "parent": "segLocateUsSearchResults",
    "pf": "segLocateUsSearchResults",
    "snapgridsize": 10,
    "snaptogrid": true,
    "wType": "FlexContainer",
    "widgetalignment": 1
}