{
    "DNDConfig": null,
    "_height_": {
        "type": "string",
        "value": "220dp"
    },
    "_left_": {
        "type": "string",
        "value": "0"
    },
    "_margin_": [
        0,
        0,
        0,
        0
    ],
    "_orientation_": 6,
    "_padding_": [
        0,
        0,
        0,
        0
    ],
    "_percent_": true,
    "_skin_": "s24c92fc23b14f5484b693ee9b8a9b35",
    "_top_": {
        "type": "string",
        "value": "0"
    },
    "_width_": {
        "type": "string",
        "value": "100%"
    },
    "allboxes": [],
    "canUpdateUI": true,
    "children": [],
    "clipbounds": true,
    "containerweight": 100,
    "enablescrolling": true,
    "id": "flxSeparator",
    "info": null,
    "iscustomlayout": false,
    "isvisible": true,
    "kuid": "e64e432bc65f40e6a600a29642a1c208",
    "layouttype": 2,
    "name": "kony.ui.FlexContainer",
    "parent": "flxTransferContent",
    "pf": "frmDomesticTransfer",
    "responsiveData": {
        "b1": {
            "height": {
                "type": "string",
                "value": "0dp"
            },
            "top": {
                "type": "string",
                "value": "10dp"
            }
        },
        "b2": {
            "height": {
                "type": "string",
                "value": "0dp"
            },
            "top": {
                "type": "string",
                "value": "10dp"
            }
        },
        "b3": {
            "height": {
                "type": "string",
                "value": "0dp"
            }
        },
        "b4": {
            "height": {
                "type": "string",
                "value": "0dp"
            }
        }
    },
    "retaincontentalignment": false,
    "retainflexpositionproperties": false,
    "retainflowhorizontalalignment": false,
    "snapgridsize": 10,
    "snaptogrid": true,
    "wType": "FlexContainer",
    "widgetalignment": 1
}