{
    "DNDConfig": null,
    "__parentReadjusting__": false,
    "_height_": {
        "type": "string",
        "value": "110dp"
    },
    "_left_": "2.29%",
    "_margin_": [
        0,
        0,
        0,
        0
    ],
    "_orientation_": 6,
    "_padding_": [
        0,
        0,
        0,
        0
    ],
    "_percent_": true,
    "_skin_": "s68cde8c1c40436989962f3559a757ac",
    "_top_": {
        "type": "string",
        "value": "0dp"
    },
    "_width_": {
        "type": "string",
        "value": "97.71%"
    },
    "allboxes": [],
    "autogrowmode": 0,
    "canUpdateUI": true,
    "children": [
        "lblQuestions2",
        "lblAnswerSecurityQuestion2",
        "lblAnswers2",
        "tbxAnswers2"
    ],
    "clipbounds": true,
    "containerweight": 100,
    "enablescrolling": true,
    "id": "flxAnswerSecurityQuestionsQASet2",
    "info": null,
    "isvisible": true,
    "kuid": "hebb5ae344bc48bf857d1972fead7236",
    "layouttype": 2,
    "name": "kony.ui.FlexContainer",
    "parent": "flxAnswerSecurityQuestionSet",
    "pf": "userwidgetmodel",
    "snapgridsize": 10,
    "snaptogrid": true,
    "wType": "FlexContainer",
    "widgetalignment": 1,
    "zindex": 1
}