{
    "DNDConfig": null,
    "__parentReadjusting__": false,
    "_height_": {
        "type": "string",
        "value": "40dp"
    },
    "_left_": {
        "type": "string",
        "value": "-1dp"
    },
    "_margin_": [
        0,
        0,
        0,
        0
    ],
    "_orientation_": 6,
    "_padding_": [
        0,
        0,
        0,
        0
    ],
    "_percent_": true,
    "_skin_": "saecde28f8cc49c69e8d9aec369047a8",
    "_top_": {
        "type": "string",
        "value": "-1dp"
    },
    "_width_": {
        "type": "string",
        "value": "101%"
    },
    "allboxes": [],
    "autogrowmode": 0,
    "canUpdateUI": true,
    "children": [
        "imgAccountSettings",
        "lblAccountSettingsFont",
        "lblAccountSettings",
        "flxAccountSettingsCollapse"
    ],
    "clipbounds": true,
    "containerweight": 100,
    "desktopweb": {
        "psp": {
            "hoverSkin": "sad0e770874f4021acce356bfa3df076"
        }
    },
    "enablescrolling": true,
    "id": "flxAccountSettings",
    "info": null,
    "isvisible": true,
    "kuid": "b5047cbe382d4941b9f08ed9704e7a7c",
    "layouttype": 2,
    "name": "kony.ui.FlexContainer",
    "parent": "flxMenuWrapper",
    "pf": "userwidgetmodel",
    "snapgridsize": 10,
    "snaptogrid": true,
    "wType": "FlexContainer",
    "widgetalignment": 1,
    "zindex": 1
}