{
    "DNDConfig": null,
    "__parentReadjusting__": false,
    "_height_": {
        "type": "string",
        "value": "40dp"
    },
    "_left_": {
        "type": "string",
        "value": "3%"
    },
    "_margin_": [
        0,
        0,
        0,
        0
    ],
    "_orientation_": 6,
    "_padding_": [
        0,
        0,
        0,
        0
    ],
    "_percent_": true,
    "_skin_": "s65354b7cde046abb7d41396889ffe1b",
    "_top_": {
        "type": "string",
        "value": "0dp"
    },
    "_width_": {
        "type": "string",
        "value": "224px"
    },
    "allboxes": [],
    "canUpdateUI": true,
    "children": [
        "flxChannel1",
        "flxVerticalSeparator1",
        "flxChannel2",
        "flxVerticalSeparator2",
        "flxChannel3",
        "flxVerticalSeparator3",
        "flxChannel4"
    ],
    "clipbounds": false,
    "containerweight": 100,
    "enablescrolling": true,
    "id": "flxChannels",
    "info": null,
    "iscustomlayout": false,
    "ismodalcontainer": false,
    "isvisible": true,
    "kuid": "iaf03d94504f4f7eaeb603c5ba7e9ec4",
    "layouttype": 3,
    "name": "kony.ui.FlexContainer",
    "parent": "flxCategoryChannels",
    "pf": "userwidgetmodel",
    "responsiveData": {},
    "retaincontentalignment": false,
    "retainflexpositionproperties": false,
    "snapgridsize": 10,
    "snaptogrid": true,
    "wType": "FlexContainer",
    "widgetalignment": 1,
    "zindex": 10
}