{
    "@class": "com.kony.gen.viz.model.component.KVizListBox",
    "DNDConfig": null,
    "__parentReadjusting__": false,
    "_height_": {
        "type": "string",
        "value": "40dp"
    },
    "_left_": {
        "type": "string",
        "value": "23.62%"
    },
    "_margin_": [
        0,
        0,
        0,
        0
    ],
    "_padding_": [
        3,
        0,
        0,
        0
    ],
    "_skin_": "sfae4459590b4f39af6863186b5f2646",
    "_top_": {
        "type": "string",
        "value": "25dp"
    },
    "_width_": {
        "type": "string",
        "value": "43.81%"
    },
    "canUpdateUI": true,
    "containerweight": 100,
    "contentalignment": 4,
    "context": {
        "channel": "desktop",
        "formID": "uwu886471e9ec64dfabf9345f176339ccd",
        "platform": "desktopweb",
        "templateType": "userwidgets",
        "topLevelBox": null
    },
    "groupcells": false,
    "id": "lbxAddPhoneNumberType",
    "info": null,
    "isvisible": true,
    "kiosk": {
        "psp": {
            "toolTip": "Type"
        }
    },
    "kuid": "g76a8c626a2444cd9cab5fd63fcf5802",
    "masterdata": [
        [
            "key1",
            "Mobile"
        ],
        [
            "key2",
            "Home"
        ],
        [
            "key3",
            "Work"
        ]
    ],
    "name": "kony.ui.ListBox",
    "parent": "flxAddPhoneNumber",
    "pf": "userwidgetmodel",
    "selectedkey": "key1",
    "selectedkeys": null,
    "selectedkeyvalue": [
        "key1",
        "Mobile"
    ],
    "selectedkeyvalues": null,
    "size": 18,
    "viewconfig": {
        "toggleViewConfig": {
            "viewStyle": 0
        }
    },
    "viewtype": 0,
    "wType": "ListBox",
    "zindex": 1,
    "focusskin": "s9eb08f78097439eb767801e8fdeb5cd"
}