{
    "@class": "com.kony.gen.viz.model.component.KVizTextBox2",
    "DNDConfig": null,
    "__parentReadjusting__": false,
    "_height_": {
        "type": "string",
        "value": "40dp"
    },
    "_left_": {
        "type": "string",
        "value": "26.26%"
    },
    "_margin_": [
        0,
        0,
        0,
        0
    ],
    "_padding_": [
        2,
        0,
        0,
        0
    ],
    "_placeholder_": "Re-enter password ",
    "_skin_": "s2176287b62f4273bd3e8aee5ed69aca",
    "_text_": "",
    "_top_": {
        "type": "string",
        "value": "20dp"
    },
    "_width_": {
        "type": "string",
        "value": "43%"
    },
    "autocapitalize": "none",
    "autocomplete": false,
    "autocorrect": false,
    "autofilter": false,
    "canUpdateUI": true,
    "containerheight": "",
    "containerheightmode": 1,
    "containerweight": 100,
    "contentalignment": 4,
    "desktopweb": {
        "placeholderSkin": "s3796ee3ed0b44dea36decbc04cb63d2"
    },
    "disabledSkins": {},
    "id": "tbxConfirmPassword",
    "info": null,
    "isvisible": true,
    "keyboardtype": "A",
    "kiosk": {
        "psp": {
            "autoFilter": false,
            "toolTip": "Confirm Password"
        }
    },
	"accessibilityconfig": {
        "a11yLabel": "Re enter password"
    },
    "kuid": "ffc2d09c8c094e0798c5f8751486d46a",
    "mode": "A",
    "name": "kony.ui.TextBox2",
    "parent": "flxConfirmPassword",
    "pf": "userwidgetmodel",
    "placeholderskin": "s3796ee3ed0b44dea36decbc04cb63d2",
    "securetextentry": true,
    "textinputmode": "A",
    "viewtype": "default",
    "wType": "TextField",
    "zindex": 1,
    "focusskin": "s2faf9c2766d4142ab33d0bf97445ae0"
}