{
	 "@class": "com.kony.gen.viz.model.component.KVizImage2",
	 "DNDConfig": null,
	 "__parentReadjusting__": false,
	 "_base64_": null,
	 "_height_": {
		 "type": "string",
		 "value": "7dp"
	},
	 "_left_": {
		 "type": "string",
		 "value": "5dp"
	},
	 "_margin_": [
		 0,
		 0,
		 0,
		 0
	],
	 "_padding_": [
		 0,
		 0,
		 0,
		 0
	],
	 "_skin_": "s78a5f26c9f14cec9ebed1bb46098f80",
	 "_src_": "arrow_down.png",
	 "_width_": {
		 "type": "string",
		 "value": "14dp"
	},
	 "canUpdateUI": true,
	 "centerx": {
		 "type": "string",
		 "value": "50%"
	},
	 "centery": {
		 "type": "string",
		 "value": "50%"
	},
	 "containerweight": 100,
	 "context": {
		 "channel": "desktop",
		 "formID": "uwu3cbe30fca7545b2bc4fc1612342db5a",
		 "platform": "desktopweb",
		 "templateType": "userwidgets",
		 "topLevelBox": null
	},
	 "id": "imgDropdownManage",
	 "imagescalemode": 1,
	 "imagewhiledownloading": "img_transparent.png",
	 "info": null,
	 "isvisible": false,
	 "kuid": "dac9f1bedacc41f1a0dd621f0e617fc4",
	 "name": "kony.ui.Image2",
	 "parent": "flxDropdownManage",
	 "pf": "userwidgetmodel",
	 "srcType": 1,
	 "wType": "Image",
	 "widgetalignment": 5,
	 "zindex": 1,
	 "accessibilityconfig": {
		 "a11yLabel": "Dropdown",
		 "a11yValue": ""
	}
}