{
    "@class": "com.kony.gen.viz.model.component.KVizUserWidget",
    "DNDConfig": null,
    "__parentReadjusting__": false,
    "_android_": {},
    "_androidwearos_": {},
    "_children_": [],
    "_desktopweb_": {
        "render": true
    },
    "_height_": {
        "type": "string",
        "value": "150dp"
    },
    "_ipad_": {},
    "_iphone_": {},
    "_kiosk_": {
        "render": true
    },
    "_left_": {
        "type": "string",
        "value": "0dp"
    },
    "_margin_": [
        0,
        0,
        0,
        0
    ],
    "_orientation_": 1,
    "_padding_": [
        0,
        0,
        0,
        0
    ],
    "_percent_": true,
    "_responsiveData_": {},
    "_skin_": "s24c92fc23b14f5484b693ee9b8a9b35",
    "_spa_": {},
    "_spaan_": {},
    "_spaandroidtablet_": {},
    "_spabb_": {},
    "_spaip_": {},
    "_spaipad_": {},
    "_spamobile_": {},
    "_spatablet_": {},
    "_spawindowstablet_": {},
    "_spawinphone8_": {},
    "_tabrcandroid_": {},
    "_top_": {
        "type": "string",
        "value": "0dp"
    },
    "_vizProps_": {
        "hidewidgethierarchy": false
    },
    "_width_": {
        "type": "string",
        "value": "100%"
    },
    "_windows10_": {},
    "_windows8_": {},
    "_winphone10_": {},
    "_winphone8_": {},
    "areflexpropsreferenced": false,
    "autogrowmode": 0,
    "canUpdateUI": true,
    "clipbounds": true,
    "containerweight": 0,
    "dataDiffs": {
        "btnContactUs": {
            "__events__": {},
            "__info__": {
                "kuid": "f0265b21387e49689bfc66a6a9e6a6e9",
                "srcKUID": "ecc25bc7153f457ab1ba632ef717cd45",
                "wType": "Button"
            }
        },
        "btnFaqs": {
            "__events__": {},
            "__info__": {
                "kuid": "ac5e615f13414157962e7d89ff05b696",
                "srcKUID": "b944dd400d92446cac05298aa3a9c3ac",
                "wType": "Button"
            }
        },
        "btnLocateUs": {
            "__events__": {},
            "__info__": {
                "kuid": "i211e7951a0340efaa6956b693d50f45",
                "srcKUID": "cba2d54eb0404403a4e4114e564327e5",
                "wType": "Button"
            }
        },
        "btnPrivacy": {
            "__events__": {},
            "__info__": {
                "kuid": "e874f4c13e764941b4ab3b19c7da7358",
                "srcKUID": "fe75665892ee4a40970c4666de147ae2",
                "wType": "Button"
            }
        },
        "btnTermsAndConditions": {
            "__events__": {},
            "__info__": {
                "kuid": "d87d5aed1b1e470a9f145dcf780ba3cd",
                "srcKUID": "a9613de4c0cb40d0afdd09fc05d3dc16",
                "wType": "Button"
            }
        },
        "customfooternew": {
            "__events__": {},
            "__info__": {
                "isRoot": true,
                "kuid": "dc54dbd644014e7a9575a82b4f99364d",
                "srcKUID": "fa97e826f07b4e11b7b2f05a53498e1b",
                "wType": "FlexContainer"
            }
        },
        "flxFooterMenu": {
            "__events__": {},
            "__info__": {
                "kuid": "dc4b172f656e4b44ac98740aa144dcc8",
                "srcKUID": "c3f613e8e19b466e9898f5923eac6dac",
                "wType": "FlexContainer"
            }
        },
        "flxVBar1": {
            "__events__": {},
            "__info__": {
                "kuid": "ad1c57f1c2064e60a26f04eeb7487fda",
                "srcKUID": "a88c7eae5e8a4493a5be272244d91c7a",
                "wType": "FlexContainer"
            }
        },
        "flxVBar2": {
            "__events__": {},
            "__info__": {
                "kuid": "f04d9d1c674c4b69ab82e85200e50b74",
                "srcKUID": "a0d2718b24fe44de91b15f2e637a8e2d",
                "wType": "FlexContainer"
            }
        },
        "flxVBar3": {
            "__events__": {},
            "__info__": {
                "kuid": "dcd0fa23b6224369831cf2853e844e67",
                "srcKUID": "ae43b076561248bfae9a405e4e555487",
                "wType": "FlexContainer"
            }
        },
        "flxVBar4": {
            "__events__": {},
            "__info__": {
                "kuid": "ja3a29dc06604462882407088cd6bb4a",
                "srcKUID": "cf28e38a18f048a390e3daad3458ffda",
                "wType": "FlexContainer"
            }
        },
        "imgFooterIconOne": {
            "__events__": {},
            "__info__": {
                "kuid": "d5a6340659bd4ef187074c0c23a77744",
                "srcKUID": "b68329dce07e4f06bda4965244150751",
                "wType": "Image"
            }
        },
        "imgFooterIconThree": {
            "__events__": {},
            "__info__": {
                "kuid": "a643cb2dc6dc4e05b3a1bd95cdab248c",
                "srcKUID": "ab2e9617d03b4611bfeaff54271952d9",
                "wType": "Image"
            }
        },
        "imgFooterIconTwo": {
            "__events__": {},
            "__info__": {
                "kuid": "a087e04d409b49c88a942fa98c7d128f",
                "srcKUID": "b6938079c04a48afae1d515976363dc6",
                "wType": "Image"
            }
        },
        "lblCopyright": {
            "__events__": {},
            "__info__": {
                "kuid": "g7eb1fc1a75e44278899f852644aa6fd",
                "srcKUID": "ee2d73ee228d46d0978a62aae45e4cda",
                "wType": "Label"
            }
        }
    },
    "enablescrolling": true,
    "id": "customfooternew",
    "info": null,
    "isdatareferenced": false,
    "isvisible": true,
    "kuid": "dc54dbd644014e7a9575a82b4f99364d",
    "layouttype": 2,
    "masterType": 0,
    "name": "kony.ui.UserWidgetInstance",
    "parent": "flxFooter",
    "pf": "frmWireTransferOneTimePaymentStep2",
    "snapgridsize": 10,
    "snaptogrid": true,
    "sourceUserWidget": "fa97e826f07b4e11b7b2f05a53498e1b",
    "wType": "UserWidgetInstance"
}