{
	 "@class": "com.kony.gen.viz.model.component.KVizLabel",
	 "DNDConfig": null,
	 "__parentReadjusting__": false,
	 "_height_": {
		 "type": "ref",
		 "value": "preferred"
	},
	 "_left_": {
		 "type": "string",
		 "value": "30dp"
	},
	 "_margin_": [
		 1,
		 1,
		 1,
		 1
	],
	 "_padding_": [
		 0,
		 0,
		 0,
		 0
	],
	 "_skin_": "se56454286124fef97a46e7249497088",
	 "_text_": "TO: RYAN'S PERSONAL CHECKING",
	 "_top_": {
		 "type": "string",
		 "value": "16dp"
	},
	 "_width_": {
		 "type": "ref",
		 "value": "preferred"
	},
	 "_wrapping_": 2,
	 "android": {
		 "textStyle": {
			 "letterSpacing": 0,
			 "strikeThrough": false
		}
	},
	 "canUpdateUI": true,
	 "containerweight": 100,
	 "contentalignment": 4,
	 "id": "lblStep3To",
	 "info": null,
	 "ipad": {
		 "psp": {
			 "wrapping": 2
		}
	},
	 "iphone": {
		 "psp": {
			 "wrapping": 2
		}
	},
	 "isvisible": true,
	 "kuid": "ie0c0980673c459b930a508aeb10b889",
	 "name": "kony.ui.Label",
	 "parent": "flxStep3ToBank",
	 "pf": "userwidgetmodel",
	 "tooltip": "",
	 "wType": "Label",
	 "zindex": 1,
	 "accessibilityconfig": {
		 "a11yLabel": "TO: RYANS PERSONAL CHECKING"
	}
}