{
    "@class": "com.kony.gen.viz.model.component.KVizLabel",
    "DNDConfig": null,
    "__parentReadjusting__": false,
    "_height_": {
        "type": "ref",
        "value": "preferred"
    },
    "_left_": {
        "type": "string",
        "value": "3%"
    },
    "_margin_": [
        1,
        1,
        1,
        1
    ],
    "_padding_": [
        0,
        0,
        0,
        0
    ],
    "_skin_": "s575c3b3144e40cf911f587474d3ad72",
    "_text_": "Label",
    "_top_": {
        "type": "string",
        "value": "25dp"
    },
    "_width_": {
        "type": "ref",
        "value": "preferred"
    },
    "_wrapping_": 2,
    "android": {
        "textStyle": {
            "letterSpacing": 0,
            "strikeThrough": false
        }
    },
    "canUpdateUI": true,
    "containerweight": 100,
    "contentalignment": 4,
    "id": "lblFeeGuidelines",
    "info": null,
    "ipad": {
        "psp": {
            "wrapping": 2
        }
    },
    "iphone": {
        "psp": {
            "wrapping": 2
        }
    },
    "iscustomlayout": false,
    "isvisible": true,
    "kuid": "a1812208c0984d6fa5613b85006fca44",
    "name": "kony.ui.Label",
    "parent": "flxLeftContent",
    "pf": "frmP2PNotEligible",
    "retaincontentalignment": false,
    "retainflexpositionproperties": false,
    "texti18n": "i18n.p2p.activateP2pGuidelinesTitle",
    "tooltip": "",
    "wType": "Label",
    "zindex": 1
}