{
    "@class": "com.kony.gen.viz.model.container.KVizSegment2",
    "DNDConfig": null,
    "_data_": [],
	"_height_": {
        "type": "ref",
        "value": "preferred"
    },
    "_indicator_": "none",
    "_left_": {
        "type": "string",
        "value": "21dp"
    },
    "_margin_": [
        0,
        0,
        0,
        0
    ],
    "_orientation_": 2,
    "_padding_": [
        0,
        0,
        0,
        0
    ],
    "_top_": {
        "type": "string",
        "value": "5px"
    },
    "_width_": {
        "type": "string",
        "value": "100%"
    },
    "autogrowmode": 1,
    "canUpdateUI": true,
    "containerweight": 100,
    "counter": "09",
    "focusedindex": null,
    "focuseditem": null,
    "groupcells": false,
    "hasSections": false,
    "id": "segRolePermissions",
    "info": null,
    "ipad": {
        "psp": {
            "indicator": "rowselect"
        }
    },
    "iphone": {
        "psp": {
            "indicator": "rowselect"
        }
    },
    "iscustomlayout": false,
    "isvisible": true,
    "kuid": "e4580ebb58de4b8aac5bb41ad4785976",
    "masterdata": {},
    "name": "kony.ui.SegmentedUI2",
    "needpageindicator": true,
    "pageoffdotimage": "pageoffdot.png",
    "pageondotimage": "pageondot.png",
    "paginationconfig": {
        "position": "bottom"
    },
    "parent": "flxUserRoles",
    "pf": "frmNonAccountLevelFeature",
    "responsiveData": {
        "b1": {
            "left": {
                "type": "string",
                "value": "0dp"
            }
        },
        "b2": {
            "left": {
                "type": "string",
                "value": "0dp"
            }
        },
        "b3": {},
        "b4": {
            "left": {
                "type": "string",
                "value": "0dp"
            }
        }
    },
    "retaincontentalignment": false,
    "retainflexpositionproperties": false,
    "retainselection": false,
    "rowTemplateId": "e96c23d4262a4fdcad68c44d85793905",
    "rowcounter": 9,
    "rowfocusskin": "s0f9bf3c1b3e4a7bb6bf9fd18b0211f2",
    "rowskin": "scf5f90f6ac04976ab88b2a4f7153285",
    "rowtemplate": "flxUserManagementFeaturePermissionsDesktop",
    "screenlevelwidget": false,
    "seccounter": 0,
    "sectionHeaderTemplateId": null,
    "sectionheaderskin": "sdc4ff4ed1584272be2ae69045dfb29d",
    "selectedRows": null,
    "selectedState": false,
    "selectedindex": null,
    "selectedindices": null,
    "selecteditems": null,
    "selectedsectionindex": 0,
    "selectionbehavior": "default",
    "separatorrequired": false,
    "showscrollbars": false,
    "viewtype": "tableview",
    "vizProps": {},
    "wType": "Segment",
    "widgetalignment": 5,
    "widgetdatamap": {
        "flxAction1": "flxAction1",
        "flxAction10": "flxAction10",
        "flxAction11": "flxAction11",
        "flxAction12": "flxAction12",
        "flxAction13": "flxAction13",
        "flxAction14": "flxAction14",
        "flxAction15": "flxAction15",
        "flxAction16": "flxAction16",
        "flxAction17": "flxAction17",
        "flxAction18": "flxAction18",
        "flxAction19": "flxAction19",
        "flxAction2": "flxAction2",
        "flxAction20": "flxAction20",
        "flxAction3": "flxAction3",
        "flxAction4": "flxAction4",
        "flxAction5": "flxAction5",
        "flxAction6": "flxAction6",
        "flxAction7": "flxAction7",
        "flxAction8": "flxAction8",
        "flxAction9": "flxAction9",
        "flxClickAction1": "flxClickAction1",
        "flxClickAction10": "flxClickAction10",
        "flxClickAction11": "flxClickAction11",
        "flxClickAction12": "flxClickAction12",
        "flxClickAction13": "flxClickAction13",
        "flxClickAction14": "flxClickAction14",
        "flxClickAction15": "flxClickAction15",
        "flxClickAction16": "flxClickAction16",
        "flxClickAction17": "flxClickAction17",
        "flxClickAction18": "flxClickAction18",
        "flxClickAction19": "flxClickAction19",
        "flxClickAction2": "flxClickAction2",
        "flxClickAction20": "flxClickAction20",
        "flxClickAction3": "flxClickAction3",
        "flxClickAction4": "flxClickAction4",
        "flxClickAction5": "flxClickAction5",
        "flxClickAction6": "flxClickAction6",
        "flxClickAction7": "flxClickAction7",
        "flxClickAction8": "flxClickAction8",
        "flxClickAction9": "flxClickAction9",
        "flxPermission1": "flxPermission1",
        "flxPermission2": "flxPermission2",
        "flxPermissionClickable": "flxPermissionClickable",
        "flxPermissionTooltip": "flxPermissionTooltip",
        "flxPermissions": "flxPermissions",
        "flxSelectionRow1": "flxSelectionRow1",
        "flxSelectionRow2": "flxSelectionRow2",
        "flxSelectionRow3": "flxSelectionRow3",
        "flxSelectionRow4": "flxSelectionRow4",
        "flxSelectionRow5": "flxSelectionRow5",
        "flxSeperator0": "flxSeperator0",
        "flxShowDescription": "flxShowDescription",
        "flxTooltip": "flxTooltip",
        "flxUserManagementFeaturePermissionsDesktop": "flxUserManagementFeaturePermissionsDesktop",
        "lblAction1": "lblAction1",
        "lblAction10": "lblAction10",
        "lblAction11": "lblAction11",
        "lblAction12": "lblAction12",
        "lblAction13": "lblAction13",
        "lblAction14": "lblAction14",
        "lblAction15": "lblAction15",
        "lblAction16": "lblAction16",
        "lblAction17": "lblAction17",
        "lblAction18": "lblAction18",
        "lblAction19": "lblAction19",
        "lblAction2": "lblAction2",
        "lblAction20": "lblAction20",
        "lblAction3": "lblAction3",
        "lblAction4": "lblAction4",
        "lblAction5": "lblAction5",
        "lblAction6": "lblAction6",
        "lblAction7": "lblAction7",
        "lblAction8": "lblAction8",
        "lblAction9": "lblAction9",
        "lblDescription": "lblDescription",
        "lblFeatureSeparator": "lblFeatureSeparator",
        "lblPermissionName": "lblPermissionName",
        "lblTickBox1": "lblTickBox1",
        "lblTickBox10": "lblTickBox10",
        "lblTickBox11": "lblTickBox11",
        "lblTickBox12": "lblTickBox12",
        "lblTickBox13": "lblTickBox13",
        "lblTickBox14": "lblTickBox14",
        "lblTickBox15": "lblTickBox15",
        "lblTickBox16": "lblTickBox16",
        "lblTickBox17": "lblTickBox17",
        "lblTickBox18": "lblTickBox18",
        "lblTickBox19": "lblTickBox19",
        "lblTickBox2": "lblTickBox2",
        "lblTickBox20": "lblTickBox20",
        "lblTickBox3": "lblTickBox3",
        "lblTickBox4": "lblTickBox4",
        "lblTickBox5": "lblTickBox5",
        "lblTickBox6": "lblTickBox6",
        "lblTickBox7": "lblTickBox7",
        "lblTickBox8": "lblTickBox8",
        "lblTickBox9": "lblTickBox9",
        "lblimgPermissions": "lblimgPermissions",
        "lbltooltip": "lbltooltip"
    },
    "zindex": 1
}