{
    "DNDConfig": null,
    "_height_": {
        "type": "string",
        "value": "74dp"
    },
    "_left_": {
        "type": "string",
        "value": "83dp"
    },
    "_margin_": [
        0,
        0,
        0,
        0
    ],
    "_orientation_": 6,
    "_padding_": [
        0,
        0,
        0,
        0
    ],
    "_percent_": true,
    "_skin_": "s9f0c4bc0cd8418da924fd6b0065e2a7",
    "_top_": {
        "type": "string",
        "value": "0dp"
    },
    "_width_": {
        "type": "string",
        "value": "87.84%"
    },
    "allboxes": [],
    "canUpdateUI": true,
    "centerx": {
        "type": "number",
        "value": ""
    },
    "children": [
        "lblContentHeader",
        "lblEmail",
        "lblUserName"
    ],
    "clipbounds": true,
    "containerweight": 100,
    "enablescrolling": true,
    "id": "flxContentHeader",
    "info": null,
    "iscustomlayout": false,
    "isvisible": true,
    "kuid": "cbdaf893c6df4d4c8016be111230f5de",
    "layouttype": 2,
    "name": "kony.ui.FlexContainer",
    "parent": "flxContentContainer",
    "pf": "frmFeaturePermissions",
    "responsiveData": {
        "b2": {
            "centerX": {
                "type": "string",
                "value": "50%"
            },
            "height": {
                "type": "string",
                "value": "55dp"
            },
            "left": {
                "type": "string",
                "value": "3.25%"
            },
            "width": {
                "type": "string",
                "value": "93.50%"
            }
        },
        "b3": {
            "isVisible": false,
            "width": {
                "type": "string",
                "value": "0%"
            }
        },
        "b4": {
            "left": {
                "type": "string",
                "value": "6.07%"
            }
        }
    },
    "retaincontentalignment": false,
    "retainflexpositionproperties": false,
    "snapgridsize": 10,
    "snaptogrid": true,
    "wType": "FlexContainer",
    "widgetalignment": 1,
    "zindex": 1
}