{
    "DNDConfig": null,
    "_bottom_": {
        "type": "string",
        "value": "20dp"
    },
    "_height_": {
        "type": "ref",
        "value": "preferred"
    },
    "_left_": {
        "type": "string",
        "value": "80dp"
    },
    "_margin_": [
        0,
        0,
        0,
        0
    ],
    "_orientation_": 6,
    "_padding_": [
        0,
        0,
        0,
        0
    ],
    "_percent_": true,
    "_skin_": "secff68ee7904525acebc42c36c39094",
    "_top_": {
        "type": "string",
        "value": "0dp"
    },
    "_width_": {
        "type": "string",
        "value": "90%"
    },
    "allboxes": [],
    "autogrowmode": 1,
    "canUpdateUI": true,
    "centerx": {
        "type": "number",
        "value": ""
    },
    "children": [
        "flxCustomRoleInfo",
        "flxRoleMainContainer",
        "flxSearchRoleButton"
    ],
    "clipbounds": false,
    "containerweight": 100,
    "enablescrolling": true,
    "id": "flxSelectRole",
    "info": null,
    "isvisible": false,
    "kuid": "h645340f000547db9fece0b565bfe03a",
    "layouttype": 4,
    "name": "kony.ui.FlexContainer",
    "parent": "flxBBCopyPermissionsWrapper",
    "pf": "frmFeaturePermissions",
    "responsiveData": {
        "b1": {
            "bottom": {
                "type": "string",
                "value": "0dp"
            },
            "centerX": {
                "type": "string",
                "value": "50%"
            },
            "isVisible": true,
            "left": {
                "type": "string",
                "value": "0dp"
            },
            "width": {
                "type": "string",
                "value": "100%"
            }
        },
        "b2": {
            "centerX": {
                "type": "string",
                "value": "50%"
            },
            "height": {
                "type": "ref",
                "value": "preferred"
            },
            "isVisible": true,
            "left": {
                "type": "string",
                "value": "0dp"
            },
            "width": {
                "type": "string",
                "value": "95.40%"
            }
        },
        "b3": {
            "height": {
                "type": "ref",
                "value": "preferred"
            }
        },
        "b4": {
            "bottom": {
                "type": "string",
                "value": "0dp"
            },
            "centerX": {
                "type": "string",
                "value": "50%"
            },
            "height": {
                "type": "ref",
                "value": "preferred"
            },
            "isVisible": true,
            "left": {
                "type": "string",
                "value": "0dp"
            },
            "width": {
                "type": "string",
                "value": "100%"
            }
        }
    },
    "snapgridsize": 10,
    "snaptogrid": true,
    "wType": "FlexContainer",
    "widgetalignment": 1,
    "zindex": 1
}