{
    "@class": "com.kony.gen.viz.model.component.KVizImage2",
    "DNDConfig": null,
    "_base64_": null,
    "_height_": {
        "type": "string",
        "value": "15dp"
    },
    "_left_": {
        "type": "number",
        "value": "0"
    },
    "_margin_": [
        0,
        0,
        0,
        0
    ],
    "_padding_": [
        0,
        0,
        0,
        0
    ],
    "_skin_": "s8ee487de5774c1eb668e74bf92f5cdd",
    "_src_": "arrow_up.png",
    "_width_": {
        "type": "string",
        "value": "15dp"
    },
    "accessibilityconfig": {
        "a11yLabel": "Dropdown",
        "a11yValue": ""
    },
    "canUpdateUI": true,
    "centery": {
        "type": "string",
        "value": "50%"
    },
    "containerweight": 100,
    "id": "imgCustomRoleCollapse",
    "imagescalemode": 1,
    "imagewhiledownloading": "img_transparent.png",
    "info": null,
    "invokedProperty": "src",
    "isvisible": false,
    "kuid": "if76f47ee64f47fd8f22f8060419e6b2",
    "name": "kony.ui.Image2",
    "parent": "flxCustomRoleCollapse",
    "pf": "frmFeaturePermissions",
    "responsiveData": {
        "b2": {
            "isVisible": false
        }
    },
    "srcType": 1,
    "tooltip": "up_arrow",
    "wType": "Image",
    "widgetalignment": 5,
    "zindex": 1
}