{
    "@class": "com.kony.gen.viz.model.component.KVizLabel",
    "DNDConfig": null,
    "_bottom_": {
        "type": "number",
        "value": ""
    },
    "_height_": {
        "type": "ref",
        "value": "preferred"
    },
    "_left_": {
        "type": "string",
        "value": "0"
    },
    "_margin_": [
        1,
        1,
        1,
        1
    ],
    "_padding_": [
        0,
        0,
        0,
        0
    ],
    "_right_": {
        "type": "number",
        "value": ""
    },
    "_skin_": "sc39b68cb14e457b9b79ba3c8c3b88d1",
    "_text_": "Label",
    "_top_": {
        "type": "string",
        "value": "0"
    },
    "_width_": {
        "type": "ref",
        "value": "preferred"
    },
    "_wrapping_": 2,
    "android": {
        "textStyle": {
            "letterSpacing": 0,
            "strikeThrough": false
        }
    },
    "canUpdateUI": true,
    "containerweight": 100,
    "contentalignment": 4,
    "id": "lblManual",
    "info": null,
    "ipad": {
        "psp": {
            "wrapping": 2
        }
    },
    "iphone": {
        "psp": {
            "wrapping": 2
        }
    },
    "iscustomlayout": false,
    "isvisible": true,
    "kuid": "i0050bd187994f678de5034876080c49",
    "name": "kony.ui.Label",
    "parent": "flxRoleCreation",
    "pf": "frmFeaturePermissions",
    "responsiveData": {
        "b1": {
            "left": {
                "type": "string",
                "value": "64px"
            },
            "skin": "sb8893d61f294db38ca0567cbecfbaa9",
            "text": "Manually",
            "top": {
                "type": "string",
                "value": "38px"
            }
        },
        "b2": {
            "bottom": {
                "type": "string",
                "value": ""
            },
            "height": {
                "type": "ref",
                "value": "preferred"
            },
            "left": {
                "type": "string",
                "value": "64px"
            },
            "right": {
                "type": "string",
                "value": ""
            },
            "skin": "sb8893d61f294db38ca0567cbecfbaa9",
            "text": "Manually",
            "top": {
                "type": "string",
                "value": "38px"
            }
        },
        "b4": {
            "left": {
                "type": "string",
                "value": "64px"
            },
            "skin": "sb8893d61f294db38ca0567cbecfbaa9",
            "text": "Manually",
            "top": {
                "type": "string",
                "value": "38px"
            }
        }
    },
    "retaincontentalignment": false,
    "retainflexpositionproperties": false,
    "tooltip": "",
    "wType": "Label"
}