{
    "@class": "com.kony.gen.viz.model.component.KVizButton",
    "DNDConfig": null,
    "__parentReadjusting__": false,
    "_height_": {
        "type": "ref",
        "value": "preferred"
    },
    "_left_": {
        "type": "string",
        "value": "14.36%"
    },
    "_margin_": [
        6,
        6,
        6,
        6
    ],
    "_padding_": [
        0,
        0,
        0,
        0
    ],
    "_skin_": "se4cbdf6e51f48eda9966caa941c6a19",
    "_text_": "Platinum card.pdf",
    "_top_": {
        "type": "string",
        "value": "15dp"
    },
    "_width_": {
        "type": "ref",
        "value": "preferred"
    },
    "accessibilityconfig": {
        "a11yLabel": "Platinum Card.pdf"
    },
    "canUpdateUI": true,
    "centery": {
        "type": "string",
        "value": "49.70%"
    },
    "containerweight": 100,
    "contentalignment": 5,
    "disabledSkins": {
        "focusSkin": "sf44d06ca8224832827ea7fdff757013"
    },
    "displaytext": true,
    "focusskin": null,
    "id": "btnDocument",
    "info": null,
    "isvisible": true,
    "kuid": "dce05d4b0f8649f49276b0d365cb0787",
    "name": "kony.ui.Button",
    "parent": "flxPDF",
    "pf": "frmEnrollNow",
    "texti18n": "i18n.ProfileManagement.PlatinumCard",
    "tooltip": "Platinum Card.pdf",
    "wType": "Button",
    "zindex": 1
}