{
    "DNDConfig": null,
    "__parentReadjusting__": false,
    "_height_": {
        "type": "string",
        "value": "440dp"
    },
    "_left_": {
        "type": "number",
        "value": ""
    },
    "_margin_": [
        0,
        0,
        0,
        0
    ],
    "_orientation_": 6,
    "_padding_": [
        0,
        0,
        0,
        0
    ],
    "_percent_": true,
    "_skin_": "s24c92fc23b14f5484b693ee9b8a9b35",
    "_top_": {
        "type": "string",
        "value": "147dp"
    },
    "_width_": {
        "type": "string",
        "value": "389dp"
    },
    "allboxes": [],
    "canUpdateUI": true,
    "centerx": {
        "type": "string",
        "value": "50%"
    },
    "children": [
        "EnrollAlert"
    ],
    "clipbounds": false,
    "containerweight": 100,
    "enablescrolling": true,
    "id": "flxEnrollOrServerError",
    "info": null,
    "isvisible": false,
    "kuid": "d739c795e303408fb14ef6f458ec5734",
    "layouttype": 2,
    "name": "kony.ui.FlexContainer",
    "parent": "flxMain",
    "pf": "frmEnrollNow",
    "responsiveData": {
        "b1": {
            "centerX": {
                "type": "string",
                "value": ""
            },
            "height": {
                "type": "string",
                "value": "100%"
            },
            "isVisible": false,
            "left": {
                "type": "number",
                "value": "0"
            },
            "top": {
                "type": "string",
                "value": "0dp"
            },
            "width": {
                "type": "string",
                "value": "500dp"
            },
            "zIndex": 1
        },
        "b2": {
            "height": {
                "type": "string",
                "value": "630dp"
            },
            "isVisible": false,
            "skin": "se4af1e5d8854976a96d72cd927c5b64",
            "top": {
                "type": "string",
                "value": "60dp"
            },
            "width": {
                "type": "string",
                "value": "60%"
            }
        },
        "b3": {
            "height": {
                "type": "string",
                "value": "630dp"
            },
            "isVisible": false,
            "top": {
                "type": "string",
                "value": "40dp"
            },
            "width": {
                "type": "string",
                "value": "85%"
            }
        },
        "b4": {
            "centerX": {
                "type": "string",
                "value": "50%"
            },
            "height": {
                "type": "string",
                "value": "630dp"
            },
            "isVisible": false,
            "skin": "se4af1e5d8854976a96d72cd927c5b64",
            "top": {
                "type": "string",
                "value": "60dp"
            },
            "width": {
                "type": "string",
                "value": "70%"
            }
        }
    },
    "snapgridsize": 10,
    "snaptogrid": true,
    "wType": "FlexContainer",
    "widgetalignment": 1,
    "zindex": 1
}