{
    "@class": "com.kony.gen.viz.model.component.KVizUserWidget",
    "DNDConfig": null,
    "__parentReadjusting__": false,
    "_android_": {},
    "_androidwearos_": {},
    "_children_": [],
    "_desktopweb_": {},
    "_height_": {
        "type": "string",
        "value": "420dp"
    },
    "_ipad_": {},
    "_iphone_": {},
    "_kiosk_": {},
    "_left_": {
        "type": "string",
        "value": "0dp"
    },
    "_margin_": [
        0,
        0,
        0,
        0
    ],
    "_orientation_": 1,
    "_padding_": [
        0,
        0,
        0,
        0
    ],
    "_percent_": true,
    "_render_": true,
    "_responsiveData_": {
        "b1": {
            "height": {
                "type": "string",
                "value": "100%"
            }
        }
    },
    "_skin_": "s1d5d3417cb74ec9883e5f01b8521945",
    "_spa_": {},
    "_spaan_": {},
    "_spaandroidtablet_": {},
    "_spabb_": {},
    "_spaip_": {},
    "_spaipad_": {},
    "_spamobile_": {},
    "_spatablet_": {},
    "_spawindowstablet_": {},
    "_spawinphone8_": {},
    "_tabrcandroid_": {},
    "_top_": {
        "type": "string",
        "value": "0dp"
    },
    "_vizProps_": {
        "hidewidgethierarchy": false
    },
    "_width_": {
        "type": "string",
        "value": "100%"
    },
    "_windows10_": {},
    "_windows8_": {},
    "_winphone10_": {},
    "_winphone8_": {},
    "areflexpropsreferenced": false,
    "canUpdateUI": true,
    "clipbounds": false,
    "containerweight": 0,
    "dataDiffs": {
        "ForgotUsernamePassword": {
            "__events__": {},
            "__info__": {
                "isRoot": true,
                "kuid": "c23c20cd8e4f4b6daba7c08b03273177",
                "srcKUID": "2f71d3434a5646e9bfd6e2e7f17e561f",
                "wType": "FlexContainer"
            },
            "autogrowMode": {
                "Default": 0
            },
            "height": {},
            "responsiveData": {
                "b1": {
                    "height": {
                        "type": "string",
                        "value": "100%"
                    }
                }
            }
        },
        "btnLoginLater": {
            "__events__": {},
            "__info__": {
                "kuid": "cdf85e34c6b340b8bf2b52a8d9f5f898",
                "srcKUID": "38b79c5c9df4474ea6236f3922f126b8",
                "wType": "Button"
            },
            "responsiveData": {
                "b4": {
                    "top": {
                        "type": "string",
                        "value": "50dp"
                    }
                }
            }
        },
        "btnProceed": {
            "__events__": {},
            "__info__": {
                "kuid": "d05517622f774a50ae25656fb9b875c3",
                "srcKUID": "9e45dad527f946d1a84e7f8c9fe6220c",
                "wType": "Button"
            },
            "height": {},
            "i18n_text": "i18n.login.BackToLogin",
            "responsiveData": {
                "b1": {
                    "height": {
                        "type": "string",
                        "value": "40dp"
                    },
                    "top": {
                        "type": "string",
                        "value": "30dp"
                    },
                    "width": {
                        "type": "string",
                        "value": "68%"
                    }
                },
                "b4": {
                    "top": {
                        "type": "string",
                        "value": "38px"
                    }
                }
            },
            "top": {},
            "width": {}
        },
        "flxUserImagewithTick": {
            "__events__": {},
            "__info__": {
                "kuid": "i83a48ba50e34df9b967ccf4229f4970",
                "srcKUID": "b26c84a650cb437f9f17569b01eee64f",
                "wType": "FlexContainer"
            },
            "responsiveData": {
                "b1": {
                    "top": {
                        "type": "string",
                        "value": "18%"
                    }
                },
                "b2": {
                    "top": {
                        "type": "string",
                        "value": "130dp"
                    }
                },
                "b3": {
                    "top": {
                        "type": "string",
                        "value": "130dp"
                    }
                },
                "b4": {
                    "top": {
                        "type": "string",
                        "value": "131dp"
                    }
                }
            },
            "top": {}
        },
        "imgTickFrame": {
            "__events__": {},
            "__info__": {
                "kuid": "b2006de7e4624fcda620d9eba84ce617",
                "srcKUID": "430b1153170e47a2a79f2fa2e30638b3",
                "wType": "Image"
            }
        },
        "imgUserwithoutTick": {
            "__events__": {},
            "__info__": {
                "kuid": "h301dd209df348c4b6eda361ed4e46a7",
                "srcKUID": "ea7515707de746bbbeadc010d45b576f",
                "wType": "Image"
            }
        },
        "lblAcknowledgement": {
            "__events__": {},
            "__info__": {
                "kuid": "c2c63c529716451ab40bad39d09d07fd",
                "srcKUID": "dff022e4c43a4da98b65580c1e542d36",
                "wType": "Label"
            },
            "responsiveData": {
                "b1": {
                    "top": {
                        "type": "string",
                        "value": "24dp"
                    },
                    "width": {
                        "type": "string",
                        "value": "59.62%"
                    }
                },
                "b4": {
                    "top": {
                        "type": "string",
                        "value": "14px"
                    }
                }
            },
            "top": {},
            "width": {}
        },
        "lblMessage": {
            "__events__": {},
            "__info__": {
                "kuid": "b6ed34a5dbc84999b2a4cd518d35fdbd",
                "srcKUID": "13645d4bd8954591867020a0c19dcc00",
                "wType": "Label"
            },
            "responsiveData": {
                "b1": {
                    "text": "If you have forgot your username or password, please use the forgot option.",
                    "top": {
                        "type": "string",
                        "value": "6%"
                    },
                    "width": {
                        "type": "string",
                        "value": "70%"
                    }
                },
                "b4": {
                    "top": {
                        "type": "string",
                        "value": "81dp"
                    }
                }
            },
            "text": "If you have forgot your username or password , please use the forgot option.",
            "top": {},
            "width": {}
        }
    },
    "id": "ForgotUsernamePassword",
    "info": null,
    "isdatareferenced": false,
    "isvisible": true,
    "kuid": "c23c20cd8e4f4b6daba7c08b03273177",
    "layouttype": 4,
    "masterType": 0,
    "name": "kony.ui.UserWidgetInstance",
    "parent": "flxusernamepassword",
    "pf": "frmEnrollNow",
    "snapgridsize": 10,
    "snaptogrid": true,
    "sourceUserWidget": "2f71d3434a5646e9bfd6e2e7f17e561f",
    "vizprops": {
        "hidewidgethierarchy": false
    },
    "wType": "UserWidgetInstance"
}