{
    "@class": "com.kony.gen.viz.model.component.KVizImage2",
    "DNDConfig": null,
    "__parentReadjusting__": false,
    "_base64_": null,
    "_height_": {
        "type": "string",
        "value": "31dp"
    },
    "_left_": {
        "type": "string",
        "value": "6.07%"
    },
    "_margin_": [
        0,
        0,
        0,
        0
    ],
    "_padding_": [
        0,
        0,
        0,
        0
    ],
    "_skin_": "s78a5f26c9f14cec9ebed1bb46098f80",
    "_src_": "kony_logo.png",
    "_top_": {
        "type": "string",
        "value": "30dp"
    },
    "_width_": {
        "type": "string",
        "value": "102dp"
    },
    "accessibilityconfig": {
        "a11yLabel": "Header Kony Logo",
        "a11yValue": ""
    },
    "canUpdateUI": true,
    "centerx": {
        "type": "number",
        "value": ""
    },
    "containerweight": 100,
    "context": {
        "channel": "desktop",
        "formID": "frmEnrollNow",
        "platform": "desktopweb",
        "templateType": "forms",
        "topLevelBox": null
    },
    "id": "imgKony",
    "imagescalemode": 1,
    "imagewhiledownloading": "img_transparent.png",
    "info": null,
    "invokedProperty": "src",
    "isvisible": true,
    "kuid": "j289582253964e509ede37356499d971",
    "minwidth": {
        "type": "number",
        "value": ""
    },
    "name": "kony.ui.Image2",
    "parent": "flxMain",
    "pf": "frmEnrollNow",
    "responsiveData": {
        "b1": {
            "centerX": {
                "type": "string",
                "value": ""
            },
            "height": {
                "type": "string",
                "value": "60dp"
            },
            "isVisible": false,
            "left": {
                "type": "string",
                "value": "59dp"
            },
            "src": "kony_logo.png",
            "top": {
                "type": "string",
                "value": "3%"
            },
            "width": {
                "type": "string",
                "value": "175dp"
            }
        },
        "b2": {
            "centerX": {
                "type": "string",
                "value": "50%"
            },
            "height": {
                "type": "string",
                "value": "50dp"
            },
            "isVisible": false,
            "left": {
                "type": "string",
                "value": "80dp"
            },
            "src": "kony_logo.png",
            "top": {
                "type": "string",
                "value": "100dp"
            },
            "width": {
                "type": "ref",
                "value": "preferred"
            }
        },
        "b3": {
            "centerX": {
                "type": "string",
                "value": "50%"
            },
            "height": {
                "type": "string",
                "value": "51dp"
            },
            "isVisible": false,
            "left": {
                "type": "string",
                "value": ""
            },
            "minWidth": {
                "type": "string",
                "value": ""
            },
            "src": "kony_logo.png",
            "top": {
                "type": "string",
                "value": "68dp"
            },
            "width": {
                "type": "ref",
                "value": "preferred"
            }
        },
        "b4": {
            "centerX": {
                "type": "string",
                "value": "50%"
            },
            "height": {
                "type": "string",
                "value": "50dp"
            },
            "isVisible": false,
            "left": {
                "type": "string",
                "value": ""
            },
            "src": "kony_logo.png",
            "top": {
                "type": "string",
                "value": "100dp"
            },
            "width": {
                "type": "ref",
                "value": "preferred"
            }
        }
    },
    "srcType": 1,
    "wType": "Image",
    "widgetalignment": 5,
    "zindex": 1
}