{
    "@class": "com.kony.gen.viz.model.component.KVizImage2",
    "DNDConfig": null,
    "__parentReadjusting__": false,
    "_base64_": null,
    "_height_": {
        "type": "string",
        "value": "16dp"
    },
    "_margin_": [
        0,
        0,
        0,
        0
    ],
    "_padding_": [
        0,
        0,
        0,
        0
    ],
    "_right_": {
        "type": "string",
        "value": "6%"
    },
    "_skin_": "s78a5f26c9f14cec9ebed1bb46098f80",
    "_src_": "view.png",
    "_width_": {
        "type": "string",
        "value": "22dp"
    },
    "accessibilityconfig": {
        "a11yLabel": "View",
        "a11yValue": ""
    },
    "canUpdateUI": true,
    "centery": {
        "type": "string",
        "value": "50%"
    },
    "containerweight": 100,
    "context": {
        "channel": "desktop",
        "formID": "frmEnrollNow",
        "platform": "desktopweb",
        "templateType": "forms",
        "topLevelBox": null
    },
    "id": "imgViewOTP",
    "imagescalemode": 1,
    "imagewhiledownloading": "img_transparent.png",
    "info": null,
    "isvisible": true,
    "kuid": "icb4a92abcfd4d68a4857c0f921b32a8",
    "name": "kony.ui.Image2",
    "parent": "flxOTP",
    "pf": "frmEnrollNow",
    "srcType": 1,
    "wType": "Image",
    "widgetalignment": 5,
    "zindex": 20
}