{
    "@class": "com.kony.gen.viz.model.component.KVizLabel",
    "DNDConfig": null,
    "__parentReadjusting__": false,
    "_height_": {
        "type": "ref",
        "value": "preferred"
    },
    "_left_": {
        "type": "number",
        "value": ""
    },
    "_margin_": [
        1,
        1,
        1,
        1
    ],
    "_padding_": [
        0,
        0,
        0,
        0
    ],
    "_skin_": "s18d3552bc4143569a7c5aef6bd5eaa1",
    "_text_": "Lets get started",
    "_top_": {
        "type": "string",
        "value": "30dp"
    },
    "_width_": {
        "type": "ref",
        "value": "preferred"
    },
    "_wrapping_": 2,
    "accessibilityconfig": {
        "a11yHidden": false,
        "a11yLabel": "Lets verify its you!"
    },
    "android": {
        "textStyle": {
            "letterSpacing": 0,
            "strikeThrough": false
        }
    },
    "canUpdateUI": true,
    "centerx": {
        "type": "string",
        "value": "44.00%"
    },
    "containerweight": 100,
    "contentalignment": 4,
    "id": "lblLetsgetStarted",
    "info": null,
    "ipad": {
        "psp": {
            "wrapping": 2
        }
    },
    "iphone": {
        "psp": {
            "wrapping": 2
        }
    },
    "isvisible": true,
    "kuid": "b505455824ba4460babfab738df7c456",
    "name": "kony.ui.Label",
    "parent": "flxLetsgetStarted",
    "pf": "frmEnrollNow",
    "responsiveData": {
        "b1": {
            "centerX": {
                "type": "string",
                "value": "46%"
            },
            "left": {
                "type": "string",
                "value": "71dp"
            },
            "top": {
                "type": "string",
                "value": "17dp"
            }
        },
        "b2": {
            "centerX": {
                "type": "string",
                "value": "50%"
            },
            "contentAlignment": 5,
            "top": {
                "type": "string",
                "value": "75dp"
            },
            "width": {
                "type": "string",
                "value": "70%"
            }
        },
        "b3": {
            "centerX": {
                "type": "string",
                "value": "50%"
            },
            "contentAlignment": 5,
            "left": {
                "type": "string",
                "value": "160dp"
            },
            "top": {
                "type": "string",
                "value": "70dp"
            },
            "width": {
                "type": "string",
                "value": "100%"
            }
        },
        "b4": {
            "centerX": {
                "type": "string",
                "value": "50%"
            },
            "top": {
                "type": "string",
                "value": "73dp"
            }
        }
    },
    "texti18n": "i18n.login.LetsVerify",
    "tooltip": "",
    "wType": "Label",
    "zindex": 1
}