{
    "@class": "com.kony.gen.viz.model.component.KVizLabel",
    "DNDConfig": null,
    "__parentReadjusting__": false,
    "_height_": {
        "type": "ref",
        "value": "preferred"
    },
    "_left_": {
        "type": "string",
        "value": "50dp"
    },
    "_margin_": [
        1,
        1,
        1,
        1
    ],
    "_padding_": [
        0,
        0,
        0,
        0
    ],
    "_skin_": "s2d800e3e18244b3b0795e5e5d6a0f77",
    "_text_": "Label",
    "_top_": {
        "type": "string",
        "value": "35dp"
    },
    "_width_": {
        "type": "ref",
        "value": "preferred"
    },
    "_wrapping_": 2,
    "accessibilityconfig": {
        "a11yLabel": "The code you entered is not correct. Please try again."
    },
    "android": {
        "textStyle": {
            "letterSpacing": 0,
            "strikeThrough": false
        }
    },
    "canUpdateUI": true,
    "centerx": {
        "type": "number",
        "value": ""
    },
    "containerweight": 100,
    "contentalignment": 5,
    "id": "lblWrongOTP",
    "info": null,
    "ipad": {
        "psp": {
            "wrapping": 2
        }
    },
    "iphone": {
        "psp": {
            "wrapping": 2
        }
    },
    "isvisible": false,
    "kuid": "d540fea2f1b94523afb6b525fbcd9633",
    "name": "kony.ui.Label",
    "parent": "flxHeaderNError",
    "pf": "frmEnrollNow",
    "responsiveData": {
        "b1": {
            "contentAlignment": 4,
            "isVisible": false,
            "left": {
                "type": "string",
                "value": "80dp"
            },
            "top": {
                "type": "string",
                "value": "28dp"
            },
            "width": {
                "type": "string",
                "value": "80%"
            }
        },
        "b2": {
            "centerX": {
                "type": "string",
                "value": "50%"
            },
            "isVisible": false,
            "left": {
                "type": "string",
                "value": ""
            },
            "top": {
                "type": "string",
                "value": "28dp"
            },
            "width": {
                "type": "string",
                "value": "90%"
            }
        },
        "b3": {
            "centerX": {
                "type": "string",
                "value": "50%"
            },
            "isVisible": false,
            "left": {
                "type": "string",
                "value": ""
            },
            "top": {
                "type": "string",
                "value": "5dp"
            },
            "width": {
                "type": "string",
                "value": "90%"
            }
        },
        "b4": {
            "centerX": {
                "type": "string",
                "value": "50%"
            },
            "contentAlignment": 5,
            "isVisible": false,
            "left": {
                "type": "string",
                "value": ""
            },
            "top": {
                "type": "string",
                "value": "5dp"
            },
            "width": {
                "type": "string",
                "value": "90%"
            }
        }
    },
    "texti18n": "i18n.login.incorrectOTP",
    "tooltip": "",
    "wType": "Label",
    "zindex": 1
}