{
    "@class": "com.kony.gen.viz.model.component.KVizLabel",
    "DNDConfig": null,
    "__parentReadjusting__": false,
    "_bottom_": {
        "type": "number",
        "value": ""
    },
    "_height_": {
        "type": "ref",
        "value": "preferred"
    },
    "_left_": {
        "type": "number",
        "value": ""
    },
    "_margin_": [
        1,
        1,
        1,
        1
    ],
    "_padding_": [
        0,
        0,
        0,
        0
    ],
    "_skin_": "s2d800e3e18244b3b0795e5e5d6a0f77",
    "_text_": "Label",
    "_top_": {
        "type": "string",
        "value": "59.8%"
    },
    "_width_": {
        "type": "string",
        "value": "84%"
    },
    "_wrapping_": 2,
    "accessibilityconfig": {
        "a11yLabel": "It seems that the information youve provided does not match with our records."
    },
    "android": {
        "textStyle": {
            "letterSpacing": 0,
            "strikeThrough": false
        }
    },
    "canUpdateUI": true,
    "centerx": {
        "type": "string",
        "value": "50%"
    },
    "containerweight": 100,
    "contentalignment": 1,
    "id": "lblWrongInfo",
    "info": null,
    "ipad": {
        "psp": {
            "wrapping": 2
        }
    },
    "iphone": {
        "psp": {
            "wrapping": 2
        }
    },
    "isvisible": false,
    "kuid": "e708c435f79e44fcade9855d23483652",
    "name": "kony.ui.Label",
    "parent": "flxLetsVerifyCntr",
    "pf": "frmEnrollNow",
    "responsiveData": {
        "b1": {
            "bottom": {
                "type": "string",
                "value": "10dp"
            },
            "isVisible": false,
            "top": {
                "type": "string",
                "value": "60dp"
            },
            "width": {
                "type": "string",
                "value": "70%"
            }
        },
        "b2": {
            "bottom": {
                "type": "string",
                "value": "10dp"
            },
            "isVisible": false,
            "top": {
                "type": "string",
                "value": "60dp"
            },
            "width": {
                "type": "string",
                "value": "80%"
            }
        },
        "b3": {
            "bottom": {
                "type": "string",
                "value": "10dp"
            },
            "height": {
                "type": "ref",
                "value": "preferred"
            },
            "isVisible": false,
            "left": {
                "type": "string",
                "value": "80dp"
            },
            "top": {
                "type": "string",
                "value": "55dp"
            }
        },
        "b4": {
            "bottom": {
                "type": "string",
                "value": "6dp"
            },
            "centerX": {
                "type": "string",
                "value": ""
            },
            "isVisible": false,
            "left": {
                "type": "string",
                "value": "50dp"
            },
            "top": {
                "type": "string",
                "value": "54dp"
            }
        }
    },
    "texti18n": "i18n.login.wrongInfo",
    "tooltip": "",
    "wType": "Label",
    "zindex": 1
}