{
    "DNDConfig": null,
    "__parentReadjusting__": false,
    "_height_": {
        "type": "string",
        "value": "200dp"
    },
    "_left_": {
        "type": "string",
        "value": "60dp"
    },
    "_margin_": [
        0,
        0,
        0,
        0
    ],
    "_orientation_": 6,
    "_padding_": [
        0,
        0,
        0,
        0
    ],
    "_percent_": true,
    "_skin_": "scbd4cac3526468089bf3013adff0549",
    "_top_": {
        "type": "string",
        "value": "90dp"
    },
    "_width_": {
        "type": "string",
        "value": "80%"
    },
    "allboxes": [],
    "autogrowmode": 0,
    "canUpdateUI": true,
    "centerx": {
        "type": "string",
        "value": "50%"
    },
    "children": [
        "imgInfo",
        "lblOverallSpending",
        "lblImg"
    ],
    "clipbounds": true,
    "containerweight": 100,
    "enablescrolling": true,
    "id": "flxNoTransactions",
    "info": null,
    "isvisible": false,
    "kuid": "f3710df7f998478085750de63fe1dec6",
    "layouttype": 2,
    "name": "kony.ui.FlexContainer",
    "parent": "flxOverallSpendingWrapper",
    "pf": "frmPersonalFinanceManagement",
    "responsiveData": {
        "b2": {
            "isVisible": false,
            "width": {
                "type": "string",
                "value": "80%"
            }
        },
        "b3": {
            "isVisible": false,
            "width": {
                "type": "string",
                "value": "80%"
            }
        },
        "b4": {
            "isVisible": false,
            "left": {
                "type": "string",
                "value": ""
            },
            "width": {
                "type": "string",
                "value": "80%"
            }
        }
    },
    "snapgridsize": 10,
    "snaptogrid": true,
    "wType": "FlexContainer",
    "widgetalignment": 1,
    "zindex": 5
}