{
    "@class": "com.kony.gen.viz.model.component.KVizListBox",
    "DNDConfig": null,
    "__parentReadjusting__": false,
    "_height_": {
        "type": "string",
        "value": "40dp"
    },
    "_left_": {
        "type": "string",
        "value": "34%"
    },
    "_margin_": [
        0,
        0,
        0,
        0
    ],
    "_padding_": [
        2,
        0,
        1,
        0
    ],
    "_skin_": "s189b23a5b774a0bbb1dfe1f2b6f676f",
    "_top_": {
        "type": "string",
        "value": "20dp"
    },
    "_width_": {
        "type": "string",
        "value": "60%"
    },
    "canUpdateUI": true,
    "containerweight": 100,
    "contentalignment": 4,
    "context": {
        "channel": "desktop",
        "formID": "frmPersonalFinanceManagement",
        "platform": "desktopweb",
        "templateType": "forms",
        "topLevelBox": null
    },
    "desktopweb": {
        "psp": {
            "hoverSkin": "sadf25ae77c04d5fbbebf5956f7697da"
        }
    },
    "groupcells": false,
    "id": "lstSelectMonth",
    "info": null,
    "isvisible": true,
    "kuid": "fc0948e75ce349c38ac6696507bd659e",
    "masterdata": [
        [
            "lb1",
            "December 2018"
        ],
        [
            "lb2",
            "November 2018"
        ],
        [
            "lb3",
            "September 2018"
        ]
    ],
    "name": "kony.ui.ListBox",
    "parent": "flxMySpendingWrapper",
    "pf": "frmPersonalFinanceManagement",
    "responsiveData": {
        "b3": {
            "left": {
                "type": "string",
                "value": "36%"
            }
        }
    },
    "selectedkeys": null,
    "selectedkeyvalue": null,
    "selectedkeyvalues": null,
    "size": 18,
    "viewconfig": {
        "toggleViewConfig": {
            "viewStyle": 0
        }
    },
    "viewtype": 0,
    "wType": "ListBox",
    "zindex": 5,
    "focusskin": "s9eb08f78097439eb767801e8fdeb5cd"
}