{
    "@class": "com.kony.gen.viz.model.component.KVizRichText",
    "DNDConfig": null,
    "__parentReadjusting__": false,
    "_height_": {
        "type": "ref",
        "value": "preferred"
    },
    "_left_": {
        "type": "string",
        "value": "20dp"
    },
    "_margin_": [
        0,
        0,
        0,
        0
    ],
    "_padding_": [
        0,
        0,
        0,
        0
    ],
    "_skin_": "sf9eda51ff18423180d6643f182ca4b3",
    "_text_": "There is some error in the server.\nWe could not complete your request of adding the account.",
    "_top_": {
        "type": "number",
        "value": ""
    },
    "_width_": {
        "type": "string",
        "value": "85%"
    },
    "_wrapping_": 2,
    "accessibilityconfig": {
        "a11yLabel": "There is some error in the server.\nWe could not complete your request of adding the account."
    },
    "canUpdateUI": true,
    "centery": {
        "type": "string",
        "value": "50%"
    },
    "containerweight": 100,
    "contentalignment": 4,
    "id": "rtxDowntimeWarning",
    "info": null,
    "isvisible": true,
    "kuid": "e65fd6a3a9bd4261a4004369cf4040ff",
    "name": "kony.ui.RichText",
    "parent": "flxDowntimeWarning",
    "pf": "frmPersonalFinanceManagement",
    "responsiveData": {
        "b3": {
            "centerY": {
                "type": "string",
                "value": ""
            },
            "height": {
                "type": "ref",
                "value": "preferred"
            },
            "left": {
                "type": "string",
                "value": "15dp"
            },
            "top": {
                "type": "string",
                "value": "20dp"
            }
        }
    },
    "wType": "RichText",
    "widgetalignment": 5,
    "zindex": 1
}