{
    "@class": "com.kony.gen.viz.model.component.KVizRichText",
    "DNDConfig": null,
    "_height_": {
        "type": "ref",
        "value": "preferred"
    },
    "_left_": {
        "type": "string",
        "value": "0dp"
    },
    "_margin_": [
        0,
        0,
        0,
        0
    ],
    "_padding_": [
        0,
        0,
        0,
        0
    ],
    "_skin_": "sa7875ee0d0f446987db74d1dc49550e",
    "_text_": "You have only few attempts left.<br>You can use the \"Forgot\" option for assistance or contact us.",
    "_top_": {
        "type": "string",
        "value": "30dp"
    },
    "_width_": {
        "type": "string",
        "value": "100%"
    },
    "_wrapping_": 2,
    "accessibilityconfig": {
        "a11yLabel": "You have only few attempts left.<br>You can use the \"Forgot\" option for assistance or contact us."
    },
    "canUpdateUI": true,
    "containerweight": 100,
    "contentalignment": 4,
    "id": "rtxErrorMsgUser",
    "info": null,
    "isvisible": false,
    "kuid": "df3785c0c935489383089d5b6caa63e4",
    "name": "kony.ui.RichText",
    "parent": "flxHeaderNError",
    "pf": "userwidgetmodel",
    "wType": "RichText",
    "widgetalignment": 5,
    "zindex": 1
}