{
    "@class": "com.kony.gen.viz.model.component.KVizLabel",
    "DNDConfig": null,
    "__parentReadjusting__": false,
    "_bottom_": {
        "type": "string",
        "value": ""
    },
    "_height_": {
        "type": "string",
        "value": "60dp"
    },
    "_left_": {
        "type": "string",
        "value": "0dp"
    },
    "_margin_": [
        1,
        1,
        1,
        1
    ],
    "_padding_": [
        0,
        0,
        2,
        0
    ],
    "_skin_": "s4b6103db040484c9823e522fcca5a36",
    "_text_": "You can create a Savings Goal by instructing Period of Months, Goal Amount and Monthly Savings. It helps you in achieving your needs effectively.",
    "_top_": {
        "type": "string",
        "value": "10dp"
    },
    "_width_": {
        "type": "string",
        "value": "90%"
    },
    "_wrapping_": 2,
    "accessibilityconfig": {
        "a11yLabel": "Add International Account"
    },
    "android": {
        "textStyle": {
            "letterSpacing": 0,
            "strikeThrough": false
        }
    },
    "canUpdateUI": true,
    "centerx": {
        "type": "string",
        "value": "50%"
    },
    "containerweight": 100,
    "contentalignment": 2,
    "id": "lblPotType1Description",
    "info": null,
    "ipad": {
        "psp": {
            "wrapping": 2
        }
    },
    "iphone": {
        "psp": {
            "wrapping": 2
        }
    },
    "isvisible": true,
    "kuid": "b493f1fdc6244299ac869c2d8f1deba8",
    "name": "kony.ui.Label",
    "paddinginpixel": false,
    "parent": "flxPotType1",
    "pf": "frmCreateSavingsPot",
    "responsiveData": {
        "b1": {},
        "b2": {},
        "b3": {
            "isVisible": true
        },
        "b4": {}
    },
    "texti18n": "i18n.savingsPot.savingsGoalDescrition",
    "tooltip": "",
    "wType": "Label",
    "zindex": 1
}