{
    "DNDConfig": null,
    "_height_": {
        "type": "string",
        "value": "510dp"
    },
    "_left_": {
        "type": "string",
        "value": "0%"
    },
    "_margin_": [
        0,
        0,
        0,
        0
    ],
    "_orientation_": 6,
    "_padding_": [
        0,
        0,
        0,
        0
    ],
    "_percent_": true,
    "_skin_": "s24c92fc23b14f5484b693ee9b8a9b35",
    "_top_": {
        "type": "string",
        "value": "133dp"
    },
    "_width_": {
        "type": "string",
        "value": "100%"
    },
    "allboxes": [],
    "autogrowmode": 0,
    "canUpdateUI": true,
    "children": [
        "rtxNoSearchResults",
        "imgInfoNoSearchResult"
    ],
    "clipbounds": true,
    "containerweight": 100,
    "enablescrolling": true,
    "id": "flxNoSearchResult",
    "info": null,
    "isvisible": false,
    "kuid": "g26ec318abfa4e88b617ef6b9288fe59",
    "layouttype": 2,
    "name": "kony.ui.FlexContainer",
    "parent": "flxSegMessagesContainer",
    "pf": "frmMyMessages",
    "snapgridsize": 10,
    "snaptogrid": true,
    "wType": "FlexContainer",
    "widgetalignment": 1,
    "zindex": 2
}