{
    "DNDConfig": null,
    "_bottom_": {
        "type": "number",
        "value": "10"
    },
    "_left_": {
        "type": "string",
        "value": "10dp"
    },
    "_margin_": [
        0,
        0,
        0,
        0
    ],
    "_orientation_": 6,
    "_padding_": [
        0,
        0,
        0,
        0
    ],
    "_percent_": true,
    "_skin_": "s24c92fc23b14f5484b693ee9b8a9b35",
    "_top_": {
        "type": "string",
        "value": "10dp"
    },
    "_width_": {
        "type": "string",
        "value": "25dp"
    },
    "allboxes": [],
    "autogrowmode": 0,
    "canUpdateUI": true,
    "children": [
        "lblSearch"
    ],
    "clipbounds": false,
    "containerweight": 100,
    "enablescrolling": true,
    "id": "flxSearchIcon",
    "info": null,
    "iscustomlayout": false,
    "isvisible": true,
    "kuid": "b18eff0483684553a23f1c60ef62ecef",
    "layouttype": 2,
    "name": "kony.ui.FlexContainer",
    "parent": "flxSeach",
    "pf": "frmMyMessages",
    "responsiveData": {
        "b3": {
            "bottom": {
                "type": "number",
                "value": "8"
            },
            "top": {
                "type": "string",
                "value": "12dp"
            }
        }
    },
    "retaincontentalignment": false,
    "retainflexpositionproperties": false,
    "retainflowhorizontalalignment": false,
    "snapgridsize": 10,
    "snaptogrid": true,
    "wType": "FlexContainer",
    "widgetalignment": 1,
    "zindex": 1
}