{
    "@class": "com.kony.gen.viz.model.component.KVizButton",
    "DNDConfig": null,
    "__parentReadjusting__": false,
    "_height_": {
        "type": "string",
        "value": "40px"
    },
    "_left_": {
        "type": "number",
        "value": ""
    },
    "_margin_": [
        6,
        6,
        6,
        6
    ],
    "_padding_": [
        0,
        0,
        0,
        0
    ],
    "_right_": {
        "type": "string",
        "value": "250dp"
    },
    "_skin_": "s4fe0674a3c84b76a21524a90bad4282",
    "_text_": "Make Another Bulk Payment",
    "_top_": {
        "type": "string",
        "value": "0dp"
    },
    "_width_": {
        "type": "string",
        "value": "230dp"
    },
    "accessibilityconfig": {
        "a11yLabel": "Add Another Recipient"
    },
    "canUpdateUI": true,
    "containerweight": 100,
    "contentalignment": 5,
    "desktopweb": {
        "psp": {
            "hoverSkin": "s7ab6326aaf94c28b90b61fcb1b54547"
        }
    },
    "disabledSkins": {},
    "displaytext": true,
    "focusskin": "sfd0ce0d7f454c9f83c7e815a90a8a55",
    "id": "btnMakeAnother",
    "info": null,
    "iscustomlayout": false,
    "isvisible": true,
    "kuid": "d8d2a42441014445a0ac946c8b7ae8d4",
    "name": "kony.ui.Button",
    "parent": "flxAckButtons",
    "pf": "frmBulkWireActivityPending",
    "responsiveData": {
        "b1": {},
        "b2": {},
        "b3": {
            "isVisible": false,
            "left": {
                "type": "string",
                "value": "0dp"
            }
        },
        "b4": {}
    },
    "retaincontentalignment": false,
    "retainflexpositionproperties": false,
    "texti18n": "i18n.bulkWire.makeAnotherBulkPayment",
    "tooltip": "Make Another Bulk Payment",
    "wType": "Button",
    "zindex": 1
}