{
    "@class": "com.kony.gen.viz.model.component.KVizLabel",
    "DNDConfig": null,
    "__parentReadjusting__": false,
    "_height_": {
        "type": "ref",
        "value": "preferred"
    },
    "_left_": {
        "type": "string",
        "value": "31dp"
    },
    "_margin_": [
        1,
        1,
        1,
        1
    ],
    "_padding_": [
        0,
        0,
        0,
        0
    ],
    "_skin_": "s4adb862a1d741eaafba2145d8c99843",
    "_text_": "Bill Pay",
    "_top_": {
        "type": "string",
        "value": "60px"
    },
    "_width_": "-27.78%",
    "_wrapping_": 2,
    "accessibilityconfig": {
        "a11yLabel": "Bill Pay"
    },
    "android": {
        "textStyle": {
            "letterSpacing": 0,
            "strikeThrough": false
        }
    },
    "canUpdateUI": true,
    "containerId": true,
    "containerweight": 100,
    "contentalignment": 4,
    "id": "lblFormToNavigate",
    "info": null,
    "ipad": {
        "psp": {
            "wrapping": 2
        }
    },
    "iphone": {
        "psp": {
            "wrapping": 2
        }
    },
    "isvisible": true,
    "kuid": "ebbddd5dbfb047b481262f777a784443",
    "name": "kony.ui.Label",
    "parent": "flxAccountLandingUpcomingTransactions",
    "pf": "segAccountLandingUpcomingTransactions",
    "tooltip": "",
    "wType": "Label",
    "zindex": 1
}