{
    "DNDConfig": null,
    "_height_": {
        "type": "string",
        "value": "1dp"
    },
    "_left_": {
        "type": "string",
        "value": "0dp"
    },
    "_margin_": [
        0,
        0,
        0,
        0
    ],
    "_orientation_": 6,
    "_padding_": [
        0,
        0,
        0,
        0
    ],
    "_percent_": true,
    "_skin_": "s20af796b4a64882b1637df7ce394327",
    "_top_": {
        "type": "string",
        "value": "3dp"
    },
    "_width_": {
        "type": "string",
        "value": "100%"
    },
    "allboxes": [],
    "canUpdateUI": true,
    "children": [],
    "clipbounds": true,
    "containerweight": 100,
    "enablescrolling": true,
    "id": "flxPermissionSeparator1",
    "info": null,
    "iscustomlayout": false,
    "isvisible": true,
    "kuid": "h35da95896184f2894165586f8f55cad",
    "layouttype": 2,
    "minwidth": {
        "type": "number",
        "value": ""
    },
    "name": "kony.ui.FlexContainer",
    "parent": "flxUserRoles",
    "pf": "frmTransactionLimits",
    "responsiveData": {
        "b1": {
            "minWidth": {
                "type": "string",
                "value": ""
            },
            "skin": "s8823f92dd17459d8dbd603fe9224e85"
        },
        "b2": {
            "minWidth": {
                "type": "string",
                "value": ""
            },
            "skin": "s8823f92dd17459d8dbd603fe9224e85"
        },
        "b4": {
            "minWidth": {
                "type": "string",
                "value": ""
            },
            "skin": "s8823f92dd17459d8dbd603fe9224e85"
        }
    },
    "retaincontentalignment": false,
    "retainflexpositionproperties": false,
    "retainflowhorizontalalignment": false,
    "snapgridsize": 10,
    "snaptogrid": true,
    "wType": "FlexContainer",
    "widgetalignment": 1
}