{
    "DNDConfig": null,
    "_height_": {
        "type": "string",
        "value": "30dp"
    },
    "_left_": {
        "type": "string",
        "value": "2.50%"
    },
    "_margin_": [
        0,
        0,
        0,
        0
    ],
    "_orientation_": 6,
    "_padding_": [
        0,
        0,
        0,
        0
    ],
    "_percent_": true,
    "_skin_": "sbffc73910304439be3cff2e142c96d9",
    "_top_": {
        "type": "string",
        "value": "0dp"
    },
    "_width_": {
        "type": "string",
        "value": "25dp"
    },
    "allboxes": [],
    "canUpdateUI": true,
    "children": [
        "lblTCContentsCheckBox"
    ],
    "clipbounds": true,
    "containerweight": 100,
    "enablescrolling": true,
    "id": "flxTCContentsCheckbox",
    "info": null,
    "isvisible": true,
    "kuid": "c91e637329134e5ebc675033b1aee23b",
    "layouttype": 2,
    "name": "kony.ui.FlexContainer",
    "parent": "flxTCCheckBox",
    "pf": "frmTransactionLimits",
    "responsiveData": {
        "b1": {}
    },
    "snapgridsize": 10,
    "snaptogrid": true,
    "wType": "FlexContainer",
    "widgetalignment": 1,
    "zindex": 1
}