{
    "@class": "com.kony.gen.viz.model.component.KVizButton",
    "DNDConfig": null,
    "_height_": {
        "type": "string",
        "value": "25dp"
    },
    "_margin_": [
        6,
        6,
        6,
        6
    ],
    "_padding_": [
        0,
        0,
        0,
        0
    ],
    "_right_": {
        "type": "string",
        "value": "15%"
    },
    "_skin_": "sf6ca31ec68641e5a2df8232c58cd39a",
    "_text_": "MODIFY",
    "_top_": {
        "type": "string",
        "value": "10dp"
    },
    "_width_": {
        "type": "ref",
        "value": "preferred"
    },
    "accessibilityconfig": {
        "a11yLabel": "MODIFY"
    },
    "canUpdateUI": true,
    "containerId": true,
    "containerweight": 100,
    "contentalignment": 5,
    "disabledSkins": {},
    "displaytext": true,
    "focusskin": "sf6ca31ec68641e5a2df8232c58cd39a",
    "id": "btnModify",
    "ide_onClick": "AS_Button_be82b0b552c648f7bbb9ebcd491b103c",
    "info": null,
    "isvisible": true,
    "kuid": "g58f7f97b82d40d787cbd5bd1310b39c",
    "name": "kony.ui.Button",
    "parent": "flxModifyAction",
    "pf": "segSentSelectedMobileP2P",
    "wType": "Button",
    "zindex": 1
}