{
    "DNDConfig": null,
    "_height_": {
        "type": "string",
        "value": "40dp"
    },
    "_left_": {
        "type": "string",
        "value": "0dp"
    },
    "_margin_": [
        0,
        0,
        0,
        0
    ],
    "_orientation_": 6,
    "_padding_": [
        0,
        0,
        0,
        0
    ],
    "_percent_": true,
    "_skin_": "s24c92fc23b14f5484b693ee9b8a9b35",
    "_top_": {
        "type": "string",
        "value": "7dp"
    },
    "_width_": {
        "type": "string",
        "value": "100%"
    },
    "allboxes": [],
    "autogrowmode": 0,
    "canUpdateUI": true,
    "children": [
        "calBFDateFrom",
        "lblBFToByDate",
        "calBFDateTo"
    ],
    "clipbounds": true,
    "containerweight": 100,
    "enablescrolling": true,
    "id": "flxBFByDate",
    "info": null,
    "isvisible": true,
    "kuid": "b07dcac6a7d540f3bf602ea4d68d0661",
    "layouttype": 3,
    "name": "kony.ui.FlexContainer",
    "parent": "flxBFRightSearch",
    "pf": "userwidgetmodel",
    "responsiveData": {
        "b3": {
            "left": {
                "type": "string",
                "value": "2.50%"
            },
            "width": {
                "type": "string",
                "value": "95%"
            }
        }
    },
    "snapgridsize": 10,
    "snaptogrid": true,
    "wType": "FlexContainer",
    "widgetalignment": 1,
    "zindex": 1
}