{
    "DNDConfig": null,
    "_height_": {
        "type": "string",
        "value": "100%"
    },
    "_left_": {
        "type": "string",
        "value": "0"
    },
    "_margin_": [
        0,
        0,
        0,
        0
    ],
    "_orientation_": 6,
    "_padding_": [
        0,
        0,
        0,
        0
    ],
    "_percent_": true,
    "_skin_": "s2e8cdb136034a97aedaac5d5c9da94e",
    "_top_": {
        "type": "string",
        "value": "0dp"
    },
    "_width_": {
        "type": "string",
        "value": "50dp"
    },
    "allboxes": [],
    "autogrowmode": 0,
    "canUpdateUI": true,
    "children": [
        "imgMobileDownload",
        "CopyimgDownloadIcon0ca9dba82207b4b"
    ],
    "clipbounds": true,
    "containerweight": 100,
    "desktopweb": {
        "psp": {
            "hoverSkin": "s2e8cdb136034a97aedaac5d5c9da94e"
        }
    },
    "enablescrolling": true,
    "id": "flxDownload0c977cf70d5d549",
    "info": null,
    "isvisible": true,
    "kuid": "ub63be1c419840318e3be75cd937ebff",
    "layouttype": 2,
    "name": "kony.ui.FlexContainer",
    "parent": "flxMobileActionsContainer",
    "pf": "userwidgetmodel",
    "responsiveData": {
        "b3": {
            "isVisible": false
        }
    },
    "snapgridsize": 10,
    "snaptogrid": true,
    "wType": "FlexContainer",
    "widgetalignment": 1,
    "zindex": 1
}