{
    "DNDConfig": null,
    "_height_": {
        "type": "string",
        "value": "22dp"
    },
    "_left_": {
        "type": "string",
        "value": "0dp"
    },
    "_margin_": [
        0,
        0,
        0,
        0
    ],
    "_orientation_": 6,
    "_padding_": [
        0,
        0,
        0,
        0
    ],
    "_percent_": true,
    "_skin_": "s24c92fc23b14f5484b693ee9b8a9b35",
    "_top_": {
        "type": "string",
        "value": "0dp"
    },
    "_width_": {
        "type": "string",
        "value": "80%"
    },
    "allboxes": [],
    "canUpdateUI": true,
    "children": [
        "lblKeywordTitle",
        "lblKeywordValue",
        "flxCancelKeyword",
        "lblBFKeywordTitle",
        "lblBFKeywordValue",
        "flxBFCancelKeyword",
        "lblTypeTitle",
        "lblTypeValue",
        "flxCancelType",
        "lblBFDateRangeTitle",
        "lblBFDateRangeValue",
        "flxBFCancelDateRange",
        "lblBFReferenceNumberTitle",
        "lblBFReferenceNumberValue",
        "flxBFCancelReferenceNumber"
    ],
    "clipbounds": true,
    "containerweight": 100,
    "enablescrolling": true,
    "id": "flxSearchItemKeyword",
    "info": null,
    "isvisible": true,
    "kuid": "uc49aae35c1047dc85eef5cab66f887c",
    "layouttype": 3,
    "name": "kony.ui.FlexContainer",
    "parent": "flxSearchItems",
    "pf": "userwidgetmodel",
    "responsiveData": {
        "b1": {
            "height": {
                "type": "string",
                "value": "25dp"
            },
            "width": {
                "type": "string",
                "value": "100%"
            }
        },
        "b2": {
            "width": {
                "type": "string",
                "value": "100%"
            }
        },
        "b3": {
            "layoutType": 4
        }
    },
    "snapgridsize": 10,
    "snaptogrid": true,
    "wType": "FlexContainer",
    "widgetalignment": 1,
    "zindex": 1
}