{
    "@class": "com.kony.gen.viz.model.component.KVizLabel",
    "DNDConfig": null,
    "_height_": {
        "type": "ref",
        "value": "preferred"
    },
    "_left_": {
        "type": "string",
        "value": "30dp"
    },
    "_margin_": [
        1,
        1,
        1,
        1
    ],
    "_padding_": [
        0,
        0,
        0,
        0
    ],
    "_skin_": "sf6419caebe343838391a8487ed5286c",
    "_text_": "By Time Period",
    "_top_": {
        "type": "string",
        "value": "16dp"
    },
    "_width_": {
        "type": "ref",
        "value": "preferred"
    },
    "_wrapping_": 2,
    "accessibilityconfig": {
        "a11yLabel": "By Time Period"
    },
    "android": {
        "textStyle": {
            "letterSpacing": 0,
            "strikeThrough": false
        }
    },
    "canUpdateUI": true,
    "containerweight": 100,
    "contentalignment": 4,
    "id": "lblByTimePeriod",
    "info": null,
    "ipad": {
        "psp": {
            "wrapping": 2
        }
    },
    "iphone": {
        "psp": {
            "wrapping": 2
        }
    },
    "isvisible": true,
    "kuid": "ue554d33e5b040bc9544fa0263fd6cdc",
    "name": "kony.ui.Label",
    "parent": "flxLeftSearch",
    "pf": "userwidgetmodel",
    "responsiveData": {
        "b1": {
            "text": "By Time Period:"
        },
        "b2": {
            "text": "By Time Period:"
        },
        "b3": {
            "left": {
                "type": "string",
                "value": "2.50%"
            },
            "text": "By Time Period:"
        }
    },
    "tooltip": "",
    "wType": "Label",
    "zindex": 1
}