{
    "@class": "com.kony.gen.viz.model.component.KVizLabel",
    "DNDConfig": null,
    "_height_": {
        "type": "string",
        "value": "20dp"
    },
    "_left_": {
        "type": "string",
        "value": "0dp"
    },
    "_margin_": [
        1,
        1,
        1,
        1
    ],
    "_padding_": [
        0,
        0,
        0,
        0
    ],
    "_right_": {
        "type": "number",
        "value": ""
    },
    "_skin_": "sff777f8381d4a6ebb6dd711181df2b4",
    "_text_": "1000-1000 of 1000 transactions",
    "_width_": {
        "type": "string",
        "value": "70%"
    },
    "_wrapping_": 2,
    "accessibilityconfig": {},
    "android": {
        "textStyle": {
            "letterSpacing": 0,
            "strikeThrough": false
        }
    },
    "canUpdateUI": true,
    "centerx": {
        "type": "number",
        "value": ""
    },
    "centery": {
        "type": "string",
        "value": "50%"
    },
    "containerweight": 100,
    "contentalignment": 5,
    "id": "lblPagination",
    "info": null,
    "ipad": {
        "psp": {
            "wrapping": 2
        }
    },
    "iphone": {
        "psp": {
            "wrapping": 2
        }
    },
    "isvisible": true,
    "kuid": "e7ac1c4e0eed4c6ab37e4b088ca7bb64",
    "name": "kony.ui.Label",
    "parent": "flxPaginationWrapper",
    "pf": "userwidgetmodel",
    "responsiveData": {
        "b3": {
            "centerX": {
                "type": "string",
                "value": ""
            },
            "contentAlignment": 5,
            "left": {
                "type": "string",
                "value": ""
            },
            "right": {
                "type": "string",
                "value": "0dp"
            },
            "text": "1 - 5 Recipients",
            "width": {
                "type": "string",
                "value": "70%"
            }
        }
    },
    "tooltip": "",
    "wType": "Label",
    "zindex": 1
}