{
    "@class": "com.kony.gen.viz.model.component.KVizLabel",
    "DNDConfig": null,
    "_height_": {
        "type": "ref",
        "value": "preferred"
    },
    "_left_": {
        "type": "string",
        "value": "15dp"
    },
    "_margin_": [
        1,
        1,
        1,
        1
    ],
    "_padding_": [
        0,
        0,
        0,
        0
    ],
    "_skin_": "s7facb3c022b4bb38d1e831ad35515b6",
    "_text_": "Label",
    "_top_": {
        "type": "string",
        "value": "45dp"
    },
    "_width_": {
        "type": "ref",
        "value": "preferred"
    },
    "_wrapping_": 2,
    "android": {
        "textStyle": {
            "letterSpacing": 0,
            "strikeThrough": false
        }
    },
    "canUpdateUI": true,
    "containerweight": 100,
    "contentalignment": 4,
    "id": "lblNOTransactions",
    "info": null,
    "ipad": {
        "psp": {
            "wrapping": 2
        }
    },
    "iphone": {
        "psp": {
            "wrapping": 2
        }
    },
    "iscustomlayout": false,
    "isvisible": true,
    "kuid": "ic14fb0e5bfe43d89fdb5b7ad2c0410c",
    "name": "kony.ui.Label",
    "parent": "flxNoTransactions",
    "pf": "frmP2PManageRecipientsTab",
    "retaincontentalignment": false,
    "retainflexpositionproperties": false,
    "texti18n": "i18n.transfers.noTransactions",
    "tooltip": "",
    "wType": "Label",
    "zindex": 1
}