{
    "@class": "com.kony.gen.viz.model.component.KVizLabel",
    "DNDConfig": null,
    "__parentReadjusting__": false,
    "_bottom_": {
        "type": "string",
        "value": "16dp"
    },
    "_height_": {
        "type": "string",
        "value": "18px"
    },
    "_left_": {
        "type": "string",
        "value": "50.83%"
    },
    "_margin_": [
        1,
        1,
        1,
        1
    ],
    "_padding_": [
        0,
        0,
        0,
        0
    ],
    "_skin_": "sd9fada740124e4a99edc1f0a05ec2d0",
    "_text_": "To:",
    "_top_": {
        "type": "string",
        "value": "17dp"
    },
    "_width_": {
        "type": "ref",
        "value": "preferred"
    },
    "_wrapping_": 2,
    "accessibilityconfig": {
        "a11yLabel": "To:"
    },
    "android": {
        "textStyle": {
            "letterSpacing": 0,
            "strikeThrough": false
        }
    },
    "canUpdateUI": true,
    "containerweight": 100,
    "contentalignment": 4,
    "id": "lblToAccountKey",
    "info": null,
    "ipad": {
        "psp": {
            "wrapping": 2
        }
    },
    "iphone": {
        "psp": {
            "wrapping": 2
        }
    },
    "isvisible": true,
    "kuid": "ee7ab1ba65cc4bd6b1def67ad20107a2",
    "name": "kony.ui.Label",
    "parent": "flxToAccount",
    "pf": "frmWireTransferOneTimePaymentConfirm",
    "responsiveData": {
        "b3": {
            "left": {
                "type": "string",
                "value": "15dp"
            },
            "top": {
                "type": "string",
                "value": "0dp"
            }
        },
        "b4": {
            "left": {
                "type": "string",
                "value": "30dp"
            },
            "top": {
                "type": "string",
                "value": "50dp"
            }
        }
    },
    "tooltip": "",
    "wType": "Label",
    "zindex": 1
}