{
    "@class": "com.kony.gen.viz.model.component.KVizButton",
    "DNDConfig": null,
    "__parentReadjusting__": false,
    "_height_": {
        "type": "string",
        "value": "40dp"
    },
    "_margin_": [
        6,
        6,
        6,
        6
    ],
    "_padding_": [
        0,
        0,
        0,
        0
    ],
    "_skin_": "sfbbba35ede4457b94eb681b72349b98",
    "_text_": "",
    "_top_": {
        "type": "string",
        "value": "24dp"
    },
    "_width_": {
        "type": "string",
        "value": "85%"
    },
    "accessibilityconfig": {
        "a11yLabel": "Back to Login"
    },
    "canUpdateUI": true,
    "centerx": {
        "type": "string",
        "value": "50%"
    },
    "containerweight": 100,
    "contentalignment": 5,
    "desktopweb": {
        "blockedUISkin": "s6296ebeb163492d973121eb1c4b9727",
        "psp": {
            "hoverSkin": "s81054b5e2b74f17a5261991df565427"
        }
    },
    "displaytext": true,
    "focusskin": "s5a4f67acd3e47b9be6d6910a7a6686f",
    "id": "btnEnroll",
    "info": null,
    "isvisible": false,
    "kuid": "d7b4457ad12d4995a5e216e17659083a",
    "name": "kony.ui.Button",
    "parent": "EnrollAlert",
    "pf": "userwidgetmodel",
    "texti18n": "i18n.login.backToLoginCaps",
    "tooltip": "Back to Login",
    "wType": "Button",
    "zindex": 1
}