{
    "@class": "com.kony.gen.viz.model.component.KVizUserWidget",
    "DNDConfig": null,
    "_bottom_": {
        "type": "string",
        "value": ""
    },
    "_children_": [],
    "_height_": {
        "type": "ref",
        "value": "preferred"
    },
    "_left_": {
        "type": "string",
        "value": ""
    },
    "_margin_": [
        0,
        0,
        0,
        0
    ],
    "_orientation_": 1,
    "_padding_": [
        0,
        0,
        0,
        0
    ],
    "_percent_": true,
    "_skin_": "s24c92fc23b14f5484b693ee9b8a9b35",
    "_top_": {
        "type": "string",
        "value": "0dp"
    },
    "_width_": {
        "type": "ref",
        "value": "preferred"
    },
    "android": {},
    "androidwearos": {},
    "areflexpropsreferenced": false,
    "autogrowmode": 1,
    "canUpdateUI": true,
    "clipbounds": false,
    "containerweight": 0,
    "dataDiffs": {
        "MobileCustomDropdown": {
            "__events__": {},
            "__info__": {
                "kuid": "ed5a5838398c43d1b0dd9187ab6af466",
                "srcKUID": "jeb8c613aa99488aafc7ce36f505b47d",
                "wType": "FlexContainer"
            },
            "isVisible": false,
            "responsiveData": {
                "b3": {
                    "isVisible": false
                }
            }
        },
        "MobileCustomDropdown.CopyflxTimePeriodSeparator0iad4443c80964c": {
            "__events__": {},
            "__info__": {
                "kuid": "ge239c949c964fa3bbf075e6f3995706",
                "srcKUID": "e50bdbf23ef143a1abe7031c4cf6855c",
                "wType": "FlexContainer"
            }
        },
        "MobileCustomDropdown.btnApplyFilter": {
            "__events__": {},
            "__info__": {
                "kuid": "b4b822036b8e455584e63b81423af537",
                "srcKUID": "f2eeff0740a44e82adc27d9433f9ecb3",
                "wType": "Button"
            }
        },
        "MobileCustomDropdown.btnCancelFilter": {
            "__events__": {},
            "__info__": {
                "kuid": "cd00ab5153cb4ae5a5fa992ca18de4c5",
                "srcKUID": "j6bfc4bd9fbf404ea9660c7610e2f11f",
                "wType": "Button"
            }
        },
        "MobileCustomDropdown.flxAll": {
            "__events__": {},
            "__info__": {
                "kuid": "ffb7ea58c5c946e6821f22d5c82a1a4a",
                "srcKUID": "b422239db00c4199a2b7e38d72b925c9",
                "wType": "FlexContainer"
            }
        },
        "MobileCustomDropdown.flxApprovalTypeSeparator": {
            "__events__": {},
            "__info__": {
                "kuid": "debbac93eb804398aaa61ffa619f6d5d",
                "srcKUID": "a91b31ce12a5436abe1b3eeedd845f0e",
                "wType": "FlexContainer"
            }
        },
        "MobileCustomDropdown.flxApproveType": {
            "__events__": {},
            "__info__": {
                "kuid": "ca886ebe00a046c79424b2d4ec4325ee",
                "srcKUID": "f4727e223c4b4410ae0e71be0d0405c1",
                "wType": "FlexContainer"
            }
        },
        "MobileCustomDropdown.flxButtons": {
            "__events__": {},
            "__info__": {
                "kuid": "c0e79147a05d4e82a2578859ce6438ec",
                "srcKUID": "g48cc6e8c7704b90aba6f5405ffb56fb",
                "wType": "FlexContainer"
            }
        },
        "MobileCustomDropdown.flxCurrencyBody": {
            "__events__": {},
            "__info__": {
                "kuid": "b5a2931865c04141ad04f0d74434b00e",
                "srcKUID": "faaabd33420a4f42bffc4f2bab93171f",
                "wType": "FlexContainer"
            }
        },
        "MobileCustomDropdown.flxCurrencyExpand": {
            "__events__": {},
            "__info__": {
                "kuid": "fdc8083da40c4d44a5d5053906e1a885",
                "srcKUID": "ie61553e4f6141a5b5bd9d2399d6fafc",
                "wType": "FlexContainer"
            }
        },
        "MobileCustomDropdown.flxCurrencyHeader": {
            "__events__": {},
            "__info__": {
                "kuid": "de9cd04635234c60a60179af6a217b69",
                "srcKUID": "ec9e59e0e4624513b030cd6fec7d244c",
                "wType": "FlexContainer"
            }
        },
        "MobileCustomDropdown.flxCurrencyTitle": {
            "__events__": {},
            "__info__": {
                "kuid": "b250183f5561496b91f76acbdb02ebe3",
                "srcKUID": "a381699f3015438d86cbefa89d7033b3",
                "wType": "FlexContainer"
            }
        },
        "MobileCustomDropdown.flxDropdown": {
            "__events__": {},
            "__info__": {
                "kuid": "ece39ea75b8d4d19894ab2601819a26f",
                "srcKUID": "bff6f39a998a4febbcda6d509b1a7882",
                "wType": "FlexContainer"
            }
        },
        "MobileCustomDropdown.flxDropdownCurrency": {
            "__events__": {},
            "__info__": {
                "kuid": "a3a90867f7a440c39e3dec725f8742b2",
                "srcKUID": "g08430c5bb224bdc9e05fdbf3d4b490d",
                "wType": "FlexContainer"
            }
        },
        "MobileCustomDropdown.flxDropdownImage": {
            "__events__": {},
            "__info__": {
                "kuid": "c15d2847ef054e6bb8345c208709da4f",
                "srcKUID": "b86b9b12b45e40f79c7e9581f47773cd",
                "wType": "FlexContainer"
            }
        },
        "MobileCustomDropdown.flxFilter": {
            "__events__": {},
            "__info__": {
                "kuid": "j551d8fb85c64d06b6dcea9d405d2d6b",
                "srcKUID": "i5bcc6dc0e9e435bbfb2e0e8741d771c",
                "wType": "FlexContainer"
            }
        },
        "MobileCustomDropdown.flxImage": {
            "__events__": {},
            "__info__": {
                "kuid": "aa46ee0e3ddd4e57a0c4248cbd3c5661",
                "srcKUID": "cd00e6fa98584cd6899e5fa23884fa55",
                "wType": "FlexContainer"
            }
        },
        "MobileCustomDropdown.flxIphoneDropdown": {
            "__events__": {},
            "__info__": {
                "kuid": "f6e31939698b42e39fb6877e495995a0",
                "srcKUID": "d5982645c62d4eb9bb7b1be5f09d419d",
                "wType": "FlexContainer"
            },
            "isVisible": true,
            "responsiveData": {
                "b1": {
                    "isVisible": false
                },
                "b2": {
                    "isVisible": false
                },
                "b3": {
                    "isVisible": false
                },
                "b4": {
                    "isVisible": false
                }
            }
        },
        "MobileCustomDropdown.flxProcessingType": {
            "__events__": {},
            "__info__": {
                "kuid": "ac513fca945b4a88993e68cd83aae270",
                "srcKUID": "hcede7a5a69f4aae82c2f83239a774a3",
                "wType": "FlexContainer"
            }
        },
        "MobileCustomDropdown.flxProcessingTypeBottomSeparator": {
            "__events__": {},
            "__info__": {
                "kuid": "idf47987a3b54a2592aebc89aeb9afff",
                "srcKUID": "ba6cb0b40e8b49848c42bc1f0c06f554",
                "wType": "FlexContainer"
            }
        },
        "MobileCustomDropdown.flxProcessingTypeDropdownImage": {
            "__events__": {},
            "__info__": {
                "kuid": "f41be6c9ddab4f08b7d42a98446a91a9",
                "srcKUID": "h37c8e6d5ddf423abbf2397c43866f80",
                "wType": "FlexContainer"
            }
        },
        "MobileCustomDropdown.flxProcessingTypeHeaderContent": {
            "__events__": {},
            "__info__": {
                "kuid": "g271de7f26b643c4b4be9d2ea3df0a92",
                "srcKUID": "d5a1e2be9fe44f268b6345b9c3c9a9f5",
                "wType": "FlexContainer"
            }
        },
        "MobileCustomDropdown.flxProcessingTypeHeaderDropdown": {
            "__events__": {},
            "__info__": {
                "kuid": "d3f0bf2559084d1d833f1118abf14d1d",
                "srcKUID": "b90d386976ac466ea40a114edd44dd24",
                "wType": "FlexContainer"
            }
        },
        "MobileCustomDropdown.flxProcessingTypeTopSeparator": {
            "__events__": {},
            "__info__": {
                "kuid": "aea241655d1343549ac9b15e3c9cc2b6",
                "srcKUID": "ed2b32ab39484b9da85c29a5f1623ac2",
                "wType": "FlexContainer"
            }
        },
        "MobileCustomDropdown.flxSeperatorCurrency": {
            "__events__": {},
            "__info__": {
                "kuid": "a587a804caf343b7a894b2a9f0a85de3",
                "srcKUID": "d82e4a031c334985b92551f32ab0164b",
                "wType": "FlexContainer"
            }
        },
        "MobileCustomDropdown.flxSeperatorToa": {
            "__events__": {},
            "__info__": {
                "kuid": "d0d2142f1a374de28ab1b3b092b49d70",
                "srcKUID": "hef64ae754894a54871be771155fa053",
                "wType": "FlexContainer"
            }
        },
        "MobileCustomDropdown.flxSeperatorToaTitle": {
            "__events__": {},
            "__info__": {
                "kuid": "j3d749bfd74644109d68fccca34c7c5f",
                "srcKUID": "dda02d6602f44ebb9c96cc4c0277eb3f",
                "wType": "FlexContainer"
            }
        },
        "MobileCustomDropdown.flxStatus": {
            "__events__": {},
            "__info__": {
                "kuid": "a62a77e0096948b7a4e1e2a1f2614721",
                "srcKUID": "c29dc27e430d44098eaeb1b4393fe0bf",
                "wType": "FlexContainer"
            }
        },
        "MobileCustomDropdown.flxTimePeriod": {
            "__events__": {},
            "__info__": {
                "kuid": "d865028e5f884d92b87ac0c2a8d43877",
                "srcKUID": "ge890363b2fa410dbe464016de4532f8",
                "wType": "FlexContainer"
            }
        },
        "MobileCustomDropdown.flxTimePeriodDropdownImage": {
            "__events__": {},
            "__info__": {
                "kuid": "e4bab24e003440e69349b88e7e570210",
                "srcKUID": "db80693440da4dc99b9fbcd8e365cfd2",
                "wType": "FlexContainer"
            }
        },
        "MobileCustomDropdown.flxTimePeriodHeader": {
            "__events__": {},
            "__info__": {
                "kuid": "d549794e97884ddabc711281a16cd13f",
                "srcKUID": "cb6d78fb67704d09b78fc2910d3d47c9",
                "wType": "FlexContainer"
            }
        },
        "MobileCustomDropdown.flxTimePeriodHeaderDropdown": {
            "__events__": {},
            "__info__": {
                "kuid": "e8577a91ab624b988ff80b7b25fbb95a",
                "srcKUID": "j9ce92d6b2a24172b411b9f38bb4bff0",
                "wType": "FlexContainer"
            }
        },
        "MobileCustomDropdown.flxTimePeriodSeparator": {
            "__events__": {},
            "__info__": {
                "kuid": "i25141180213489c969a46f8e09b2e67",
                "srcKUID": "gcabe4231d6c4ee0960731cc91d064d7",
                "wType": "FlexContainer"
            }
        },
        "MobileCustomDropdown.flxTimeperiodBody": {
            "__events__": {},
            "__info__": {
                "kuid": "b5becad6b34d42518abc3a0f54634bf4",
                "srcKUID": "j971794a32224bafa0ca6060c3a13e27",
                "wType": "FlexContainer"
            }
        },
        "MobileCustomDropdown.flxTimeperiodHeaderContent": {
            "__events__": {},
            "__info__": {
                "kuid": "h3863da0bede472eba61ca36d37d7fd4",
                "srcKUID": "e068f773e82e437084acead05f62b291",
                "wType": "FlexContainer"
            }
        },
        "MobileCustomDropdown.flxToaBody": {
            "__events__": {},
            "__info__": {
                "kuid": "b218b7a142c94f2e9ba5d68480978b53",
                "srcKUID": "da0fe9c1383c4162bd7e363984376967",
                "wType": "FlexContainer"
            }
        },
        "MobileCustomDropdown.flxToaHeader": {
            "__events__": {},
            "__info__": {
                "kuid": "h13f7cb144044cf0ae05a87d919e58d1",
                "srcKUID": "j56092107afa474eba0f47c785202779",
                "wType": "FlexContainer"
            }
        },
        "MobileCustomDropdown.flxToaHeaderTitle": {
            "__events__": {},
            "__info__": {
                "kuid": "dcb9a8c8e9d04e05afa3b7188db06932",
                "srcKUID": "g735658b57e641b2bdb76250c4aa2b1c",
                "wType": "FlexContainer"
            }
        },
        "MobileCustomDropdown.flxTypeOfAccountsExpand": {
            "__events__": {},
            "__info__": {
                "kuid": "f391421025b944f6800424e207053332",
                "srcKUID": "j1a3086165074e7f89491c109f073869",
                "wType": "FlexContainer"
            }
        },
        "MobileCustomDropdown.flxprocessingTypeBody": {
            "__events__": {},
            "__info__": {
                "kuid": "a6e1cdb85f6c436594e9dc564cbbb705",
                "srcKUID": "be96e2f6e3724bf79a2b991a9fee069a",
                "wType": "FlexContainer"
            }
        },
        "MobileCustomDropdown.flxprocessingTypeHeader": {
            "__events__": {},
            "__info__": {
                "kuid": "ib213e001caa4b6cb385fd4ad3fc3fbe",
                "srcKUID": "ca61009b2afe4426b01964503590bdad",
                "wType": "FlexContainer"
            }
        },
        "MobileCustomDropdown.imgDropdown": {
            "__events__": {},
            "__info__": {
                "kuid": "h5233833b3b4402780e07fe37c34a472",
                "srcKUID": "a27dc5d847e14c93b1e719fe64d79d1a",
                "wType": "Image"
            }
        },
        "MobileCustomDropdown.imgDropdownTimeperiod": {
            "__events__": {},
            "__info__": {
                "kuid": "e47907281fd54f1bbe5253dc70590357",
                "srcKUID": "e78a7a9f1710438cb893022efc61203f",
                "wType": "Label"
            }
        },
        "MobileCustomDropdown.imgDropdownprocessingType": {
            "__events__": {},
            "__info__": {
                "kuid": "a8bb67da412a423ebc6612313a82ad47",
                "srcKUID": "f34077d626bd48a9888e24e3f008d5b5",
                "wType": "Label"
            }
        },
        "MobileCustomDropdown.lblAll": {
            "__events__": {},
            "__info__": {
                "kuid": "i110db4cf96b46209283d3e7eb3cedd0",
                "srcKUID": "a3e804e5c94c4a9c9f0b74a29f317fae",
                "wType": "Label"
            }
        },
        "MobileCustomDropdown.lblAllValue": {
            "__events__": {},
            "__info__": {
                "kuid": "g08ac9df5342422193343398fb262cb0",
                "srcKUID": "c926efe57efe436baf2da96ca421a3d3",
                "wType": "Label"
            }
        },
        "MobileCustomDropdown.lblCurrencyType": {
            "__events__": {},
            "__info__": {
                "kuid": "f58e44495a4f40f3b5818e54fe4cacf1",
                "srcKUID": "b3a37ab7a42c478ea68c248f999afecd",
                "wType": "Label"
            }
        },
        "MobileCustomDropdown.lblFilterCount": {
            "__events__": {},
            "__info__": {
                "kuid": "gf650ea250204ff8854c5f693bd50c1c",
                "srcKUID": "d9a86f22dfd84bc2bffd47375d6db2a0",
                "wType": "Label"
            }
        },
        "MobileCustomDropdown.lblImage": {
            "__events__": {},
            "__info__": {
                "kuid": "fcee028a1ca94e9eacc7117b6e68a489",
                "srcKUID": "i5b21ca5b383407bbc8d6fcafba17aee",
                "wType": "Label"
            }
        },
        "MobileCustomDropdown.lblImageCurrency": {
            "__events__": {},
            "__info__": {
                "kuid": "de3953669f3f446baed697c187717620",
                "srcKUID": "d3211b72cba342ad899d4c051821fb7c",
                "wType": "Label"
            }
        },
        "MobileCustomDropdown.lblProcessingTypeContent": {
            "__events__": {},
            "__info__": {
                "kuid": "hc2c5bfcb9db493caed40d365e33fffd",
                "srcKUID": "h3ab62bcde764026bd7ee2a8bfab752f",
                "wType": "Label"
            }
        },
        "MobileCustomDropdown.lblTimeperiodContent": {
            "__events__": {},
            "__info__": {
                "kuid": "e5d9631c39504af59d6963fc4e8d1893",
                "srcKUID": "b0f73883e8d4405d81523144dff4c534",
                "wType": "Label"
            }
        },
        "MobileCustomDropdown.lblTypeOfAccounts": {
            "__events__": {},
            "__info__": {
                "kuid": "ac325295b01d42618222e4d08e38ca4d",
                "srcKUID": "fd199763413e4e498d831ae441f4c893",
                "wType": "Label"
            }
        },
        "MobileCustomDropdown.lblView": {
            "__events__": {},
            "__info__": {
                "kuid": "eb09ee9e512c4a0ea1c2dc92e318a912",
                "srcKUID": "jb3e567d2e71428a92a71bc97d0cd883",
                "wType": "Label"
            }
        },
        "MobileCustomDropdown.lblViewType": {
            "__events__": {},
            "__info__": {
                "kuid": "f38298e2042f4bee9c734a32538f78b9",
                "srcKUID": "faa6193ed60d4935a80e7bfe1877aa25",
                "wType": "Label"
            }
        },
        "MobileCustomDropdown.segCurrency": {
            "__events__": {},
            "__info__": {
                "kuid": "gd850d7638c546a1a7fd79ba734b3b3b",
                "srcKUID": "acab853115f34856abc8e9ab01c27219",
                "wType": "Segment"
            }
        },
        "MobileCustomDropdown.segProcessingType": {
            "__events__": {},
            "__info__": {
                "kuid": "ae72f30d3bdf423abb9590627b7e37c3",
                "srcKUID": "d00c74e2c97341d0807354bf97efb897",
                "wType": "Segment"
            }
        },
        "MobileCustomDropdown.segTimePeriod": {
            "__events__": {},
            "__info__": {
                "kuid": "da1fb63d98e54149b99047c78fe42737",
                "srcKUID": "edb44217dcad4cdb93ca85adae12b969",
                "wType": "Segment"
            }
        },
        "MobileCustomDropdown.segTypeOfAccounts": {
            "__events__": {},
            "__info__": {
                "kuid": "f35176f9538e4fe59d86729d9c411529",
                "srcKUID": "d00129c34b254803b93f20417781161f",
                "wType": "Segment"
            }
        },
        "MobileCustomDropdown.segViewTypes": {
            "__events__": {},
            "__info__": {
                "kuid": "f069cc7e5bc84bd08d46baf70c23fe27",
                "srcKUID": "b1dbfab142b74a0888bbd4f308723d35",
                "wType": "Segment"
            }
        },
        "PaginationContainer": {
            "__events__": {},
            "__info__": {
                "kuid": "df10181c95eb4b5cad7799646d2cedc6",
                "srcKUID": "edfe6156f0b84602bb4f46af14fa0161",
                "wType": "UserWidgetInstance"
            },
            "left": {
                "Default": {
                    "type": "string",
                    "value": "8px"
                }
            },
            "responsiveData": {
                "b1": {
                    "left": {
                        "type": "string",
                        "value": "0dp"
                    }
                },
                "b3": {
                    "left": {
                        "type": "string",
                        "value": "0dp"
                    }
                }
            }
        },
        "PaginationContainer.flxPagination": {
            "__events__": {},
            "__info__": {
                "kuid": "d085f645598147d7bc60cc3767bb89fb",
                "srcKUID": "c663a89e0c834b0f9e979138ce9e055a",
                "wType": "FlexContainer"
            },
            "centerX": {},
            "responsiveData": {
                "b1": {
                    "width": {
                        "type": "string",
                        "value": "40%"
                    }
                },
                "b2": {
                    "width": {
                        "type": "string",
                        "value": "35%"
                    }
                },
                "b3": {
                    "centerX": {
                        "type": "string",
                        "value": "50%"
                    },
                    "isVisible": true,
                    "width": {
                        "type": "string",
                        "value": "60%"
                    }
                },
                "b4": {
                    "centerX": {
                        "type": "string",
                        "value": ""
                    },
                    "width": {
                        "type": "string",
                        "value": "40%"
                    }
                }
            },
            "width": {}
        },
        "PaginationContainer.flxPaginationFirst": {
            "__events__": {},
            "__info__": {
                "kuid": "bed0f6faec8747578cf51e726ed695cc",
                "srcKUID": "f08658f862e14ef1898e467fa5349769",
                "wType": "FlexContainer"
            }
        },
        "PaginationContainer.flxPaginationLast": {
            "__events__": {},
            "__info__": {
                "kuid": "ebbe02d830b34d2a8ef2e0c4387cc7e1",
                "srcKUID": "d689f702bc364e5fbacde2477dfc4601",
                "wType": "FlexContainer"
            }
        },
        "PaginationContainer.flxPaginationNext": {
            "__events__": {},
            "__info__": {
                "kuid": "f876907fd6e64725b8cacf5c437d3f32",
                "srcKUID": "h53e12a087674c628a337fc4ceed1b31",
                "wType": "FlexContainer"
            }
        },
        "PaginationContainer.flxPaginationPrevious": {
            "__events__": {},
            "__info__": {
                "kuid": "c1f2a7f26e76441fa73a8ecb91d267fe",
                "srcKUID": "cd9298134b3d4c9981b8a5070a686fd3",
                "wType": "FlexContainer"
            },
            "autogrowMode": {
                "Default": 0
            },
            "height": {
                "Default": {
                    "type": "string",
                    "value": "40dp"
                }
            },
            "responsiveData": {
                "b3": {}
            },
            "width": {
                "Default": {
                    "type": "string",
                    "value": "40dp"
                }
            }
        },
        "PaginationContainer.imgPaginationFirst": {
            "__events__": {},
            "__info__": {
                "kuid": "b6e340ec576d4a59a1ab70f4ba4edb50",
                "srcKUID": "i5233087c0c2473395a35aacc6e537ca",
                "wType": "Image"
            }
        },
        "PaginationContainer.imgPaginationLast": {
            "__events__": {},
            "__info__": {
                "kuid": "ba15e491517d404db0f3960da7789fee",
                "srcKUID": "fb647e548cf0486f83a8ce0d71382409",
                "wType": "Image"
            }
        },
        "PaginationContainer.imgPaginationNext": {
            "__events__": {},
            "__info__": {
                "kuid": "d05a7a11102e41faab4693414dc9812e",
                "srcKUID": "f5a54a05e8494c958d6c505f853c4688",
                "wType": "Image"
            },
            "src": "pagination_next_active.png"
        },
        "PaginationContainer.imgPaginationPrevious": {
            "__events__": {},
            "__info__": {
                "kuid": "iad7fdae46b146c59695c5c60814fb1c",
                "srcKUID": "e32a9014ca144b3696946eedadb9cbf5",
                "wType": "Image"
            },
            "src": "pagination_back_inactive.png"
        },
        "PaginationContainer.lblPagination": {
            "__events__": {},
            "__info__": {
                "kuid": "a2d3ac74c9a843b3a2929f2fac956d4f",
                "srcKUID": "ef5bf84a49cb4040ab9cc2779d014457",
                "wType": "Label"
            }
        },
        "TabBodyNew": {
            "__events__": {},
            "__info__": {
                "kuid": "dbc54c205f454e84af36654ccb4880f3",
                "srcKUID": "b07b31bc584944d3a6a6ff591334b6dc",
                "wType": "UserWidgetInstance"
            },
            "left": {
                "Default": {
                    "type": "string",
                    "value": "0dp"
                }
            },
            "minHeight": {
                "Default": {
                    "type": "number",
                    "value": ""
                }
            },
            "minWidth": {
                "Default": {
                    "type": "number",
                    "value": ""
                }
            },
            "responsiveData": {
                "b3": {
                    "left": {
                        "type": "string",
                        "value": "15dp"
                    },
                    "minHeight": {
                        "type": "string",
                        "value": "420dp"
                    },
                    "minWidth": {
                        "type": "string",
                        "value": ""
                    },
                    "right": {
                        "type": "string",
                        "value": "10dp"
                    },
                    "width": {
                        "type": "string",
                        "value": "90%"
                    }
                }
            },
            "right": {
                "Default": {
                    "type": "number",
                    "value": ""
                }
            },
            "width": {
                "Default": {
                    "type": "string",
                    "value": "100%"
                }
            }
        },
        "TabBodyNew.segTemplates": {
            "__events__": {},
            "__info__": {
                "kuid": "d7f1b42c23174d92af0e7a4c894f3514",
                "srcKUID": "c6ca5c88f72444d19924de5115a95914",
                "wType": "Segment"
            },
            "centerX": {
                "Default": {
                    "type": "string",
                    "value": ""
                }
            },
            "left": {
                "Default": {
                    "type": "string",
                    "value": "0dp"
                }
            },
            "responsiveData": {
                "b3": {}
            },
            "top": {
                "Default": {
                    "type": "string",
                    "value": "0dp"
                }
            },
            "width": {
                "Default": {
                    "type": "string",
                    "value": "100%"
                }
            }
        },
        "TabPaneNew": {
            "__events__": {},
            "__info__": {
                "isRoot": true,
                "kuid": "bb42555209384ef998b2e7879da8030f",
                "srcKUID": "g4f0753b9c12467c9de0e2bc6a812f3a",
                "wType": "FlexContainer"
            },
            "bottom": {
                "Default": {
                    "type": "string",
                    "value": ""
                }
            },
            "left": {
                "Default": {
                    "type": "string",
                    "value": ""
                }
            },
            "maxWidth": {
                "Default": {
                    "type": "string",
                    "value": ""
                }
            },
            "responsiveData": {
                "b1": {
                    "top": {
                        "type": "string",
                        "value": "0dp"
                    }
                },
                "b2": {},
                "b3": {},
                "b4": {
                    "left": {
                        "type": "string",
                        "value": "0dp"
                    }
                }
            },
            "top": {
                "Default": {
                    "type": "string",
                    "value": "0dp"
                }
            },
            "width": {
                "Default": {
                    "type": "ref",
                    "value": "preferred"
                }
            },
            "zIndex": {
                "Default": 1
            }
        },
        "TabSearchBarNew": {
            "__events__": {},
            "__info__": {
                "kuid": "b145416d7cfd4fe48236260cf136042a",
                "srcKUID": "dd36902d99844f5cad21c18ddcb3a196",
                "wType": "UserWidgetInstance"
            },
            "autogrowMode": {
                "Default": 0
            },
            "height": {},
            "layoutType": 2,
            "minWidth": {
                "Default": {
                    "type": "number",
                    "value": ""
                }
            },
            "responsiveData": {
                "b1": {
                    "width": {
                        "type": "string",
                        "value": "100%"
                    },
                    "zIndex": 5
                },
                "b2": {
                    "minWidth": {
                        "type": "string",
                        "value": ""
                    },
                    "width": {
                        "type": "string",
                        "value": "100%"
                    },
                    "zIndex": 5
                },
                "b3": {
                    "height": {
                        "type": "string",
                        "value": "150dp"
                    },
                    "top": {
                        "type": "string",
                        "value": "0dp"
                    },
                    "width": {
                        "type": "string",
                        "value": "100%"
                    },
                    "zIndex": 100
                },
                "b4": {
                    "zIndex": 5
                }
            },
            "width": {},
            "zIndex": {
                "Default": 1
            }
        },
        "TabSearchBarNew.MobileCustomDropdown": {
            "__events__": {},
            "__info__": {
                "kuid": "f3a2ed27136046c19440829e8e6f07f7",
                "srcKUID": "h33965cb508e434eb38eb26244d08295",
                "wType": "FlexContainer"
            },
            "autogrowMode": {
                "Default": 0
            },
            "bottom": {
                "Default": {
                    "type": "number",
                    "value": ""
                }
            },
            "height": {
                "Default": {
                    "type": "string",
                    "value": "80dp"
                }
            },
            "isVisible": false,
            "minWidth": {
                "Default": {
                    "type": "number",
                    "value": ""
                }
            },
            "responsiveData": {
                "b1": {
                    "height": {
                        "type": "string",
                        "value": "50dp"
                    },
                    "isVisible": true
                },
                "b2": {
                    "bottom": {
                        "type": "string",
                        "value": ""
                    },
                    "height": {
                        "type": "string",
                        "value": "50dp"
                    },
                    "isVisible": true
                },
                "b3": {
                    "isVisible": true
                },
                "b4": {
                    "height": {
                        "type": "string",
                        "value": "50dp"
                    },
                    "isVisible": true,
                    "minWidth": {
                        "type": "string",
                        "value": ""
                    }
                }
            }
        },
        "TabSearchBarNew.MobileCustomDropdown.CopyflxTimePeriodSeparator0iad4443c80964c": {
            "__events__": {},
            "__info__": {
                "kuid": "aa683ad960914b0f9e93514444cf4bf4",
                "srcKUID": "fed9f4152f2c4c9fb0a88b4dc67fb6f5",
                "wType": "FlexContainer"
            }
        },
        "TabSearchBarNew.MobileCustomDropdown.btnApplyFilter": {
            "__events__": {},
            "__info__": {
                "kuid": "g728b97b77124031a9b27255769a12b2",
                "srcKUID": "d24a1ada27b44e14ab7b865e5fcd15ca",
                "wType": "Button"
            }
        },
        "TabSearchBarNew.MobileCustomDropdown.btnCancelFilter": {
            "__events__": {},
            "__info__": {
                "kuid": "e595b75613cb419391136a00860d6371",
                "srcKUID": "h0faed312e8f4660b0b4e5fb1331e9bc",
                "wType": "Button"
            }
        },
        "TabSearchBarNew.MobileCustomDropdown.flxAll": {
            "__events__": {},
            "__info__": {
                "kuid": "fd726b18f8314a0899f405fdadd9f3d1",
                "srcKUID": "acf75c5c6bb54e819dcb82aa765148d4",
                "wType": "FlexContainer"
            }
        },
        "TabSearchBarNew.MobileCustomDropdown.flxApprovalTypeSeparator": {
            "__events__": {},
            "__info__": {
                "kuid": "e34d27239f634a0a8777f21ed796e6e0",
                "srcKUID": "h843acdee54e4eccbf570a95c2f11edd",
                "wType": "FlexContainer"
            }
        },
        "TabSearchBarNew.MobileCustomDropdown.flxApproveType": {
            "__events__": {},
            "__info__": {
                "kuid": "b7bdbcb847834ae6b33e4075c6e1b79b",
                "srcKUID": "ed7920969dcf4fc5b58100bf404504f2",
                "wType": "FlexContainer"
            }
        },
        "TabSearchBarNew.MobileCustomDropdown.flxButtons": {
            "__events__": {},
            "__info__": {
                "kuid": "e959bb0f134542498022d49dded316c7",
                "srcKUID": "d684e2f2ee0f4f0da443b31b2ea24d90",
                "wType": "FlexContainer"
            }
        },
        "TabSearchBarNew.MobileCustomDropdown.flxCurrencyBody": {
            "__events__": {},
            "__info__": {
                "kuid": "c645b952d8fe43bfb461828b46597f2c",
                "srcKUID": "h45e1fb86f574ee690a0e4cfd3bd13ec",
                "wType": "FlexContainer"
            }
        },
        "TabSearchBarNew.MobileCustomDropdown.flxCurrencyExpand": {
            "__events__": {},
            "__info__": {
                "kuid": "be53176a9cd14371a3433398b779a711",
                "srcKUID": "bef7ee59084b45f39adfe897be7c47a3",
                "wType": "FlexContainer"
            }
        },
        "TabSearchBarNew.MobileCustomDropdown.flxCurrencyHeader": {
            "__events__": {},
            "__info__": {
                "kuid": "i7ceb248fca340308aa4436afbd705cd",
                "srcKUID": "c24773708548491f9887868f6a79484d",
                "wType": "FlexContainer"
            }
        },
        "TabSearchBarNew.MobileCustomDropdown.flxCurrencyTitle": {
            "__events__": {},
            "__info__": {
                "kuid": "b21952e1e99844d48b770985572dc3b5",
                "srcKUID": "cc1c84dc55c44409a298957ee1eab086",
                "wType": "FlexContainer"
            }
        },
        "TabSearchBarNew.MobileCustomDropdown.flxDropdown": {
            "__events__": {},
            "__info__": {
                "kuid": "icf7026acdd7406f875a2fd2679c05b5",
                "srcKUID": "d044f3948dc34ba1b6538e70f48b6aef",
                "wType": "FlexContainer"
            },
            "isVisible": false,
            "left": {
                "Default": {
                    "type": "string",
                    "value": "4%"
                }
            },
            "minWidth": {
                "Default": {
                    "type": "number",
                    "value": ""
                }
            },
            "responsiveData": {
                "b1": {
                    "left": {
                        "type": "string",
                        "value": "0%"
                    },
                    "top": {
                        "type": "string",
                        "value": "100%"
                    },
                    "width": {
                        "type": "string",
                        "value": "100%"
                    }
                },
                "b2": {
                    "isVisible": null,
                    "left": {
                        "type": "string",
                        "value": "0%"
                    },
                    "minWidth": {
                        "type": "string",
                        "value": ""
                    },
                    "top": {
                        "type": "string",
                        "value": "100%"
                    },
                    "width": {
                        "type": "string",
                        "value": "100%"
                    }
                },
                "b3": {
                    "isVisible": false,
                    "left": {
                        "type": "string",
                        "value": "0%"
                    },
                    "top": {
                        "type": "string",
                        "value": "40dp"
                    },
                    "width": {
                        "type": "string",
                        "value": "100%"
                    }
                },
                "b4": {
                    "left": {
                        "type": "string",
                        "value": "0%"
                    },
                    "minWidth": {
                        "type": "string",
                        "value": ""
                    },
                    "top": {
                        "type": "string",
                        "value": "100%"
                    },
                    "width": {
                        "type": "string",
                        "value": "100%"
                    }
                }
            },
            "top": {
                "Default": {
                    "type": "string",
                    "value": "60dp"
                }
            },
            "width": {
                "Default": {
                    "type": "string",
                    "value": "92%"
                }
            }
        },
        "TabSearchBarNew.MobileCustomDropdown.flxDropdownCurrency": {
            "__events__": {},
            "__info__": {
                "kuid": "gebc8544a77d43eb86619d8e855a9590",
                "srcKUID": "a5bb072f60e84d2bb64878b30b5bcb86",
                "wType": "FlexContainer"
            }
        },
        "TabSearchBarNew.MobileCustomDropdown.flxDropdownImage": {
            "__events__": {},
            "__info__": {
                "kuid": "hd0718b755184dcdb9cd554f2d103384",
                "srcKUID": "e4d891acf4b542db8d0cacb7c9011c11",
                "wType": "FlexContainer"
            }
        },
        "TabSearchBarNew.MobileCustomDropdown.flxFilter": {
            "__events__": {},
            "__info__": {
                "kuid": "aeb2d888977b43a8a11e2f414bbd2e10",
                "srcKUID": "d3461492d2ef48f599739b50ceb2b7fe",
                "wType": "FlexContainer"
            }
        },
        "TabSearchBarNew.MobileCustomDropdown.flxImage": {
            "__events__": {},
            "__info__": {
                "kuid": "e25d94d3463d4101ba4d2fb998975606",
                "srcKUID": "b41180006e224c45b1edb79f9c721a4c",
                "wType": "FlexContainer"
            }
        },
        "TabSearchBarNew.MobileCustomDropdown.flxIphoneDropdown": {
            "__events__": {},
            "__info__": {
                "kuid": "c5e82fd93a704a05a83db26ed95641e6",
                "srcKUID": "a837e3c73dc74215acd3d38433ef414b",
                "wType": "FlexContainer"
            },
            "autogrowMode": {
                "Default": 0
            },
            "height": {
                "Default": {
                    "type": "string",
                    "value": "40dp"
                }
            },
            "left": {
                "Default": {
                    "type": "string",
                    "value": "4%"
                }
            },
            "minWidth": {
                "Default": {
                    "type": "number",
                    "value": ""
                }
            },
            "responsiveData": {
                "b1": {
                    "height": {
                        "type": "string",
                        "value": "50dp"
                    },
                    "left": {
                        "type": "string",
                        "value": "0%"
                    },
                    "minWidth": {
                        "type": "string",
                        "value": ""
                    },
                    "top": {
                        "type": "string",
                        "value": "0dp"
                    },
                    "width": {
                        "type": "string",
                        "value": "100%"
                    }
                },
                "b2": {
                    "height": {
                        "type": "string",
                        "value": "50dp"
                    },
                    "left": {
                        "type": "string",
                        "value": "0%"
                    },
                    "minWidth": {
                        "type": "string",
                        "value": ""
                    },
                    "top": {
                        "type": "string",
                        "value": "0dp"
                    },
                    "width": {
                        "type": "string",
                        "value": "100%"
                    }
                },
                "b3": {
                    "left": {
                        "type": "string",
                        "value": "0%"
                    },
                    "top": {
                        "type": "string",
                        "value": "0dp"
                    },
                    "width": {
                        "type": "string",
                        "value": "100%"
                    }
                },
                "b4": {
                    "height": {
                        "type": "string",
                        "value": "50dp"
                    },
                    "left": {
                        "type": "string",
                        "value": "0%"
                    },
                    "top": {
                        "type": "string",
                        "value": "0dp"
                    },
                    "width": {
                        "type": "string",
                        "value": "100%"
                    }
                }
            },
            "top": {
                "Default": {
                    "type": "string",
                    "value": "20dp"
                }
            },
            "width": {
                "Default": {
                    "type": "string",
                    "value": "92%"
                }
            }
        },
        "TabSearchBarNew.MobileCustomDropdown.flxProcessingType": {
            "__events__": {},
            "__info__": {
                "kuid": "jcf2e2bb099a40958cb5937a717e1511",
                "srcKUID": "e688a7f81051405da7debe919ff730a8",
                "wType": "FlexContainer"
            }
        },
        "TabSearchBarNew.MobileCustomDropdown.flxProcessingTypeBottomSeparator": {
            "__events__": {},
            "__info__": {
                "kuid": "bdeba1274ad8466a85b4d9bfe22fcba4",
                "srcKUID": "f95212389d924c25bbca2e7bf00ffcc6",
                "wType": "FlexContainer"
            }
        },
        "TabSearchBarNew.MobileCustomDropdown.flxProcessingTypeDropdownImage": {
            "__events__": {},
            "__info__": {
                "kuid": "hd19c8ef34e04399b954e986e2a1b78a",
                "srcKUID": "d7223ce04adb4be7b47fd5d346a03a93",
                "wType": "FlexContainer"
            }
        },
        "TabSearchBarNew.MobileCustomDropdown.flxProcessingTypeHeaderContent": {
            "__events__": {},
            "__info__": {
                "kuid": "f76b79ab1a21437a847e7f8d02d31a85",
                "srcKUID": "d5d5c06aca1245d795ca6e383f8de35c",
                "wType": "FlexContainer"
            }
        },
        "TabSearchBarNew.MobileCustomDropdown.flxProcessingTypeHeaderDropdown": {
            "__events__": {},
            "__info__": {
                "kuid": "d400cb3b9f81448faef849331da862d9",
                "srcKUID": "je33c95072ce4f67bfb711ee4cd9d1bd",
                "wType": "FlexContainer"
            }
        },
        "TabSearchBarNew.MobileCustomDropdown.flxProcessingTypeTopSeparator": {
            "__events__": {},
            "__info__": {
                "kuid": "je7c45fcae4f4e04961b343568a32b02",
                "srcKUID": "dfdb1f3509064f4d8a82bbc00f6995af",
                "wType": "FlexContainer"
            }
        },
        "TabSearchBarNew.MobileCustomDropdown.flxSeperatorCurrency": {
            "__events__": {},
            "__info__": {
                "kuid": "c36f6d88e6444dbf9fe5230e6fd129fa",
                "srcKUID": "h27f8795e6484efc92367a8ec749d414",
                "wType": "FlexContainer"
            }
        },
        "TabSearchBarNew.MobileCustomDropdown.flxSeperatorToa": {
            "__events__": {},
            "__info__": {
                "kuid": "efd40bb2728d4c9ba20107027314f6e0",
                "srcKUID": "c428d5d580364d8195e659442f79cb54",
                "wType": "FlexContainer"
            }
        },
        "TabSearchBarNew.MobileCustomDropdown.flxSeperatorToaTitle": {
            "__events__": {},
            "__info__": {
                "kuid": "hb676a3eda88432aaaf135264a39db2e",
                "srcKUID": "ec4c2ddb0b524db09d6b8c140ffaac89",
                "wType": "FlexContainer"
            }
        },
        "TabSearchBarNew.MobileCustomDropdown.flxStatus": {
            "__events__": {},
            "__info__": {
                "kuid": "b74034874fc34901ae02981eda45de91",
                "srcKUID": "b57c71d18434457d9ba1f6c49121e28c",
                "wType": "FlexContainer"
            }
        },
        "TabSearchBarNew.MobileCustomDropdown.flxTimePeriod": {
            "__events__": {},
            "__info__": {
                "kuid": "iaefcdb52df440079859b97404f5d069",
                "srcKUID": "g1df5c90b23847109661b6cd9a2a9285",
                "wType": "FlexContainer"
            }
        },
        "TabSearchBarNew.MobileCustomDropdown.flxTimePeriodDropdownImage": {
            "__events__": {},
            "__info__": {
                "kuid": "ec24cc46290b4f7ab88526a261460969",
                "srcKUID": "g8e168eaeac844a680590d3b8dbb7ba3",
                "wType": "FlexContainer"
            }
        },
        "TabSearchBarNew.MobileCustomDropdown.flxTimePeriodHeader": {
            "__events__": {},
            "__info__": {
                "kuid": "d2b9a1016cdc4b9dbed5c0c5a4d80f0a",
                "srcKUID": "e7823ca83aa542ff8b47834155f28574",
                "wType": "FlexContainer"
            }
        },
        "TabSearchBarNew.MobileCustomDropdown.flxTimePeriodHeaderDropdown": {
            "__events__": {},
            "__info__": {
                "kuid": "fb2e084a4a094c9dac952f2871286a3d",
                "srcKUID": "fc071f202a264c76b2d2b2a2e3a8cb61",
                "wType": "FlexContainer"
            }
        },
        "TabSearchBarNew.MobileCustomDropdown.flxTimePeriodSeparator": {
            "__events__": {},
            "__info__": {
                "kuid": "c494ff8e08a84a748b4ff6c2bd1cd066",
                "srcKUID": "d54c5265bac440f9a201bfbcaad0e6cb",
                "wType": "FlexContainer"
            }
        },
        "TabSearchBarNew.MobileCustomDropdown.flxTimeperiodBody": {
            "__events__": {},
            "__info__": {
                "kuid": "d06aca7362bc404fb9bb593e80829278",
                "srcKUID": "f489c61629df4302a018420c35f62590",
                "wType": "FlexContainer"
            }
        },
        "TabSearchBarNew.MobileCustomDropdown.flxTimeperiodHeaderContent": {
            "__events__": {},
            "__info__": {
                "kuid": "ee69a32a815e468ea6bd796fbb6b2bf1",
                "srcKUID": "d3b90e156a4e490a90aaed0ce957c109",
                "wType": "FlexContainer"
            }
        },
        "TabSearchBarNew.MobileCustomDropdown.flxToaBody": {
            "__events__": {},
            "__info__": {
                "kuid": "bb0a784057cc49b7a19d21f91d7a8666",
                "srcKUID": "a857644e801b4118aaa14029f669b86c",
                "wType": "FlexContainer"
            }
        },
        "TabSearchBarNew.MobileCustomDropdown.flxToaHeader": {
            "__events__": {},
            "__info__": {
                "kuid": "e472dc4486514f37854a9490d75d7af5",
                "srcKUID": "fbfdc92fbc964946bdbac10b32eb8f8f",
                "wType": "FlexContainer"
            }
        },
        "TabSearchBarNew.MobileCustomDropdown.flxToaHeaderTitle": {
            "__events__": {},
            "__info__": {
                "kuid": "a9baca5963574d0aac6bd5abc03b016d",
                "srcKUID": "dc0c8319b5754dcdb7bae69465913fff",
                "wType": "FlexContainer"
            }
        },
        "TabSearchBarNew.MobileCustomDropdown.flxTypeOfAccountsExpand": {
            "__events__": {},
            "__info__": {
                "kuid": "bf8bcbab1e4749fc9a738cd48f2d4ced",
                "srcKUID": "f4f5399119cc4ca5ab28fc6d10e1a8a5",
                "wType": "FlexContainer"
            }
        },
        "TabSearchBarNew.MobileCustomDropdown.flxprocessingTypeBody": {
            "__events__": {},
            "__info__": {
                "kuid": "j9b28bd8935e4a20a9514308a25dc2af",
                "srcKUID": "e08c72f404f043618e32b560f0d9e043",
                "wType": "FlexContainer"
            }
        },
        "TabSearchBarNew.MobileCustomDropdown.flxprocessingTypeHeader": {
            "__events__": {},
            "__info__": {
                "kuid": "gafefb1924c9415a9c2ee166eeee34b9",
                "srcKUID": "j38b19242ba249159bbb4aa4d55209a4",
                "wType": "FlexContainer"
            }
        },
        "TabSearchBarNew.MobileCustomDropdown.imgDropdown": {
            "__events__": {},
            "__info__": {
                "kuid": "j1a9081e48a6461290c122ab54a6d58b",
                "srcKUID": "f45c93006be54d7caa1efc377ddfe3e8",
                "wType": "Image"
            },
            "responsiveData": {},
            "src": "arrowdown_sm.png"
        },
        "TabSearchBarNew.MobileCustomDropdown.imgDropdownTimeperiod": {
            "__events__": {},
            "__info__": {
                "kuid": "ge3ecb77b1fd417e9f74d9cbb180f674",
                "srcKUID": "g0c345cb318f487cade60b5e9faa1144",
                "wType": "Label"
            }
        },
        "TabSearchBarNew.MobileCustomDropdown.imgDropdownprocessingType": {
            "__events__": {},
            "__info__": {
                "kuid": "ade45e4823664a34b64f9db4d0d3a8ef",
                "srcKUID": "f463c0d97ddc4084be506f904b806ca9",
                "wType": "Label"
            }
        },
        "TabSearchBarNew.MobileCustomDropdown.lblAll": {
            "__events__": {},
            "__info__": {
                "kuid": "ga5ba2eccec443b98f2a30025c7a3a4c",
                "srcKUID": "ca19dcf966864a3dad7d63ad4b2b81f2",
                "wType": "Label"
            },
            "height": {
                "Default": {
                    "type": "string",
                    "value": "22dp"
                }
            },
            "left": {
                "Default": {
                    "type": "string",
                    "value": "2%"
                }
            },
            "responsiveData": {
                "b2": {
                    "left": null
                },
                "b3": {
                    "left": {
                        "type": "string",
                        "value": "1%"
                    },
                    "width": null
                }
            },
            "width": {
                "Default": {
                    "type": "string",
                    "value": "25dp"
                }
            }
        },
        "TabSearchBarNew.MobileCustomDropdown.lblAllValue": {
            "__events__": {},
            "__info__": {
                "kuid": "da4a78da4f73419b81ebddf38bbc70ce",
                "srcKUID": "dafa67f911044945aaac4167190aa8f3",
                "wType": "Label"
            }
        },
        "TabSearchBarNew.MobileCustomDropdown.lblCurrencyType": {
            "__events__": {},
            "__info__": {
                "kuid": "g284e7c49eca42029e3872199a867974",
                "srcKUID": "df71f39211c24ff6840c6304338ae3d8",
                "wType": "Label"
            },
            "responsiveData": {},
            "text": "Transaction Type"
        },
        "TabSearchBarNew.MobileCustomDropdown.lblFilterCount": {
            "__events__": {},
            "__info__": {
                "kuid": "b217255e25294115b7c81b43143295d2",
                "srcKUID": "i05d39687c4648448caffa493b955b16",
                "wType": "Label"
            }
        },
        "TabSearchBarNew.MobileCustomDropdown.lblImage": {
            "__events__": {},
            "__info__": {
                "kuid": "g6d95926c1ff4e37a04f18752a594b18",
                "srcKUID": "adc0f2c58c984189a52d245e8375ded2",
                "wType": "Label"
            }
        },
        "TabSearchBarNew.MobileCustomDropdown.lblImageCurrency": {
            "__events__": {},
            "__info__": {
                "kuid": "if1600ebe90e4b62a88e5ed6144ed3a9",
                "srcKUID": "j74e7ac41f1a42039607d237c8b01c59",
                "wType": "Label"
            }
        },
        "TabSearchBarNew.MobileCustomDropdown.lblProcessingTypeContent": {
            "__events__": {},
            "__info__": {
                "kuid": "d4aacdaa03d84f7e8327f4e57e2595ed",
                "srcKUID": "ca265660332149538212a083069cb41c",
                "wType": "Label"
            }
        },
        "TabSearchBarNew.MobileCustomDropdown.lblTimeperiodContent": {
            "__events__": {},
            "__info__": {
                "kuid": "a0a38b9c3bed43c498472cf3e796b710",
                "srcKUID": "gd9c401602994ca4aac99d44df1e751c",
                "wType": "Label"
            }
        },
        "TabSearchBarNew.MobileCustomDropdown.lblTypeOfAccounts": {
            "__events__": {},
            "__info__": {
                "kuid": "g619246139ee44f6a4e681c7973c24a8",
                "srcKUID": "c13462d105604a2c97f4563a9488ab3e",
                "wType": "Label"
            }
        },
        "TabSearchBarNew.MobileCustomDropdown.lblView": {
            "__events__": {},
            "__info__": {
                "kuid": "b5b1e151f69342b186336d5b56cd6b73",
                "srcKUID": "b3b82733506f439996120a336758532b",
                "wType": "Label"
            },
            "left": {
                "Default": {
                    "type": "string",
                    "value": "1%"
                }
            },
            "minWidth": {
                "Default": {
                    "type": "number",
                    "value": ""
                }
            },
            "responsiveData": {
                "b1": {
                    "left": {
                        "type": "string",
                        "value": ""
                    },
                    "minWidth": {
                        "type": "string",
                        "value": ""
                    },
                    "right": {
                        "type": "string",
                        "value": "72%"
                    },
                    "width": {
                        "type": "string",
                        "value": "20%"
                    }
                },
                "b2": {
                    "left": {
                        "type": "string",
                        "value": ""
                    },
                    "right": {
                        "type": "string",
                        "value": "72%"
                    },
                    "top": {
                        "type": "string",
                        "value": "0dp"
                    },
                    "width": {
                        "type": "string",
                        "value": "20%"
                    }
                },
                "b3": {
                    "left": {
                        "type": "string",
                        "value": "1%"
                    },
                    "width": {
                        "type": "string",
                        "value": "12%"
                    }
                },
                "b4": {
                    "left": {
                        "type": "string",
                        "value": ""
                    },
                    "minWidth": {
                        "type": "string",
                        "value": ""
                    },
                    "right": {
                        "type": "string",
                        "value": "72%"
                    },
                    "top": {
                        "type": "string",
                        "value": "0dp"
                    },
                    "width": {
                        "type": "string",
                        "value": "20%"
                    }
                }
            },
            "right": {
                "Default": {
                    "type": "number",
                    "value": ""
                }
            },
            "top": {
                "Default": {
                    "type": "string",
                    "value": "0dp"
                }
            },
            "width": {
                "Default": {
                    "type": "string",
                    "value": "4%"
                }
            }
        },
        "TabSearchBarNew.MobileCustomDropdown.lblViewType": {
            "__events__": {},
            "__info__": {
                "kuid": "c8a4b88751c8419da249446647e2ce8c",
                "srcKUID": "j14d651ae4dd4829b6c796b4a29a7ea9",
                "wType": "Label"
            },
            "left": {
                "Default": {
                    "type": "string",
                    "value": "5%"
                }
            },
            "minWidth": {
                "Default": {
                    "type": "number",
                    "value": ""
                }
            },
            "responsiveData": {
                "b1": {
                    "left": {
                        "type": "string",
                        "value": ""
                    },
                    "right": {
                        "type": "string",
                        "value": "12%"
                    },
                    "text": "All",
                    "top": {
                        "type": "string",
                        "value": "0%"
                    },
                    "width": {
                        "type": "string",
                        "value": "60%"
                    }
                },
                "b2": {
                    "left": {
                        "type": "string",
                        "value": ""
                    },
                    "minWidth": {
                        "type": "string",
                        "value": ""
                    },
                    "right": {
                        "type": "string",
                        "value": "12%"
                    },
                    "text": "All",
                    "width": {
                        "type": "string",
                        "value": "60%"
                    }
                },
                "b3": {
                    "left": {
                        "type": "string",
                        "value": "12%"
                    },
                    "width": {
                        "type": "string",
                        "value": "80%"
                    }
                },
                "b4": {
                    "left": {
                        "type": "string",
                        "value": ""
                    },
                    "right": {
                        "type": "string",
                        "value": "12%"
                    },
                    "text": "All",
                    "top": {
                        "type": "string",
                        "value": "0%"
                    },
                    "width": {
                        "type": "string",
                        "value": "60%"
                    }
                }
            },
            "right": {
                "Default": {
                    "type": "number",
                    "value": ""
                }
            },
            "text": "All Transactions",
            "top": {
                "Default": {
                    "type": "string",
                    "value": "0%"
                }
            },
            "width": {
                "Default": {
                    "type": "string",
                    "value": "85%"
                }
            }
        },
        "TabSearchBarNew.MobileCustomDropdown.segCurrency": {
            "__events__": {},
            "__info__": {
                "kuid": "afc1685133264e12a6b13d66b6f1ac95",
                "srcKUID": "a8ca02b908d2452bb89f87681663f63e",
                "wType": "Segment"
            }
        },
        "TabSearchBarNew.MobileCustomDropdown.segProcessingType": {
            "__events__": {},
            "__info__": {
                "kuid": "edc0032dc5a84feda9c29fc895555153",
                "srcKUID": "b5d042f0ac9a4a5a97aa4f90055f8390",
                "wType": "Segment"
            }
        },
        "TabSearchBarNew.MobileCustomDropdown.segTimePeriod": {
            "__events__": {},
            "__info__": {
                "kuid": "ia5030e0e95f471397c47fe808a4c19e",
                "srcKUID": "jfffab6fde3a4803a0af65e9494af34e",
                "wType": "Segment"
            }
        },
        "TabSearchBarNew.MobileCustomDropdown.segTypeOfAccounts": {
            "__events__": {},
            "__info__": {
                "kuid": "cc2dc1cd1e9c4029af746427392a5c42",
                "srcKUID": "aa40a6c9eccd4f71a7f76f659cee756d",
                "wType": "Segment"
            }
        },
        "TabSearchBarNew.MobileCustomDropdown.segViewTypes": {
            "__events__": {},
            "__info__": {
                "kuid": "j2b794241cf2479d8aad88fad97a4159",
                "srcKUID": "a7369429bf8e4fda8276159c733f9f57",
                "wType": "Segment"
            }
        },
        "TabSearchBarNew.RadioButtonGroup0e9b89fa4f5e74c": {
            "__events__": {},
            "__info__": {
                "kuid": "e13f000f082d4eb48ff4218db782f5d2",
                "srcKUID": "b3b908c488fc4f04974ee28c034734d0",
                "wType": "RadioButtonGroup"
            }
        },
        "TabSearchBarNew.btnAdvancedSearch": {
            "__events__": {},
            "__info__": {
                "kuid": "d7da2417f8e34ea09c3a6ca3df958704",
                "srcKUID": "f56dc121b5cd4aa98c0a77a2c01ea22e",
                "wType": "Button"
            }
        },
        "TabSearchBarNew.flxBoxSearch": {
            "__events__": {},
            "__info__": {
                "kuid": "gea6247221b04a60ac81fe1098d08d09",
                "srcKUID": "a0d24cfb1bc3492aba795e313ff89324",
                "wType": "FlexContainer"
            },
            "autogrowMode": {
                "Default": 0
            },
            "centerY": {},
            "height": {
                "Default": {
                    "type": "string",
                    "value": "40dp"
                }
            },
            "left": {},
            "responsiveData": {
                "b1": {
                    "height": {
                        "type": "string",
                        "value": "50dp"
                    }
                },
                "b2": {
                    "height": {
                        "type": "string",
                        "value": "50dp"
                    }
                },
                "b3": {
                    "centerY": {
                        "type": "string",
                        "value": "50%"
                    },
                    "left": {
                        "type": "string",
                        "value": "0%"
                    },
                    "width": {
                        "type": "string",
                        "value": "100%"
                    }
                },
                "b4": {
                    "height": {
                        "type": "string",
                        "value": "50dp"
                    }
                }
            },
            "width": {
                "Default": {
                    "type": "string",
                    "value": "97%"
                }
            }
        },
        "TabSearchBarNew.flxDropDown": {
            "__events__": {},
            "__info__": {
                "kuid": "h0ea598cdba24958b5053c1a7a6e6a12",
                "srcKUID": "gbda7ae8fdc84d63baa77e32d26a8a90",
                "wType": "FlexContainer"
            },
            "autogrowMode": {
                "Default": 0
            },
            "centerY": {},
            "height": {},
            "isVisible": true,
            "left": {
                "Default": {
                    "type": "string",
                    "value": ""
                }
            },
            "responsiveData": {
                "b1": {
                    "height": {
                        "type": "string",
                        "value": "50dp"
                    },
                    "width": null
                },
                "b2": {
                    "width": null
                },
                "b3": {
                    "centerY": {
                        "type": "string",
                        "value": "70%"
                    },
                    "height": {
                        "type": "string",
                        "value": "40dp"
                    },
                    "isVisible": true,
                    "left": {
                        "type": "string",
                        "value": "2.50%"
                    },
                    "right": {
                        "type": "string",
                        "value": ""
                    },
                    "width": {
                        "type": "string",
                        "value": "95%"
                    }
                },
                "b4": {
                    "height": {
                        "type": "string",
                        "value": "50dp"
                    },
                    "width": null
                }
            },
            "right": {
                "Default": {
                    "type": "string",
                    "value": "20dp"
                }
            },
            "width": {
                "Default": {
                    "type": "string",
                    "value": "28%"
                }
            }
        },
        "TabSearchBarNew.flxOptions": {
            "__events__": {},
            "__info__": {
                "kuid": "c734545978e248518fd8f79b2acbfbcf",
                "srcKUID": "dec94ee33eef41408156741a0c4c8de9",
                "wType": "FlexContainer"
            }
        },
        "TabSearchBarNew.flxSearch": {
            "__events__": {},
            "__info__": {
                "kuid": "ba6cf6e88d2842d1bd966653d1fbe569",
                "srcKUID": "e1c5851255be402fbcc59c45d3c6c465",
                "wType": "FlexContainer"
            },
            "autogrowMode": {
                "Default": 0
            },
            "centerY": {},
            "height": {},
            "left": {
                "Default": {
                    "type": "string",
                    "value": "20dp"
                }
            },
            "responsiveData": {
                "b3": {
                    "centerY": {
                        "type": "string",
                        "value": "25%"
                    },
                    "height": {
                        "type": "string",
                        "value": "40dp"
                    },
                    "left": {
                        "type": "string",
                        "value": "2.50%"
                    },
                    "top": {
                        "type": "string",
                        "value": "0dp"
                    },
                    "width": {
                        "type": "string",
                        "value": "95%"
                    }
                }
            },
            "top": {},
            "width": {
                "Default": {
                    "type": "string",
                    "value": "69%"
                }
            }
        },
        "TabSearchBarNew.flxToggleOptions": {
            "__events__": {},
            "__info__": {
                "kuid": "a3aed505a89f4270bdf50a6050ccacf7",
                "srcKUID": "a00a581f094b47f5bef5fb1999466919",
                "wType": "FlexContainer"
            }
        },
        "TabSearchBarNew.imgClear": {
            "__events__": {},
            "__info__": {
                "kuid": "i0a2b18f999343a4987359c4c3fe344c",
                "srcKUID": "da02efee27904520abb85f764d3982c4",
                "wType": "Label"
            }
        },
        "TabSearchBarNew.imgOption0": {
            "__events__": {},
            "__info__": {
                "kuid": "c5bf5fa148654930825b96be48e288e0",
                "srcKUID": "aa1c52011dac49ec8ed0e3fa0a3ed328",
                "wType": "Label"
            }
        },
        "TabSearchBarNew.imgOption1": {
            "__events__": {},
            "__info__": {
                "kuid": "cd0a48564dbe416d9df1ae8edc64ddc9",
                "srcKUID": "c8cc07c404b447beb2a57ff249a6167c",
                "wType": "Label"
            }
        },
        "TabSearchBarNew.imgSearch": {
            "__events__": {},
            "__info__": {
                "kuid": "cfc148c2cff94f0d833ad72529e14999",
                "srcKUID": "d5fd1fe8348949acab88ebffbbaa0b1c",
                "wType": "Label"
            },
            "bottom": {
                "Default": {
                    "type": "number",
                    "value": ""
                }
            },
            "centerY": {},
            "left": {},
            "responsiveData": {
                "b3": {
                    "centerY": {
                        "type": "string",
                        "value": "55%"
                    },
                    "height": {
                        "type": "string",
                        "value": "70%"
                    },
                    "left": {
                        "type": "string",
                        "value": "11dp"
                    }
                }
            },
            "top": {
                "Default": {
                    "type": "string",
                    "value": "0"
                }
            }
        },
        "TabSearchBarNew.lblOption0": {
            "__events__": {},
            "__info__": {
                "kuid": "e377b68c67ad4354a329c2a7a3eeb9cc",
                "srcKUID": "h69101d857c7479ea95bdede1de9b3f4",
                "wType": "Label"
            }
        },
        "TabSearchBarNew.lblOption1": {
            "__events__": {},
            "__info__": {
                "kuid": "f4ebc48de44b4c4cbf0ea88e3359284d",
                "srcKUID": "a69c7f305efe43649f5045b6926ac266",
                "wType": "Label"
            }
        },
        "TabSearchBarNew.lblView": {
            "__events__": {},
            "__info__": {
                "kuid": "b4b30733e5524239a9e83d4d20a1a940",
                "srcKUID": "h270f000ceb9409599d6d2fcb2d2b977",
                "wType": "Label"
            },
            "isVisible": true,
            "responsiveData": {
                "b1": {
                    "isVisible": false
                },
                "b2": {
                    "isVisible": false
                },
                "b3": {
                    "isVisible": false
                },
                "b4": {
                    "isVisible": false
                }
            }
        },
        "TabSearchBarNew.listBoxViewType": {
            "__events__": {},
            "__info__": {
                "kuid": "b5b60f1c24964aabaa0af444042a1165",
                "srcKUID": "ad0738b413b349a880f2e292b3da4f59",
                "wType": "ListBox"
            },
            "isVisible": true,
            "responsiveData": {
                "b1": {
                    "isVisible": false
                },
                "b2": {
                    "isVisible": false
                },
                "b3": {
                    "isVisible": false
                },
                "b4": {
                    "isVisible": false
                }
            },
            "right": {
                "Default": {
                    "type": "string",
                    "value": "2dp"
                }
            },
            "width": {
                "Default": {
                    "type": "string",
                    "value": "71%"
                }
            }
        },
        "TabSearchBarNew.tbxSearch": {
            "__events__": {},
            "__info__": {
                "kuid": "fd73b0efd46e4fc08fcbbaf707f5f006",
                "srcKUID": "d25554bd28f64aeead79a236a1a7e909",
                "wType": "TextField"
            },
            "i18n_text": "i18n.myapprovals.SearchTransactionOrTemplate",
            "left": {
                "Default": {
                    "type": "string",
                    "value": "45dp"
                }
            },
            "placeholder": "Search for a transaction, payee or created by",
            "responsiveData": {
                "b3": {
                    "centerY": {
                        "type": "string",
                        "value": "50%"
                    },
                    "left": {
                        "type": "string",
                        "value": "37dp"
                    },
                    "width": {
                        "type": "string",
                        "value": "88%"
                    }
                }
            },
            "width": {}
        },
        "TabsHeaderNew": {
            "__events__": {},
            "__info__": {
                "kuid": "e4d5272cec9647c9b37b999b87fd681f",
                "srcKUID": "b9fafb9e11d542f0818b94573c6d84c9",
                "wType": "UserWidgetInstance"
            },
            "clipBounds": false,
            "responsiveData": {
                "b1": {
                    "width": {
                        "type": "string",
                        "value": "100%"
                    }
                },
                "b3": {
                    "zIndex": 10
                }
            },
            "width": {}
        },
        "TabsHeaderNew.btnTab1": {
            "__events__": {},
            "__info__": {
                "kuid": "b0371eda71314303932a6295424e22b6",
                "srcKUID": "jba8dd9442634e26890db8dd9f2e9f0f",
                "wType": "Button"
            },
            "i18n_text": "i18n.konybb.Common.Transactions",
            "left": {
                "Default": {
                    "type": "string",
                    "value": "20dp"
                }
            },
            "responsiveData": {
                "b3": {
                    "left": {
                        "type": "string",
                        "value": ""
                    },
                    "width": {
                        "type": "string",
                        "value": "50%"
                    }
                }
            },
            "width": {
                "Default": {
                    "type": "ref",
                    "value": "preferred"
                }
            }
        },
        "TabsHeaderNew.btnTab2": {
            "__events__": {},
            "__info__": {
                "kuid": "ia1e29e0eb3a462d9cbe77949391ce7a",
                "srcKUID": "f395c01f4aa44996b55cda064c966080",
                "wType": "Button"
            },
            "i18n_text": "i18n.konybb.Common.ACHTransactions",
            "left": {
                "Default": {
                    "type": "string",
                    "value": "0dp"
                }
            },
            "responsiveData": {
                "b1": {
                    "width": null
                },
                "b3": {
                    "left": {
                        "type": "string",
                        "value": ""
                    },
                    "width": {
                        "type": "string",
                        "value": "50%"
                    }
                },
                "b4": {
                    "width": null
                }
            },
            "width": {
                "Default": {
                    "type": "ref",
                    "value": "preferred"
                }
            }
        },
        "TabsHeaderNew.btnTab3": {
            "__events__": {},
            "__info__": {
                "kuid": "e417cc3ce1fc4da38d8f0646f09e3aa1",
                "srcKUID": "jc5c064251484a64b85abc1166dc20aa",
                "wType": "Button"
            },
            "left": {
                "Default": {
                    "type": "string",
                    "value": "0dp"
                }
            },
            "responsiveData": {
                "b3": {
                    "width": null
                }
            },
            "width": {
                "Default": {
                    "type": "ref",
                    "value": "preferred"
                }
            }
        },
        "TabsHeaderNew.btnTab4": {
            "__events__": {},
            "__info__": {
                "kuid": "c34f3ce9979b4e959bd6facd2a29cfd6",
                "srcKUID": "id0e330425f64cbd91cfe9f9a372eef7",
                "wType": "Button"
            },
            "i18n_text": "i18n.kony.BulkPayments.bulkPaymentHeader",
            "isVisible": false,
            "left": {
                "Default": {
                    "type": "string",
                    "value": "0dp"
                }
            },
            "responsiveData": {
                "b4": {
                    "text": "Bulk Payments"
                }
            },
            "text": "Approvals",
            "width": {
                "Default": {
                    "type": "ref",
                    "value": "preferred"
                }
            }
        },
        "TabsHeaderNew.btnTab5": {
            "__events__": {},
            "__info__": {
                "kuid": "jc9ec110cc8a419b84a0dd3e9ba6d73c",
                "srcKUID": "d73b44134968426f925568f6699a2d90",
                "wType": "Button"
            },
            "isVisible": false,
            "left": {
                "Default": {
                    "type": "string",
                    "value": "0dp"
                }
            },
            "responsiveData": {},
            "width": {
                "Default": {
                    "type": "ref",
                    "value": "preferred"
                }
            }
        },
        "TabsHeaderNew.btnTab6": {
            "__events__": {},
            "__info__": {
                "kuid": "e6e1c4d08d0f499fa7f72f989cda7a36",
                "srcKUID": "c49baf28eda841b9ae9f697bd154ed87",
                "wType": "Button"
            },
            "isVisible": false,
            "left": {
                "Default": {
                    "type": "string",
                    "value": "0dp"
                }
            },
            "responsiveData": {},
            "width": {
                "Default": {
                    "type": "ref",
                    "value": "preferred"
                }
            }
        },
        "flxContentContainer": {
            "__events__": {},
            "__info__": {
                "kuid": "d6df3f55f23148ef80e2498cd51240ef",
                "srcKUID": "ecb73014692245bbac56508a6da45260",
                "wType": "FlexContainer"
            },
            "bottom": {},
            "left": {},
            "minHeight": {
                "Default": {
                    "type": "number",
                    "value": ""
                }
            },
            "responsiveData": {
                "b3": {
                    "bottom": {
                        "type": "string",
                        "value": ""
                    },
                    "left": {
                        "type": "string",
                        "value": "0dp"
                    },
                    "minHeight": {
                        "type": "string",
                        "value": ""
                    },
                    "top": {
                        "type": "string",
                        "value": "0dp"
                    },
                    "width": {
                        "type": "string",
                        "value": "100%"
                    }
                }
            },
            "top": {},
            "width": {}
        }
    },
    "desktopweb": {},
    "enablescrolling": true,
    "id": "TabPaneNew",
    "info": null,
    "ipad": {},
    "iphone": {},
    "iscustomlayout": false,
    "isdatareferenced": false,
    "issegmentchild": false,
    "isvisible": true,
    "kiosk": {},
    "kuid": "bb42555209384ef998b2e7879da8030f",
    "layouttype": 4,
    "masterType": 0,
    "maxwidth": {
        "type": "string",
        "value": ""
    },
    "name": "kony.ui.UserWidgetInstance",
    "parent": "flxTabPaneShadow",
    "pf": "frmBBRequestsDashboard",
    "responsiveData": {
        "b1": {
            "top": {
                "type": "string",
                "value": "0dp"
            }
        },
        "b2": {},
        "b3": {},
        "b4": {
            "left": {
                "type": "string",
                "value": "0dp"
            }
        }
    },
    "retaincontentalignment": false,
    "retainflexpositionproperties": false,
    "snapgridsize": 10,
    "snaptogrid": true,
    "sourceUserWidget": "g4f0753b9c12467c9de0e2bc6a812f3a",
    "spa": {},
    "spaan": {},
    "spaandroidtablet": {},
    "spabb": {},
    "spaip": {},
    "spaipad": {},
    "spamobile": {},
    "spatablet": {},
    "spawindowstablet": {},
    "spawinphone8": {},
    "tabrcandroid": {},
    "vizProps": {
        "hidewidgethierarchy": false
    },
    "wType": "UserWidgetInstance",
    "windows10": {},
    "windows8": {},
    "winphone10": {},
    "winphone8": {},
    "zindex": 1
}