{
    "@class": "com.kony.gen.viz.model.component.KVizButton",
    "DNDConfig": null,
    "__parentReadjusting__": false,
    "_height_": {
        "type": "ref",
        "value": "preferred"
    },
    "_margin_": [
        6,
        6,
        6,
        6
    ],
    "_padding_": [
        0,
        0,
        0,
        0
    ],
    "_right_": {
        "type": "string",
        "value": "30px"
    },
    "_skin_": "sf6ca31ec68641e5a2df8232c58cdizg",
    "_text_": "VIEW DETAILS",
    "_top_": {
        "type": "string",
        "value": "22.50%"
    },
    "_width_": {
        "type": "ref",
        "value": "preferred"
    },
    "accessibilityconfig": {
        "a11yLabel": "View Details"
    },
    "canUpdateUI": true,
    "containerId": true,
    "containerweight": 100,
    "contentalignment": 5,
    "desktopweb": {
        "psp": {
            "hoverSkin": "s01e41b95a694c78913b53f7b90581zd "
        }
    },
    "displaytext": true,
    "focusskin": "s41199c8c0df41048cbf47d26a9021ze",
    "id": "btnViewDetails",
    "ide_onClick": "AS_Button_id5586f3515e4c13b31e3326beccc43b",
    "info": null,
    "isvisible": true,
    "kuid": "hba606c3755c47818560af7a386ddbc1",
    "name": "kony.ui.Button",
    "parent": "flxRegistered",
    "pf": "segRegisteredPayee",
    "texti18n": "i18n.common.ViewDetails",
    "tooltip": "View Details",
    "wType": "Button",
    "zindex": 1
}