{
    "@class": "com.kony.gen.viz.model.component.KVizImage2",
    "DNDConfig": null,
    "__parentReadjusting__": false,
    "_base64_": null,
    "_height_": {
        "type": "string",
        "value": "75%"
    },
    "_left_": {
        "type": "string",
        "value": "20dp"
    },
    "_margin_": [
        0,
        0,
        0,
        0
    ],
    "_padding_": [
        0,
        0,
        0,
        0
    ],
    "_skin_": "s8ee487de5774c1eb668e74bf92f5cdd",
    "_src_": "bbcloseicon.png",
    "_width_": {
        "type": "string",
        "value": "5%"
    },
    "accessibilityconfig": {
        "a11yLabel": "Close"
    },
    "canUpdateUI": true,
    "centery": {
        "type": "string",
        "value": "50%"
    },
    "containerweight": 100,
    "context": {
        "channel": "desktop",
        "formID": "frmPayBillConfirm",
        "platform": "desktopweb",
        "templateType": "forms",
        "topLevelBox": null
    },
    "id": "imgCloseWarning",
    "imagescalemode": 1,
    "imagewhiledownloading": "img_transparent.png",
    "info": null,
    "invokedProperty": "src",
    "isvisible": true,
    "kuid": "i208d4ea99b14b7eaff968c6909ff4fa",
    "name": "kony.ui.Image2",
    "parent": "flxWarning",
    "pf": "frmOneTimePaymentConfirm",
    "srcType": 1,
    "tooltip": "Close",
    "wType": "Image",
    "widgetalignment": 5,
    "zindex": 1
}