{
    "@class": "com.kony.gen.viz.model.component.KVizLabel",
    "DNDConfig": null,
    "_height_": {
        "type": "ref",
        "value": "preferred"
    },
    "_left_": {
        "type": "string",
        "value": "10dp"
    },
    "_margin_": [
        1,
        1,
        1,
        1
    ],
    "_padding_": [
        2,
        0,
        2,
        1
    ],
    "_skin_": "s163439541784ce7b861453e75298b7e",
    "_text_": "Label",
    "_top_": {
        "type": "string",
        "value": "10dp"
    },
    "_width_": {
        "type": "string",
        "value": "85%"
    },
    "_wrapping_": 2,
    "accessibilityconfig": {
        "a11yLabel": "Reference Number"
    },
    "android": {
        "textStyle": {
            "letterSpacing": 0,
            "strikeThrough": false
        }
    },
    "canUpdateUI": true,
    "containerweight": 100,
    "contentalignment": 4,
    "id": "lblFailureMsg",
    "info": null,
    "ipad": {
        "psp": {
            "wrapping": 2
        }
    },
    "iphone": {
        "psp": {
            "wrapping": 2
        }
    },
    "isvisible": true,
    "kuid": "he11795ea5e14258808f67d3eb7b37ac",
    "name": "kony.ui.Label",
    "paddinginpixel": false,
    "parent": "flxFailureMsg",
    "pf": "frmAcknowledgementEuro",
    "responsiveData": {
        "b1": {},
        "b4": {}
    },
    "texti18n": "i18n.transfers.RefrenceNumber",
    "tooltip": "",
    "wType": "Label",
    "zindex": 1
}