{
    "DNDConfig": null,
    "_height_": {
        "type": "string",
        "value": "77dp"
    },
    "_left_": {
        "type": "string",
        "value": "0dp"
    },
    "_margin_": [
        0,
        0,
        0,
        0
    ],
    "_orientation_": 6,
    "_padding_": [
        0,
        0,
        0,
        0
    ],
    "_percent_": true,
    "_skin_": "s680c9bafb594fe4bfa388d84acc43b2",
    "_top_": {
        "type": "string",
        "value": "0dp"
    },
    "_width_": {
        "type": "string",
        "value": "100%"
    },
    "allboxes": [],
    "autogrowmode": 0,
    "canUpdateUI": true,
    "children": [
        "flxContent",
        "flxMenu"
    ],
    "clipbounds": false,
    "containerId": true,
    "containerweight": 100,
    "desktopweb": {
        "psp": {
            "hoverSkin": "s824f3ac025e47cfaf75ba9696b5ae0f"
        }
    },
    "enablescrolling": true,
    "id": "flxAccountsWrapper",
    "info": null,
    "isvisible": true,
    "kuid": "b03551f13e4d44dfa94ad5825a0e1b1c",
    "layouttype": 2,
    "name": "kony.ui.FlexContainer",
    "parent": "flxAccountsRowWrapper",
    "pf": "segAccountsRowTemplate",
    "snapgridsize": 10,
    "snaptogrid": true,
    "wType": "FlexContainer",
    "widgetalignment": 1,
    "zindex": 1
}