{
    "DNDConfig": null,
    "_height_": {
        "type": "string",
        "value": "1dp"
    },
    "_left_": {
        "type": "string",
        "value": "60%"
    },
    "_margin_": [
        0,
        0,
        0,
        0
    ],
    "_orientation_": 6,
    "_padding_": [
        0,
        0,
        0,
        0
    ],
    "_percent_": true,
    "_skin_": "sba50675a571438abe9f291cec4c043c",
    "_top_": {
        "type": "string",
        "value": "0dp"
    },
    "_width_": {
        "type": "string",
        "value": "1dp"
    },
    "allboxes": [],
    "autogrowmode": 0,
    "canUpdateUI": true,
    "children": [],
    "clipbounds": true,
    "containerweight": 100,
    "enablescrolling": true,
    "id": "flxCalendarAchor",
    "info": null,
    "isvisible": true,
    "kuid": "bd5ce9709fee4e478a259f98f1ef9400",
    "layouttype": 2,
    "name": "kony.ui.FlexContainer",
    "parent": "flxGoalsContent",
    "pf": "frmCreateSavingsGoal",
    "responsiveData": {
        "b3": {
            "left": {
                "type": "string",
                "value": "10%"
            }
        }
    },
    "snapgridsize": 10,
    "snaptogrid": true,
    "wType": "FlexContainer",
    "widgetalignment": 1,
    "zindex": 1
}