{
    "DNDConfig": null,
    "__parentReadjusting__": false,
    "_height_": {
        "type": "ref",
        "value": "preferred"
    },
    "_left_": {
        "type": "string",
        "value": "0dp"
    },
    "_margin_": [
        0,
        0,
        0,
        0
    ],
    "_orientation_": 6,
    "_padding_": [
        0,
        0,
        0,
        0
    ],
    "_percent_": true,
    "_skin_": "s24c92fc23b14f5484b693ee9b8a9b35",
    "_top_": {
        "type": "string",
        "value": "0dp"
    },
    "_width_": {
        "type": "string",
        "value": "100%"
    },
    "allboxes": [],
    "autogrowmode": 1,
    "canUpdateUI": true,
    "children": [
        "lblGoalName",
        "lblNameCharCount"
    ],
    "clipbounds": true,
    "containerweight": 100,
    "enablescrolling": true,
    "id": "flxGoalNameAndCnt",
    "info": null,
    "iscustomlayout": false,
    "isvisible": true,
    "kuid": "e8c691fb0a6f4185a3f131d9e7e27c88",
    "layouttype": 3,
    "name": "kony.ui.FlexContainer",
    "parent": "flxGoalName",
    "pf": "frmCreateSavingsGoal",
    "responsiveData": {
        "b1": {
            "layoutType": 2
        },
        "b3": {
            "layoutType": 2
        },
        "b4": {
            "layoutType": 2
        }
    },
    "retaincontentalignment": false,
    "retainflexpositionproperties": false,
    "retainflowhorizontalalignment": false,
    "snapgridsize": 10,
    "snaptogrid": true,
    "wType": "FlexContainer",
    "widgetalignment": 1
}