{
    "@class": "com.kony.gen.viz.model.component.KVizTextBox2",
    "DNDConfig": null,
    "_height_": {
        "type": "ref",
        "value": "preferred"
    },
    "_left_": {
        "type": "string",
        "value": "0dp"
    },
    "_margin_": [
        0,
        0,
        0,
        0
    ],
    "_padding_": [
        3,
        0,
        0,
        0
    ],
    "_placeholder_": "Placeholder",
    "_skin_": "sb36cebb3a3a4b5fb859ba26e90ecaaa",
    "_text_": "",
    "_top_": {
        "type": "number",
        "value": "20"
    },
    "_width_": {
        "type": "string",
        "value": "80%"
    },
    "autocapitalize": "none",
    "autocomplete": false,
    "autocorrect": false,
    "autofilter": false,
    "canUpdateUI": true,
    "centery": {
        "type": "string",
        "value": "50%"
    },
    "containerheight": "",
    "containerheightmode": 1,
    "containerweight": 100,
    "contentalignment": 4,
    "desktopweb": {},
    "disabledSkins": {
        "focusSkin": "sfee68d81fdb48eeb728bd95aaf1bb75",
        "placeholderSkin": "s3796ee3ed0b44dea36decbc04cb63d2"
    },
    "focusskin": null,
    "id": "tbxGoalAmount",
    "info": null,
    "iscustomlayout": false,
    "isvisible": true,
    "keyboardtype": "A",
    "kuid": "e6b3e4718bd24c43a3be428e10236024",
    "maxtextlength": 16,
    "mode": "A",
    "name": "kony.ui.TextBox2",
    "parent": "flxAmountValue",
    "pf": "frmCreateSavingsGoal",
    "placeholderi18n": "i18n.transfers.lblAmount",
    "placeholderskin": null,
    "retaincontentalignment": false,
    "retainflexpositionproperties": false,
    "securetextentry": false,
    "textinputmode": "A",
    "tooltip": "",
    "viewtype": "default",
    "wType": "TextField"
}