{
    "@class": "com.kony.gen.viz.model.component.KVizButton",
    "DNDConfig": null,
    "_height_": {
        "type": "string",
        "value": "100%"
    },
    "_left_": {
        "type": "string",
        "value": "0dp"
    },
    "_margin_": [
        6,
        6,
        6,
        6
    ],
    "_padding_": [
        0,
        0,
        0,
        0
    ],
    "_skin_": "sf6ca31ec68641e5a2df8232c57be16a",
    "_text_": "Edit",
    "_width_": {
        "type": "string",
        "value": "100%"
    },
    "accessibilityconfig": {
        "a11yLabel": "Edit"
    },
    "canUpdateUI": true,
    "centery": {
        "type": "string",
        "value": "50%"
    },
    "containerId": true,
    "containerweight": 100,
    "contentalignment": 5,
    "desktopweb": {
        "psp": {}
    },
    "disabledSkins": {
        "focusSkin": "sf44d06ca8224832827ea7fdff757013"
    },
    "displaytext": true,
    "id": "btn1",
    "info": null,
    "isvisible": true,
    "kuid": "j5ff6c4b3c534a37a356022d9ff40fe7",
    "name": "kony.ui.Button",
    "parent": "flxbtn1",
    "pf": "segTransferActivitiesMobileIC",
    "tooltip": "VIEW ACTIVITY",
    "wType": "Button",
    "zindex": 1
}