{
    "@class": "com.kony.gen.viz.model.component.KVizButton",
    "DNDConfig": null,
    "_bottom_": {
        "type": "number",
        "value": ""
    },
    "_height_": {
        "type": "string",
        "value": "40dp"
    },
    "_left_": {
        "type": "string",
        "value": "180dp"
    },
    "_margin_": [
        6,
        6,
        6,
        6
    ],
    "_padding_": [
        0,
        0,
        0,
        0
    ],
    "_right_": {
        "type": "number",
        "value": ""
    },
    "_skin_": "sfeafe8ea7084c5482895eec761a1632",
    "_text_": "No",
    "_top_": {
        "type": "string",
        "value": "150dp"
    },
    "_width_": {
        "type": "string",
        "value": "120dp"
    },
    "canUpdateUI": true,
    "centery": {
        "type": "number",
        "value": ""
    },
    "containerweight": 100,
    "contentalignment": 5,
    "desktopweb": {
        "psp": {
            "hoverSkin": "sc940dc3c9884b1bb2701c6c8b342ba0"
        }
    },
    "displaytext": true,
    "focusskin": "sfeafe8ea7084c5482895eec761a1632",
    "id": "btnCancelNo",
    "info": null,
    "iscustomlayout": false,
    "isvisible": true,
    "kuid": "ccda8c421e8f4a95b69f5d1ca25f6d8a",
    "name": "kony.ui.Button",
    "parent": "flxClosePopup",
    "pf": "userwidgetmodel",
    "responsiveData": {
        "b1": {
            "bottom": {
                "type": "string",
                "value": "20dp"
            },
            "left": {
                "type": "string",
                "value": ""
            },
            "right": {
                "type": "string",
                "value": "190dp"
            },
            "top": {
                "type": "string",
                "value": ""
            },
            "width": {
                "type": "string",
                "value": "150dp"
            }
        },
        "b2": {
            "bottom": {
                "type": "string",
                "value": "20dp"
            },
            "left": {
                "type": "string",
                "value": ""
            },
            "right": {
                "type": "string",
                "value": "190dp"
            },
            "top": {
                "type": "string",
                "value": ""
            },
            "width": {
                "type": "string",
                "value": "150dp"
            }
        },
        "b3": {
            "bottom": {
                "type": "string",
                "value": "40dp"
            },
            "left": {
                "type": "string",
                "value": ""
            },
            "right": {
                "type": "string",
                "value": "45%"
            },
            "top": {
                "type": "string",
                "value": ""
            },
            "width": {
                "type": "string",
                "value": "35%"
            }
        },
        "b4": {
            "centerY": {
                "type": "string",
                "value": "85%"
            },
            "left": {
                "type": "string",
                "value": ""
            },
            "right": {
                "type": "string",
                "value": "190dp"
            },
            "top": {
                "type": "number",
                "value": "0"
            },
            "width": {
                "type": "string",
                "value": "150dp"
            }
        }
    },
    "retaincontentalignment": false,
    "retainflexpositionproperties": false,
    "wType": "Button",
    "zindex": 1
}