{
    "DNDConfig": null,
    "_height_": {
        "type": "ref",
        "value": "preferred"
    },
    "_left_": {
        "type": "string",
        "value": "0"
    },
    "_margin_": [
        0,
        0,
        0,
        0
    ],
    "_orientation_": 6,
    "_padding_": [
        0,
        0,
        0,
        0
    ],
    "_percent_": true,
    "_skin_": "s24c92fc23b14f5484b693ee9b8a9b35",
    "_top_": {
        "type": "string",
        "value": "0"
    },
    "_width_": {
        "type": "string",
        "value": "100%"
    },
    "allboxes": [],
    "autogrowmode": 0,
    "canUpdateUI": true,
    "children": [
        "flxRemoveAttachment"
    ],
    "clipbounds": true,
    "containerweight": 100,
    "enablescrolling": true,
    "id": "flxCancelAttachment",
    "info": null,
    "iscustomlayout": false,
    "isvisible": false,
    "kuid": "j3237b75c495422e93accdb3e43696e6",
    "layouttype": 2,
    "name": "kony.ui.FlexContainer",
    "parent": "unifiedAddBeneficiary",
    "pf": "userwidgetmodel",
    "responsiveData": {
        "b1": {
            "isVisible": false,
            "skin": "s1a8edde16b54345b98b701fcfb5aca6"
        },
        "b2": {
            "isVisible": false,
            "skin": "s1a8edde16b54345b98b701fcfb5aca6"
        },
        "b3": {
            "isVisible": false,
            "skin": "s1a8edde16b54345b98b701fcfb5aca6"
        },
        "b4": {
            "height": {
                "type": "string",
                "value": "1000dp"
            },
            "isVisible": false,
            "skin": "s1a8edde16b54345b98b701fcfb5aca6"
        }
    },
    "retaincontentalignment": false,
    "retainflexpositionproperties": false,
    "retainflowhorizontalalignment": false,
    "snapgridsize": 10,
    "snaptogrid": true,
    "wType": "FlexContainer",
    "widgetalignment": 1
}