{
    "DNDConfig": null,
    "_height_": {
        "type": "ref",
        "value": "preferred"
    },
    "_left_": {
        "type": "string",
        "value": "0dp"
    },
    "_margin_": [
        0,
        0,
        0,
        0
    ],
    "_orientation_": 6,
    "_padding_": [
        0,
        0,
        0,
        0
    ],
    "_percent_": true,
    "_skin_": "s24c92fc23b14f5484b693ee9b8a9b35",
    "_top_": {
        "type": "string",
        "value": "20dp"
    },
    "_width_": {
        "type": "string",
        "value": "100%"
    },
    "allboxes": [],
    "autogrowmode": 1,
    "canUpdateUI": true,
    "children": [
        "txtErrormessage"
    ],
    "clipbounds": false,
    "containerweight": 100,
    "enablescrolling": true,
    "id": "flxErrorWarning",
    "info": null,
    "iscustomlayout": false,
    "isvisible": false,
    "kuid": "cc0525b172234f7db97221c9778ff70c",
    "layouttype": 2,
    "name": "kony.ui.FlexContainer",
    "parent": "flxFields",
    "pf": "userwidgetmodel",
    "responsiveData": {
        "b1": {
            "isVisible": false
        },
        "b2": {},
        "b3": {
            "top": {
                "type": "string",
                "value": "16dp"
            },
            "zIndex": 3
        },
        "b4": {}
    },
    "retaincontentalignment": false,
    "retainflexpositionproperties": false,
    "retainflowhorizontalalignment": false,
    "snapgridsize": 10,
    "snaptogrid": true,
    "wType": "FlexContainer",
    "widgetalignment": 1,
    "zindex": 2
}