{
    "DNDConfig": null,
    "_height_": {
        "type": "string",
        "value": "65dp"
    },
    "_left_": {
        "type": "string",
        "value": "0dp"
    },
    "_margin_": [
        0,
        0,
        0,
        0
    ],
    "_orientation_": 6,
    "_padding_": [
        0,
        0,
        0,
        0
    ],
    "_percent_": true,
    "_skin_": "s24c92fc23b14f5484b693ee9b8a9b35",
    "_top_": {
        "type": "string",
        "value": "15dp"
    },
    "_width_": {
        "type": "string",
        "value": "100%"
    },
    "allboxes": [],
    "canUpdateUI": true,
    "children": [
        "flxEnterAccountNumber",
        "flxReEnterAccountNumber"
    ],
    "clipbounds": false,
    "containerweight": 100,
    "enablescrolling": true,
    "id": "flxPayeeAccountNumber",
    "info": null,
    "iscustomlayout": false,
    "isvisible": true,
    "kuid": "e477709d698c4ba79293b06039cba47e",
    "layouttype": 3,
    "name": "kony.ui.FlexContainer",
    "parent": "flxFields",
    "pf": "userwidgetmodel",
    "responsiveData": {
        "b1": {
            "top": {
                "type": "string",
                "value": "20dp"
            }
        },
        "b2": {
            "isVisible": true,
            "top": {
                "type": "string",
                "value": "20dp"
            }
        },
        "b3": {
            "height": {
                "type": "string",
                "value": "150dp"
            },
            "isVisible": true,
            "layoutType": 4,
            "top": {
                "type": "string",
                "value": "10dp"
            }
        },
        "b4": {
            "top": {
                "type": "string",
                "value": "20dp"
            }
        }
    },
    "retaincontentalignment": false,
    "retainflexpositionproperties": false,
    "retainflowhorizontalalignment": false,
    "snapgridsize": 10,
    "snaptogrid": true,
    "wType": "FlexContainer",
    "widgetalignment": 1,
    "zindex": 1
}