{
    "@class": "com.kony.gen.viz.model.component.KVizTextBox2",
    "DNDConfig": null,
    "_height_": {
        "type": "string",
        "value": "100%"
    },
    "_left_": {
        "type": "string",
        "value": "0dp"
    },
    "_margin_": [
        0,
        0,
        0,
        0
    ],
    "_padding_": [
        3,
        0,
        0,
        0
    ],
    "_placeholder_": "Enter Clearing Code 1",
    "_skin_": "sfe85de2573444b7be7e6705a1d4bba6",
    "_text_": "",
    "_top_": {
        "type": "string",
        "value": "0dp"
    },
    "_width_": {
        "type": "string",
        "value": "100%"
    },
    "autocapitalize": "none",
    "autocomplete": false,
    "autocorrect": false,
    "autofilter": false,
    "canUpdateUI": true,
    "containerheight": "",
    "containerheightmode": 1,
    "containerweight": 100,
    "contentalignment": 4,
    "desktopweb": {
        "placeholderSkin": "sac0c259705348d5a31179c2e289ba36"
    },
    "focusskin": "sd765f781274491aac534f31620ba8be",
    "id": "tbxPayeeDetailField2",
    "info": null,
    "iscustomlayout": false,
    "isvisible": true,
    "keyboardtype": "A",
    "kuid": "b2872441964d45c4bf572985d6bd2db5",
    "mode": "A",
    "name": "kony.ui.TextBox2",
    "parent": "flxField2",
    "pf": "userwidgetmodel",
    "placeholderskin": "sac0c259705348d5a31179c2e289ba36",
    "responsiveData": {
        "b1": {
            "desktopweb": {
                "placeholderSkin": "s2064239626e43828a7c50699e03514e"
            },
            "height": {
                "type": "string",
                "value": "40dp"
            },
            "placeholderSkin": "sac0c259705348d5a31179c2e289ba36",
            "skin": "sb822214eac74bd7baa57296d34b0999",
            "text": "",
            "top": {
                "type": "string",
                "value": "7dp"
            }
        },
        "b2": {
            "desktopweb": {
                "placeholderSkin": "s2064239626e43828a7c50699e03514e"
            },
            "height": {
                "type": "string",
                "value": "40dp"
            },
            "placeholderSkin": "sac0c259705348d5a31179c2e289ba36",
            "skin": "sb822214eac74bd7baa57296d34b0999",
            "top": {
                "type": "string",
                "value": "7dp"
            }
        },
        "b3": {
            "desktopweb": {
                "placeholderSkin": "s2064239626e43828a7c50699e03514e"
            },
            "height": {
                "type": "string",
                "value": "40dp"
            },
            "placeholderSkin": "sac0c259705348d5a31179c2e289ba36",
            "skin": "sb822214eac74bd7baa57296d34b0999",
            "top": {
                "type": "string",
                "value": "5dp"
            }
        },
        "b4": {
            "desktopweb": {
                "placeholderSkin": "s2064239626e43828a7c50699e03514e"
            },
            "height": {
                "type": "string",
                "value": "40dp"
            },
            "placeholderSkin": "sac0c259705348d5a31179c2e289ba36",
            "skin": "sb822214eac74bd7baa57296d34b0999",
            "top": {
                "type": "string",
                "value": "7dp"
            }
        }
    },
    "retaincontentalignment": false,
    "retainflexpositionproperties": false,
    "securetextentry": false,
    "textinputmode": "A",
    "tooltip": "",
    "viewtype": "default",
    "wType": "TextField",
    "zindex": 1
}