{
    "@class": "com.kony.gen.viz.model.component.KVizUserWidget",
    "DNDConfig": null,
    "__parentReadjusting__": false,
    "_android_": {},
    "_androidwearos_": {},
    "_children_": [],
    "_desktopweb_": {},
    "_height_": {
        "type": "ref",
        "value": "preferred"
    },
    "_ipad_": {},
    "_iphone_": {},
    "_kiosk_": {},
    "_left_": {
        "type": "string",
        "value": "0dp"
    },
    "_margin_": [
        0,
        0,
        0,
        0
    ],
    "_orientation_": 1,
    "_padding_": [
        0,
        0,
        0,
        0
    ],
    "_percent_": true,
    "_render_": true,
    "_responsiveData_": {
        "b3": {
            "height": {
                "type": "ref",
                "value": "preferred"
            }
        }
    },
    "_skin_": "sdc143f0e5b64ae3a3f155f691c73fa7",
    "_spa_": {},
    "_spaan_": {},
    "_spaandroidtablet_": {},
    "_spabb_": {},
    "_spaip_": {},
    "_spaipad_": {},
    "_spamobile_": {},
    "_spatablet_": {},
    "_spawindowstablet_": {},
    "_spawinphone8_": {},
    "_tabrcandroid_": {},
    "_top_": {
        "type": "string",
        "value": "0dp"
    },
    "_vizProps_": {
        "hidewidgethierarchy": false
    },
    "_width_": {
        "type": "string",
        "value": "100%"
    },
    "_windows10_": {},
    "_windows8_": {},
    "_winphone10_": {},
    "_winphone8_": {},
    "areflexpropsreferenced": false,
    "autogrowmode": 1,
    "canUpdateUI": true,
    "clipbounds": false,
    "containerweight": 0,
    "dataDiffs": {
        "TermsAndConditions": {
            "__events__": {},
            "__info__": {
                "isRoot": true,
                "kuid": "ga8d1eaf8c20418ca7f13f6dd834cc86",
                "srcKUID": "a8480f15fde34d11bc6965fe0c8ecc99",
                "wType": "FlexContainer"
            },
            "autogrowMode": {
                "Default": 1
            },
            "height": {},
            "responsiveData": {
                "b3": {
                    "height": {
                        "type": "ref",
                        "value": "preferred"
                    }
                }
            }
        },
        "flxTwo": {
            "__events__": {},
            "__info__": {
                "kuid": "c17a5aa173994767a0c3d065bd3b6e71",
                "srcKUID": "f26f991270e848e581148425d8b5c034",
                "wType": "FlexContainer"
            },
            "autogrowMode": {
                "Default": 1
            },
            "bottom": {
                "Default": {
                    "type": "string",
                    "value": "15dp"
                }
            },
            "height": {
                "Default": {
                    "type": "ref",
                    "value": "preferred"
                }
            },
            "responsiveData": {
                "b2": {},
                "b3": {
                    "bottom": {
                        "type": "string",
                        "value": "20dp"
                    },
                    "top": {
                        "type": "number",
                        "value": "10"
                    },
                    "width": {
                        "type": "string",
                        "value": "95%"
                    }
                }
            },
            "top": {
                "Default": {
                    "type": "string",
                    "value": "0dp"
                }
            },
            "width": {}
        },
        "flxbullet": {
            "__events__": {},
            "__info__": {
                "kuid": "d5e6f5f6cec247ed9a352370c0078920",
                "srcKUID": "af9d0b87ab074dcca904dc67e3ad980f",
                "wType": "FlexContainer"
            },
            "centerY": {
                "Default": {
                    "type": "string",
                    "value": ""
                }
            },
            "responsiveData": {
                "b3": {}
            },
            "top": {
                "Default": {
                    "type": "string",
                    "value": "5dp"
                }
            },
            "width": {
                "Default": {
                    "type": "string",
                    "value": "8px"
                }
            }
        },
        "flxbulletTwo": {
            "__events__": {},
            "__info__": {
                "kuid": "fc09f89d9c7a43099fb90e515d3afae7",
                "srcKUID": "j0f810a7b1654b1e944f574958cb01ff",
                "wType": "FlexContainer"
            },
            "centerY": {
                "Default": {
                    "type": "string",
                    "value": ""
                }
            },
            "responsiveData": {
                "b2": {},
                "b3": {}
            },
            "top": {
                "Default": {
                    "type": "string",
                    "value": "5dp"
                }
            },
            "width": {
                "Default": {
                    "type": "string",
                    "value": "8px"
                }
            }
        },
        "flxone": {
            "__events__": {},
            "__info__": {
                "kuid": "fb5d56b834c54218b06627cb2090b3c9",
                "srcKUID": "ha4037e46c2f4e028e9f09568f14d7dd",
                "wType": "FlexContainer"
            },
            "autogrowMode": {
                "Default": 1
            },
            "height": {
                "Default": {
                    "type": "ref",
                    "value": "preferred"
                }
            },
            "responsiveData": {
                "b3": {
                    "width": {
                        "type": "string",
                        "value": "95%"
                    }
                }
            },
            "width": {}
        },
        "lblIns1": {
            "__events__": {},
            "__info__": {
                "kuid": "f1b955d68b454a3a8db89a29dd6423f5",
                "srcKUID": "ada00d25eeb748f9a72213c91ddf3fd0",
                "wType": "Label"
            },
            "height": {
                "Default": {
                    "type": "ref",
                    "value": "preferred"
                }
            },
            "i18n_text": "i18n.BillPay.TermsAndConditionsPoint1",
            "responsiveData": {
                "b2": {
                    "width": {
                        "type": "string",
                        "value": "90%"
                    }
                },
                "b3": {
                    "width": {
                        "type": "string",
                        "value": "95%"
                    }
                }
            },
            "top": {
                "Default": {
                    "type": "string",
                    "value": "1dp"
                }
            },
            "width": {}
        },
        "lblInsTwo": {
            "__events__": {},
            "__info__": {
                "kuid": "i05083224f194f45aa3a614012184b52",
                "srcKUID": "cd4650df46484705b2c865df9bbd297d",
                "wType": "Label"
            },
            "height": {
                "Default": {
                    "type": "ref",
                    "value": "preferred"
                }
            },
            "i18n_text": "i18n.BillPay.TermsAndConditionsPoint2",
            "responsiveData": {
                "b2": {
                    "width": {
                        "type": "string",
                        "value": "90%"
                    }
                },
                "b3": {
                    "width": {
                        "type": "string",
                        "value": "95%"
                    }
                }
            },
            "top": {
                "Default": {
                    "type": "string",
                    "value": "1dp"
                }
            },
            "width": {
                "Default": {
                    "type": "string",
                    "value": "93%"
                }
            }
        },
        "lblTerms": {
            "__events__": {},
            "__info__": {
                "kuid": "gc3c4084ea22478eba77c28b20dbfb93",
                "srcKUID": "fea04eddb3874312b7732090df0a2c2d",
                "wType": "Label"
            }
        }
    },
    "id": "TermsAndConditions1",
    "info": null,
    "isdatareferenced": false,
    "issegmentchild": false,
    "isvisible": true,
    "kuid": "b99b33aeefa94a94ba1d47b4662ffa43",
    "layouttype": 4,
    "masterType": 0,
    "name": "kony.ui.UserWidgetInstance",
    "parent": "flxTermsCondition",
    "pf": "frmAddInternalAccount",
    "snaptogrid": true,
    "sourceUserWidget": "a8480f15fde34d11bc6965fe0c8ecc99",
    "vizprops": {
        "hidewidgethierarchy": false
    },
    "wType": "UserWidgetInstance"
}