{
    "@class": "com.kony.gen.viz.model.component.KVizLabel",
    "DNDConfig": null,
    "__parentReadjusting__": false,
    "_height_": {
        "type": "ref",
        "value": "preferred"
    },
    "_left_": {
        "type": "string",
        "value": "192dp"
    },
    "_margin_": [
        1,
        1,
        1,
        1
    ],
    "_padding_": [
        0,
        0,
        0,
        0
    ],
    "_skin_": "s2ac445d876246978f2537c63ae81fab",
    "_text_": "",
    "_top_": {
        "type": "string",
        "value": "22px"
    },
    "_width_": {
        "type": "ref",
        "value": "preferred"
    },
    "_wrapping_": 2,
    "android": {
        "textStyle": {
            "letterSpacing": 0,
            "strikeThrough": false
        }
    },
    "canUpdateUI": true,
    "containerweight": 100,
    "contentalignment": 4,
    "id": "lblAboutRole",
    "info": null,
    "ipad": {
        "psp": {
            "wrapping": 2
        }
    },
    "iphone": {
        "psp": {
            "wrapping": 2
        }
    },
    "iscustomlayout": false,
    "isvisible": true,
    "kuid": "i3f4879dbacd496cb2f161ccb386d775",
    "name": "kony.ui.Label",
    "parent": "flxUserRoles",
    "pf": "frmUserManagement",
    "responsiveData": {
        "b1": {
            "left": {
                "type": "string",
                "value": "24px"
            },
            "skin": "s2ac445d876246978f2537c63ae81fab"
        },
        "b2": {
            "left": {
                "type": "string",
                "value": "24dp"
            },
            "skin": "s0c6b7dec39b42f18d466408c415324c"
        },
        "b4": {
            "left": {
                "type": "string",
                "value": "24dp"
            },
            "skin": "s2ac445d876246978f2537c63ae81fab"
        }
    },
    "retaincontentalignment": false,
    "retainflexpositionproperties": false,
    "texti18n": "i18n.userManagement.aboutRole",
    "tooltip": "",
    "wType": "Label",
    "zindex": 1
}