{
    "@class": "com.kony.gen.viz.model.container.KVizScrollFlexForm",
    "DNDConfig": null,
    "_margin_": [
        0,
        0,
        0,
        0
    ],
    "_orientation_": 1,
    "_padding_": [
        0,
        0,
        0,
        0
    ],
    "_percent_": true,
    "_skin_": "s2f58a140c5647b8a643edf5a6309600",
    "_title_": null,
    "addWidgetsdone": false,
    "allboxes": [],
    "android": {
        "psp": {
            "windowSoftInputMode": 2
        }
    },
    "breakpointInfo": {
        "b1": {
            "width": 1366
        },
        "b3": {
            "width": 640
        },
        "b4": {
            "width": 1380
        },
        "b5": {
            "width": 1024
        }
    },
    "canUpdateUI": true,
    "canvasWidth": 2000,
    "children": [
        "flxHeader",
        "flxMain",
        "flxLogout",
        "flxDelete",
        "flxTransferViewReport",
        "flxLoading",
        "flxCancelPopup",
        "flxFooter"
    ],
    "containerweight": 100,
    "controllerInfo": {
        "default": {
            "channel": "desktop",
            "name": "frmTransfersController"
        }
    },
    "currentLocale": "default",
    "desktopweb": {
        "ide_onBreakpointChange": "AS_Form_b274a608bd254b2ea27f86b398ae7ec3",
        "needAppMenu": false
    },
    "device": "desktopweb",
    "displayorientation": 1,
    "enabledforidletimeout": true,
    "friendlyName": "frmTransfers",
    "id": "frmTransfers",
    "ide_init": "AS_Form_j65feee81194476c97341e7afd896acc",
    "ide_onDeviceBack": "AS_Form_e1bde3d3274840838ac1e5cb73816fa3",
    "ide_onTouchEnd": "AS_Form_j82b124f81af40f0b31ef0ec43e42ebe",
    "ide_postShow": "AS_Form_f61a533a94744161a486552a0668316d",
    "ide_preShow": "AS_Form_b61534baeb4a46729f7a7c0bb24ffab8",
    "info": null,
    "initdone": false,
    "inputaccessoryviewtype": 4,
    "ipad": {
        "psp": {
            "inputAccessoryViewType": 4
        }
    },
    "iphone": {
        "psp": {
            "inputAccessoryViewType": 4
        }
    },
    "isvisible": true,
    "kiosk": {
        "psp": {
            "enableScrolling": false
        }
    },
    "kuid": "e9f47be88ab64765a96b1fae7d2a7720",
    "layouttype": 2,
    "name": "kony.ui.Form2",
    "needappmenu": true,
    "paddinginpixel": false,
    "platform": "desktopweb",
    "prevDevice": "desktopweb",
    "prevPlatform": "desktopweb",
    "retainscrollposition": false,
    "shellCSS": "desktop",
    "snapgridsize": 10,
    "snaptogrid": true,
    "titleBarSkin": "s2e24ee0a8ca46b089d8a5bea8a1a32e",
    "titlebar": true,
    "type": 3,
    "vizProps": {
        "globalRespDesignEnabled": false
    },
    "wType": "Form"
}