{
    "@class": "com.kony.gen.viz.model.component.KVizUserWidget",
    "DNDConfig": null,
    "__parentReadjusting__": false,
    "_android_": {},
    "_androidwearos_": {},
    "_children_": [],
    "_desktopweb_": {},
    "_height_": {
        "type": "ref",
        "value": "preferred"
    },
    "_ipad_": {},
    "_iphone_": {},
    "_kiosk_": {},
    "_left_": {
        "type": "string",
        "value": "0dp"
    },
    "_margin_": [
        0,
        0,
        0,
        0
    ],
    "_orientation_": 1,
    "_padding_": [
        0,
        0,
        0,
        0
    ],
    "_percent_": true,
    "_render_": true,
    "_responsiveData_": {
        "b1": {
            "top": {
                "type": "string",
                "value": "5dp"
            }
        },
        "b3": {
            "right": {
                "type": "string",
                "value": "0dp"
            },
            "width": {
                "type": "string",
                "value": ""
            }
        }
    },
    "_skin_": "sdc143f0e5b64ae3a3f155f691c73fa7",
    "_spa_": {},
    "_spaan_": {},
    "_spaandroidtablet_": {},
    "_spabb_": {},
    "_spaip_": {},
    "_spaipad_": {},
    "_spamobile_": {},
    "_spatablet_": {},
    "_spawindowstablet_": {},
    "_spawinphone8_": {},
    "_tabrcandroid_": {},
    "_top_": {
        "type": "string",
        "value": "0dp"
    },
    "_vizProps_": {
        "hidewidgethierarchy": false
    },
    "_width_": {
        "type": "string",
        "value": "100%"
    },
    "_windows10_": {},
    "_windows8_": {},
    "_winphone10_": {},
    "_winphone8_": {},
    "areflexpropsreferenced": false,
    "autogrowmode": 1,
    "canUpdateUI": true,
    "clipbounds": false,
    "containerweight": 0,
    "dataDiffs": {
        "TermsAndConditions": {
            "__events__": {},
            "__info__": {
                "isRoot": true,
                "kuid": "gdfdfac4d3324c31b4a8ec2bd2a057af",
                "srcKUID": "a8480f15fde34d11bc6965fe0c8ecc99",
                "wType": "FlexContainer"
            },
            "bottom": {},
            "responsiveData": {
                "b1": {
                    "top": {
                        "type": "string",
                        "value": "5dp"
                    }
                },
                "b3": {
                    "right": {
                        "type": "string",
                        "value": "0dp"
                    },
                    "width": {
                        "type": "string",
                        "value": ""
                    }
                }
            },
            "right": {},
            "top": {},
            "width": {}
        },
        "flxTwo": {
            "__events__": {},
            "__info__": {
                "kuid": "dadefe066a3b40288293b47e9f382bf7",
                "srcKUID": "f26f991270e848e581148425d8b5c034",
                "wType": "FlexContainer"
            },
            "autogrowMode": {
                "Default": 1
            },
            "bottom": {
                "Default": {
                    "type": "string",
                    "value": "15dp"
                }
            },
            "height": {
                "Default": {
                    "type": "ref",
                    "value": "preferred"
                }
            },
            "responsiveData": {
                "b3": {
                    "width": {
                        "type": "string",
                        "value": "95%"
                    }
                },
                "b5": {
                    "top": {
                        "type": "string",
                        "value": "0dp"
                    }
                }
            },
            "top": {
                "Default": {
                    "type": "string",
                    "value": "-4dp"
                }
            },
            "width": {}
        },
        "flxbullet": {
            "__events__": {},
            "__info__": {
                "kuid": "be90cfbc1be14259b7be47c2b663c3f0",
                "srcKUID": "af9d0b87ab074dcca904dc67e3ad980f",
                "wType": "FlexContainer"
            },
            "centerY": {
                "Default": {
                    "type": "string",
                    "value": ""
                }
            },
            "responsiveData": {
                "b3": {
                    "width": {
                        "type": "string",
                        "value": "8dp"
                    }
                },
                "b5": {
                    "width": {
                        "type": "string",
                        "value": "8px"
                    }
                }
            },
            "top": {
                "Default": {
                    "type": "string",
                    "value": "5dp"
                }
            },
            "width": {}
        },
        "flxbulletTwo": {
            "__events__": {},
            "__info__": {
                "kuid": "abf65fe6209148bbbcabd5e2ce93af9d",
                "srcKUID": "j0f810a7b1654b1e944f574958cb01ff",
                "wType": "FlexContainer"
            },
            "centerY": {
                "Default": {
                    "type": "string",
                    "value": ""
                }
            },
            "responsiveData": {
                "b1": {},
                "b3": {
                    "width": {
                        "type": "string",
                        "value": "8dp"
                    }
                },
                "b4": {},
                "b5": {
                    "width": {
                        "type": "string",
                        "value": "8px"
                    }
                }
            },
            "top": {
                "Default": {
                    "type": "string",
                    "value": "5dp"
                }
            },
            "width": {}
        },
        "flxone": {
            "__events__": {},
            "__info__": {
                "kuid": "a638d77beb884e7d94e603f36c03dfdd",
                "srcKUID": "ha4037e46c2f4e028e9f09568f14d7dd",
                "wType": "FlexContainer"
            },
            "autogrowMode": {
                "Default": 1
            },
            "height": {
                "Default": {
                    "type": "ref",
                    "value": "preferred"
                }
            },
            "left": {},
            "responsiveData": {
                "b3": {
                    "left": {
                        "type": "string",
                        "value": "2.50%"
                    },
                    "right": {
                        "type": "string",
                        "value": ""
                    },
                    "width": {
                        "type": "string",
                        "value": "95%"
                    }
                }
            },
            "right": {},
            "width": {}
        },
        "lblIns1": {
            "__events__": {},
            "__info__": {
                "kuid": "i2e4c30bb2404c61a9b59836937890aa",
                "srcKUID": "ada00d25eeb748f9a72213c91ddf3fd0",
                "wType": "Label"
            },
            "height": {
                "Default": {
                    "type": "ref",
                    "value": "preferred"
                }
            },
            "i18n_text": "i18n.BillPay.TermsAndConditionsPoint1",
            "left": {},
            "responsiveData": {
                "b3": {
                    "left": {
                        "type": "string",
                        "value": "5dp"
                    },
                    "width": {
                        "type": "string",
                        "value": "94%"
                    }
                },
                "b5": {
                    "width": {
                        "type": "string",
                        "value": "90%"
                    }
                }
            },
            "top": {
                "Default": {
                    "type": "string",
                    "value": "1dp"
                }
            },
            "width": {}
        },
        "lblInsTwo": {
            "__events__": {},
            "__info__": {
                "kuid": "i7f1c451c81c4a84bc26cc032fca1a66",
                "srcKUID": "cd4650df46484705b2c865df9bbd297d",
                "wType": "Label"
            },
            "height": {
                "Default": {
                    "type": "ref",
                    "value": "preferred"
                }
            },
            "i18n_text": "i18n.BillPay.TermsAndConditionsPoint2",
            "left": {},
            "responsiveData": {
                "b3": {
                    "left": {
                        "type": "string",
                        "value": "5dp"
                    },
                    "right": {
                        "type": "string",
                        "value": ""
                    },
                    "text": "Funds transfers completed through Infinity online banking before the transfer cut-off time on a business day will be posted to your eligible account the same day.Credit card, line of credit, loan and mortgage transactions may take up to 3 business days to process, but will be posted on the business date as and when the transaction was made."
                },
                "b4": {},
                "b5": {
                    "width": {
                        "type": "string",
                        "value": "90%"
                    }
                }
            },
            "right": {},
            "text": "Upto $500.00 can be sent through this service.",
            "top": {
                "Default": {
                    "type": "string",
                    "value": "1dp"
                }
            },
            "width": {
                "Default": {
                    "type": "string",
                    "value": "93%"
                }
            }
        },
        "lblTerms": {
            "__events__": {},
            "__info__": {
                "kuid": "bdde4a54d8df4627acf0cb1b5af85bf8",
                "srcKUID": "fea04eddb3874312b7732090df0a2c2d",
                "wType": "Label"
            }
        }
    },
    "id": "TermsAndConditions1",
    "info": null,
    "isdatareferenced": false,
    "issegmentchild": false,
    "isvisible": true,
    "kuid": "gb63834304bc4bf7a2db91d8e0be3792",
    "layouttype": 4,
    "masterType": 0,
    "name": "kony.ui.UserWidgetInstance",
    "parent": "flxTermsAndConditions",
    "pf": "frmTransfers",
    "snaptogrid": true,
    "sourceUserWidget": "a8480f15fde34d11bc6965fe0c8ecc99",
    "vizprops": {
        "hidewidgethierarchy": false
    },
    "wType": "UserWidgetInstance"
}