{
    "@class": "com.kony.gen.viz.model.component.KVizUserWidget",
    "DNDConfig": null,
    "_bottom_": {
        "type": "string",
        "value": "20dp"
    },
    "_children_": [],
    "_height_": {
        "type": "ref",
        "value": "preferred"
    },
    "_left_": {
        "type": "string",
        "value": "2.50%"
    },
    "_margin_": [
        0,
        0,
        0,
        0
    ],
    "_orientation_": 1,
    "_padding_": [
        0,
        0,
        0,
        0
    ],
    "_percent_": true,
    "_skin_": "sdc143f0e5b64ae3a3f155f691c73fa7",
    "_top_": {
        "type": "string",
        "value": "20dp"
    },
    "_width_": {
        "type": "string",
        "value": "95%"
    },
    "areflexpropsreferenced": false,
    "autogrowmode": 1,
    "canUpdateUI": true,
    "centerx": {
        "type": "number",
        "value": ""
    },
    "clipbounds": false,
    "containerweight": 0,
    "dataDiffs": {
        "btnCancel": {
            "__events__": {},
            "__info__": {
                "kuid": "df6e5caf67e2443d9b0fbffcb628e24f",
                "srcKUID": "ecd0607348d748f28f12896837d00a25",
                "wType": "Button"
            }
        },
        "btnConfirm": {
            "__events__": {},
            "__info__": {
                "kuid": "j502a3b748f5401187fe341d780cca54",
                "srcKUID": "dcd36efb35a441039c806e99232d6d16",
                "wType": "Button"
            }
        },
        "btnModify": {
            "__events__": {},
            "__info__": {
                "kuid": "fe58c732b7b14bc6824247824560ea9b",
                "srcKUID": "a00e6e7537d64f76ba9647b17438995b",
                "wType": "Button"
            }
        },
        "confirmation": {
            "__events__": {},
            "__info__": {
                "isRoot": true,
                "kuid": "d7708e95a159435a83daa46b76059054",
                "srcKUID": "e7357ed2b0ec4256ac45d95aa7acc575",
                "wType": "FlexContainer"
            }
        },
        "flxButtons": {
            "__events__": {},
            "__info__": {
                "kuid": "aaf8364b59d84ad8ba1474ce1b6067b9",
                "srcKUID": "d5e3b5354ed64ee2b442347c3867e826",
                "wType": "FlexContainer"
            }
        },
        "flxConfirmDetail0": {
            "__events__": {},
            "__info__": {
                "kuid": "ic6f2a414b014a858e4ece3df7e489b2",
                "srcKUID": "a431d62478824c74a4efcc2a17c4c78e",
                "wType": "FlexContainer"
            }
        },
        "flxConfirmDetail1": {
            "__events__": {},
            "__info__": {
                "kuid": "d5a697da64de460eaa4f903e229f626a",
                "srcKUID": "f096865595e54d3c8b791cc5fd74ae29",
                "wType": "FlexContainer"
            }
        },
        "flxConfirmDetail2": {
            "__events__": {},
            "__info__": {
                "kuid": "e1ac821da37b48b0ae334a2862b9e3b7",
                "srcKUID": "ha2d35f35c4347a28fd7ebe11debc2af",
                "wType": "FlexContainer"
            }
        },
        "flxConfirmDetail3": {
            "__events__": {},
            "__info__": {
                "kuid": "ad75dc223d114b2882cd396c6aa2345c",
                "srcKUID": "f1dcd336db874389a172dc6e20d8cb05",
                "wType": "FlexContainer"
            }
        },
        "flxConfirmDetail33": {
            "__events__": {},
            "__info__": {
                "kuid": "c1cc5c350b5343dbb91b382fc77d1f28",
                "srcKUID": "c4ac8336511d4a08ba7cc62b7fe0611e",
                "wType": "FlexContainer"
            }
        },
        "flxConfirmDetail4": {
            "__events__": {},
            "__info__": {
                "kuid": "c5bd37536f9a401aa48647856c7ebe75",
                "srcKUID": "i59bc73aa77743e395fc6b75d6e62608",
                "wType": "FlexContainer"
            }
        },
        "flxConfirmDetail44": {
            "__events__": {},
            "__info__": {
                "kuid": "a3fe880209b04594b0c81c77cb93176d",
                "srcKUID": "bcd4ee2c56d94e30893bce420d1c8c37",
                "wType": "FlexContainer"
            }
        },
        "flxConfirmDetail5": {
            "__events__": {},
            "__info__": {
                "kuid": "jce190e9d12e4b10a657502465fe2c22",
                "srcKUID": "g2e7cd89afb049ee9f38fd785bbc2e2a",
                "wType": "FlexContainer"
            }
        },
        "flxConfirmDetail6": {
            "__events__": {},
            "__info__": {
                "kuid": "h43a7f6e78ab4da8834ed831284bc557",
                "srcKUID": "b71b2a92c2554a1f8981ac879183e1e6",
                "wType": "FlexContainer"
            },
            "isVisible": false,
            "responsiveData": {
                "b3": {}
            }
        },
        "flxConfirmDetail7": {
            "__events__": {},
            "__info__": {
                "kuid": "ace36e12a62b487a98879275fca7dc52",
                "srcKUID": "debddb11442f4feb920522381a132962",
                "wType": "FlexContainer"
            },
            "isVisible": false,
            "responsiveData": {
                "b3": {}
            }
        },
        "flxConfirmDetail8": {
            "__events__": {},
            "__info__": {
                "kuid": "a0f86b79e425481b96641b2ca2936192",
                "srcKUID": "c9660e62809c4b63a01f910e70472274",
                "wType": "FlexContainer"
            },
            "isVisible": false,
            "responsiveData": {
                "b3": {}
            }
        },
        "flxConfirmKey0": {
            "__events__": {},
            "__info__": {
                "kuid": "b9059ebf16734a48b5a9bf680f10dba6",
                "srcKUID": "h53fbe527e824973a7137b2ac9e23a05",
                "wType": "FlexContainer"
            }
        },
        "flxConfirmKey1": {
            "__events__": {},
            "__info__": {
                "kuid": "c3b1322449a14bb390acc9495c539ee0",
                "srcKUID": "a5d5bba7a4334ffb8d956f4e3aa81852",
                "wType": "FlexContainer"
            }
        },
        "flxConfirmKey2": {
            "__events__": {},
            "__info__": {
                "kuid": "id68e2ddf7654d2bb4ad899791b751b7",
                "srcKUID": "c76dae79d8074d54b7eb04c0e84b61dd",
                "wType": "FlexContainer"
            }
        },
        "flxConfirmKey3": {
            "__events__": {},
            "__info__": {
                "kuid": "ec9c1e7efc534cb69efcce6f0ec23678",
                "srcKUID": "f193727a150a428fa592831b009ce704",
                "wType": "FlexContainer"
            }
        },
        "flxConfirmKey33": {
            "__events__": {},
            "__info__": {
                "kuid": "jf4c1bc467f64abca95cf49b8c088af3",
                "srcKUID": "d9dd1032c1164cc6bffba0d731b0ae71",
                "wType": "FlexContainer"
            }
        },
        "flxConfirmKey4": {
            "__events__": {},
            "__info__": {
                "kuid": "fab30c55ff1c4776899aec4aa89e6f68",
                "srcKUID": "f938804eedff4236969d3e998b59230c",
                "wType": "FlexContainer"
            }
        },
        "flxConfirmKey44": {
            "__events__": {},
            "__info__": {
                "kuid": "d56e49915f3245fdaca1ea2508300aaa",
                "srcKUID": "b0e172071e364d10afc1a1896dd87c0a",
                "wType": "FlexContainer"
            }
        },
        "flxConfirmKey5": {
            "__events__": {},
            "__info__": {
                "kuid": "f27591681b624822a6d3569f9dbcd2e3",
                "srcKUID": "j239943a5b1a4c3cabc6a32929f92c51",
                "wType": "FlexContainer"
            }
        },
        "flxConfirmKey6": {
            "__events__": {},
            "__info__": {
                "kuid": "cc729f5c41ec4a36af2ae57d5a5faf74",
                "srcKUID": "gc3038e8e1414b80a33d55634b4d9e94",
                "wType": "FlexContainer"
            }
        },
        "flxConfirmKey7": {
            "__events__": {},
            "__info__": {
                "kuid": "ff0149cab31642158e3c6b31aa1b9ef5",
                "srcKUID": "jd2c922ab12248cfb2801d244727f56a",
                "wType": "FlexContainer"
            }
        },
        "flxConfirmKey8": {
            "__events__": {},
            "__info__": {
                "kuid": "dd773a8b57b242189e5e88ff553b2f91",
                "srcKUID": "d51d1009944241f09dcd29d0d245ac6e",
                "wType": "FlexContainer"
            }
        },
        "flxConfirmValue0": {
            "__events__": {},
            "__info__": {
                "kuid": "f45bc2667de54609953d732ee51f0a28",
                "srcKUID": "dfa5e63291784585a5fce9f4c71bba8b",
                "wType": "FlexContainer"
            }
        },
        "flxConfirmValue1": {
            "__events__": {},
            "__info__": {
                "kuid": "b302232ff45a4336bae1e08b0dfcd371",
                "srcKUID": "h580ff7eac2e4f00bb62d2b2809416de",
                "wType": "FlexContainer"
            }
        },
        "flxConfirmValue2": {
            "__events__": {},
            "__info__": {
                "kuid": "gabab2d0e0f94979b651de51922219a4",
                "srcKUID": "fea6ac63cf334758bc584d9ed3f28e5f",
                "wType": "FlexContainer"
            }
        },
        "flxConfirmValue3": {
            "__events__": {},
            "__info__": {
                "kuid": "je22e185ed64408c85598f9ce62272c0",
                "srcKUID": "ee71a9f88951434e888748c7350f8741",
                "wType": "FlexContainer"
            }
        },
        "flxConfirmValue33": {
            "__events__": {},
            "__info__": {
                "kuid": "b00c92b265e6441eafa1865ce912d233",
                "srcKUID": "bcc511c5d3ae44ea84c467d44754402e",
                "wType": "FlexContainer"
            }
        },
        "flxConfirmValue4": {
            "__events__": {},
            "__info__": {
                "kuid": "d67d762c6fb540f2b2208b35a51f6c6b",
                "srcKUID": "i494eb71954b444f975c2ba640e90d09",
                "wType": "FlexContainer"
            }
        },
        "flxConfirmValue44": {
            "__events__": {},
            "__info__": {
                "kuid": "b245fb7cd5424b3788074593e4c2534c",
                "srcKUID": "db1e1d80d9744fdf958592caf11b1a4f",
                "wType": "FlexContainer"
            }
        },
        "flxConfirmValue5": {
            "__events__": {},
            "__info__": {
                "kuid": "c8c3eb5249be47be9f9e1b4b58e8b408",
                "srcKUID": "i8b0acb5f2504e61b79e75746c70ea42",
                "wType": "FlexContainer"
            }
        },
        "flxConfirmValue6": {
            "__events__": {},
            "__info__": {
                "kuid": "a66a78814abb4f569b0744f9456508f8",
                "srcKUID": "ea4e9b74bc9e455482bebd3d63c7de15",
                "wType": "FlexContainer"
            }
        },
        "flxConfirmValue7": {
            "__events__": {},
            "__info__": {
                "kuid": "a3f9e0f2df7f458b8cd0030c3bfaffb7",
                "srcKUID": "d5280089e5664b13ae01252159149157",
                "wType": "FlexContainer"
            }
        },
        "flxConfirmValue8": {
            "__events__": {},
            "__info__": {
                "kuid": "dfd2e87fce3c41a58f50e7fa952c49f4",
                "srcKUID": "f80f5a9d1e8e4d32874ddd67358d8aa5",
                "wType": "FlexContainer"
            }
        },
        "flxHorizontalLine": {
            "__events__": {},
            "__info__": {
                "kuid": "e57a4cd5ad374a49a44c036b218eacd4",
                "srcKUID": "i3a387bfda03449f8384be272407eb3b",
                "wType": "FlexContainer"
            }
        },
        "flxIcon": {
            "__events__": {},
            "__info__": {
                "kuid": "jd26f23ca5094f09b31c4e39a30bdc31",
                "srcKUID": "ff4eef3ae2f44ceab9e6add210769da0",
                "wType": "FlexContainer"
            }
        },
        "flxSeparator": {
            "__events__": {},
            "__info__": {
                "kuid": "g9cc4886e8a8438aa74f8dc16a9fb41a",
                "srcKUID": "f34a7f8008484847867e84d226e59e96",
                "wType": "FlexContainer"
            },
            "responsiveData": {
                "b2": {
                    "top": {
                        "type": "string",
                        "value": "60dp"
                    }
                },
                "b3": {}
            },
            "top": {
                "Default": {
                    "type": "string",
                    "value": "20dp"
                }
            }
        },
        "flxSeparator2": {
            "__events__": {},
            "__info__": {
                "kuid": "a4825e38fa3b41fc961f9376d36fa3b1",
                "srcKUID": "h85eed4d35b949238aac9e2b7b33c48d",
                "wType": "FlexContainer"
            }
        },
        "flxSubHeader": {
            "__events__": {},
            "__info__": {
                "kuid": "eb4b810554b84faa88f8e37cb61b1c90",
                "srcKUID": "b529726d76c246f59258164b20641e6e",
                "wType": "FlexContainer"
            }
        },
        "lblConfirmKey0": {
            "__events__": {},
            "__info__": {
                "kuid": "e617ad8a2c7a46f1bf840735c6a9f000",
                "srcKUID": "d689fb845dbb4819a3170c5763c71813",
                "wType": "Label"
            }
        },
        "lblConfirmKey1": {
            "__events__": {},
            "__info__": {
                "kuid": "j35e6ddb27434580866f2633eaae9ade",
                "srcKUID": "d6f6d3b2f6a9475fa68d74779c82ebed",
                "wType": "Label"
            }
        },
        "lblConfirmKey2": {
            "__events__": {},
            "__info__": {
                "kuid": "d22e1f9bd0654dd6a04d0ca8735d15a1",
                "srcKUID": "bd0f495be28c4e2a9a68013c111bd295",
                "wType": "Label"
            }
        },
        "lblConfirmKey3": {
            "__events__": {},
            "__info__": {
                "kuid": "a242eb665e294776abe8af98620c1840",
                "srcKUID": "d63306f69b454ee3952a90110cceb70e",
                "wType": "Label"
            }
        },
        "lblConfirmKey33": {
            "__events__": {},
            "__info__": {
                "kuid": "e623e779fef64c5eaeafe22e006bf68b",
                "srcKUID": "ga8e1b17dcb34daeb3f10a205cced868",
                "wType": "Label"
            }
        },
        "lblConfirmKey4": {
            "__events__": {},
            "__info__": {
                "kuid": "h0e2d3eaec384f72b5399c2958f6d9b8",
                "srcKUID": "f769ecb78adb480e94b595ae7ff75a00",
                "wType": "Label"
            }
        },
        "lblConfirmKey44": {
            "__events__": {},
            "__info__": {
                "kuid": "b5bf56dd530e4a5c9a6d45e3e2387e49",
                "srcKUID": "e037c2440a9f43ff83d6404d222dcd82",
                "wType": "Label"
            }
        },
        "lblConfirmKey5": {
            "__events__": {},
            "__info__": {
                "kuid": "b17adb89ac9c4f6391bb387fd519581f",
                "srcKUID": "e03d3c04d2e24506acddec6fa6fdcc2b",
                "wType": "Label"
            }
        },
        "lblConfirmKey6": {
            "__events__": {},
            "__info__": {
                "kuid": "fe0444cc248748b0ae43c4efcd26d26b",
                "srcKUID": "c88ac8a75e5b42c1822dbd7b028f1e2f",
                "wType": "Label"
            }
        },
        "lblConfirmKey7": {
            "__events__": {},
            "__info__": {
                "kuid": "e6a58610dcb149fa850ca7908dba7b75",
                "srcKUID": "a0ac438fe2d341f09640771d2d6a2a09",
                "wType": "Label"
            }
        },
        "lblConfirmKey8": {
            "__events__": {},
            "__info__": {
                "kuid": "h6e15d1f7feb41be815155e6f339ed2c",
                "srcKUID": "d61af3521e7a4b67ab4c65995e923fd3",
                "wType": "Label"
            }
        },
        "lblConfirmValue0": {
            "__events__": {},
            "__info__": {
                "kuid": "b961a54dbca14ed4997bdbb2cefdd162",
                "srcKUID": "c78b0588b456469f96ce53add73cd945",
                "wType": "Label"
            }
        },
        "lblConfirmValue1": {
            "__events__": {},
            "__info__": {
                "kuid": "h87ba5cbb92f4180b90bcbffa8b4b9bf",
                "srcKUID": "a933ff27ac9e4c7583929688d11f159e",
                "wType": "Label"
            }
        },
        "lblConfirmValue2": {
            "__events__": {},
            "__info__": {
                "kuid": "j4cb92fa22814c44b80f6e9cab741fdb",
                "srcKUID": "h167149e16594258bdd5ad22b6691701",
                "wType": "Label"
            }
        },
        "lblConfirmValue3": {
            "__events__": {},
            "__info__": {
                "kuid": "d86f42ac96a94b60a7b530b65a084f69",
                "srcKUID": "h8c236bf7994467298b57e1907476831",
                "wType": "Label"
            }
        },
        "lblConfirmValue33": {
            "__events__": {},
            "__info__": {
                "kuid": "a510bc7479cb4ba4b366387e68380d36",
                "srcKUID": "f3014659880b49ce9b7e5af5777c43e6",
                "wType": "Label"
            }
        },
        "lblConfirmValue4": {
            "__events__": {},
            "__info__": {
                "kuid": "h67b6b6eb1934c38a838249139d2488d",
                "srcKUID": "d7f88cfe667a41beb4fbcc55ba6d6f8e",
                "wType": "Label"
            }
        },
        "lblConfirmValue44": {
            "__events__": {},
            "__info__": {
                "kuid": "daadceb0daac4de6a6d18dc5febd547b",
                "srcKUID": "f1aa91b64ac2444c9dac2d227591f2c1",
                "wType": "Label"
            }
        },
        "lblConfirmValue5": {
            "__events__": {},
            "__info__": {
                "kuid": "a6a6408499bd4baa82b52806afdc87b4",
                "srcKUID": "f1cdbfa192bc49e9aab118fbabbe469d",
                "wType": "Label"
            }
        },
        "lblConfirmValue6": {
            "__events__": {},
            "__info__": {
                "kuid": "d67cc0a9c7d94ac0a408745245fc9bfd",
                "srcKUID": "fb46a0c823c044a08e7a31c48e795b28",
                "wType": "Label"
            }
        },
        "lblConfirmValue7": {
            "__events__": {},
            "__info__": {
                "kuid": "g37e2e518057434c961b5b6e6a0d816a",
                "srcKUID": "daecf9c3b99447c590425fafd391db71",
                "wType": "Label"
            }
        },
        "lblConfirmValue8": {
            "__events__": {},
            "__info__": {
                "kuid": "i572e9f21dd14c37bb50cad0bc99af21",
                "srcKUID": "g683627296964773b105747fde8e4a24",
                "wType": "Label"
            }
        },
        "lblHeading": {
            "__events__": {},
            "__info__": {
                "kuid": "c8e9544e8b904dcab00060aaf4678d0d",
                "srcKUID": "e06d7e5ded4b4105b63d27e475d924ea",
                "wType": "Label"
            }
        },
        "lblIcon": {
            "__events__": {},
            "__info__": {
                "kuid": "b6c4d67575594c2cb235bd3be0ca6364",
                "srcKUID": "a6f5487adb4548919b0fd05c62767df1",
                "wType": "Label"
            }
        }
    },
    "enablescrolling": true,
    "id": "confirmation",
    "info": null,
    "iscustomlayout": false,
    "isdatareferenced": false,
    "isvisible": true,
    "kuid": "d7708e95a159435a83daa46b76059054",
    "layouttype": 4,
    "masterType": 0,
    "minheight": {
        "type": "string",
        "value": "440dp"
    },
    "name": "kony.ui.UserWidgetInstance",
    "parent": "flxMain",
    "pf": "frmWithdrawBudgetConfirm",
    "retaincontentalignment": false,
    "retainflexpositionproperties": false,
    "retainflowhorizontalalignment": false,
    "snapgridsize": 10,
    "snaptogrid": true,
    "sourceUserWidget": "e7357ed2b0ec4256ac45d95aa7acc575",
    "wType": "UserWidgetInstance",
    "zindex": 1
}