{
    "DNDConfig": null,
    "__parentReadjusting__": false,
    "_height_": {
        "type": "string",
        "value": "100%"
    },
    "_left_": {
        "type": "string",
        "value": "0%"
    },
    "_margin_": [
        0,
        0,
        0,
        0
    ],
    "_orientation_": 6,
    "_padding_": [
        0,
        0,
        0,
        0
    ],
    "_percent_": true,
    "_skin_": "s24c92fc23b14f5484b693ee9b8a9b35",
    "_top_": {
        "type": "string",
        "value": "0dp"
    },
    "_width_": {
        "type": "string",
        "value": "20%"
    },
    "allboxes": [],
    "autogrowmode": 0,
    "canUpdateUI": true,
    "children": [
        "lblAddedBy",
        "imgSortAddedBy"
    ],
    "clipbounds": true,
    "containerweight": 100,
    "enablescrolling": true,
    "id": "flxAddedBy",
    "info": null,
    "isvisible": true,
    "kuid": "j85c930665ec415d9c3d2ae7d57e75fd",
    "layouttype": 3,
    "name": "kony.ui.FlexContainer",
    "parent": "flxSort",
    "pf": "frmMakeBulkTransfer",
    "responsiveData": {
        "b1": {
            "width": {
                "type": "string",
                "value": "23.30%"
            }
        },
        "b2": {
            "left": {
                "type": "string",
                "value": "0%"
            },
            "top": {
                "type": "string",
                "value": "0dp"
            },
            "width": {
                "type": "string",
                "value": "23.10%"
            }
        },
        "b3": {
            "left": {
                "type": "string",
                "value": "1.09%"
            },
            "width": {
                "type": "string",
                "value": "23.14%"
            }
        }
    },
    "snapgridsize": 10,
    "snaptogrid": true,
    "wType": "FlexContainer",
    "widgetalignment": 1,
    "zindex": 1
}