{
    "@class": "com.kony.gen.viz.model.component.KVizButton",
    "DNDConfig": null,
    "_height_": {
        "type": "ref",
        "value": "preferred"
    },
    "_left_": {
        "type": "string",
        "value": "20dp"
    },
    "_margin_": [
        6,
        6,
        6,
        6
    ],
    "_padding_": [
        0,
        0,
        0,
        0
    ],
    "_skin_": "se4cbdf6e51f48eda9966caa941c6a19",
    "_text_": "Contact Us",
    "_width_": {
        "type": "ref",
        "value": "preferred"
    },
    "accessibilityconfig": {
        "a11yLabeli18n": "i18n.footer.privacy"
    },
    "canUpdateUI": true,
    "centery": {
        "type": "string",
        "value": "50%"
    },
    "containerweight": 100,
    "contentalignment": 5,
    "desktopweb": {
        "psp": {
            "hoverSkin": "s293e226e8f945ddb4137c09ee51b794"
        }
    },
    "disabledSkins": {
        "focusSkin": "s293e226e8f945ddb4137c09ee51b794"
    },
    "displaytext": true,
    "focusskin": null,
    "id": "btnPrivacy",
    "ide_onClick": "AS_Button_b42de0fc287f46a6a1926c05ebb67938",
    "info": null,
    "isvisible": true,
    "kuid": "c3810888a2304c409e04db4cd519b8ee",
    "name": "kony.ui.Button",
    "parent": "flxFooterMenu",
    "pf": "userwidgetmodel",
    "texti18n": "i18n.footer.privacy",
    "tooltip": "Privacy Policy",
    "wType": "Button",
    "zindex": 1
}