{
    "@class": "com.kony.gen.viz.model.component.KVizButton",
    "DNDConfig": null,
    "__parentReadjusting__": false,
    "_bottom_": 30,
    "_height_": {
        "type": "string",
        "value": "50dp"
    },
    "_left_": {
        "type": "string",
        "value": "35%"
    },
    "_margin_": [
        6,
        6,
        6,
        6
    ],
    "_padding_": [
        0,
        0,
        0,
        0
    ],
    "_skin_": "s53f35797e894740848702af91fb98cb",
    "_text_": "NO",
    "_width_": {
        "type": "string",
        "value": "29.74%"
    },
    "accessibilityconfig": {
        "a11yLabel": "Cancel"
    },
    "canUpdateUI": true,
    "centery": {
        "type": "string",
        "value": "50%"
    },
    "containerweight": 100,
    "contentalignment": 5,
    "disabledSkins": {
        "focusSkin": "sf44d06ca8224832827ea7fdff757013"
    },
    "displaytext": true,
    "id": "btnCancel1",
    "ide_onClick": "AS_Button_gbfcf5167dc44810bf78c9c44060c702",
    "info": null,
    "isvisible": true,
    "kuid": "j6ff572a2f8545a2b7506d4067ef087d",
    "name": "kony.ui.Button",
    "parent": "flxContentsButtons",
    "pf": "frmFastActiveAck",
    "responsiveData": {
        "b1": {
            "skin": "s53f35797e894740848702af91fb98cb"
        },
        "b2": {
            "skin": "s53f35797e894740848702af91fb98cb"
        }
    },
    "texti18n": "i18n.transfers.Cancel",
    "tooltip": "Cancel",
    "wType": "Button",
    "zindex": 1
}