{
    "@class": "com.kony.gen.viz.model.component.KVizButton",
    "DNDConfig": null,
    "__parentReadjusting__": false,
    "_height_": {
        "type": "string",
        "value": "100%"
    },
    "_left_": {
        "type": "string",
        "value": "0dp"
    },
    "_margin_": [
        6,
        6,
        6,
        6
    ],
    "_padding_": [
        0,
        0,
        0,
        0
    ],
    "_skin_": "se4cbdf6e51f48eda9966caa941c6a19",
    "_text_": "Download  Report  ",
    "_top_": {
        "type": "string",
        "value": "0dp"
    },
    "_width_": {
        "type": "string",
        "value": "25%"
    },
    "accessibilityconfig": {
        "a11yLabel": "REPEAT"
    },
    "canUpdateUI": true,
    "centery": {
        "type": "string",
        "value": "50%"
    },
    "containerId": true,
    "containerweight": 100,
    "contentalignment": 5,
    "desktopweb": {
        "psp": {}
    },
    "disabledSkins": {
        "focusSkin": "sf44d06ca8224832827ea7fdff757013"
    },
    "displaytext": true,
    "id": "btnDownloadReport",
    "ide_onClick": "AS_Button_a0377786805e449587710eb8f6452bef",
    "info": null,
    "isvisible": true,
    "kuid": "g8f0245d175940f8b31d3909999b17c9",
    "name": "kony.ui.Button",
    "parent": "flxActions",
    "pf": "segRecentsWireTransfersMobileSelectedNew",
    "tooltip": "REPEAT",
    "wType": "Button",
    "zindex": 1
}