{
    "@class": "com.kony.gen.viz.model.component.KVizTextBox2",
    "DNDConfig": null,
    "__parentReadjusting__": false,
    "_height_": {
        "type": "string",
        "value": "40dp"
    },
    "_left_": {
        "type": "string",
        "value": "0dp"
    },
    "_margin_": [
        0,
        0,
        0,
        0
    ],
    "_padding_": [
        3,
        0,
        0,
        0
    ],
    "_placeholder_": "",
    "_skin_": "sf6858a6dd7e428e8d24a7cfbe51c8c1",
    "_text_": "",
    "_top_": {
        "type": "string",
        "value": "6px"
    },
    "_width_": {
        "type": "string",
        "value": "65%"
    },
    "autocapitalize": "none",
    "autocomplete": false,
    "autocorrect": false,
    "autofilter": false,
    "canUpdateUI": true,
    "containerheight": "",
    "containerheightmode": 1,
    "containerweight": 100,
    "contentalignment": 4,
    "desktopweb": {},
    "id": "tbxAccountNumberAgain",
    "info": null,
    "isvisible": true,
    "keyboardstyle": "A",
    "keyboardtype": "A",
    "kiosk": {
        "psp": {
            "toolTip": ""
        }
    },
    "kuid": "j7938e361e9c49db994925775d524e2f",
    "mode": "A",
    "name": "kony.ui.TextBox2",
    "parent": "flxAccountNumberAgain",
    "pf": "frmFastAddInternationalAccount",
    "responsiveData": {
        "b3": {
            "width": {
                "type": "string",
                "value": "99%"
            }
        }
    },
    "accessibilityconfig": {
        "a11yARIA": {
            "tabindex": -1
        },
        "a11yHidden": true,
        "a11yLabel": ""
    },
    "securetextentry": false,
    "textinputmode": "A",
    "viewtype": "default",
    "wType": "TextField",
    "zindex": 1,
    "focusskin": "s2faf9c2766d4142ab33d0bf97445ae0"
}