{
    "DNDConfig": null,
    "__parentReadjusting__": false,
    "_bottom_": {
        "type": "string",
        "value": "30px"
    },
    "_height_": {
        "type": "ref",
        "value": "preferred"
    },
    "_left_": {
        "type": "string",
        "value": "30dp"
    },
    "_margin_": [
        0,
        0,
        0,
        0
    ],
    "_orientation_": 6,
    "_padding_": [
        0,
        0,
        0,
        0
    ],
    "_percent_": true,
    "_skin_": "s24c92fc23b14f5484b693ee9b8a9b35",
    "_top_": {
        "type": "string",
        "value": "26dp"
    },
    "_width_": {
        "type": "string",
        "value": "50.25%"
    },
    "allboxes": [],
    "autogrowmode": 1,
    "canUpdateUI": true,
    "children": [
        "lblCorporateOffice",
        "rtxCorporateOfficeAddress",
        "flxSeperatorAddress",
        "lblCustomerSupport",
        "lblTollFree",
        "rtxCustomerSupportNumbers",
        "lblEmail",
        "rtxEmailId"
    ],
    "clipbounds": true,
    "containerweight": 100,
    "enablescrolling": true,
    "id": "flxContactDetails",
    "info": null,
    "isvisible": true,
    "kuid": "j33bf45ec91b457daa9b3fec3e454efc",
    "layouttype": 4,
    "name": "kony.ui.FlexContainer",
    "parent": "flxDetailsAndImage",
    "pf": "userwidgetmodel",
    "snapgridsize": 10,
    "snaptogrid": true,
    "wType": "FlexContainer",
    "widgetalignment": 1,
    "zindex": 1
}