{
	 "@class": "com.kony.gen.viz.model.component.KVizLabel",
	 "DNDConfig": null,
	 "__parentReadjusting__": false,
	 "_height_": {
		 "type": "ref",
		 "value": "preferred"
	},
	 "_left_": {
		 "type": "number",
		 "value": "50"
	},
	 "_margin_": [
		 1,
		 1,
		 1,
		 1
	],
	 "_padding_": [
		 0,
		 0,
		 0,
		 0
	],
	 "_skin_": "sbaa434a53c643c4a3fc0f563dbd2403",
	 "_text_": "Label",
	 "_top_": {
		 "type": "string",
		 "value": "0dp"
	},
	 "_width_": {
		 "type": "string",
		 "value": "85%"
	},
	 "_wrapping_": 2,
	 "accessibilityconfig": {
		 "a11yLabel": "Didnt get the code? Please click Resend."
	},
	 "android": {
		 "textStyle": {
			 "letterSpacing": 0,
			 "strikeThrough": false
		}
	},
	 "canUpdateUI": true,
	 "containerweight": 100,
	 "contentalignment": 4,
	 "id": "lblResendOTPMsg",
	 "info": null,
	 "ipad": {
		 "psp": {
			 "wrapping": 2
		}
	},
	 "iphone": {
		 "psp": {
			 "wrapping": 2
		}
	},
	 "isvisible": true,
	 "kuid": "ade221ad287e43ab98830f8c77bea54c",
	 "name": "kony.ui.Label",
	 "parent": "resetusingOTP",
	 "pf": "userwidgetmodel",
	 "texti18n": "i18n.login.AskToResendOTPMsg",
	 "tooltip": "",
	 "wType": "Label",
	 "zindex": 1
}