{
    "@class": "com.kony.gen.viz.model.component.KVizButton",
    "DNDConfig": null,
    "__parentReadjusting__": false,
    "_height_": {
        "type": "ref",
        "value": "preferred"
    },
    "_margin_": [
        6,
        6,
        6,
        6
    ],
    "_padding_": [
        0,
        0,
        0,
        0
    ],
    "_right_": {
        "type": "string",
        "value": "0dp"
    },
    "_skin_": "s8eca6cddf6c4fa281520d36e5159c72",
    "_text_": "Close Account",
    "_top_": {
        "type": "string",
        "value": "15dp"
    },
    "_width_": {
        "type": "ref",
        "value": "preferred"
    },
    "canUpdateUI": true,
    "containerweight": 100,
    "contentalignment": 5,
    "disabledSkins": {
        "focusSkin": "s5495bd040c94991a043932d65a33261"
    },
    "displaytext": true,
    "focusskin": null,
    "id": "btnAction4Mobile",
    "info": null,
    "iscustomlayout": false,
    "isvisible": true,
    "kuid": "i2f0cbc5f6784b72be85ba92b1804ccc",
    "name": "kony.ui.Button",
    "parent": "flxActionsMobile",
    "pf": "userwidgetmodel",
    "retaincontentalignment": false,
    "retainflexpositionproperties": false,
    "wType": "Button",
    "zindex": 1
}