{
    "DNDConfig": null,
    "_bottom_": {
        "type": "string",
        "value": "10dp"
    },
    "_height_": {
        "type": "string",
        "value": "355dp"
    },
    "_left_": {
        "type": "string",
        "value": "0dp"
    },
    "_margin_": [
        0,
        0,
        0,
        0
    ],
    "_orientation_": 6,
    "_padding_": [
        0,
        0,
        0,
        0
    ],
    "_percent_": true,
    "_skin_": "s5e23a1ca8c8452f9cd6d3a55218a227",
    "_top_": {
        "type": "string",
        "value": "280dp"
    },
    "_width_": {
        "type": "string",
        "value": "98%"
    },
    "allboxes": [],
    "autogrowmode": 0,
    "canUpdateUI": true,
    "centerx": {
        "type": "string",
        "value": "49.97%"
    },
    "children": [
        "flxDropDownMobile",
        "lblTitleMobile",
        "flxChartMobile",
        "flxStatusMobile",
        "flxDetailsMobile",
        "flxSeparatorMobile",
        "flxActionsMobile"
    ],
    "clipbounds": false,
    "containerweight": 100,
    "enablescrolling": true,
    "id": "flxRowMobile",
    "info": null,
    "iscustomlayout": false,
    "isvisible": false,
    "kuid": "g052ce51a94c446f88a6debf48b063bb",
    "layouttype": 2,
    "name": "kony.ui.FlexContainer",
    "parent": "savingspot",
    "pf": "userwidgetmodel",
    "retaincontentalignment": false,
    "retainflexpositionproperties": false,
    "retainflowhorizontalalignment": false,
    "snapgridsize": 10,
    "snaptogrid": true,
    "wType": "FlexContainer",
    "widgetalignment": 1,
    "zindex": 1
}