{
	 "@class": "com.kony.gen.viz.model.component.KVizImage2",
	 "DNDConfig": null,
	 "__parentReadjusting__": false,
	 "_base64_": null,
	 "_height_": {
		 "type": "string",
		 "value": "30dp"
	},
	 "_left_": {
		 "type": "string",
		 "value": "10dp"
	},
	 "_margin_": [
		 0,
		 0,
		 0,
		 0
	],
	 "_padding_": [
		 0,
		 0,
		 0,
		 0
	],
	 "_skin_": "s78a5f26c9f14cec9ebed1bb46098f80",
	 "_src_": "bbdownloadicon_1.png",
	 "_width_": {
		 "type": "string",
		 "value": "30dp"
	},
	 "canUpdateUI": true,
	 "centerx": {
		 "type": "string",
		 "value": "50%"
	},
	 "centery": {
		 "type": "string",
		 "value": "50%"
	},
	 "containerId": true,
	 "containerweight": 100,
	 "context": {
		 "channel": "desktop",
		 "platform": "desktopweb",
		 "templateType": "segments",
		 "topLevelBox": null
	},
	 "id": "imgDownloadAttachment1",
	 "imagescalemode": 1,
	 "imagewhiledownloading": "img_transparent.png",
	 "info": null,
	 "invokedProperty": "src",
	 "isvisible": true,
	 "kuid": "a76161f0c53b4cd9ad5a3ce94c43b6e2",
	 "name": "kony.ui.Image2",
	 "parent": "flxDownloadAttachment1",
	 "pf": "segMessagesRight",
	 "srcType": 1,
	 "wType": "Image",
	 "widgetalignment": 5,
	 "zindex": 1,
	 "accessibilityconfig": {
		 "a11yLabel": "Download",
		 "a11yValue": ""
	}
}