{
    "@class": "com.kony.gen.viz.model.component.KVizSwitch",
    "DNDConfig": null,
    "_height_": {
        "type": "string",
        "value": "32dp"
    },
    "_margin_": [
        0,
        0,
        0,
        0
    ],
    "_padding_": [
        0,
        0,
        0,
        0
    ],
    "_right_": {
        "type": "string",
        "value": "100dp"
    },
    "_skin_": "s119b60d99694da3acfdd8c127c2e180",
    "_top_": {
        "type": "string",
        "value": "0"
    },
    "_width_": {
        "type": "string",
        "value": "50dp"
    },
    "canUpdateUI": true,
    "centery": {
        "type": "string",
        "value": "50%"
    },
    "containerweight": 100,
    "id": "switchApprovals",
    "info": null,
    "iscustomlayout": false,
    "isvisible": true,
    "kiosk": {
        "render": false
    },
    "kuid": "ec922ed80198474b8ba6c2f7d434243a",
    "leftsidetext": "",
    "name": "kony.ui.Switch",
    "onslide": null,
    "osPlatform": "desktopweb",
    "osVersion": "iOS7",
    "parent": "flxSwitchContainer",
    "pf": "frmViewApprovalMatrix",
    "retaincontentalignment": false,
    "retainflexpositionproperties": false,
    "rightsidetext": "",
    "selectedindex": 1,
    "wType": "Switch",
    "widgetalignment": 5
}