{
    "@class": "com.kony.gen.viz.model.component.KVizUserWidget",
    "DNDConfig": null,
    "_children_": [],
    "_height_": {
        "type": "string",
        "value": "259dp"
    },
    "_margin_": [
        0,
        0,
        0,
        0
    ],
    "_orientation_": 1,
    "_padding_": [
        0,
        0,
        0,
        0
    ],
    "_percent_": true,
    "_skin_": "s701065f11074080832b59947e731160",
    "_width_": {
        "type": "string",
        "value": "351dp"
    },
    "areflexpropsreferenced": false,
    "autogrowmode": 0,
    "canUpdateUI": true,
    "centerx": {
        "type": "string",
        "value": "50%"
    },
    "centery": {
        "type": "string",
        "value": "50%"
    },
    "clipbounds": true,
    "containerweight": 0,
    "dataDiffs": {
        "AttachmentsPopup": {
            "__events__": {},
            "__info__": {
                "isRoot": true,
                "kuid": "c4a5cd760864410e996974d2666f6793",
                "srcKUID": "bce9c1d3745c4554b19db1b9d275f7d1",
                "wType": "FlexContainer"
            },
            "centerX": {
                "Default": {
                    "type": "string",
                    "value": "50%"
                }
            },
            "centerY": {
                "Default": {
                    "type": "string",
                    "value": "50%"
                }
            },
            "left": {
                "Default": {
                    "type": "string",
                    "value": ""
                }
            },
            "responsiveData": {},
            "top": {
                "Default": {
                    "type": "string",
                    "value": ""
                }
            },
            "width": {
                "Default": {
                    "type": "string",
                    "value": "351dp"
                }
            }
        },
        "btnNo": {
            "__events__": {},
            "__info__": {
                "kuid": "a4c77791d5c94787b9b41844c297a464",
                "srcKUID": "ibb4166a9f7a4b0dac19a2b8b7071df3",
                "wType": "Button"
            }
        },
        "btnYes": {
            "__events__": {},
            "__info__": {
                "kuid": "fa08b14936f041eeb6c682ea24eccc9d",
                "srcKUID": "f6778c763c0e483289d98d60641fbbdf",
                "wType": "Button"
            }
        },
        "flxHeader": {
            "__events__": {},
            "__info__": {
                "kuid": "e0508bc94955480cafef6841cb644e42",
                "srcKUID": "ed89df24828041f3962830096f71af4f",
                "wType": "FlexContainer"
            }
        },
        "flxSeperator": {
            "__events__": {},
            "__info__": {
                "kuid": "f587d5636cf24a2d8d0158cc6e8778f6",
                "srcKUID": "de6b76198174437b90dc6faef33684bd",
                "wType": "FlexContainer"
            }
        },
        "flxSeperator2": {
            "__events__": {},
            "__info__": {
                "kuid": "b0e7210222a146c08eaafc7b2db0669d",
                "srcKUID": "eb7d1fc28e364f8c81ab24efe690cb5a",
                "wType": "FlexContainer"
            }
        },
        "lblHeading": {
            "__events__": {},
            "__info__": {
                "kuid": "d83ad8d6fd264360b624d7d462bbbdf5",
                "srcKUID": "e3c460be41cb4f4cbd5771113fafece7",
                "wType": "Label"
            },
            "i18n_text": "i18n.TransfersEur.RemoveAttachmentPopupHeading",
            "responsiveData": {}
        },
        "lblPopupMessage": {
            "__events__": {},
            "__info__": {
                "kuid": "d1245a6a9bac4cd0bf131172976db7a6",
                "srcKUID": "dd317dff57a440d080640eaa9435e2b0",
                "wType": "Label"
            },
            "i18n_text": "i18n.TransfersEur.RemoveAttachmentPopupMsg",
            "responsiveData": {},
            "top": {
                "Default": {
                    "type": "string",
                    "value": "104dp"
                }
            }
        }
    },
    "enablescrolling": true,
    "id": "AttachmentsPopup",
    "info": null,
    "iscustomlayout": false,
    "isdatareferenced": false,
    "issegmentchild": false,
    "isvisible": true,
    "kuid": "c4a5cd760864410e996974d2666f6793",
    "layouttype": 2,
    "masterType": 0,
    "name": "kony.ui.UserWidgetInstance",
    "parent": "flxAttachmentsPopup",
    "pf": "frmMakePayment",
    "retaincontentalignment": false,
    "retainflexpositionproperties": false,
    "retainflowhorizontalalignment": false,
    "snapgridsize": 10,
    "snaptogrid": true,
    "sourceUserWidget": "bce9c1d3745c4554b19db1b9d275f7d1",
    "wType": "UserWidgetInstance"
}