{
    "@class": "com.kony.gen.viz.model.component.KVizButton",
    "DNDConfig": null,
    "Default": {
        "contentAlignment": 6
    },
    "_height_": {
        "type": "ref",
        "value": "preferred"
    },
    "_left_": {
        "type": "string",
        "value": "87%"
    },
    "_margin_": [
        6,
        6,
        6,
        6
    ],
    "_padding_": [
        0,
        0,
        0,
        0
    ],
    "_right_": {
        "type": "string",
        "value": ""
    },
    "_skin_": "s510cce5347c422abf42f58a54f26d0a",
    "_text_": "Select SWIFT",
    "_top_": {
        "type": "string",
        "value": "0dp"
    },
    "_width_": {
        "type": "string",
        "value": "10%"
    },
    "accessibilityconfig": {
        "a11yLabel": "Continue"
    },
    "canUpdateUI": true,
    "centery": {
        "type": "string",
        "value": ""
    },
    "containerweight": 100,
    "contentalignment": 6,
    "desktopweb": {
        "contentAlignment": 6,
        "psp": {
            "hoverSkin": "s510cce5347c422abf42f58a54f26d0a"
        }
    },
    "displaytext": true,
    "focusskin": "s510cce5347c422abf42f58a54f26d0a",
    "id": "BtnLookup",
    "info": null,
    "isvisible": true,
    "kuid": "d046a60678d04c67854abbd826ed003d",
    "name": "kony.ui.Button",
    "parent": "flxContainer3",
    "pf": "frmMakePayment",
    "responsiveData": {
        "b1": {
            "isVisible": false,
            "right": {
                "type": "string",
                "value": "3%"
            }
        },
        "b3": {
            "isVisible": false,
            "left": {
                "type": "string",
                "value": ""
            },
            "right": {
                "type": "string",
                "value": "3%"
            },
            "width": {
                "type": "string",
                "value": "30%"
            }
        },
        "b4": {
            "isVisible": false,
            "right": {
                "type": "string",
                "value": "3%"
            }
        },
        "b5": {
            "isVisible": false,
            "left": {
                "type": "string",
                "value": ""
            },
            "right": {
                "type": "string",
                "value": "3%"
            },
            "width": {
                "type": "string",
                "value": "20%"
            }
        }
    },
    "texti18n": "i18n.TransfersEur.LookUp",
    "tooltip": "Continue",
    "wType": "Button",
    "zindex": 1
}