{
    "DNDConfig": null,
    "_bottom_": {
        "type": "string",
        "value": "15dp"
    },
    "_height_": {
        "type": "ref",
        "value": "preferred"
    },
    "_left_": {
        "type": "string",
        "value": "0dp"
    },
    "_margin_": [
        0,
        0,
        0,
        0
    ],
    "_orientation_": 6,
    "_padding_": [
        0,
        0,
        0,
        0
    ],
    "_percent_": true,
    "_skin_": "s24c92fc23b14f5484b693ee9b8a9b35",
    "_top_": {
        "type": "string",
        "value": "0dp"
    },
    "_width_": {
        "type": "string",
        "value": "100%"
    },
    "allboxes": [],
    "autogrowmode": 1,
    "canUpdateUI": true,
    "children": [
        "lblAccountNumber",
        "txtAccountNumber",
        "lblSwift",
        "BtnLookup",
        "txtSwift"
    ],
    "clipbounds": true,
    "containerweight": 100,
    "enablescrolling": true,
    "id": "flxContainer3",
    "info": null,
    "iscustomlayout": false,
    "isvisible": true,
    "kuid": "b22f3f2600c343b9b7dc9608ac49dfc1",
    "layouttype": 2,
    "name": "kony.ui.FlexContainer",
    "parent": "flxTransferForm",
    "pf": "frmMakePayment",
    "responsiveData": {
        "b1": {
            "top": {
                "type": "string",
                "value": "5dp"
            }
        },
        "b2": {
            "top": {
                "type": "string",
                "value": "5dp"
            }
        },
        "b3": {
            "bottom": {
                "type": "string",
                "value": "15dp"
            },
            "isVisible": true,
            "top": {
                "type": "string",
                "value": "0dp"
            }
        },
        "b4": {
            "isVisible": true,
            "top": {
                "type": "string",
                "value": "5dp"
            }
        }
    },
    "retaincontentalignment": false,
    "retainflexpositionproperties": false,
    "snapgridsize": 10,
    "snaptogrid": true,
    "wType": "FlexContainer",
    "widgetalignment": 1,
    "zindex": 1
}