{
    "DNDConfig": null,
    "_height_": {
        "type": "string",
        "value": "114px"
    },
    "_left_": {
        "type": "string",
        "value": "0dp"
    },
    "_margin_": [
        0,
        0,
        0,
        0
    ],
    "_orientation_": 6,
    "_padding_": [
        0,
        0,
        0,
        0
    ],
    "_percent_": true,
    "_skin_": "s344174b66d24a22be7a954acfcdefc5",
    "_top_": {
        "type": "string",
        "value": "0dp"
    },
    "_width_": {
        "type": "string",
        "value": "100%"
    },
    "allboxes": [],
    "canUpdateUI": true,
    "children": [
        "btnModify",
        "btnConfirm",
        "flxHorizontalLine"
    ],
    "clipbounds": false,
    "containerweight": 100,
    "enablescrolling": true,
    "id": "flxTransferSubmit",
    "info": null,
    "isvisible": true,
    "kuid": "b04c2156afb0457696f8fb5eb9764726",
    "layouttype": 2,
    "name": "kony.ui.FlexContainer",
    "parent": "flxTransferForm",
    "pf": "frmMakePayment",
    "responsiveData": {
        "b1": {
            "height": {
                "type": "string",
                "value": "100dp"
            }
        },
        "b3": {
            "height": {
                "type": "string",
                "value": "140px"
            },
            "top": {
                "type": "string",
                "value": ""
            }
        },
        "b4": {
            "height": {
                "type": "string",
                "value": "100dp"
            }
        },
        "b5": {
            "height": {
                "type": "string",
                "value": "100dp"
            },
            "skin": "s24c92fc23b14f5484b693ee9b8a9b35"
        }
    },
    "snapgridsize": 10,
    "snaptogrid": true,
    "wType": "FlexContainer",
    "widgetalignment": 1,
    "zindex": 1
}