{
    "@class": "com.kony.gen.viz.model.component.KVizLabel",
    "DNDConfig": null,
    "_height_": {
        "type": "string",
        "value": "21dp"
    },
    "_left_": {
        "type": "string",
        "value": "1dp"
    },
    "_margin_": [
        0,
        0,
        0,
        0
    ],
    "_padding_": [
        0,
        0,
        0,
        0
    ],
    "_skin_": "s8a255c4509d40d0999597cc8cb7e103",
    "_text_": "L",
    "_top_": {
        "type": "string",
        "value": "0dp"
    },
    "_width_": {
        "type": "string",
        "value": "20dp"
    },
    "_wrapping_": 2,
    "accessibilityconfig": {
        "a11yLabel": "Radio Button"
    },
    "android": {
        "textStyle": {
            "letterSpacing": 0,
            "strikeThrough": false
        }
    },
    "canUpdateUI": true,
    "containerweight": 100,
    "contentalignment": 4,
    "id": "lblCCRadioBtn2",
    "info": null,
    "ipad": {
        "psp": {
            "wrapping": 2
        }
    },
    "iphone": {
        "psp": {
            "wrapping": 2
        }
    },
    "isvisible": true,
    "kuid": "hcf1102565a64278a9610d7c811e92b1",
    "name": "kony.ui.Label",
    "parent": "flxStatementDue",
    "pf": "frmMakePayment",
    "responsiveData": {
        "b4": {
            "contentAlignment": 2,
            "height": {
                "type": "string",
                "value": "30dp"
            },
            "left": {
                "type": "string",
                "value": "4dp"
            },
            "width": {
                "type": "string",
                "value": "25dp"
            }
        }
    },
    "tooltip": "",
    "wType": "Label",
    "zindex": 1
}