{
    "@class": "com.kony.gen.viz.model.component.KVizLabel",
    "DNDConfig": null,
    "_height_": {
        "type": "string",
        "value": "20dp"
    },
    "_left_": {
        "type": "string",
        "value": "5dp"
    },
    "_margin_": [
        1,
        1,
        1,
        1
    ],
    "_padding_": [
        0,
        0,
        0,
        0
    ],
    "_skin_": "s10e8b1e874b43f8b3545d6a1375c8b5",
    "_text_": "Minimum Due",
    "_top_": {
        "type": "string",
        "value": "1dp"
    },
    "_width_": {
        "type": "ref",
        "value": "preferred"
    },
    "_wrapping_": 2,
    "accessibilityconfig": {
        "a11yLabel": "Minimum Due"
    },
    "android": {
        "textStyle": {
            "letterSpacing": 0,
            "strikeThrough": false
        }
    },
    "canUpdateUI": true,
    "containerweight": 100,
    "contentalignment": 4,
    "id": "lblMinimumDue",
    "info": null,
    "ipad": {
        "psp": {
            "wrapping": 2
        }
    },
    "iphone": {
        "psp": {
            "wrapping": 2
        }
    },
    "isvisible": true,
    "kuid": "acfe6d10d1554e92805c53ea8a5fbe5b",
    "name": "kony.ui.Label",
    "parent": "flxMinimumDue",
    "pf": "frmMakePayment",
    "responsiveData": {
        "b1": {},
        "b3": {},
        "b4": {},
        "b5": {}
    },
    "texti18n": "i18n.TransfersEur.MinimumDue",
    "tooltip": "",
    "wType": "Label",
    "zindex": 1
}