{
    "@class": "com.kony.gen.viz.model.component.KVizUserWidget",
    "DNDConfig": null,
    "_children_": [],
    "_height_": {
        "type": "ref",
        "value": "preferred"
    },
    "_left_": {
        "type": "string",
        "value": "0dp"
    },
    "_margin_": [
        0,
        0,
        0,
        0
    ],
    "_orientation_": 1,
    "_padding_": [
        0,
        0,
        0,
        0
    ],
    "_percent_": true,
    "_render_": true,
    "_skin_": "s9a1dc0ac9264301bf992c3c356d2f12",
    "_top_": {
        "type": "string",
        "value": "0dp"
    },
    "_width_": {
        "type": "string",
        "value": "100%"
    },
    "android": {},
    "androidwearos": {},
    "areflexpropsreferenced": false,
    "autogrowmode": 1,
    "canUpdateUI": true,
    "clipbounds": true,
    "containerweight": 0,
    "dataDiffs": {
        "NoAccounts": {
            "__events__": {},
            "__info__": {
                "isRoot": true,
                "kuid": "f4d40b50313c475aa57535724b7f9199",
                "srcKUID": "8a7a8233378947c5a9026f74323684ce",
                "wType": "FlexContainer"
            },
            "autogrowMode": 1,
            "height": {
                "Default": {
                    "type": "ref",
                    "value": "preferred"
                }
            }
        },
        "btnAddAccount": {
            "__events__": {},
            "__info__": {
                "kuid": "b005f81f8c3e4073863b78d468d58c2f",
                "srcKUID": "834c4e884eb1414ea9b0232b77919cd1",
                "wType": "Button"
            },
            "height": {},
            "i18n_text": "i18n.Transfers.ADDINTERNALACCOUNT",
            "left": {},
            "responsiveData": {
                "b3": {
                    "height": {
                        "type": "string",
                        "value": "40dp"
                    },
                    "left": {
                        "type": "string",
                        "value": "10dp"
                    },
                    "right": {
                        "type": "string",
                        "value": "10dp"
                    },
                    "top": {
                        "type": "string",
                        "value": "20px"
                    },
                    "width": {
                        "type": "string",
                        "value": ""
                    }
                },
                "b5": {
                    "height": {
                        "type": "string",
                        "value": "40dp"
                    }
                }
            },
            "right": {},
            "top": {},
            "width": {}
        },
        "btnBack": {
            "__events__": {},
            "__info__": {
                "kuid": "d2f5e4226e3243f99a5225907573e09d",
                "srcKUID": "814615fefbf6400799c7ce03cea6d7a9",
                "wType": "Button"
            },
            "bottom": {},
            "height": {},
            "i18n_text": "i18n.ProfileManagement.BACK",
            "left": {},
            "responsiveData": {
                "b3": {
                    "bottom": {
                        "type": "string",
                        "value": ""
                    },
                    "height": {
                        "type": "string",
                        "value": "40dp"
                    },
                    "left": {
                        "type": "string",
                        "value": "10dp"
                    },
                    "right": {
                        "type": "string",
                        "value": "10dp"
                    },
                    "top": {
                        "type": "string",
                        "value": "80px"
                    },
                    "width": {
                        "type": "string",
                        "value": ""
                    }
                },
                "b5": {
                    "height": {
                        "type": "string",
                        "value": "40dp"
                    }
                }
            },
            "right": {},
            "top": {},
            "width": {}
        },
        "flxButtons": {
            "__events__": {},
            "__info__": {
                "kuid": "ba0468fea18e47209ae9d319ce6bd354",
                "srcKUID": "f26b163987544e2eabeb7a67770bf7e5",
                "wType": "FlexContainer"
            },
            "autogrowMode": {
                "Default": 0
            },
            "height": {},
            "responsiveData": {
                "b3": {
                    "height": {
                        "type": "string",
                        "value": "140px"
                    }
                }
            }
        },
        "flxDetails": {
            "__events__": {},
            "__info__": {
                "kuid": "a0120300525840fda686405f3c7ace95",
                "srcKUID": "6d0ba13fd0d147c1ae01d80818a8aea0",
                "wType": "FlexContainer"
            }
        },
        "flxHeader": {
            "__events__": {},
            "__info__": {
                "kuid": "f6c54c6ea90745fe9131036ef09f6bd3",
                "srcKUID": "4fee7492c12b4c1eae1ba879235f57bf",
                "wType": "FlexContainer"
            }
        },
        "flxMain": {
            "__events__": {},
            "__info__": {
                "kuid": "ad5b7ad3dca4447986d72c6894f71d33",
                "srcKUID": "f2ca9a299804488cb1c22d150e101c47",
                "wType": "FlexContainer"
            },
            "autogrowMode": {
                "Default": 0
            },
            "height": {},
            "responsiveData": {
                "b3": {
                    "height": {
                        "type": "string",
                        "value": "550dp"
                    }
                }
            }
        },
        "flxMessage": {
            "__events__": {},
            "__info__": {
                "kuid": "j650f4434d074bcd8b84b2d097d91290",
                "srcKUID": "9019fec8571547f4905e9182e7410f7b",
                "wType": "FlexContainer"
            },
            "left": {},
            "responsiveData": {
                "b3": {
                    "left": {
                        "type": "string",
                        "value": "10dp"
                    },
                    "right": {
                        "type": "string",
                        "value": "10dp"
                    },
                    "width": {
                        "type": "string",
                        "value": ""
                    }
                }
            },
            "right": {},
            "width": {}
        },
        "flxSeperator": {
            "__events__": {},
            "__info__": {
                "kuid": "cc7adfdfab4d463b9f22c9dad7577744",
                "srcKUID": "59da3a4c23c44db0bff4aad10f3864a2",
                "wType": "FlexContainer"
            }
        },
        "flxSeperator2": {
            "__events__": {},
            "__info__": {
                "kuid": "d6a8cf06838f46f481482d700bb7b06d",
                "srcKUID": "3ec2453f98d6468f8ab8279e6b21b833",
                "wType": "FlexContainer"
            }
        },
        "imgError": {
            "__events__": {},
            "__info__": {
                "kuid": "af65f68ac7174158a75b51ad3951a04b",
                "srcKUID": "fce995ba185e4da382f3617005e04a81",
                "wType": "Image"
            },
            "src": "error_yellow.png"
        },
        "lblHeader": {
            "__events__": {},
            "__info__": {
                "kuid": "f38a9db4e43a4edbaa3b46b3949a2e57",
                "srcKUID": "887fb627204445f4a4270e9154a01c60",
                "wType": "Label"
            }
        },
        "txtMessage": {
            "__events__": {},
            "__info__": {
                "kuid": "ce22f349891141e5878baaddb155f139",
                "srcKUID": "e591f0c1b5d04d9797e88683d39898b0",
                "wType": "Label"
            }
        }
    },
    "desktopweb": {},
    "id": "NoAccounts",
    "info": null,
    "ipad": {},
    "iphone": {},
    "isdatareferenced": false,
    "isvisible": true,
    "kiosk": {},
    "kuid": "f4d40b50313c475aa57535724b7f9199",
    "layouttype": 2,
    "masterType": 0,
    "name": "kony.ui.UserWidgetInstance",
    "parent": "flxNoAccounts",
    "pf": "frmMakePayment",
    "responsiveData": {},
    "snaptogrid": true,
    "sourceUserWidget": "8a7a8233378947c5a9026f74323684ce",
    "spa": {},
    "spaan": {},
    "spaandroidtablet": {},
    "spabb": {},
    "spaip": {},
    "spaipad": {},
    "spamobile": {},
    "spatablet": {},
    "spawindowstablet": {},
    "spawinphone8": {},
    "tabrcandroid": {},
    "vizProps": {
        "hidewidgethierarchy": false
    },
    "vizprops": {
        "hidewidgethierarchy": false
    },
    "wType": "UserWidgetInstance",
    "windows10": {},
    "windows8": {},
    "winphone10": {},
    "winphone8": {}
}