{
    "@class": "com.kony.gen.viz.model.container.KVizSegment2",
    "DNDConfig": null,
    "_data_": [
        {
            "lblBankValue": {
                "@class": "com.viz.ide.model.segment.SimpleTextSegmentData",
                "text": "Bank Name"
            },
            "lblCityNameValue": {
                "@class": "com.viz.ide.model.segment.SimpleTextSegmentData",
                "text": "City Name"
            },
            "lblCountryNameValue": {
                "@class": "com.viz.ide.model.segment.SimpleTextSegmentData",
                "text": "Country Name"
            },
            "lblSelectSwift": {
                "@class": "com.viz.ide.model.segment.SimpleTextSegmentData",
                "i18nkey": "i18n.TransfersEur.selectSwift",
                "text": "Select Swift"
            },
            "lblSwiftCodeValue": {
                "@class": "com.viz.ide.model.segment.SimpleTextSegmentData",
                "text": "Swift Code"
            }
        }
    ],
    "_height_": {
        "type": "string",
        "value": "240dp"
    },
    "_indicator_": "none",
    "_left_": {
        "type": "string",
        "value": "0"
    },
    "_margin_": [
        0,
        0,
        0,
        0
    ],
    "_orientation_": 2,
    "_padding_": [
        0,
        0,
        0,
        0
    ],
    "_top_": {
        "type": "string",
        "value": "0"
    },
    "_width_": {
        "type": "string",
        "value": "100%"
    },
    "canUpdateUI": true,
    "centerx": {
        "type": "number",
        "value": ""
    },
    "containerweight": 100,
    "counter": "00",
    "focusedindex": null,
    "focuseditem": null,
    "groupcells": false,
    "hasSections": false,
    "id": "segResults",
    "info": null,
    "ipad": {
        "psp": {
            "indicator": "rowselect"
        }
    },
    "iphone": {
        "psp": {
            "indicator": "rowselect"
        }
    },
    "iscustomlayout": false,
    "isvisible": true,
    "kuid": "aa9391496b514d049bac2a02f8eea132",
    "masterdata": {},
    "name": "kony.ui.SegmentedUI2",
    "needpageindicator": true,
    "pageoffdotimage": "pageoffdot.png",
    "pageondotimage": "pageondot.png",
    "paginationconfig": {
        "position": "bottom"
    },
    "parent": "flxtwo",
    "pf": "frmMakePayment",
    "responsiveData": {
        "b1": {
            "height": {
                "type": "string",
                "value": "240dp"
            }
        },
        "b3": {
            "data": [
                {
                    "lblBankValue": {
                        "@class": "com.viz.ide.model.segment.SimpleTextSegmentData",
                        "text": "Bank Name"
                    },
                    "lblCityNameValue": {
                        "@class": "com.viz.ide.model.segment.SimpleTextSegmentData",
                        "text": "City Name"
                    },
                    "lblCountryNameValue": {
                        "@class": "com.viz.ide.model.segment.SimpleTextSegmentData",
                        "text": "Country Name"
                    },
                    "lblSelectSwift": {
                        "@class": "com.viz.ide.model.segment.SimpleTextSegmentData",
                        "i18nkey": "i18n.TransfersEur.selectSwift",
                        "text": "Select Swift"
                    },
                    "lblSwiftCodeValue": {
                        "@class": "com.viz.ide.model.segment.SimpleTextSegmentData",
                        "text": "Swift Code"
                    }
                }
            ],
            "rowTemplate": "bea7d3bc1205493590f68e20b6ba64e8",
            "sectionHeaderTemplate": null,
            "widgetDataMap": {
                "flxCity": "flxCity",
                "flxResultsMobile": "flxResultsMobile",
                "lblBankValue": "lblBankValue",
                "lblCityNameValue": "lblCityNameValue",
                "lblCountryNameValue": "lblCountryNameValue",
                "lblSelectSwift": "lblSelectSwift",
                "lblSwiftCodeValue": "lblSwiftCodeValue"
            }
        },
        "b4": {
            "centerX": {
                "type": "string",
                "value": "50%"
            },
            "height": {
                "type": "string",
                "value": "70%"
            },
            "isVisible": true,
            "left": {
                "type": "number",
                "value": "0"
            },
            "top": {
                "type": "number",
                "value": "0"
            },
            "width": {
                "type": "string",
                "value": "100%"
            }
        },
        "b5": {}
    },
    "retaincontentalignment": false,
    "retainflexpositionproperties": false,
    "retainselection": false,
    "rowTemplateId": "e48368cea4ca4e5c980ce3cfac6484fd",
    "rowcounter": 0,
    "rowfocusskin": "s0f9bf3c1b3e4a7bb6bf9fd18b0211f2",
    "rowskin": "scf5f90f6ac04976ab88b2a4f7153285",
    "rowtemplate": "flxResults",
    "screenlevelwidget": false,
    "seccounter": 0,
    "sectionHeaderTemplateId": null,
    "sectionheaderskin": "sdc4ff4ed1584272be2ae69045dfb29d",
    "sectionheadertemplate": null,
    "selectedRows": null,
    "selectedState": false,
    "selectedindex": null,
    "selectedindices": null,
    "selecteditems": null,
    "selectedsectionindex": null,
    "selectionbehavior": "default",
    "separatorcolor": "aaaaaa00",
    "separatorrequired": true,
    "separatorthickness": 1,
    "showscrollbars": true,
    "viewtype": "tableview",
    "vizProps": {},
    "wType": "Segment",
    "widgetalignment": 5,
    "widgetdatamap": {
        "flxResults": "flxResults",
        "lblBankValue": "lblBankValue",
        "lblCityNameValue": "lblCityNameValue",
        "lblCountryNameValue": "lblCountryNameValue",
        "lblSelectSwift": "lblSelectSwift",
        "lblSwiftCodeValue": "lblSwiftCodeValue"
    }
}