{
    "DNDConfig": null,
    "__parentReadjusting__": false,
    "_height_": {
        "type": "string",
        "value": "1dp"
    },
    "_left_": {
        "type": "string",
        "value": "20dp"
    },
    "_margin_": [
        0,
        0,
        0,
        0
    ],
    "_orientation_": 6,
    "_padding_": [
        0,
        0,
        0,
        0
    ],
    "_percent_": true,
    "_right_": {
        "type": "string",
        "value": "20dp"
    },
    "_skin_": "s8823f92dd17459d8dbd603fe9224e85",
    "_top_": {
        "type": "string",
        "value": "49dp"
    },
    "allboxes": [],
    "autogrowmode": 0,
    "canUpdateUI": true,
    "children": [],
    "clipbounds": true,
    "containerId": true,
    "containerweight": 100,
    "enablescrolling": true,
    "id": "flxSeparator",
    "ide_onClick": "AS_FlexContainer_g48ecaca2eb14c0a95ffaf490a1306ef",
    "info": null,
    "isvisible": true,
    "kuid": "i62e8d8cab8241e8adc6af51fe9526a4",
    "layouttype": 2,
    "name": "kony.ui.FlexContainer",
    "parent": "flxTransfersTo",
    "pf": "segTransfersTo",
    "snapgridsize": 10,
    "snaptogrid": true,
    "wType": "FlexContainer",
    "widgetalignment": 1,
    "zindex": 5
}