{
    "@class": "com.kony.gen.viz.model.component.KVizLabel",
    "DNDConfig": null,
    "__parentReadjusting__": false,
    "_height_": {
        "type": "ref",
        "value": "preferred"
    },
    "_left_": {
        "type": "string",
        "value": "60dp"
    },
    "_margin_": [
        1,
        1,
        1,
        1
    ],
    "_padding_": [
        0,
        0,
        0,
        0
    ],
    "_skin_": "sb8893d61f294db38ca0567cbecfbaa9",
    "_text_": "FileName.XLS",
    "_width_": {
        "type": "ref",
        "value": "preferred"
    },
    "_wrapping_": 2,
    "android": {
        "textStyle": {
            "letterSpacing": 0,
            "strikeThrough": false
        }
    },
    "canUpdateUI": true,
    "centery": {
        "type": "string",
        "value": "50%"
    },
    "containerweight": 100,
    "contentalignment": 4,
    "id": "lblFIleName",
    "info": null,
    "ipad": {
        "psp": {
            "wrapping": 2
        }
    },
    "iphone": {
        "psp": {
            "wrapping": 2
        }
    },
    "iscustomlayout": false,
    "isvisible": true,
    "kuid": "b1212f2e04ff41ba86f32024f22f4f47",
    "name": "kony.ui.Label",
    "parent": "flxUploadedFile",
    "pf": "frmAddBulkTransferFile",
    "responsiveData": {
        "b1": {
            "left": {
                "type": "string",
                "value": "10dp"
            },
            "skin": "sb8893d61f294db38ca0567cbecfbaa9",
            "width": {
                "type": "string",
                "value": "186dp"
            }
        },
        "b2": {
            "left": {
                "type": "string",
                "value": "10dp"
            },
            "skin": "sb8893d61f294db38ca0567cbecfbaa9",
            "width": {
                "type": "string",
                "value": "186dp"
            }
        },
        "b3": {
            "centerY": {
                "type": "string",
                "value": "50%"
            },
            "desktopweb": {
                "centerY": {
                    "type": "string",
                    "value": "50.00%"
                }
            },
            "left": {
                "type": "string",
                "value": "10dp"
            },
            "skin": "sb8893d61f294db38ca0567cbecfbaa9",
            "width": {
                "type": "string",
                "value": "186dp"
            }
        },
        "b4": {
            "skin": "sb8893d61f294db38ca0567cbecfbaa9"
        }
    },
    "retaincontentalignment": false,
    "retainflexpositionproperties": false,
    "tooltip": "",
    "wType": "Label",
    "zindex": 1
}