{
    "@class": "com.kony.gen.viz.model.container.KVizSegment2",
    "DNDConfig": null,
    "_bottom_": {
        "type": "string",
        "value": "2dp"
    },
    "_data_": [
        [{
                "lblBank": {
                    "@class": "com.viz.ide.model.segment.SimpleTextSegmentData",
                    "text": "ABC Bank"
                },
                "lblDropdown": {
                    "@class": "com.viz.ide.model.segment.SimpleTextSegmentData",
                    "text": "O"
                },
                "lblIcon": {
                    "@class": "com.viz.ide.model.segment.SimpleTextSegmentData",
                    "text": "s"
                },
                "lblRecipient": {
                    "@class": "com.viz.ide.model.segment.SimpleTextSegmentData",
                    "text": "Astris Energi Inc."
                },
                "lblReferenceID": {
                    "@class": "com.viz.ide.model.segment.SimpleTextSegmentData",
                    "text": "3456782414"
                },
                "lblSeparator": {
                    "@class": "com.viz.ide.model.segment.SimpleTextSegmentData",
                    "text": ""
                }
            },
            [{
                "CopylblSeparator0c9708b6517574b": {
                    "@class": "com.viz.ide.model.segment.SimpleTextSegmentData",
                    "text": ""
                },
                "imgInfo": {
                    "@class": "com.viz.ide.model.segment.ImageSegmentData",
                    "src": "info.png"
                },
                "lblBank": {
                    "@class": "com.viz.ide.model.segment.SimpleTextSegmentData",
                    "text": "ABC Bank"
                },
                "lblCustomLimits": {
                    "@class": "com.viz.ide.model.segment.SimpleTextSegmentData",
                    "text": "Custom Limits:"
                },
                "lblCustomLimitsValue": {
                    "@class": "com.viz.ide.model.segment.SimpleTextSegmentData",
                    "text": "125 of 230 Accounts"
                },
                "lblDailyTransactionLimit": {
                    "@class": "com.viz.ide.model.segment.SimpleTextSegmentData",
                    "text": " Daily Transaction Limit:"
                },
                "lblDailyTransactionLimitValue": {
                    "@class": "com.viz.ide.model.segment.SimpleTextSegmentData",
                    "text": "$2,000.00"
                },
                "lblDailyTransactionLimits": {
                    "@class": "com.viz.ide.model.segment.SimpleTextSegmentData",
                    "text": "Daily Transaction Limit:"
                },
                "lblDetailLimits": {
                    "@class": "com.viz.ide.model.segment.SimpleTextSegmentData",
                    "text": "Detail Limits:"
                },
                "lblDetailLimitsValue": {
                    "@class": "com.viz.ide.model.segment.SimpleTextSegmentData",
                    "text": "105 of 230 Accounts"
                },
                "lblDropdown": {
                    "@class": "com.viz.ide.model.segment.SimpleTextSegmentData",
                    "text": "O"
                },
                "lblHeader": {
                    "@class": "com.viz.ide.model.segment.SimpleTextSegmentData",
                    "text": "Global Transaction Limits"
                },
                "lblHeader1": {
                    "@class": "com.viz.ide.model.segment.SimpleTextSegmentData",
                    "text": "Bulk Transaction Limit"
                },
                "lblHeader2": {
                    "@class": "com.viz.ide.model.segment.SimpleTextSegmentData",
                    "text": "Advanced Transaction Limits Summary"
                },
                "lblIcon": {
                    "@class": "com.viz.ide.model.segment.SimpleTextSegmentData",
                    "text": "s"
                },
                "lblPerTransactionLimit": {
                    "@class": "com.viz.ide.model.segment.SimpleTextSegmentData",
                    "text": "Transaction Limit:"
                },
                "lblPerTransactionLimitValue": {
                    "@class": "com.viz.ide.model.segment.SimpleTextSegmentData",
                    "text": "$200.00"
                },
                "lblPerTransactionLimits": {
                    "@class": "com.viz.ide.model.segment.SimpleTextSegmentData",
                    "text": "Per Transaction Limit:"
                },
                "lblRecipient": {
                    "@class": "com.viz.ide.model.segment.SimpleTextSegmentData",
                    "text": "Eliza Walsh"
                },
                "lblReferenceID": {
                    "@class": "com.viz.ide.model.segment.SimpleTextSegmentData",
                    "text": "3456782414"
                },
                "lblSeparator": {
                    "@class": "com.viz.ide.model.segment.SimpleTextSegmentData",
                    "text": ""
                },
                "lblSubHeader": {
                    "@class": "com.viz.ide.model.segment.SimpleTextSegmentData",
                    "text": "Individual Transaction Limits"
                },
                "lblTxtDailyTransactionLimits": {
                    "@class": "com.viz.ide.model.segment.SimpleTextSegmentData",
                    "text": "$2,000.00"
                },
                "lblTxtPerTransactionLimits": {
                    "@class": "com.viz.ide.model.segment.SimpleTextSegmentData",
                    "text": "$ 200.00"
                },
                "lblTxtWeeklyTransactionLimits": {
                    "@class": "com.viz.ide.model.segment.SimpleTextSegmentData",
                    "text": "$ 10,000.00"
                },
                "lblWeeklyTransactionLimit1": {
                    "@class": "com.viz.ide.model.segment.SimpleTextSegmentData",
                    "text": "Weekly Transaction Limit:"
                },
                "lblWeeklyTransactionLimitValue1": {
                    "@class": "com.viz.ide.model.segment.SimpleTextSegmentData",
                    "text": "$ 10,000.00"
                },
                "lblWeeklyTransactionLimits": {
                    "@class": "com.viz.ide.model.segment.SimpleTextSegmentData",
                    "text": "Weekly Transaction Limit:"
                }
            }]
        ]
    ],
    "_height_": {
        "type": "ref",
        "value": "preferred"
    },
    "_indicator_": "none",
    "_left_": {
        "type": "string",
        "value": "0dp"
    },
    "_margin_": [
        0,
        0,
        0,
        0
    ],
    "_orientation_": 2,
    "_padding_": [
        0,
        0,
        0,
        0
    ],
    "_top_": {
        "type": "string",
        "value": "0dp"
    },
    "_width_": {
        "type": "string",
        "value": "100%"
    },
    "autogrowmode": 1,
    "canUpdateUI": true,
    "containerweight": 100,
    "counter": "00",
    "disabledSkins": {},
    "focusedindex": null,
    "focuseditem": null,
    "groupcells": false,
    "hasSections": false,
    "id": "segTransactionLimits",
    "info": null,
    "ipad": {
        "psp": {
            "indicator": "rowselect"
        }
    },
    "iphone": {
        "psp": {
            "indicator": "rowselect"
        }
    },
    "isvisible": true,
    "kuid": "dfb7d6c3d9b64bf7aaf5a4b2613426ef",
    "masterdata": {},
    "name": "kony.ui.SegmentedUI2",
    "needpageindicator": true,
    "pageoffdotimage": "pageoffdot.png",
    "pageondotimage": "pageondot.png",
    "paginationconfig": {
        "position": "bottom"
    },
    "parent": "flxTransactionLimitsSeg",
    "pf": "frmConfirmAndAck",
    "responsiveData": {
        "b1": {
            "bottom": {
                "type": "string",
                "value": "2dp"
            },
            "width": {
                "type": "string",
                "value": "100%"
            }
        },
        "b2": {
            "data": [{
                "CopylblSeparator0c9708b6517574b": {
                    "@class": "com.viz.ide.model.segment.SimpleTextSegmentData",
                    "text": ""
                },
                "imgInfo": {
                    "@class": "com.viz.ide.model.segment.ImageSegmentData",
                    "src": "info.png"
                },
                "lblBank": {
                    "@class": "com.viz.ide.model.segment.SimpleTextSegmentData",
                    "text": "ABC Bank"
                },
                "lblCustomLimits": {
                    "@class": "com.viz.ide.model.segment.SimpleTextSegmentData",
                    "text": "Custom Limits:"
                },
                "lblCustomLimitsValue": {
                    "@class": "com.viz.ide.model.segment.SimpleTextSegmentData",
                    "text": "125 of 230 Accounts"
                },
                "lblDailyTransactionLimit": {
                    "@class": "com.viz.ide.model.segment.SimpleTextSegmentData",
                    "text": " Daily Transaction Limit:"
                },
                "lblDailyTransactionLimitValue": {
                    "@class": "com.viz.ide.model.segment.SimpleTextSegmentData",
                    "text": "$2,000.00"
                },
                "lblDailyTransactionLimits": {
                    "@class": "com.viz.ide.model.segment.SimpleTextSegmentData",
                    "text": "Daily Transaction Limit:"
                },
                "lblDetailLimits": {
                    "@class": "com.viz.ide.model.segment.SimpleTextSegmentData",
                    "text": "Detail Limits:"
                },
                "lblDetailLimitsValue": {
                    "@class": "com.viz.ide.model.segment.SimpleTextSegmentData",
                    "text": "105 of 230 Accounts"
                },
                "lblDropdown": {
                    "@class": "com.viz.ide.model.segment.SimpleTextSegmentData",
                    "text": "O"
                },
                "lblHeader": {
                    "@class": "com.viz.ide.model.segment.SimpleTextSegmentData",
                    "text": "Global Transaction Limits"
                },
                "lblHeader1": {
                    "@class": "com.viz.ide.model.segment.SimpleTextSegmentData",
                    "text": "Bulk Transaction Limit"
                },
                "lblHeader2": {
                    "@class": "com.viz.ide.model.segment.SimpleTextSegmentData",
                    "text": "Advanced Transaction Limits Summary"
                },
                "lblIcon": {
                    "@class": "com.viz.ide.model.segment.SimpleTextSegmentData",
                    "text": "s"
                },
                "lblPerTransactionLimit": {
                    "@class": "com.viz.ide.model.segment.SimpleTextSegmentData",
                    "text": "Transaction Limit:"
                },
                "lblPerTransactionLimitValue": {
                    "@class": "com.viz.ide.model.segment.SimpleTextSegmentData",
                    "text": "$200.00"
                },
                "lblPerTransactionLimits": {
                    "@class": "com.viz.ide.model.segment.SimpleTextSegmentData",
                    "text": "Per Transaction Limit:"
                },
                "lblRecipient": {
                    "@class": "com.viz.ide.model.segment.SimpleTextSegmentData",
                    "text": "Eliza Walsh"
                },
                "lblReferenceID": {
                    "@class": "com.viz.ide.model.segment.SimpleTextSegmentData",
                    "text": "3456782414"
                },
                "lblSeparator": {
                    "@class": "com.viz.ide.model.segment.SimpleTextSegmentData",
                    "text": ""
                },
                "lblSubHeader": {
                    "@class": "com.viz.ide.model.segment.SimpleTextSegmentData",
                    "text": "Individual Transaction Limits"
                },
                "lblTxtDailyTransactionLimits": {
                    "@class": "com.viz.ide.model.segment.SimpleTextSegmentData",
                    "text": "$2,000.00"
                },
                "lblTxtPerTransactionLimits": {
                    "@class": "com.viz.ide.model.segment.SimpleTextSegmentData",
                    "text": "$ 200.00"
                },
                "lblTxtWeeklyTransactionLimits": {
                    "@class": "com.viz.ide.model.segment.SimpleTextSegmentData",
                    "text": "$ 10,000.00"
                },
                "lblWeeklyTransactionLimit1": {
                    "@class": "com.viz.ide.model.segment.SimpleTextSegmentData",
                    "text": "Weekly Transaction Limit:"
                },
                "lblWeeklyTransactionLimitValue1": {
                    "@class": "com.viz.ide.model.segment.SimpleTextSegmentData",
                    "text": "$ 10,000.00"
                },
                "lblWeeklyTransactionLimits": {
                    "@class": "com.viz.ide.model.segment.SimpleTextSegmentData",
                    "text": "Weekly Transaction Limit:"
                }
            }],
            "rowTemplate": "fbba17318e7e40948293a7e91d65ab16",
            "sectionHeaderTemplate": null,
            "widgetDataMap": {
                "CopylblSeparator0c9708b6517574b": "CopylblSeparator0c9708b6517574b",
                "flxBank": "flxBank",
                "flxCurrency": "flxCurrency",
                "flxDetails": "flxDetails",
                "flxDetails1": "flxDetails1",
                "flxDetails11": "flxDetails11",
                "flxDetails12": "flxDetails12",
                "flxDetails13": "flxDetails13",
                "flxDetails2": "flxDetails2",
                "flxDetails21": "flxDetails21",
                "flxDetails22": "flxDetails22",
                "flxDetails3": "flxDetails3",
                "flxDetailsHeader": "flxDetailsHeader",
                "flxDetailsHeader1": "flxDetailsHeader1",
                "flxDetailsHeader2": "flxDetailsHeader2",
                "flxDetailsSubHeader": "flxDetailsSubHeader",
                "flxDropdown": "flxDropdown",
                "flxLeft": "flxLeft",
                "flxLeft1": "flxLeft1",
                "flxLeft11": "flxLeft11",
                "flxLeft12": "flxLeft12",
                "flxLeft2": "flxLeft2",
                "flxLeft3": "flxLeft3",
                "flxLeft4": "flxLeft4",
                "flxReferenceID": "flxReferenceID",
                "flxRight": "flxRight",
                "flxRight1": "flxRight1",
                "flxRight11": "flxRight11",
                "flxRight12": "flxRight12",
                "flxRight2": "flxRight2",
                "flxRight3": "flxRight3",
                "flxRight4": "flxRight4",
                "flxSegBulkWireAckWrapper": "flxSegBulkWireAckWrapper",
                "flxSeparator": "flxSeparator",
                "flxUserManagementAccPermissions": "flxUserManagementAccPermissions",
                "flxUserManagementPermissionsTransactionLimit": "flxUserManagementPermissionsTransactionLimit",
                "flxWeeklyTransactionLimit": "flxWeeklyTransactionLimit",
                "flxWeeklyTransactionLimitValue": "flxWeeklyTransactionLimitValue",
                "flxWrapper": "flxWrapper",
                "flxtransferActivityWrapper": "flxtransferActivityWrapper",
                "imgInfo": "imgInfo",
                "lblBank": "lblBank",
                "lblCustomLimits": "lblCustomLimits",
                "lblCustomLimitsValue": "lblCustomLimitsValue",
                "lblDailyTransactionLimit": "lblDailyTransactionLimit",
                "lblDailyTransactionLimitValue": "lblDailyTransactionLimitValue",
                "lblDailyTransactionLimits": "lblDailyTransactionLimits",
                "lblDetailLimits": "lblDetailLimits",
                "lblDetailLimitsValue": "lblDetailLimitsValue",
                "lblDropdown": "lblDropdown",
                "lblHeader": "lblHeader",
                "lblHeader1": "lblHeader1",
                "lblHeader2": "lblHeader2",
                "lblIcon": "lblIcon",
                "lblPerTransactionLimit": "lblPerTransactionLimit",
                "lblPerTransactionLimitValue": "lblPerTransactionLimitValue",
                "lblPerTransactionLimits": "lblPerTransactionLimits",
                "lblRecipient": "lblRecipient",
                "lblReferenceID": "lblReferenceID",
                "lblSeparator": "lblSeparator",
                "lblSubHeader": "lblSubHeader",
                "lblTxtDailyTransactionLimits": "lblTxtDailyTransactionLimits",
                "lblTxtPerTransactionLimits": "lblTxtPerTransactionLimits",
                "lblTxtWeeklyTransactionLimits": "lblTxtWeeklyTransactionLimits",
                "lblWeeklyTransactionLimit1": "lblWeeklyTransactionLimit1",
                "lblWeeklyTransactionLimitValue1": "lblWeeklyTransactionLimitValue1",
                "lblWeeklyTransactionLimits": "lblWeeklyTransactionLimits"
            }
        },
        "b4": {
            "data": [{
                "CopylblSeparator0c9708b6517574b": {
                    "@class": "com.viz.ide.model.segment.SimpleTextSegmentData",
                    "text": ""
                },
                "imgInfo": {
                    "@class": "com.viz.ide.model.segment.ImageSegmentData",
                    "src": "info.png"
                },
                "lblBank": {
                    "@class": "com.viz.ide.model.segment.SimpleTextSegmentData",
                    "text": "ABC Bank"
                },
                "lblCustomLimits": {
                    "@class": "com.viz.ide.model.segment.SimpleTextSegmentData",
                    "text": "Custom Limits:"
                },
                "lblCustomLimitsValue": {
                    "@class": "com.viz.ide.model.segment.SimpleTextSegmentData",
                    "text": "125 of 230 Accounts"
                },
                "lblDailyTransactionLimit": {
                    "@class": "com.viz.ide.model.segment.SimpleTextSegmentData",
                    "text": " Daily Transaction Limit:"
                },
                "lblDailyTransactionLimitValue": {
                    "@class": "com.viz.ide.model.segment.SimpleTextSegmentData",
                    "text": "$2,000.00"
                },
                "lblDailyTransactionLimits": {
                    "@class": "com.viz.ide.model.segment.SimpleTextSegmentData",
                    "text": "Daily Transaction Limit:"
                },
                "lblDetailLimits": {
                    "@class": "com.viz.ide.model.segment.SimpleTextSegmentData",
                    "text": "Detail Limits:"
                },
                "lblDetailLimitsValue": {
                    "@class": "com.viz.ide.model.segment.SimpleTextSegmentData",
                    "text": "105 of 230 Accounts"
                },
                "lblDropdown": {
                    "@class": "com.viz.ide.model.segment.SimpleTextSegmentData",
                    "text": "O"
                },
                "lblHeader": {
                    "@class": "com.viz.ide.model.segment.SimpleTextSegmentData",
                    "text": "Global Transaction Limits"
                },
                "lblHeader1": {
                    "@class": "com.viz.ide.model.segment.SimpleTextSegmentData",
                    "text": "Bulk Transaction Limit"
                },
                "lblHeader2": {
                    "@class": "com.viz.ide.model.segment.SimpleTextSegmentData",
                    "text": "Advanced Transaction Limits Summary"
                },
                "lblIcon": {
                    "@class": "com.viz.ide.model.segment.SimpleTextSegmentData",
                    "text": "s"
                },
                "lblPerTransactionLimit": {
                    "@class": "com.viz.ide.model.segment.SimpleTextSegmentData",
                    "text": "Transaction Limit:"
                },
                "lblPerTransactionLimitValue": {
                    "@class": "com.viz.ide.model.segment.SimpleTextSegmentData",
                    "text": "$200.00"
                },
                "lblPerTransactionLimits": {
                    "@class": "com.viz.ide.model.segment.SimpleTextSegmentData",
                    "text": "Per Transaction Limit:"
                },
                "lblRecipient": {
                    "@class": "com.viz.ide.model.segment.SimpleTextSegmentData",
                    "text": "Eliza Walsh"
                },
                "lblReferenceID": {
                    "@class": "com.viz.ide.model.segment.SimpleTextSegmentData",
                    "text": "3456782414"
                },
                "lblSeparator": {
                    "@class": "com.viz.ide.model.segment.SimpleTextSegmentData",
                    "text": ""
                },
                "lblSubHeader": {
                    "@class": "com.viz.ide.model.segment.SimpleTextSegmentData",
                    "text": "Individual Transaction Limits"
                },
                "lblTxtDailyTransactionLimits": {
                    "@class": "com.viz.ide.model.segment.SimpleTextSegmentData",
                    "text": "$2,000.00"
                },
                "lblTxtPerTransactionLimits": {
                    "@class": "com.viz.ide.model.segment.SimpleTextSegmentData",
                    "text": "$ 200.00"
                },
                "lblTxtWeeklyTransactionLimits": {
                    "@class": "com.viz.ide.model.segment.SimpleTextSegmentData",
                    "text": "$ 10,000.00"
                },
                "lblWeeklyTransactionLimit1": {
                    "@class": "com.viz.ide.model.segment.SimpleTextSegmentData",
                    "text": "Weekly Transaction Limit:"
                },
                "lblWeeklyTransactionLimitValue1": {
                    "@class": "com.viz.ide.model.segment.SimpleTextSegmentData",
                    "text": "$ 10,000.00"
                },
                "lblWeeklyTransactionLimits": {
                    "@class": "com.viz.ide.model.segment.SimpleTextSegmentData",
                    "text": "Weekly Transaction Limit:"
                }
            }],
            "rowTemplate": "fbba17318e7e40948293a7e91d65ab16",
            "sectionHeaderTemplate": null,
            "widgetDataMap": {
                "CopylblSeparator0c9708b6517574b": "CopylblSeparator0c9708b6517574b",
                "flxBank": "flxBank",
                "flxCurrency": "flxCurrency",
                "flxDetails": "flxDetails",
                "flxDetails1": "flxDetails1",
                "flxDetails11": "flxDetails11",
                "flxDetails12": "flxDetails12",
                "flxDetails13": "flxDetails13",
                "flxDetails2": "flxDetails2",
                "flxDetails21": "flxDetails21",
                "flxDetails22": "flxDetails22",
                "flxDetails3": "flxDetails3",
                "flxDetailsHeader": "flxDetailsHeader",
                "flxDetailsHeader1": "flxDetailsHeader1",
                "flxDetailsHeader2": "flxDetailsHeader2",
                "flxDetailsSubHeader": "flxDetailsSubHeader",
                "flxDropdown": "flxDropdown",
                "flxLeft": "flxLeft",
                "flxLeft1": "flxLeft1",
                "flxLeft11": "flxLeft11",
                "flxLeft12": "flxLeft12",
                "flxLeft2": "flxLeft2",
                "flxLeft3": "flxLeft3",
                "flxLeft4": "flxLeft4",
                "flxReferenceID": "flxReferenceID",
                "flxRight": "flxRight",
                "flxRight1": "flxRight1",
                "flxRight11": "flxRight11",
                "flxRight12": "flxRight12",
                "flxRight2": "flxRight2",
                "flxRight3": "flxRight3",
                "flxRight4": "flxRight4",
                "flxSegBulkWireAckWrapper": "flxSegBulkWireAckWrapper",
                "flxSeparator": "flxSeparator",
                "flxUserManagementAccPermissions": "flxUserManagementAccPermissions",
                "flxUserManagementPermissionsTransactionLimit": "flxUserManagementPermissionsTransactionLimit",
                "flxWeeklyTransactionLimit": "flxWeeklyTransactionLimit",
                "flxWeeklyTransactionLimitValue": "flxWeeklyTransactionLimitValue",
                "flxWrapper": "flxWrapper",
                "flxtransferActivityWrapper": "flxtransferActivityWrapper",
                "imgInfo": "imgInfo",
                "lblBank": "lblBank",
                "lblCustomLimits": "lblCustomLimits",
                "lblCustomLimitsValue": "lblCustomLimitsValue",
                "lblDailyTransactionLimit": "lblDailyTransactionLimit",
                "lblDailyTransactionLimitValue": "lblDailyTransactionLimitValue",
                "lblDailyTransactionLimits": "lblDailyTransactionLimits",
                "lblDetailLimits": "lblDetailLimits",
                "lblDetailLimitsValue": "lblDetailLimitsValue",
                "lblDropdown": "lblDropdown",
                "lblHeader": "lblHeader",
                "lblHeader1": "lblHeader1",
                "lblHeader2": "lblHeader2",
                "lblIcon": "lblIcon",
                "lblPerTransactionLimit": "lblPerTransactionLimit",
                "lblPerTransactionLimitValue": "lblPerTransactionLimitValue",
                "lblPerTransactionLimits": "lblPerTransactionLimits",
                "lblRecipient": "lblRecipient",
                "lblReferenceID": "lblReferenceID",
                "lblSeparator": "lblSeparator",
                "lblSubHeader": "lblSubHeader",
                "lblTxtDailyTransactionLimits": "lblTxtDailyTransactionLimits",
                "lblTxtPerTransactionLimits": "lblTxtPerTransactionLimits",
                "lblTxtWeeklyTransactionLimits": "lblTxtWeeklyTransactionLimits",
                "lblWeeklyTransactionLimit1": "lblWeeklyTransactionLimit1",
                "lblWeeklyTransactionLimitValue1": "lblWeeklyTransactionLimitValue1",
                "lblWeeklyTransactionLimits": "lblWeeklyTransactionLimits"
            }
        }
    },
    "retainselection": false,
    "rowTemplateId": "fbba17318e7e40948293a7e91d65ab16",
    "rowcounter": 0,
    "rowfocusskin": "s9f69e977910472eb44c62ae28c41fe1",
    "rowskin": "scf5f90f6ac04976ab88b2a4f7153285",
    "rowtemplate": "flxUserManagementPermissionsTransactionLimit",
    "screenlevelwidget": false,
    "seccounter": 0,
    "sectionHeaderTemplateId": "ff007041a5484f54b0bd2858ae9d6f2c",
    "sectionheaderskin": "sdc4ff4ed1584272be2ae69045dfb29d",
    "sectionheadertemplate": "flxUserManagementAccPermissions",
    "selectedRows": null,
    "selectedState": false,
    "selectedindex": null,
    "selectedindices": null,
    "selecteditems": null,
    "selectedsectionindex": 0,
    "selectionbehavior": "default",
    "separatorcolor": "e9ebee00",
    "separatorrequired": true,
    "separatorthickness": 1,
    "showscrollbars": false,
    "viewtype": "tableview",
    "vizProps": {},
    "wType": "Segment",
    "widgetalignment": 5,
    "widgetdatamap": {
        "CopylblSeparator0c9708b6517574b": "CopylblSeparator0c9708b6517574b",
        "flxBank": "flxBank",
        "flxCurrency": "flxCurrency",
        "flxDetails": "flxDetails",
        "flxDetails1": "flxDetails1",
        "flxDetails11": "flxDetails11",
        "flxDetails12": "flxDetails12",
        "flxDetails13": "flxDetails13",
        "flxDetails2": "flxDetails2",
        "flxDetails21": "flxDetails21",
        "flxDetails22": "flxDetails22",
        "flxDetails3": "flxDetails3",
        "flxDetailsHeader": "flxDetailsHeader",
        "flxDetailsHeader1": "flxDetailsHeader1",
        "flxDetailsHeader2": "flxDetailsHeader2",
        "flxDetailsSubHeader": "flxDetailsSubHeader",
        "flxDropdown": "flxDropdown",
        "flxLeft": "flxLeft",
        "flxLeft1": "flxLeft1",
        "flxLeft11": "flxLeft11",
        "flxLeft12": "flxLeft12",
        "flxLeft2": "flxLeft2",
        "flxLeft3": "flxLeft3",
        "flxLeft4": "flxLeft4",
        "flxReferenceID": "flxReferenceID",
        "flxRight": "flxRight",
        "flxRight1": "flxRight1",
        "flxRight11": "flxRight11",
        "flxRight12": "flxRight12",
        "flxRight2": "flxRight2",
        "flxRight3": "flxRight3",
        "flxRight4": "flxRight4",
        "flxSegBulkWireAckWrapper": "flxSegBulkWireAckWrapper",
        "flxSeparator": "flxSeparator",
        "flxUserManagementAccPermissions": "flxUserManagementAccPermissions",
        "flxUserManagementPermissionsTransactionLimit": "flxUserManagementPermissionsTransactionLimit",
        "flxWeeklyTransactionLimit": "flxWeeklyTransactionLimit",
        "flxWeeklyTransactionLimitValue": "flxWeeklyTransactionLimitValue",
        "flxWrapper": "flxWrapper",
        "flxtransferActivityWrapper": "flxtransferActivityWrapper",
        "imgInfo": "imgInfo",
        "lblBank": "lblBank",
        "lblCustomLimits": "lblCustomLimits",
        "lblCustomLimitsValue": "lblCustomLimitsValue",
        "lblDailyTransactionLimit": "lblDailyTransactionLimit",
        "lblDailyTransactionLimitValue": "lblDailyTransactionLimitValue",
        "lblDailyTransactionLimits": "lblDailyTransactionLimits",
        "lblDetailLimits": "lblDetailLimits",
        "lblDetailLimitsValue": "lblDetailLimitsValue",
        "lblDropdown": "lblDropdown",
        "lblHeader": "lblHeader",
        "lblHeader1": "lblHeader1",
        "lblHeader2": "lblHeader2",
        "lblIcon": "lblIcon",
        "lblPerTransactionLimit": "lblPerTransactionLimit",
        "lblPerTransactionLimitValue": "lblPerTransactionLimitValue",
        "lblPerTransactionLimits": "lblPerTransactionLimits",
        "lblRecipient": "lblRecipient",
        "lblReferenceID": "lblReferenceID",
        "lblSeparator": "lblSeparator",
        "lblSubHeader": "lblSubHeader",
        "lblTxtDailyTransactionLimits": "lblTxtDailyTransactionLimits",
        "lblTxtPerTransactionLimits": "lblTxtPerTransactionLimits",
        "lblTxtWeeklyTransactionLimits": "lblTxtWeeklyTransactionLimits",
        "lblWeeklyTransactionLimit1": "lblWeeklyTransactionLimit1",
        "lblWeeklyTransactionLimitValue1": "lblWeeklyTransactionLimitValue1",
        "lblWeeklyTransactionLimits": "lblWeeklyTransactionLimits"
    },
    "zindex": 1
}