{
    "@class": "com.kony.gen.viz.model.component.KVizTextBox2",
    "DNDConfig": null,
    "_height_": {
        "type": "string",
        "value": "40dp"
    },
    "_left_": {
        "type": "string",
        "value": "30dp"
    },
    "_margin_": [
        0,
        0,
        0,
        0
    ],
    "_padding_": [
        2,
        0,
        0,
        0
    ],
    "_placeholder_": "Enter account Nick Name",
    "_right_": {
        "type": "number",
        "value": ""
    },
    "_skin_": "sbad3c0dbd09447ea3f81eebcfc69002",
    "_text_": "",
    "_top_": {
        "type": "string",
        "value": "45dp"
    },
    "_width_": {
        "type": "string",
        "value": "45.16%"
    },
    "accessibilityconfig": {
        "a11yLabel": "Enter account Nick Name"
    },
    "autocapitalize": "none",
    "autocomplete": false,
    "autocorrect": false,
    "autofilter": false,
    "canUpdateUI": true,
    "containerheight": "",
    "containerheightmode": 1,
    "containerweight": 100,
    "contentalignment": 4,
    "desktopweb": {
        "psp": {
            "hoverSkin": "s80a8c5539a441ee9b9b49917cc45cc2"
        }
    },
    "focusskin": "s2faf9c2766d4142ab33d0bf97445ae0",
    "id": "tbxNickName",
    "info": null,
    "isvisible": true,
    "keyboardtype": "A",
    "kuid": "fee2d37eb70f41579d5595b21ea0940d",
    "maxtextlength": 50,
    "mode": "A",
    "name": "kony.ui.TextBox2",
    "paddinginpixel": false,
    "parent": "flxNickName",
    "pf": "frmWireTransferAddKonyAccountStep2",
    "responsiveData": {
        "b3": {
            "left": {
                "type": "string",
                "value": "15dp"
            },
            "right": {
                "type": "string",
                "value": "15dp"
            },
            "top": {
                "type": "string",
                "value": "45dp"
            },
            "width": {
                "type": "ref",
                "value": "preferred"
            }
        },
        "b4": {
            "left": {
                "type": "string",
                "value": "20dp"
            }
        }
    },
    "securetextentry": false,
    "textinputmode": "A",
    "tooltip": "",
    "viewtype": "default",
    "wType": "TextField",
    "zindex": 1
}