{
    "classname": "AutoComplete",
    "definitions": {
        "apis": {
            "custom": [
                {
                    "group": "General",
                    "kuid": "i4fef36da73240c787fbeabbf2012d03",
                    "paramList": [],
                    "propertyKey": "setContext",
                    "pw": {
                        "displayName": "setContext",
                        "uiRepresentation": "Label-Label-Button-Button"
                    },
                    "srcWgtKUID": "bc5adda64ac74f3385ca3ebcecb0ce9f",
                    "type": "event"
                },
                {
                    "group": "General",
                    "kuid": "i570da63c21640549c4818ed89b79ab3",
                    "paramList": [
                        {
                            "name": "listObj"
                        }
                    ],
                    "propertyKey": "updateList",
                    "pw": {
                        "displayName": "updateList",
                        "uiRepresentation": "Label-Label-Button-Button"
                    },
                    "srcWgtKUID": "bc5adda64ac74f3385ca3ebcecb0ce9f",
                    "type": "event"
                },
                {
                    "group": "General",
                    "kuid": "acb87b17970b480e887a0c485754d7b4",
                    "paramList": [],
                    "propertyKey": "resetSelectedValue",
                    "pw": {
                        "displayName": "resetSelectedValue",
                        "uiRepresentation": "Label-Label-Button-Button"
                    },
                    "srcWgtKUID": "bc5adda64ac74f3385ca3ebcecb0ce9f",
                    "type": "event"
                }
            ],
            "passthrough": []
        },
        "events": {
            "custom": [
                {
                    "group": "General",
                    "kuid": "c8111a958a1b4741b56cecf49be6c622",
                    "paramList": [
                        {
                            "name": "selectedRecord"
                        }
                    ],
                    "propertyIndex": 1,
                    "propertyKey": "fetchSelectedRecordDetail",
                    "pw": {
                        "displayName": "fetchSelectedRecordDetail",
                        "uiRepresentation": "Label-Label-Button-Button"
                    },
                    "srcWgtKUID": "bc5adda64ac74f3385ca3ebcecb0ce9f",
                    "type": "event"
                },
                {
                    "group": "General",
                    "kuid": "bc845f8fb898499db72f4a09fa5f10d3",
                    "paramList": [],
                    "propertyIndex": 1,
                    "propertyKey": "emptyRecordAction",
                    "pw": {
                        "displayName": "emptyRecordAction",
                        "uiRepresentation": "Label-Label-Button-Button"
                    },
                    "srcWgtKUID": "bc5adda64ac74f3385ca3ebcecb0ce9f",
                    "type": "event"
                },
                {
                    "group": "General",
                    "kuid": "c2c25fd3616f4bf89861f7a571d74ae8",
                    "paramList": [
                        {
                            "name": "errObj"
                        }
                    ],
                    "propertyIndex": 1,
                    "propertyKey": "onError",
                    "pw": {
                        "displayName": "onError",
                        "uiRepresentation": "Label-Label-Button-Button"
                    },
                    "srcWgtKUID": "bc5adda64ac74f3385ca3ebcecb0ce9f",
                    "type": "event"
                },
                {
                    "group": "General",
                    "kuid": "j554d5405a194d94a20ee07e1f39b520",
                    "paramList": [
                        {
                            "name": "data"
                        }
                    ],
                    "propertyIndex": 2,
                    "propertyKey": "getTxtBoxData",
                    "pw": {
                        "displayName": "getTxtBoxData",
                        "uiRepresentation": "Label-Label-Button-Button"
                    },
                    "srcWgtKUID": "bc5adda64ac74f3385ca3ebcecb0ce9f",
                    "type": "event"
                }
            ],
            "passthrough": []
        },
        "groups": {
            "apis": [
                "General"
            ],
            "events": [],
            "properties": [
                "Context"
            ],
            "widgets": []
        },
        "properties": {
            "custom": [
                {
                    "access": "Write",
                    "defaultValue": "{$.c.listObject}",
                    "group": "Context",
                    "kuid": "ca0181dc751346d1a4b4ec6f8308eb69",
                    "originalPropertyKey": "listObject",
                    "propertyIndex": 1,
                    "propertyKey": "listObject",
                    "pw": {
                        "dependencyConditions": {},
                        "displayName": "List Object",
                        "uiRepresentation": "Label-Textbox"
                    },
                    "srcWgtKUID": "bc5adda64ac74f3385ca3ebcecb0ce9f",
                    "type": "string",
                    "value": ""
                },
                {
                    "access": "Write",
                    "defaultValue": "{\"BP1\":\"640\",\"BP2\":\"1024\",\"BP3\":\"1366\",\"BP4\":\"1380\"}",
                    "group": "General",
                    "kuid": "e3e2aad3896a40b084facc4c2d789b6b",
                    "originalPropertyKey": "BREAKPTS",
                    "propertyIndex": 1,
                    "propertyKey": "BREAKPTS",
                    "pw": {
                        "dependencyConditions": {},
                        "displayName": "Breakpoint Configs",
                        "uiRepresentation": "Label-Textbox"
                    },
                    "srcWgtKUID": "bc5adda64ac74f3385ca3ebcecb0ce9f",
                    "type": "string",
                    "value": ""
                },
                {
                    "access": "Write",
                    "defaultValue": "{$.c.txtBox}",
                    "group": "Context",
                    "kuid": "h32cd596c6fe4ca2b9a7c8a1ebda67db",
                    "originalPropertyKey": "txtBox",
                    "propertyIndex": 3,
                    "propertyKey": "txtBox",
                    "pw": {
                        "dependencyConditions": {},
                        "displayName": "Text Box",
                        "uiRepresentation": "Label-Textbox"
                    },
                    "srcWgtKUID": "bc5adda64ac74f3385ca3ebcecb0ce9f",
                    "type": "string",
                    "value": ""
                },
                {
                    "access": "Write",
                    "defaultValue": "{$.c.removeTypeList}",
                    "group": "Context",
                    "kuid": "a09a5e431e8645dc8792f3885364fbf1",
                    "originalPropertyKey": "filterTypeList",
                    "propertyIndex": 4,
                    "propertyKey": "filterTypeList",
                    "pw": {
                        "dependencyConditions": {},
                        "displayName": "Type Lists to Filter",
                        "uiRepresentation": "Label-Textbox"
                    },
                    "srcWgtKUID": "bc5adda64ac74f3385ca3ebcecb0ce9f",
                    "type": "string",
                    "value": ""
                },
                {
                    "access": "Write",
                    "defaultValue": "{$.c.listField1}",
                    "group": "Context",
                    "kuid": "h777bdbd9afe427f948457d1042eb5a7",
                    "originalPropertyKey": "dropdownListField1",
                    "propertyIndex": 5,
                    "propertyKey": "dropdownListField1",
                    "pw": {
                        "dependencyConditions": {},
                        "displayName": "Dropdown List Field1",
                        "uiRepresentation": "Label-Textbox"
                    },
                    "srcWgtKUID": "bc5adda64ac74f3385ca3ebcecb0ce9f",
                    "type": "string",
                    "value": ""
                },
                {
                    "access": "Write",
                    "defaultValue": "{$.c.listField2}",
                    "group": "Context",
                    "kuid": "ga0dedbf89c24434a67fb76a9133d21b",
                    "originalPropertyKey": "dropdownListField2",
                    "propertyIndex": 6,
                    "propertyKey": "dropdownListField2",
                    "pw": {
                        "dependencyConditions": {},
                        "displayName": "Dropdown List Field2",
                        "uiRepresentation": "Label-Textbox"
                    },
                    "srcWgtKUID": "bc5adda64ac74f3385ca3ebcecb0ce9f",
                    "type": "string",
                    "value": ""
                },
                {
                    "access": "Write",
                    "defaultValue": "{$.c.listField3}",
                    "group": "Context",
                    "kuid": "d33500551ea04eeabb0950cf8ec01209",
                    "originalPropertyKey": "dropdownListField3",
                    "propertyIndex": 7,
                    "propertyKey": "dropdownListField3",
                    "pw": {
                        "dependencyConditions": {},
                        "displayName": "Dropdown List Field3",
                        "uiRepresentation": "Label-Textbox"
                    },
                    "srcWgtKUID": "bc5adda64ac74f3385ca3ebcecb0ce9f",
                    "type": "string",
                    "value": ""
                },
                {
                    "access": "Write",
                    "defaultValue": "{$.c.emptyRecordMessage}",
                    "group": "Context",
                    "kuid": "babbf95478744ea18225e08daa5547d5",
                    "originalPropertyKey": "emptyRecordMessage",
                    "propertyIndex": 8,
                    "propertyKey": "emptyRecordMessage",
                    "pw": {
                        "dependencyConditions": {},
                        "displayName": "Empty Record Message",
                        "uiRepresentation": "Label-Textbox"
                    },
                    "srcWgtKUID": "bc5adda64ac74f3385ca3ebcecb0ce9f",
                    "type": "string",
                    "value": ""
                },
                {
                    "access": "Write",
                    "defaultValue": "{$.c.emptyRecordActionTxt}",
                    "group": "Context",
                    "kuid": "j15ab35bc9074a7aa232affeb0c03567",
                    "originalPropertyKey": "emptyRecordActionTxt",
                    "propertyIndex": 9,
                    "propertyKey": "emptyRecordActionTxt",
                    "pw": {
                        "dependencyConditions": {},
                        "displayName": "Empty Recor Action Item Text",
                        "uiRepresentation": "Label-Textbox"
                    },
                    "srcWgtKUID": "bc5adda64ac74f3385ca3ebcecb0ce9f",
                    "type": "string",
                    "value": ""
                },
                {
                    "access": "Write",
                    "defaultValue": "{$.c.sknTxtBoxValue}",
                    "group": "Context",
                    "kuid": "c88d9192820a4811b89c57e2fa744b70",
                    "originalPropertyKey": "sknTxtBoxValue",
                    "propertyIndex": 10,
                    "propertyKey": "sknTxtBoxValue",
                    "pw": {
                        "dependencyConditions": {},
                        "displayName": "Text Box Value Skin",
                        "uiRepresentation": "Label-Textbox"
                    },
                    "srcWgtKUID": "bc5adda64ac74f3385ca3ebcecb0ce9f",
                    "type": "string",
                    "value": ""
                },
                {
                    "access": "Write",
                    "defaultValue": "{$.c.sknTxtBoxPlaceholder}",
                    "group": "Context",
                    "kuid": "g04fd49b7c0d480099f26384c0355698",
                    "originalPropertyKey": "sknTxtBoxPlaceholder",
                    "propertyIndex": 11,
                    "propertyKey": "sknTxtBoxPlaceholder",
                    "pw": {
                        "dependencyConditions": {},
                        "displayName": "Text Box Placeholder Skin",
                        "uiRepresentation": "Label-Textbox"
                    },
                    "srcWgtKUID": "bc5adda64ac74f3385ca3ebcecb0ce9f",
                    "type": "string",
                    "value": ""
                },
                {
                    "access": "Write",
                    "defaultValue": "{$.c.sknListField1}",
                    "group": "Context",
                    "kuid": "d97e2aa9818446e39b013764b924a66b",
                    "originalPropertyKey": "sknListField1",
                    "propertyIndex": 12,
                    "propertyKey": "sknListField1",
                    "pw": {
                        "dependencyConditions": {},
                        "displayName": "Dropdown List Field1 Skin",
                        "uiRepresentation": "Label-Textbox"
                    },
                    "srcWgtKUID": "bc5adda64ac74f3385ca3ebcecb0ce9f",
                    "type": "string",
                    "value": ""
                },
                {
                    "access": "Write",
                    "defaultValue": "{$.c.sknListField2}",
                    "group": "Context",
                    "kuid": "a21c078a07fe4eff99e37820a9c46e4d",
                    "originalPropertyKey": "sknListField2",
                    "propertyIndex": 13,
                    "propertyKey": "sknListField2",
                    "pw": {
                        "dependencyConditions": {},
                        "displayName": "Dropdown List Field2 Skin",
                        "uiRepresentation": "Label-Textbox"
                    },
                    "srcWgtKUID": "bc5adda64ac74f3385ca3ebcecb0ce9f",
                    "type": "string",
                    "value": ""
                },
                {
                    "access": "Write",
                    "defaultValue": "{$.c.sknListField3}",
                    "group": "Context",
                    "kuid": "ecc9c5411091432991e022cfefa7596a",
                    "originalPropertyKey": "sknListField3",
                    "propertyIndex": 14,
                    "propertyKey": "sknListField3",
                    "pw": {
                        "dependencyConditions": {},
                        "displayName": "Dropdown List Field3 Skin",
                        "uiRepresentation": "Label-Textbox"
                    },
                    "srcWgtKUID": "bc5adda64ac74f3385ca3ebcecb0ce9f",
                    "type": "string",
                    "value": ""
                },
                {
                    "access": "Write",
                    "defaultValue": "{$.c.sknListFieldType}",
                    "group": "Context",
                    "kuid": "bf5dffc48c9d4cc0bb9c924c49ca7c3e",
                    "originalPropertyKey": "sknListFieldType",
                    "propertyIndex": 15,
                    "propertyKey": "sknListFieldType",
                    "pw": {
                        "dependencyConditions": {},
                        "displayName": "List Field Type Skin",
                        "uiRepresentation": "Label-Textbox"
                    },
                    "srcWgtKUID": "bc5adda64ac74f3385ca3ebcecb0ce9f",
                    "type": "string",
                    "value": ""
                },
                {
                    "access": "Write",
                    "defaultValue": "{$.c.iconClearFilter}",
                    "group": "Context",
                    "kuid": "h9efa8055b6e4a7688e2d127cc291822",
                    "originalPropertyKey": "iconClearFilter",
                    "propertyIndex": 16,
                    "propertyKey": "iconClearFilter",
                    "pw": {
                        "dependencyConditions": {},
                        "displayName": "Clear Search Filter Icon",
                        "uiRepresentation": "Label-Textbox"
                    },
                    "srcWgtKUID": "bc5adda64ac74f3385ca3ebcecb0ce9f",
                    "type": "string",
                    "value": ""
                },
                {
                    "access": "Write",
                    "defaultValue": "{$.c.iconCityBank}",
                    "group": "Context",
                    "kuid": "e9084448f3824a6da7f526484030c58a",
                    "originalPropertyKey": "iconCityBank",
                    "propertyIndex": 17,
                    "propertyKey": "iconCityBank",
                    "pw": {
                        "dependencyConditions": {},
                        "displayName": "City Bank Icon",
                        "uiRepresentation": "Label-Textbox"
                    },
                    "srcWgtKUID": "bc5adda64ac74f3385ca3ebcecb0ce9f",
                    "type": "string",
                    "value": ""
                },
                {
                    "access": "Write",
                    "defaultValue": "{$.c.iconChaseBank}",
                    "group": "Context",
                    "kuid": "g470765977454b3a986a002e83a65d39",
                    "originalPropertyKey": "iconChaseBank",
                    "propertyIndex": 18,
                    "propertyKey": "iconChaseBank",
                    "pw": {
                        "dependencyConditions": {},
                        "displayName": "Chase Bank Icon",
                        "uiRepresentation": "Label-Textbox"
                    },
                    "srcWgtKUID": "bc5adda64ac74f3385ca3ebcecb0ce9f",
                    "type": "string",
                    "value": ""
                },
                {
                    "access": "Write",
                    "defaultValue": "{$.c.iconBAOBank}",
                    "group": "Context",
                    "kuid": "d25873db723942b4bd4d6eb0f3d55935",
                    "originalPropertyKey": "iconBAOBank",
                    "propertyIndex": 19,
                    "propertyKey": "iconBAOBank",
                    "pw": {
                        "dependencyConditions": {},
                        "displayName": "BAO Bank Icon",
                        "uiRepresentation": "Label-Textbox"
                    },
                    "srcWgtKUID": "bc5adda64ac74f3385ca3ebcecb0ce9f",
                    "type": "string",
                    "value": ""
                },
                {
                    "access": "Write",
                    "defaultValue": "{$.c.iconHDFCBank}",
                    "group": "Context",
                    "kuid": "d1f5ac20f12545a0b32459315b8c7683",
                    "originalPropertyKey": "iconHDFCBank",
                    "propertyIndex": 20,
                    "propertyKey": "iconHDFCBank",
                    "pw": {
                        "dependencyConditions": {},
                        "displayName": "HDFC Bank Icon",
                        "uiRepresentation": "Label-Textbox"
                    },
                    "srcWgtKUID": "bc5adda64ac74f3385ca3ebcecb0ce9f",
                    "type": "string",
                    "value": ""
                },
                {
                    "access": "Write",
                    "defaultValue": "{$.c.iconInfinityBank}",
                    "group": "Context",
                    "kuid": "fffaa7542d804212bc0253a80eb01dbc",
                    "originalPropertyKey": "iconInfinityBank",
                    "propertyIndex": 21,
                    "propertyKey": "iconInfinityBank",
                    "pw": {
                        "dependencyConditions": {},
                        "displayName": "Infinity Bank Icon",
                        "uiRepresentation": "Label-Textbox"
                    },
                    "srcWgtKUID": "bc5adda64ac74f3385ca3ebcecb0ce9f",
                    "type": "string",
                    "value": ""
                },
                {
                    "access": "Write",
                    "defaultValue": "{$.c.iconExternalBank}",
                    "group": "Context",
                    "kuid": "c67f8f3b7ac949328b20b6ce69386b6b",
                    "originalPropertyKey": "iconExternalBank",
                    "propertyIndex": 22,
                    "propertyKey": "iconExternalBank",
                    "pw": {
                        "dependencyConditions": {},
                        "displayName": "External Bank Icon",
                        "uiRepresentation": "Label-Textbox"
                    },
                    "srcWgtKUID": "bc5adda64ac74f3385ca3ebcecb0ce9f",
                    "type": "string",
                    "value": ""
                },
                {
                    "access": "Write",
                    "defaultValue": "{$.c.iconDropdownExpand}",
                    "group": "Context",
                    "kuid": "ea53f2831f9041b5b842ef92246c9129",
                    "originalPropertyKey": "iconDropdownExpand",
                    "propertyIndex": 24,
                    "propertyKey": "iconDropdownExpand",
                    "pw": {
                        "dependencyConditions": {},
                        "displayName": "Dropdown Expand",
                        "uiRepresentation": "Label-Textbox"
                    },
                    "srcWgtKUID": "bc5adda64ac74f3385ca3ebcecb0ce9f",
                    "type": "string",
                    "value": ""
                },
                {
                    "access": "Write",
                    "defaultValue": "{$.c.sknTxtBoxFocus}",
                    "group": "Context",
                    "kuid": "dbda5299a1724d7bb87ccd3813f49f29",
                    "originalPropertyKey": "sknTxtBoxFocusSkin",
                    "propertyIndex": 25,
                    "propertyKey": "sknTxtBoxFocusSkin",
                    "pw": {
                        "dependencyConditions": {},
                        "displayName": "Text Box Focus Skin",
                        "uiRepresentation": "Label-Textbox"
                    },
                    "srcWgtKUID": "bc5adda64ac74f3385ca3ebcecb0ce9f",
                    "type": "string",
                    "value": ""
                },
                {
                    "access": "Write",
                    "defaultValue": "{$.c.sknEmptyRecordAction}",
                    "group": "Context",
                    "kuid": "b4afa539af9b49fa9c3b29677d729e95",
                    "originalPropertyKey": "sknEmptyRecordActionLabel",
                    "propertyIndex": 26,
                    "propertyKey": "sknEmptyRecordActionLabel",
                    "pw": {
                        "dependencyConditions": {},
                        "displayName": "Empty Record Action Label Skin",
                        "uiRepresentation": "Label-Textbox"
                    },
                    "srcWgtKUID": "bc5adda64ac74f3385ca3ebcecb0ce9f",
                    "type": "string",
                    "value": ""
                },
                {
                    "access": "Write",
                    "defaultValue": "{$.c.sknEmptyRecord}",
                    "group": "Context",
                    "kuid": "bc6d1c053d7944a7b41375977e0eb4a4",
                    "originalPropertyKey": "sknEmptyRecordLabel",
                    "propertyIndex": 27,
                    "propertyKey": "sknEmptyRecordLabel",
                    "pw": {
                        "dependencyConditions": {},
                        "displayName": "Empty Record Message Skin",
                        "uiRepresentation": "Label-Textbox"
                    },
                    "srcWgtKUID": "bc5adda64ac74f3385ca3ebcecb0ce9f",
                    "type": "string",
                    "value": ""
                },
                {
                    "access": "Write",
                    "defaultValue": "{$.c.groupIdentifier}",
                    "group": "Context",
                    "kuid": "d92eacf4d90a47c88a232ce96b2a91e9",
                    "originalPropertyKey": "groupIdentifier",
                    "propertyIndex": 28,
                    "propertyKey": "groupIdentifier",
                    "pw": {
                        "dependencyConditions": {},
                        "displayName": "Identifier to group List",
                        "uiRepresentation": "Label-Textbox"
                    },
                    "srcWgtKUID": "bc5adda64ac74f3385ca3ebcecb0ce9f",
                    "type": "string",
                    "value": ""
                },
                {
                    "access": "Write",
                    "defaultValue": "{$.c.iconDropdownCollapse}",
                    "group": "Context",
                    "kuid": "f3ec3adb6b464abcb457cbb7e9c5b0b7",
                    "originalPropertyKey": "iconDropdownCollapse",
                    "propertyIndex": 29,
                    "propertyKey": "iconDropdownCollapse",
                    "pw": {
                        "dependencyConditions": {},
                        "displayName": "Dropdown Collapse ",
                        "uiRepresentation": "Label-Textbox"
                    },
                    "srcWgtKUID": "bc5adda64ac74f3385ca3ebcecb0ce9f",
                    "type": "string",
                    "value": ""
                }
            ],
            "passthrough": []
        },
        "widgets": {
            "expose": [],
            "passthrough": []
        }
    },
    "namespace": "com.temenos.infinityComponent",
    "version": "1.0.0"
}