{
    "@class": "com.kony.gen.viz.model.component.KVizUserWidget",
    "DNDConfig": null,
    "__parentReadjusting__": false,
    "_children_": [],
    "_height_": {
        "type": "string",
        "value": "111dp"
    },
    "_margin_": [
        0,
        0,
        0,
        0
    ],
    "_orientation_": 1,
    "_padding_": [
        0,
        0,
        0,
        0
    ],
    "_percent_": true,
    "_skin_": "s24c92fc23b14f5484b693ee9b8a9b35",
    "_top_": {
        "type": "string",
        "value": "0dp"
    },
    "_width_": {
        "type": "string",
        "value": "100%"
    },
    "android": {},
    "androidwearos": {},
    "areflexpropsreferenced": false,
    "canUpdateUI": true,
    "centerx": {
        "type": "string",
        "value": "50%"
    },
    "clipbounds": true,
    "containerweight": 0,
    "dataDiffs": {
        "btnBack": {
            "__events__": {},
            "__info__": {
                "kuid": "h495cc10b24e43a5b793083065e1e596",
                "srcKUID": "h24be82bc96e4ee6a04762680f6e874e",
                "wType": "Button"
            },
            "responsiveData": {
                "b3": {}
            },
            "width": {
                "Default": {
                    "type": "string",
                    "value": "17.75%"
                }
            }
        },
        "btnCancel": {
            "__events__": {},
            "__info__": {
                "kuid": "a14b6c7872834bc29ebce37bb8bac17c",
                "srcKUID": "e47a358a81aa4a0da07a4a7c8e127177",
                "wType": "Button"
            },
            "centerX": {},
            "centerY": {},
            "i18n_text": "i18n.konybb.common.cancel",
            "left": {},
            "responsiveData": {
                "b1": {
                    "centerX": {
                        "type": "string",
                        "value": ""
                    },
                    "centerY": {
                        "type": "string",
                        "value": "50%"
                    },
                    "left": {
                        "type": "string",
                        "value": ""
                    },
                    "right": {
                        "type": "string",
                        "value": "210dp"
                    },
                    "width": {
                        "type": "string",
                        "value": "170dp"
                    }
                },
                "b2": {
                    "centerX": {
                        "type": "string",
                        "value": ""
                    },
                    "centerY": {
                        "type": "string",
                        "value": "50%"
                    },
                    "left": {
                        "type": "string",
                        "value": ""
                    },
                    "right": {
                        "type": "string",
                        "value": "210dp"
                    },
                    "width": {
                        "type": "string",
                        "value": "170dp"
                    }
                },
                "b3": {
                    "centerX": {
                        "type": "string",
                        "value": ""
                    },
                    "centerY": {
                        "type": "string",
                        "value": "50%"
                    },
                    "desktopweb": {
                        "centerY": {
                            "type": "string",
                            "value": "50.00%"
                        }
                    },
                    "left": {
                        "type": "string",
                        "value": "58%"
                    },
                    "right": {
                        "type": "string",
                        "value": ""
                    },
                    "width": {
                        "type": "string",
                        "value": "17%"
                    }
                },
                "b4": {
                    "centerY": {
                        "type": "string",
                        "value": ""
                    },
                    "desktopweb": {},
                    "left": {
                        "type": "string",
                        "value": "2.50%"
                    },
                    "top": {
                        "type": "number",
                        "value": "70"
                    },
                    "width": {
                        "type": "string",
                        "value": "95%"
                    }
                }
            },
            "right": {},
            "text": "",
            "top": {},
            "width": {}
        },
        "btnNext": {
            "__events__": {},
            "__info__": {
                "kuid": "d137a9c19af54f9da53c02327275d655",
                "srcKUID": "b82d156418d9458d809e69dc41992a16",
                "wType": "Button"
            },
            "centerX": {},
            "centerY": {},
            "i18n_text": null,
            "left": {
                "Default": {
                    "type": "string",
                    "value": "79.83%"
                }
            },
            "responsiveData": {
                "b1": {
                    "left": {
                        "type": "string",
                        "value": ""
                    },
                    "right": {
                        "type": "string",
                        "value": "20px"
                    },
                    "text": "Browse",
                    "width": {
                        "type": "string",
                        "value": "170dp"
                    }
                },
                "b2": {
                    "left": {
                        "type": "string",
                        "value": ""
                    },
                    "right": {
                        "type": "string",
                        "value": "20px"
                    },
                    "width": {
                        "type": "string",
                        "value": "170dp"
                    }
                },
                "b3": {
                    "centerX": {
                        "type": "string",
                        "value": ""
                    },
                    "centerY": {
                        "type": "string",
                        "value": "50%"
                    },
                    "left": {
                        "type": "string",
                        "value": ""
                    },
                    "right": {
                        "type": "string",
                        "value": "4%"
                    },
                    "width": {
                        "type": "string",
                        "value": "17%"
                    }
                },
                "b4": {
                    "centerY": {
                        "type": "string",
                        "value": ""
                    },
                    "left": {
                        "type": "string",
                        "value": "2.50%"
                    },
                    "top": {
                        "type": "string",
                        "value": "20dp"
                    },
                    "width": {
                        "type": "string",
                        "value": "95%"
                    }
                }
            },
            "right": {},
            "text": "Browse",
            "top": {},
            "width": {}
        },
        "btnOption": {
            "__events__": {},
            "__info__": {
                "kuid": "cfb403405a884a45a83b6d0e751a4db9",
                "srcKUID": "ebf49918aa7a419fb39b29e23b734b42",
                "wType": "Button"
            },
            "centerX": {},
            "height": {
                "Default": {
                    "type": "string",
                    "value": "41dp"
                }
            },
            "isVisible": false,
            "left": {},
            "responsiveData": {
                "b1": {
                    "isVisible": null,
                    "left": {
                        "type": "string",
                        "value": ""
                    },
                    "right": {
                        "type": "string",
                        "value": "400dp"
                    },
                    "width": {
                        "type": "string",
                        "value": "170dp"
                    }
                },
                "b2": {
                    "isVisible": null,
                    "left": {
                        "type": "string",
                        "value": ""
                    },
                    "right": {
                        "type": "string",
                        "value": "400dp"
                    },
                    "width": {
                        "type": "string",
                        "value": "170dp"
                    }
                },
                "b3": {
                    "centerX": {
                        "type": "string",
                        "value": ""
                    },
                    "centerY": {
                        "type": "string",
                        "value": "50.00%"
                    },
                    "isVisible": null,
                    "left": {
                        "type": "string",
                        "value": ""
                    },
                    "right": {
                        "type": "string",
                        "value": "400dp"
                    },
                    "width": {
                        "type": "string",
                        "value": "170dp"
                    }
                }
            },
            "right": {},
            "width": {}
        },
        "flxMain": {
            "__events__": {},
            "__info__": {
                "kuid": "f6eeca3360ab4c8493d5851826ea5bb4",
                "srcKUID": "d54f919210284a3a8ba217e23f749884",
                "wType": "FlexContainer"
            },
            "centerY": {
                "Default": {
                    "type": "number",
                    "value": ""
                }
            },
            "responsiveData": {
                "b2": {},
                "b3": {
                    "left": {
                        "type": "string",
                        "value": "0dp"
                    },
                    "top": {
                        "type": "string",
                        "value": "0dp"
                    }
                }
            }
        },
        "formActionsNew": {
            "__events__": {},
            "__info__": {
                "isRoot": true,
                "kuid": "ed309f0de4b940e394649ac34ca1d9ca",
                "srcKUID": "a571c5a347394d3fb1e9debcf70da170",
                "wType": "FlexContainer"
            },
            "autogrowMode": {
                "Default": 0
            },
            "height": {},
            "isVisible": true,
            "responsiveData": {
                "b4": {
                    "height": {
                        "type": "string",
                        "value": "140dp"
                    }
                }
            }
        }
    },
    "desktopweb": {},
    "enablescrolling": true,
    "id": "filesFormActionsNew",
    "info": null,
    "ipad": {},
    "iphone": {},
    "iscustomlayout": false,
    "isdatareferenced": false,
    "isvisible": true,
    "kiosk": {},
    "kuid": "ed309f0de4b940e394649ac34ca1d9ca",
    "layouttype": 2,
    "masterType": 0,
    "name": "kony.ui.UserWidgetInstance",
    "parent": "flxBWTAddFileActions",
    "pf": "frmEditBulkTemplateFile",
    "responsiveData": {
        "b4": {
            "height": {
                "type": "string",
                "value": "140dp"
            }
        }
    },
    "retaincontentalignment": false,
    "retainflexpositionproperties": false,
    "snapgridsize": 10,
    "snaptogrid": true,
    "sourceUserWidget": "a571c5a347394d3fb1e9debcf70da170",
    "spa": {},
    "spaan": {},
    "spaandroidtablet": {},
    "spabb": {},
    "spaip": {},
    "spaipad": {},
    "spamobile": {},
    "spatablet": {},
    "spawindowstablet": {},
    "spawinphone8": {},
    "tabrcandroid": {},
    "vizProps": {
        "hidewidgethierarchy": false
    },
    "wType": "UserWidgetInstance",
    "windows10": {},
    "windows8": {},
    "winphone10": {},
    "winphone8": {},
    "zindex": 1
}