{
    "@class": "com.kony.gen.viz.model.component.KVizLabel",
    "DNDConfig": null,
    "__parentReadjusting__": false,
    "_height_": {
        "type": "ref",
        "value": "preferred"
    },
    "_left_": {
        "type": "string",
        "value": "6.07%"
    },
    "_margin_": [
        1,
        1,
        1,
        1
    ],
    "_padding_": [
        0,
        0,
        2,
        0
    ],
    "_skin_": "s18d3552bc4143569a7c5aef6bd5eaa1",
    "_text_": " Create  Template - Extract Recipients From File",
    "_top_": {
        "type": "string",
        "value": "25dp"
    },
    "_width_": {
        "type": "string",
        "value": "88%"
    },
    "_wrapping_": 2,
    "accessibilityconfig": {
        "a11yLabel": "Wire Transfer - Bulk Transfer Activity"
    },
    "android": {
        "textStyle": {
            "letterSpacing": 0,
            "strikeThrough": false
        }
    },
    "canUpdateUI": true,
    "containerweight": 100,
    "contentalignment": 4,
    "id": "lblAddAccountHeading",
    "info": null,
    "ipad": {
        "psp": {
            "wrapping": 2
        }
    },
    "iphone": {
        "psp": {
            "wrapping": 2
        }
    },
    "isvisible": true,
    "kuid": "aa8f8bf3bc0f4c19940e836f0284ea47",
    "name": "kony.ui.Label",
    "paddinginpixel": false,
    "parent": "BWFileTransactionHeader",
    "pf": "frmEditBulkTemplateFile",
    "responsiveData": {
        "b1": {
            "left": {
                "type": "string",
                "value": "7%"
            },
            "text": "Edit Recipients - Extract Recipients From File",
            "width": {
                "type": "string",
                "value": "86%"
            }
        },
        "b2": {
            "text": "Edit Recipients - Extract Recipients From File"
        },
        "b3": {
            "height": {
                "type": "string",
                "value": "20dp"
            },
            "left": {
                "type": "string",
                "value": "5%"
            },
            "text": "Edit Recipients - Extract Recipients From File",
            "top": {
                "type": "string",
                "value": "30dp"
            }
        },
        "b4": {
            "isVisible": false,
            "top": {
                "type": "string",
                "value": ""
            }
        }
    },
    "texti18n": "i18n.bulkWireTemplate.createRecipientHeader",
    "tooltip": "",
    "wType": "Label",
    "zindex": 1
}