{
    "@class": "com.kony.gen.viz.model.component.KVizLabel",
    "DNDConfig": null,
    "__parentReadjusting__": false,
    "_height_": {
        "type": "ref",
        "value": "preferred"
    },
    "_left_": {
        "type": "string",
        "value": "2.52%"
    },
    "_margin_": [
        1,
        1,
        1,
        1
    ],
    "_padding_": [
        0,
        0,
        0,
        0
    ],
    "_skin_": "sd58e7dec3cf45cfb721a7ac97d2837a",
    "_text_": "Browse File",
    "_width_": {
        "type": "ref",
        "value": "preferred"
    },
    "_wrapping_": 2,
    "android": {
        "textStyle": {
            "letterSpacing": 0,
            "strikeThrough": false
        }
    },
    "canUpdateUI": true,
    "centery": {
        "type": "string",
        "value": "50%"
    },
    "containerweight": 100,
    "contentalignment": 4,
    "id": "lblUploadFilesHeader",
    "info": null,
    "ipad": {
        "psp": {
            "wrapping": 2
        }
    },
    "iphone": {
        "psp": {
            "wrapping": 2
        }
    },
    "iscustomlayout": false,
    "isvisible": true,
    "kuid": "ee4d3593fd864605a52a5fc51818af1e",
    "name": "kony.ui.Label",
    "parent": "flxBWTHeader",
    "pf": "frmEditBulkTemplateFile",
    "retaincontentalignment": false,
    "retainflexpositionproperties": false,
    "texti18n": "i18n.bulkwires.browseFile",
    "tooltip": "",
    "wType": "Label",
    "zindex": 1
}