{
    "@class": "com.kony.gen.viz.model.component.KVizTextBox2",
    "DNDConfig": null,
    "__parentReadjusting__": false,
    "_height_": {
        "type": "string",
        "value": "40dp"
    },
    "_left_": {
        "type": "string",
        "value": "0dp"
    },
    "_margin_": [
        0,
        0,
        0,
        0
    ],
    "_padding_": [
        25,
        3,
        1,
        3
    ],
    "_placeholder_": "",
    "_skin_": "sd91788aa8ad4f3ea57365241c5a4711",
    "_text_": "",
    "_top_": {
        "type": "string",
        "value": "0dp"
    },
    "_width_": {
        "type": "string",
        "value": "100%"
    },
    "accessibilityconfig": {
        "a11yLabel": "$"
    },
    "autocapitalize": "none",
    "autocomplete": false,
    "autocorrect": false,
    "autofilter": false,
    "canUpdateUI": true,
    "containerheight": "",
    "containerheightmode": 1,
    "containerweight": 100,
    "contentalignment": 4,
    "desktopweb": {
        "padding": [
            25,
            3,
            1,
            3
        ],
        "paddingInPixel": true,
        "placeholderSkin": "s38834f7b6374aa597f26c3d9367ae84"
    },
    "disabledSkins": {},
    "focusskin": "s2faf9c2766d4142ab33d0bf97445ae0",
    "id": "txtAmountRangeTo",
    "info": null,
    "isvisible": true,
    "keyboardtype": "A",
    "kiosk": {
        "psp": {
            "toolTip": "To"
        }
    },
    "kuid": "b68c1001346f49409e3bf2f68d814fb4",
    "mode": "A",
    "name": "kony.ui.TextBox2",
    "paddinginpixel": true,
    "parent": "flxAmountRangeTo",
    "pf": "userwidgetmodel",
    "placeholderskin": "s38834f7b6374aa597f26c3d9367ae84",
    "securetextentry": false,
    "textinputmode": "A",
    "viewtype": "default",
    "wType": "TextField",
    "zindex": 1
}