{
    "@class": "com.kony.gen.viz.model.component.KVizTextBox2",
    "DNDConfig": null,
    "__parentReadjusting__": false,
    "_height_": {
        "type": "string",
        "value": "40dp"
    },
    "_left_": {
        "type": "string",
        "value": "30dp"
    },
    "_margin_": [
        0,
        0,
        0,
        0
    ],
    "_padding_": [
        3,
        0,
        0,
        0
    ],
    "_placeholder_": "Type Keyword",
    "_skin_": "sd91788aa8ad4f3ea57365241c5a4711",
    "_text_": "",
    "_top_": {
        "type": "string",
        "value": "7dp"
    },
    "_width_": {
        "type": "string",
        "value": "90%"
    },
    "accessibilityconfig": {
        "a11yLabel": "Type Keyword"
    },
    "autocapitalize": "none",
    "autocomplete": false,
    "autocorrect": false,
    "autofilter": false,
    "canUpdateUI": true,
    "containerheight": "",
    "containerheightmode": 1,
    "containerweight": 100,
    "contentalignment": 4,
    "desktopweb": {
        "placeholderSkin": "s38834f7b6374aa597f26c3d9367ae84"
    },
    "disabledSkins": {},
    "focusskin": "s2faf9c2766d4142ab33d0bf97445ae0",
    "id": "txtKeyword",
    "info": null,
    "isvisible": true,
    "keyboardtype": "A",
    "kiosk": {
        "psp": {
            "toolTip": "Keyword"
        }
    },
    "kuid": "ece81243765b4725964527419ae4579c",
    "mode": "A",
    "name": "kony.ui.TextBox2",
    "parent": "flxLeftSearch",
    "pf": "userwidgetmodel",
    "placeholderskin": "s38834f7b6374aa597f26c3d9367ae84",
    "securetextentry": false,
    "textinputmode": "A",
    "viewtype": "default",
    "wType": "TextField",
    "zindex": 1
}