{
    "@class": "com.kony.gen.viz.model.component.KVizButton",
    "DNDConfig": null,
    "_height_": {
        "type": "ref",
        "value": "preferred"
    },
    "_left_": {
        "type": "number",
        "value": ""
    },
    "_margin_": [
        6,
        6,
        6,
        6
    ],
    "_padding_": [
        0,
        0,
        0,
        0
    ],
    "_right_": {
        "type": "number",
        "value": ""
    },
    "_skin_": "sd3d7d8bf6784b30adadc45c3bbb44e0",
    "_text_": "",
    "_top_": {
        "type": "number",
        "value": "0"
    },
    "_width_": {
        "type": "ref",
        "value": "preferred"
    },
    "canUpdateUI": true,
    "centerx": {
        "type": "string",
        "value": "86%"
    },
    "centery": {
        "type": "string",
        "value": "50%"
    },
    "containerweight": 100,
    "contentalignment": 5,
    "desktopweb": {},
    "disabledSkins": {
        "focusSkin": "s6df8acb0c1c4917ba1f6dba75f4ac3a"
    },
    "displaytext": true,
    "id": "btnEditButton",
    "info": null,
    "iscustomlayout": false,
    "isvisible": false,
    "kuid": "cfa4ef97eb064afaacfbb6b9cb1ab5bb",
    "name": "kony.ui.Button",
    "parent": "flxEditButton",
    "pf": "frmCustomRoleAcknowledgement",
    "responsiveData": {
        "b1": {
            "centerX": {
                "type": "string",
                "value": ""
            },
            "disabledSkins": {},
            "right": {
                "type": "string",
                "value": "3%"
            },
            "text": "Edit"
        },
        "b2": {
            "centerX": {
                "type": "string",
                "value": ""
            },
            "contentAlignment": 6,
            "left": {
                "type": "string",
                "value": ""
            },
            "right": {
                "type": "string",
                "value": "30dp"
            }
        },
        "b4": {
            "centerX": {
                "type": "string",
                "value": ""
            },
            "right": {
                "type": "string",
                "value": "3%"
            },
            "text": "Edit"
        }
    },
    "retaincontentalignment": false,
    "retainflexpositionproperties": false,
    "texti18n": "i18n.billPay.Edit",
    "wType": "Button"
}