{
    "DNDConfig": null,
    "_height_": {
        "type": "string",
        "value": "100%"
    },
    "_left_": {
        "type": "string",
        "value": "52.50%"
    },
    "_margin_": [
        0,
        0,
        0,
        0
    ],
    "_orientation_": 6,
    "_padding_": [
        0,
        0,
        0,
        0
    ],
    "_percent_": true,
    "_skin_": "s24c92fc23b14f5484b693ee9b8a9b35",
    "_top_": {
        "type": "string",
        "value": "0dp"
    },
    "_width_": {
        "type": "string",
        "value": "28.29%"
    },
    "allboxes": [],
    "autogrowmode": 0,
    "canUpdateUI": true,
    "children": [
        "CopylblBankName0d407e605ff1141",
        "imgSortBankName"
    ],
    "clipbounds": true,
    "containerweight": 100,
    "enablescrolling": true,
    "id": "flxBankName",
    "info": null,
    "isvisible": true,
    "kuid": "d4cf95d0d109407d810a1c12273e9f42",
    "layouttype": 3,
    "name": "kony.ui.FlexContainer",
    "parent": "flxSortMakeTransfers",
    "pf": "frmCustomRoleAcknowledgement",
    "responsiveData": {
        "b1": {
            "width": {
                "type": "string",
                "value": "20%"
            }
        },
        "b2": {
            "left": {
                "type": "string",
                "value": "40%"
            },
            "width": {
                "type": "string",
                "value": "15%"
            }
        },
        "b4": {
            "width": {
                "type": "string",
                "value": "20%"
            }
        }
    },
    "snapgridsize": 10,
    "snaptogrid": true,
    "wType": "FlexContainer",
    "widgetalignment": 1,
    "zindex": 1
}