{
    "DNDConfig": null,
    "__parentReadjusting__": false,
    "_height_": {
        "type": "ref",
        "value": "preferred"
    },
    "_left_": {
        "type": "string",
        "value": "6.07%"
    },
    "_margin_": [
        0,
        0,
        0,
        0
    ],
    "_orientation_": 6,
    "_padding_": [
        0,
        0,
        0,
        0
    ],
    "_percent_": true,
    "_skin_": "sdc143f0e5b64ae3a3f155f691c73fa7",
    "_top_": {
        "type": "string",
        "value": "0px"
    },
    "_width_": {
        "type": "string",
        "value": "58.10%"
    },
    "allboxes": [],
    "autogrowmode": 1,
    "canUpdateUI": true,
    "children": [
        "flxOTPheader",
        "flxStep3"
    ],
    "clipbounds": false,
    "containerweight": 100,
    "enablescrolling": true,
    "id": "flxOneTimeTransfer",
    "info": null,
    "isvisible": false,
    "kuid": "f16712f633bc4041a4d9ec798eb70760",
    "layouttype": 4,
    "name": "kony.ui.FlexContainer",
    "parent": "flxMainWrapper",
    "pf": "frmWireTransferOneTimePaymentStep3",
    "responsiveData": {
        "b1": {
            "isVisible": true,
            "skin": "sdc143f0e5b64ae3a3f155f691c73fa7"
        },
        "b2": {
            "isVisible": true,
            "left": {
                "type": "string",
                "value": "6.07%"
            },
            "skin": "sdc143f0e5b64ae3a3f155f691c73fa7"
        },
        "b3": {
            "isVisible": true,
            "left": {
                "type": "string",
                "value": "2%"
            },
            "skin": "sdc143f0e5b64ae3a3f155f691c73fa7",
            "top": {
                "type": "string",
                "value": "20dp"
            },
            "width": {
                "type": "string",
                "value": "96%"
            }
        },
        "b4": {
            "isVisible": true,
            "left": {
                "type": "string",
                "value": "3.25%"
            },
            "skin": "sdc143f0e5b64ae3a3f155f691c73fa7",
            "width": {
                "type": "string",
                "value": "93.50%"
            }
        }
    },
    "snapgridsize": 10,
    "snaptogrid": true,
    "wType": "FlexContainer",
    "widgetalignment": 1,
    "zindex": 6
}