{
    "@class": "com.kony.gen.viz.model.component.KVizLabel",
    "DNDConfig": null,
    "__parentReadjusting__": false,
    "_height_": {
        "type": "string",
        "value": "18dp"
    },
    "_left_": {
        "type": "string",
        "value": "15dp"
    },
    "_margin_": [
        1,
        1,
        1,
        1
    ],
    "_padding_": [
        0,
        0,
        0,
        0
    ],
    "_right_": {
        "type": "string",
        "value": "15dp"
    },
    "_skin_": "se56454286124fef97a46e7249497088",
    "_text_": "Jack's savings account",
    "_top_": {
        "type": "string",
        "value": "14dp"
    },
    "_wrapping_": 2,
    "accessibilityconfig": {
        "a11yLabel": "Jacks savings account"
    },
    "android": {
        "textStyle": {
            "letterSpacing": 0,
            "strikeThrough": false
        }
    },
    "canUpdateUI": true,
    "centery": {
        "type": "string",
        "value": "50%"
    },
    "containerweight": 100,
    "contentalignment": 1,
    "id": "lblToValue",
    "info": null,
    "ipad": {
        "psp": {
            "wrapping": 2
        }
    },
    "iphone": {
        "psp": {
            "wrapping": 2
        }
    },
    "isvisible": true,
    "kuid": "d345f5b81c8d438293770306c528096b",
    "name": "kony.ui.Label",
    "parent": "flxTo",
    "pf": "frmWireTransferOneTimePaymentStep3",
    "tooltip": "",
    "wType": "Label",
    "zindex": 1
}