{
	 "@class": "com.kony.gen.viz.model.component.KVizLabel",
	 "DNDConfig": null,
	 "__parentReadjusting__": false,
	 "_height_": {
		 "type": "ref",
		 "value": "preferred"
	},
	 "_margin_": [
		 1,
		 1,
		 1,
		 1
	],
	 "_padding_": [
		 0,
		 0,
		 0,
		 0
	],
	 "_skin_": "s2d800e3e18244b3b0795e5e5d6a0f77",
	 "_text_": "Label",
	 "_top_": {
		 "type": "string",
		 "value": "59.8%"
	},
	 "_width_": {
		 "type": "string",
		 "value": "84%"
	},
	 "_wrapping_": 2,
	 "android": {
		 "textStyle": {
			 "letterSpacing": 0,
			 "strikeThrough": false
		}
	},
	 "canUpdateUI": true,
	 "centerx": {
		 "type": "string",
		 "value": "50%"
	},
	 "containerweight": 100,
	 "contentalignment": 4,
	 "id": "lblWrongInfo",
	 "info": null,
	 "ipad": {
		 "psp": {
			 "wrapping": 2
		}
	},
	 "iphone": {
		 "psp": {
			 "wrapping": 2
		}
	},
	 "isvisible": false,
	 "kuid": "a366af506aef42df9151d1b846615cf4",
	 "name": "kony.ui.Label",
	 "parent": "flxLetsVerifyCntr",
	 "pf": "userwidgetmodel",
	 "texti18n": "i18n.login.wrongInfo",
	 "tooltip": "",
	 "wType": "Label",
	 "zindex": 1,
	 "accessibilityconfig": {
		 "a11yLabel": "It seems that the information youve provided does not match with our records."
	}
}