{
    "DNDConfig": null,
    "_height_": {
        "type": "string",
        "value": "90dp"
    },
    "_left_": {
        "type": "string",
        "value": "7dp"
    },
    "_margin_": [
        0,
        0,
        0,
        0
    ],
    "_orientation_": 6,
    "_padding_": [
        0,
        0,
        0,
        0
    ],
    "_percent_": true,
    "_right_": {
        "type": "string",
        "value": "0dp"
    },
    "_skin_": "sfa77fa8edbe48c0b2a353776df1cb24",
    "_top_": {
        "type": "string",
        "value": "0"
    },
    "_width_": {
        "type": "string",
        "value": "99.45%"
    },
    "allboxes": [],
    "autogrowmode": 0,
    "canUpdateUI": true,
    "children": [
        "flxServiceError",
        "flxClose"
    ],
    "clipbounds": true,
    "containerweight": 100,
    "enablescrolling": true,
    "id": "flxErrorLayout",
    "info": null,
    "iscustomlayout": false,
    "isvisible": true,
    "kuid": "cc43115d619943c393e3c75a2cc3cfcd",
    "layouttype": 2,
    "name": "kony.ui.FlexContainer",
    "parent": "flxContent",
    "pf": "frmP2PTransfer",
    "responsiveData": {
        "b1": {
            "isVisible": false,
            "top": {
                "type": "number",
                "value": "15"
            },
            "width": {
                "type": "string",
                "value": "1200dp"
            }
        },
        "b2": {
            "isVisible": false,
            "top": {
                "type": "number",
                "value": "15"
            },
            "width": {
                "type": "string",
                "value": "98.80%"
            }
        },
        "b3": {
            "isVisible": false,
            "right": {
                "type": "string",
                "value": ""
            },
            "top": {
                "type": "string",
                "value": "3dp"
            },
            "width": {
                "type": "string",
                "value": "99%"
            }
        },
        "b4": {
            "isVisible": false,
            "top": {
                "type": "string",
                "value": "15dp"
            },
            "width": {
                "type": "string",
                "value": "1200dp"
            }
        }
    },
    "retaincontentalignment": false,
    "retainflexpositionproperties": false,
    "retainflowhorizontalalignment": false,
    "snapgridsize": 10,
    "snaptogrid": true,
    "wType": "FlexContainer",
    "widgetalignment": 1
}