{
    "@class": "com.kony.gen.viz.model.component.KVizUserWidget",
    "DNDConfig": null,
    "_children_": [],
    "_height_": {
        "type": "ref",
        "value": "preferred"
    },
    "_left_": {
        "type": "string",
        "value": "83dp"
    },
    "_margin_": [
        0,
        0,
        0,
        0
    ],
    "_orientation_": 1,
    "_padding_": [
        0,
        0,
        0,
        0
    ],
    "_percent_": true,
    "_render_": true,
    "_right_": {
        "type": "string",
        "value": "489dp"
    },
    "_skin_": "sfa77fa8edbe48c0b2a353776df1cb24",
    "_top_": {
        "type": "string",
        "value": "20dp"
    },
    "_width_": {
        "type": "ref",
        "value": "preferred"
    },
    "canUpdateUI": true,
    "containerweight": 0,
    "data": {
        "baseCurrency": true,
        "btnToAccountEmptyRecordAction": "",
        "currencyList": "[{\"USD\":\"USD\"},{\"EUR\":\"EUR\"}]",
        "dvCriteria": "{\"amount\":\"{$.c.amount}\",\"beneficiaryId\":\"{$.c.beneficiaryId}\",\"frequencyStartDate\":\"{$.c.frequencyStartDate}\",\"frequencyEndDate\":\"{$.c.frequencyEndDate}\",\"frequencyType\":\"{$.c.frequencyType}\",\"fromAccountNumber\":\"{$.c.fromAccountNumber}\",\"isScheduled\":\"{$.c.isScheduled}\",\"scheduledDate\":\"{$.c.scheduledDate}\",\"paidBy\":\"{$.c.paidBy}\",\"transactionsNotes\":\"{$.c.transactionsNotes}\",\"transactionType\":\"{$.c.transactionType}\",\"transactionCurrency\":\"{$.c.transactionCurrency}\",\"fromAccountCurrency\":\"{$.c.fromAccountCurrency}\",\"toAccountCurrency\":\"{$.c.toAccountCurrency}\",\"numberOfRecurrences\":\"{$.c.numberOfRecurrences}\",\"ExternalAccountNumber\":\"{$.c.ExternalAccountNumber}\",\"personId\":\"{$.c.PayPersonId}\"}",
        "dvObjName": "{\"New Payee\":\"Transactions\",\"Existing Payee\":\"Transaction\"}",
        "dvObjServiceName": "{\"New Payee\":\"RBObjects\",\"Existing Payee\":\"TransactionObjects\"}",
        "dvOpName": "{\"Existing Payee\":{\"Same Bank Transfer\":{\"default\":\"TransferToOwnAccounts\",\"external\":\"IntraBankAccFundTransfer\",\"credit\":\"createCreditCardTransfer\"},\"Domestic Transfer\":\"InterBankAccFundTransfer\",\"International Transfer\":\"InternationalAccFundTransfer\",\"Pay a Person\":\"P2PTransfer\"},\"New Payee\":\"createOneTimeTransfer\"}",
        "feesPaidOption3": "{\"optionValue\":\"{i.i18n.UnifiedTransfer.Shared}\",\"optionSeleted\":false,\"infoIconText\":{\"text\":{\"$.BREAKPTS.BP1\":\"Both (Shared):  The Payer (sender of the payment) will pay all fees charged by the sending bank. The Payee (recipient of the payment) will pay all fees charged by the receiving bank.\",\"default\":\"Both (Shared):  The Payer (sender of the payment) will pay all fees charged by the sending bank. The Payee (recipient of the payment) will pay all fees charged by the receiving bank.\"}}}",
        "frequencyToRemove": "\"\"",
        "fromAccountActionKey": "",
        "lblFrequencyType": "{\"$.BREAKPTS.BP1\":\"{i.i18n.transfers.lblForHowLong}\",\"default\":\"{i.i18n.transfers.lblForHowLong}\"}",
        "lblFromAccount": "{\"$.BREAKPTS.BP1\":\"{i.i18n.UnifiedTransfer.FromAccount}:\",\"default\":\"{i.i18n.UnifiedTransfer.FromAccount}:\"}",
        "lblLookup": "",
        "lblNotes": "{\"$.BREAKPTS.BP1\":\"{i.i18n.UnifiedTransfer.PaymentDetailsOptional}\",\"default\":\"{i.i18n.UnifiedTransfer.PaymentDetailsOptional}\"}",
        "lblPayeeDetail1": "{\"$.BREAKPTS.BP1\":\"Mobile Number:\",\"default\":\"Mobile Number:\"}",
        "lblPayeeDetailField2": "{\"$.BREAKPTS.BP1\":\"Email:\",\"default\":\"Email:\"}",
        "lblPayeeDetailField3": "",
        "lblPayeeDetailField4": "",
        "lblPayeeDetailFieldInfo": "You can fill any one of the fields provided below out of 2.",
        "lblSupportingDocuments": "{\"$.BREAKPTS.BP1\":\"{i.i18n.UnifiedTransfer.AttachDocuments}\",\"default\":\"{i.i18n.UnifiedTransfer.AttachDocuments}\"}",
        "lblToAccount": "{\"$.BREAKPTS.BP1\":\"{i.i18n.UnifiedTransfer.ToAccount}:\",\"default\":\"{i.i18n.UnifiedTransfer.ToAccount}:\"}",
        "lblToAccountDropdownField1": "{\"external\":{\"mapping\":[{\"fieldMap\":\"name\"}],\"fieldType\":\"Label\"}}",
        "lblToAccountDropdownField2": "",
        "lblToAccountDropdownField3": "{\"external\":{\"mapping\":[{\"fieldMap\":\"email,phone\"}],\"fieldType\":\"Label\"}}",
        "lblToAccountEmptyRecord": "{\"default\":\"No results found.\"}",
        "lblTransferCurrency": "{\"$.BREAKPTS.BP1\":\"{i.i18n.WireTransfer.TransferCurrency}:\",\"default\":\"{i.i18n.WireTransfer.TransferCurrency}:\"}",
        "payeeTypeOption2": "",
        "paymentAmountOption1": "",
        "paymentAmountOption2": "",
        "paymentAmountOption3": "",
        "paymentAmountOption4": "",
        "paymentMethodOption1": "",
        "paymentMethodOption2": "",
        "paymentMethodOption3": "",
        "paymentMethodOption4": "",
        "paymentMethodOption5": "",
        "sknACDropdownField3": "{\"$.BREAKPTS.BP1\":\"sknLbl7272722pxbordere3e3e3\",\"default\":\"sknLbl7272722pxbordere3e3e3\"}",
        "sknACToDropdownField3": "{\"$.BREAKPTS.BP1\":\"sknSSP72727213Px\",\"default\":\"sknSSP72727213Px\"}",
        "toAccountGroupIdentifier": "{\"external\":{\"identifier\":\"email,phone\"},\"segregation\":{\"Savings\":\"Saving Account\",\"Checking\":\"Checking Account\",\"Loan\":\"Loan Account\",\"Deposit\":\"Deposit Account\",\"CreditCard\":\"Credit Card Account\",\"default\":\"All P2P Contacts\"}}",
        "toAccountListObject": "PayPerson",
        "toAccountOperationName": "getP2PPayee",
        "txtInputE2E": "",
        "txtInputIntermediaryBIC": "",
        "txtInputNewPayeeAccountNumber": "{\"mapping\":\"{$.c.newPayeeAccountNumber}\",\"placeHolder\":{\"$.BREAKPTS.BP1\":\"Enter Account Number\",\"default\":\"Enter Account Number\"},\"maxLength\": \"25\"}",
        "txtInputNewPayeeName": "{\"mapping\":\"{$.c.newPayeeName}\",\"placeHolder\":{\"$.BREAKPTS.BP1\":\"Enter Payee Name\",\"default\":\"Enter Payee Name\"},\"maxLength\": \"25\"}",
        "txtInputPayeeDetail1": "{\"mapping\":\"{$.c.phoneNumber}\",\"placeHolder\":{\"$.BREAKPTS.BP1\":\"Enter Mobile Number\",\"default\":\"Enter Mobile Number\"},\"inputMode\":\"NUMERIC\",\"formatType\":\"Phone\",\"backendMapping\" : \"phone\"}",
        "txtInputPayeeDetail2": "{\"mapping\":\"{$.c.emailAddress}\",\"placeHolder\":{\"$.BREAKPTS.BP1\":\"Enter Email Address\",\"default\":\"Enter Email Address\"},\"maxLength\": \"20\",\"backendMapping\" : \"email\"}",
        "txtInputPayeeDetail3": "",
        "txtInputPayeeDetail4": "",
        "txtInputReenterAccountNumber": "{\"mapping\":\"{$.c.newPayeeAccountNumberReenter}\",\"placeHolder\":{\"$.BREAKPTS.BP1\":\"Enter Account Number\",\"default\":\"Enter Account Number\"},\"maxLength\": \"25\"}",
        "txtInputTransferAmount": "{\"mapping\":\"{$.c.transferAmount}\",\"placeHolder\":{\"$.BREAKPTS.BP1\":\"0.00\",\"default\":\"0.00\"},\"inputMode\":\"NUMERIC\",\"type\":\"Amount\",\"currencyCode\":\"$.c.transferCurrency\",\"maxLength\":\"10\"}",
        "txtInputfxRateReference": "{\"mapping\":\"{$.c.fxRateReference}\",\"placeHolder\":{\"$.BREAKPTS.BP1\":\"Enter FX Rate Ref\",\"default\":\"Enter FX Rate Ref\"},\"maxLength\": \"15\"}"
    },
    "id": "unifiedTransfers",
    "info": null,
    "iscustomlayout": false,
    "issegmentchild": false,
    "isvisible": true,
    "kuid": "feb3d3bf5c114ac1807701dbd469c4f1",
    "masterType": 1,
    "name": "kony.ui.UserWidgetInstance",
    "parent": "flxTransferContent",
    "pf": "frmP2PTransfer",
    "responsiveData": {
        "b1": {
            "height": {
                "type": "ref",
                "value": "preferred"
            },
            "left": {
                "type": "string",
                "value": "7dp"
            },
            "right": {
                "type": "string",
                "value": ""
            },
            "top": {
                "type": "string",
                "value": "16dp"
            },
            "width": {
                "type": "string",
                "value": "98%"
            },
            "zIndex": 4
        },
        "b2": {
            "left": {
                "type": "string",
                "value": "7dp"
            },
            "right": {
                "type": "string",
                "value": "7dp"
            },
            "top": {
                "type": "string",
                "value": "16dp"
            },
            "width": {
                "type": "string",
                "value": "98%"
            },
            "zIndex": 4
        },
        "b3": {
            "height": {
                "type": "ref",
                "value": "preferred"
            },
            "left": {
                "type": "string",
                "value": "6dp"
            },
            "right": {
                "type": "string",
                "value": "6dp"
            },
            "top": {
                "type": "string",
                "value": "0dp"
            },
            "width": {
                "type": "string",
                "value": "98%"
            },
            "zIndex": 4
        },
        "b4": {
            "height": {
                "type": "ref",
                "value": "preferred"
            },
            "left": {
                "type": "string",
                "value": "7dp"
            },
            "right": {
                "type": "string",
                "value": ""
            },
            "top": {
                "type": "string",
                "value": "16dp"
            },
            "width": {
                "type": "string",
                "value": "100%"
            },
            "zIndex": 4
        }
    },
    "retaincontentalignment": false,
    "retainflexpositionproperties": false,
    "retainflowhorizontalalignment": false,
    "sourceUserWidget": "f14284fe9d2f4e5f98012aac438631bf",
    "wType": "UserWidgetInstance",
    "zindex": 4
}