{
    "DNDConfig": null,
    "_bottom_": {
        "type": "number",
        "value": ""
    },
    "_height_": {
        "type": "string",
        "value": "101dp"
    },
    "_left_": {
        "type": "string",
        "value": "0%"
    },
    "_margin_": [
        0,
        0,
        0,
        0
    ],
    "_orientation_": 6,
    "_padding_": [
        0,
        0,
        0,
        0
    ],
    "_percent_": true,
    "_skin_": "sdc143f0e5b64ae3a3f155f691c73fa7",
    "_top_": {
        "type": "string",
        "value": "0dp"
    },
    "_width_": {
        "type": "string",
        "value": "100%"
    },
    "allboxes": [],
    "autogrowmode": 0,
    "canUpdateUI": true,
    "children": [
        "btnAddRecipient",
        "lblSeperator",
        "btnSendMoneyNewRecipient"
    ],
    "clipbounds": false,
    "containerweight": 100,
    "enablescrolling": true,
    "id": "flxAddRecipientButton",
    "info": null,
    "isvisible": true,
    "kuid": "gf37aa3e93fb47d282691ed33707e00a",
    "layouttype": 4,
    "name": "kony.ui.FlexContainer",
    "parent": "flxRightWrapper",
    "pf": "frmP2PSendMoneyTab",
    "responsiveData": {
        "b1": {
            "bottom": {
                "type": "string",
                "value": "15dp"
            }
        },
        "b2": {
            "bottom": {
                "type": "string",
                "value": "20dp"
            }
        },
        "b4": {
            "bottom": {
                "type": "string",
                "value": "15dp"
            }
        }
    },
    "snapgridsize": 10,
    "snaptogrid": true,
    "wType": "FlexContainer",
    "widgetalignment": 1,
    "zindex": 1
}