{
    "@class": "com.kony.gen.viz.model.container.KVizSegment2",
    "DNDConfig": null,
    "_bottom_": {
        "type": "string",
        "value": "5dp"
    },
    "_data_": [
        {
            "btnRequest": {
                "@class": "com.viz.ide.model.segment.SimpleTextSegmentData",
                "text": "REQUEST"
            },
            "btnSend": {
                "@class": "com.viz.ide.model.segment.SimpleTextSegmentData",
                "text": "SEND"
            },
            "imgDropdown": {
                "@class": "com.viz.ide.model.segment.ImageSegmentData",
                "src": "arrow_down.png"
            },
            "lblName": {
                "@class": "com.viz.ide.model.segment.SimpleTextSegmentData",
                "text": "Linda"
            },
            "lblPrimaryContact": {
                "@class": "com.viz.ide.model.segment.SimpleTextSegmentData",
                "text": "+1 900937465"
            },
            "lblSeparator": {
                "@class": "com.viz.ide.model.segment.SimpleTextSegmentData",
                "text": ""
            }
        },
        {
            "btnRequest": {
                "@class": "com.viz.ide.model.segment.SimpleTextSegmentData",
                "text": "REQUEST"
            },
            "btnSend": {
                "@class": "com.viz.ide.model.segment.SimpleTextSegmentData",
                "text": "SEND"
            },
            "imgDropdown": {
                "@class": "com.viz.ide.model.segment.ImageSegmentData",
                "src": "arrow_down.png"
            },
            "lblName": {
                "@class": "com.viz.ide.model.segment.SimpleTextSegmentData",
                "text": "Linda"
            },
            "lblPrimaryContact": {
                "@class": "com.viz.ide.model.segment.SimpleTextSegmentData",
                "text": "+1 900937465"
            },
            "lblSeparator": {
                "@class": "com.viz.ide.model.segment.SimpleTextSegmentData",
                "text": ""
            }
        },
        {
            "btnRequest": {
                "@class": "com.viz.ide.model.segment.SimpleTextSegmentData",
                "text": "REQUEST"
            },
            "btnSend": {
                "@class": "com.viz.ide.model.segment.SimpleTextSegmentData",
                "text": "SEND"
            },
            "imgDropdown": {
                "@class": "com.viz.ide.model.segment.ImageSegmentData",
                "src": "arrow_down.png"
            },
            "lblName": {
                "@class": "com.viz.ide.model.segment.SimpleTextSegmentData",
                "text": "Linda"
            },
            "lblPrimaryContact": {
                "@class": "com.viz.ide.model.segment.SimpleTextSegmentData",
                "text": "+1 900937465"
            },
            "lblSeparator": {
                "@class": "com.viz.ide.model.segment.SimpleTextSegmentData",
                "text": ""
            }
        },
        {
            "btnRequest": {
                "@class": "com.viz.ide.model.segment.SimpleTextSegmentData",
                "text": "REQUEST"
            },
            "btnSend": {
                "@class": "com.viz.ide.model.segment.SimpleTextSegmentData",
                "text": "SEND"
            },
            "imgDropdown": {
                "@class": "com.viz.ide.model.segment.ImageSegmentData",
                "src": "arrow_down.png"
            },
            "lblName": {
                "@class": "com.viz.ide.model.segment.SimpleTextSegmentData",
                "text": "Linda"
            },
            "lblPrimaryContact": {
                "@class": "com.viz.ide.model.segment.SimpleTextSegmentData",
                "text": "+1 900937465"
            },
            "lblSeparator": {
                "@class": "com.viz.ide.model.segment.SimpleTextSegmentData",
                "text": ""
            }
        },
        {
            "btnRequest": {
                "@class": "com.viz.ide.model.segment.SimpleTextSegmentData",
                "text": "REQUEST"
            },
            "btnSend": {
                "@class": "com.viz.ide.model.segment.SimpleTextSegmentData",
                "text": "SEND"
            },
            "imgDropdown": {
                "@class": "com.viz.ide.model.segment.ImageSegmentData",
                "src": "arrow_down.png"
            },
            "lblName": {
                "@class": "com.viz.ide.model.segment.SimpleTextSegmentData",
                "text": "Linda"
            },
            "lblPrimaryContact": {
                "@class": "com.viz.ide.model.segment.SimpleTextSegmentData",
                "text": "+1 900937465"
            },
            "lblSeparator": {
                "@class": "com.viz.ide.model.segment.SimpleTextSegmentData",
                "text": ""
            }
        },
        {
            "btnRequest": {
                "@class": "com.viz.ide.model.segment.SimpleTextSegmentData",
                "text": "REQUEST"
            },
            "btnSend": {
                "@class": "com.viz.ide.model.segment.SimpleTextSegmentData",
                "text": "SEND"
            },
            "imgDropdown": {
                "@class": "com.viz.ide.model.segment.ImageSegmentData",
                "src": "arrow_down.png"
            },
            "lblName": {
                "@class": "com.viz.ide.model.segment.SimpleTextSegmentData",
                "text": "Linda"
            },
            "lblPrimaryContact": {
                "@class": "com.viz.ide.model.segment.SimpleTextSegmentData",
                "text": "+1 900937465"
            },
            "lblSeparator": {
                "@class": "com.viz.ide.model.segment.SimpleTextSegmentData",
                "text": ""
            }
        },
        {
            "btnRequest": {
                "@class": "com.viz.ide.model.segment.SimpleTextSegmentData",
                "text": "REQUEST"
            },
            "btnSend": {
                "@class": "com.viz.ide.model.segment.SimpleTextSegmentData",
                "text": "SEND"
            },
            "imgDropdown": {
                "@class": "com.viz.ide.model.segment.ImageSegmentData",
                "src": "arrow_down.png"
            },
            "lblName": {
                "@class": "com.viz.ide.model.segment.SimpleTextSegmentData",
                "text": "Linda"
            },
            "lblPrimaryContact": {
                "@class": "com.viz.ide.model.segment.SimpleTextSegmentData",
                "text": "+1 900937465"
            },
            "lblSeparator": {
                "@class": "com.viz.ide.model.segment.SimpleTextSegmentData",
                "text": ""
            }
        }
    ],
    "_height_": {
        "type": "ref",
        "value": "preferred"
    },
    "_indicator_": "none",
    "_left_": {
        "type": "string",
        "value": "0dp"
    },
    "_margin_": [
        0,
        0,
        0,
        0
    ],
    "_orientation_": 2,
    "_padding_": [
        0,
        0,
        0,
        0
    ],
    "_top_": {
        "type": "string",
        "value": "0dp"
    },
    "_width_": {
        "type": "string",
        "value": "100%"
    },
    "autogrowmode": 1,
    "canUpdateUI": true,
    "containerweight": 100,
    "counter": "06",
    "focusedindex": null,
    "focuseditem": null,
    "groupcells": false,
    "hasSections": false,
    "id": "segRecipients",
    "info": null,
    "ipad": {
        "psp": {
            "indicator": "rowselect"
        }
    },
    "iphone": {
        "psp": {
            "indicator": "rowselect"
        }
    },
    "iscustomlayout": false,
    "isvisible": true,
    "kuid": "bde5b782d26a42618d46da8513c4cb85",
    "masterdata": {},
    "name": "kony.ui.SegmentedUI2",
    "needpageindicator": true,
    "pageoffdotimage": "pageoffdot.png",
    "pageondotimage": "pageondot.png",
    "paginationconfig": {
        "position": "bottom"
    },
    "parent": "flxTabContent",
    "pf": "frmP2PSendMoneyTab",
    "retaincontentalignment": false,
    "retainflexpositionproperties": false,
    "retainselection": false,
    "rowTemplateId": "e7b0ee8298674d13b53dd8f53c557543",
    "rowcounter": 6,
    "rowfocusskin": "s0f9bf3c1b3e4a7bb6bf9fd18b0211f2",
    "rowskin": "scf5f90f6ac04976ab88b2a4f7153285",
    "rowtemplate": "flxSendRequestP2P",
    "screenlevelwidget": false,
    "seccounter": 0,
    "sectionheaderskin": "sdc4ff4ed1584272be2ae69045dfb29d",
    "selectedRows": null,
    "selectedState": false,
    "selectedindex": null,
    "selectedindices": null,
    "selecteditems": null,
    "selectedsectionindex": 0,
    "selectionbehavior": "default",
    "separatorrequired": false,
    "showscrollbars": false,
    "viewtype": "tableview",
    "vizProps": {},
    "wType": "Segment",
    "widgetalignment": 5,
    "widgetdatamap": {
        "btnRequest": "btnRequest",
        "btnSend": "btnSend",
        "flxBottomSeperator": "flxBottomSeperator",
        "flxDropdown": "flxDropdown",
        "flxName": "flxName",
        "flxPrimaryContact": "flxPrimaryContact",
        "flxRequestAction": "flxRequestAction",
        "flxRow": "flxRow",
        "flxSendAction": "flxSendAction",
        "flxSendRequestP2P": "flxSendRequestP2P",
        "imgDropdown": "imgDropdown",
        "lblName": "lblName",
        "lblPrimaryContact": "lblPrimaryContact",
        "lblSeparator": "lblSeparator"
    },
    "zindex": 1
}