{
    "@class": "com.kony.gen.viz.model.component.KVizLabel",
    "DNDConfig": null,
    "_height_": {
        "type": "ref",
        "value": "preferred"
    },
    "_left_": {
        "type": "string",
        "value": "0dp"
    },
    "_margin_": [
        1,
        1,
        1,
        1
    ],
    "_padding_": [
        0,
        0,
        0,
        0
    ],
    "_skin_": "se56454286124fef97a46e7249497088",
    "_text_": "You are Activating the E-Bill feature for this Biller. ",
    "_top_": {
        "type": "number",
        "value": "15"
    },
    "_width_": {
        "type": "string",
        "value": "100%"
    },
    "_wrapping_": 2,
    "accessibilityconfig": {
        "a11yLabel": "You are Activating the E-Bill feature for this Biller. "
    },
    "android": {
        "textStyle": {
            "letterSpacing": 0,
            "strikeThrough": false
        }
    },
    "canUpdateUI": true,
    "containerweight": 100,
    "contentalignment": 4,
    "id": "lblWarningOne",
    "info": null,
    "ipad": {
        "psp": {
            "wrapping": 2
        }
    },
    "iphone": {
        "psp": {
            "wrapping": 2
        }
    },
    "isvisible": true,
    "kuid": "a9edc08ef4b4449b8b82f5af5fc6d892",
    "name": "kony.ui.Label",
    "parent": "flxWarningWrapper",
    "pf": "frmBulkPayees",
    "responsiveData": {
        "b3": {
            "width": {
                "type": "string",
                "value": "95%"
            }
        }
    },
    "texti18n": "i18n.BillPay.YouareActivatingtheEBillfeatureforthisBiller",
    "tooltip": "",
    "wType": "Label",
    "zindex": 1
}