{
    "@class": "com.kony.gen.viz.model.component.KVizRichText",
    "DNDConfig": null,
    "_height_": {
        "type": "ref",
        "value": "preferred"
    },
    "_left_": {
        "type": "string",
        "value": "3%"
    },
    "_margin_": [
        0,
        0,
        0,
        0
    ],
    "_padding_": [
        0,
        0,
        0,
        0
    ],
    "_skin_": "s8dd5f8a8d214028b4d28582fef4caa8",
    "_text_": "<label><label style=\"color: #4176A4\">&#8226;</label> Upto $500.00 can be sent through this service.<br/></label>\n<label><label style=\"color: #4176A4\">&#8226;</label> 1% will be your fee for using this service.<br/> </label>\n<label><label style=\"color: #4176A4\">&#8226;</label> Payment guidline number three.<br/></label>\n<label><label style=\"color: #4176A4\">&#8226;</label> Payment guidline number four. <br/></label>\n",
    "_top_": {
        "type": "string",
        "value": "0dp"
    },
    "_width_": {
        "type": "string",
        "value": "94%"
    },
    "_wrapping_": 2,
    "canUpdateUI": true,
    "containerweight": 100,
    "contentalignment": 1,
    "id": "rtxGuidelines",
    "info": null,
    "iscustomlayout": false,
    "isvisible": true,
    "kuid": "d2b312daf2f74906a2fcd56eec76d913",
    "linkskin": "s68be632cc934210829c785f1cfb09f0",
    "name": "kony.ui.RichText",
    "parent": "flxLeftContent",
    "pf": "frmP2PActivate",
    "retaincontentalignment": false,
    "retainflexpositionproperties": false,
    "wType": "RichText",
    "widgetalignment": 5,
    "zindex": 1
}