{
    "DNDConfig": null,
    "_height_": {
        "type": "ref",
        "value": "preferred"
    },
    "_left_": {
        "type": "number",
        "value": "70"
    },
    "_margin_": [
        0,
        0,
        0,
        0
    ],
    "_orientation_": 6,
    "_padding_": [
        0,
        0,
        0,
        0
    ],
    "_percent_": true,
    "_right_": {
        "type": "number",
        "value": "2"
    },
    "_skin_": "sdc143f0e5b64ae3a3f155f691c73fa7",
    "_top_": {
        "type": "string",
        "value": "40dp"
    },
    "_width_": {
        "type": "string",
        "value": "100%"
    },
    "allboxes": [],
    "autogrowmode": 1,
    "canUpdateUI": true,
    "children": [
        "segAccountListActions3"
    ],
    "clipbounds": false,
    "containerweight": 100,
    "enablescrolling": true,
    "id": "companyListAllFeatures3",
    "info": null,
    "iscustomlayout": false,
    "isvisible": true,
    "kuid": "g141fae76e8d483e906438d09548bcf9",
    "layouttype": 2,
    "name": "kony.ui.FlexContainer",
    "parent": "flxSubPermissionType",
    "pf": "frmAccountLevelFeaturePermissions",
    "responsiveData": {
        "b1": {
            "isVisible": false,
            "left": {
                "type": "string",
                "value": ""
            }
        },
        "b2": {
            "isVisible": false,
            "left": {
                "type": "number",
                "value": "0"
            }
        },
        "b4": {
            "isVisible": false,
            "left": {
                "type": "string",
                "value": ""
            },
            "skin": "sdc143f0e5b64ae3a3f155f691c73fa7"
        }
    },
    "retaincontentalignment": false,
    "retainflexpositionproperties": false,
    "retainflowhorizontalalignment": false,
    "snapgridsize": 10,
    "snaptogrid": true,
    "wType": "FlexContainer",
    "widgetalignment": 1,
    "zindex": 200
}