{
    "DNDConfig": null,
    "_height_": {
        "type": "string",
        "value": "40dp"
    },
    "_left_": {
        "type": "string",
        "value": "2%"
    },
    "_margin_": [
        0,
        0,
        0,
        0
    ],
    "_orientation_": 6,
    "_padding_": [
        0,
        0,
        0,
        0
    ],
    "_percent_": true,
    "_right_": {
        "type": "number",
        "value": ""
    },
    "_skin_": "s750125314a64894aaf08f9b6e43295e",
    "_top_": {
        "type": "string",
        "value": "10dp"
    },
    "_width_": {
        "type": "string",
        "value": "26%"
    },
    "allboxes": [],
    "canUpdateUI": true,
    "centery": {
        "type": "number",
        "value": ""
    },
    "children": [
        "ListBox2"
    ],
    "clipbounds": true,
    "containerweight": 100,
    "enablescrolling": true,
    "id": "flxListBox1",
    "info": null,
    "iscustomlayout": false,
    "isvisible": true,
    "kuid": "f3edcafd7b754abbadd57eb90cfd2972",
    "layouttype": 2,
    "name": "kony.ui.FlexContainer",
    "parent": "flxSubBulkSelectPermissions2",
    "pf": "frmAccountLevelFeaturePermissions",
    "responsiveData": {
        "b1": {
            "isVisible": true
        },
        "b2": {},
        "b3": {
            "centerY": {
                "type": "string",
                "value": "50px"
            },
            "right": {
                "type": "string",
                "value": "3.70%"
            }
        },
        "b4": {}
    },
    "retaincontentalignment": false,
    "retainflexpositionproperties": false,
    "retainflowhorizontalalignment": false,
    "snapgridsize": 10,
    "snaptogrid": true,
    "wType": "FlexContainer",
    "widgetalignment": 1,
    "zindex": 5
}