{
    "DNDConfig": null,
    "_height_": {
        "type": "string",
        "value": "55dp"
    },
    "_left_": {
        "type": "string",
        "value": "0dp"
    },
    "_margin_": [
        0,
        0,
        0,
        0
    ],
    "_orientation_": 6,
    "_padding_": [
        0,
        0,
        0,
        0
    ],
    "_percent_": true,
    "_right_": {
        "type": "number",
        "value": ""
    },
    "_skin_": "sb75f187c17c456fb0450d66550451bb",
    "_top_": {
        "type": "string",
        "value": "0dp"
    },
    "_width_": {
        "type": "string",
        "value": "100%"
    },
    "allboxes": [],
    "autogrowmode": 0,
    "canUpdateUI": true,
    "centerx": {
        "type": "string",
        "value": ""
    },
    "children": [
        "lblBillPayAcknowledgement",
        "flxDownload",
        "flxPrint"
    ],
    "clipbounds": false,
    "containerweight": 100,
    "enablescrolling": true,
    "id": "flxAckHeader",
    "info": null,
    "isvisible": true,
    "kuid": "ca01697234a44cbe81b6379f6ec0f09c",
    "layouttype": 2,
    "name": "kony.ui.FlexContainer",
    "parent": "flxMain",
    "pf": "frmConfirmTransfer",
    "responsiveData": {
        "b1": {
            "left": {
                "type": "string",
                "value": "0dp"
            },
            "right": {
                "type": "string",
                "value": ""
            },
            "skin": "sb75f187c17c456fb0450d66550451bb",
            "top": {
                "type": "string",
                "value": "0dp"
            }
        },
        "b2": {
            "skin": "sb75f187c17c456fb0450d66550451bb"
        },
        "b3": {
            "left": {
                "type": "string",
                "value": "0dp"
            },
            "right": {
                "type": "string",
                "value": ""
            },
            "skin": "sb75f187c17c456fb0450d66550451bb",
            "top": {
                "type": "string",
                "value": "0dp"
            }
        },
        "b4": {
            "skin": "sb75f187c17c456fb0450d66550451bb"
        }
    },
    "snapgridsize": 10,
    "snaptogrid": true,
    "wType": "FlexContainer",
    "widgetalignment": 1,
    "zindex": 1
}