{
    "classname": "regenrateActivationCode",
    "definitions": {
        "apis": {
            "custom": [],
            "passthrough": []
        },
        "events": {
            "custom": [
                {
                    "group": "General",
                    "kuid": "c7436b52e76b4c3b95dc15e6795604c2",
                    "paramList": [],
                    "propertyIndex": 1,
                    "propertyKey": "navigateToLogin",
                    "pw": {
                        "displayName": "navigateToLogin",
                        "uiRepresentation": "Label-Label-Button-Button"
                    },
                    "srcWgtKUID": "d8566b55c34c4ab3aadc549475ece11f",
                    "type": "event"
                }
            ],
            "passthrough": []
        },
        "groups": {
            "apis": [],
            "events": [],
            "properties": [
                "Skins"
            ],
            "widgets": []
        },
        "properties": {
            "custom": [
                {
                    "access": "Write",
                    "defaultValue": "{\"1024\": \"sknLabel42424224px\", \"default\": \"sknSSP72727220Px\"}",
                    "group": "Skins",
                    "kuid": "f3af33c20da54f34b861495cd6c9dd9c",
                    "originalPropertyKey": "sknLblCongratulations",
                    "propertyIndex": 1,
                    "propertyKey": "sknLblCongratulations",
                    "pw": {
                        "displayName": "Label Congratulation ",
                        "uiRepresentation": "Label-Textbox"
                    },
                    "srcWgtKUID": "d8566b55c34c4ab3aadc549475ece11f",
                    "type": "string",
                    "value": ""
                },
                {
                    "access": "Write",
                    "defaultValue": "{\"640\" : \"sknLabel42424224px\", \"768\": \"sknLabel42424224px\", \"1024\": \"bbSknLbl424242SSP15Px\", \"default\": \"sknlbl42424240px\"}",
                    "group": "Skins",
                    "kuid": "d325c60c7c794719b81e29d0f6740c19",
                    "originalPropertyKey": "sknLblActivationcodeRegenerated",
                    "propertyIndex": 2,
                    "propertyKey": "sknLblActivationcodeRegenerated",
                    "pw": {
                        "displayName": "Label Regeneration",
                        "uiRepresentation": "Label-Textbox"
                    },
                    "srcWgtKUID": "d8566b55c34c4ab3aadc549475ece11f",
                    "type": "string",
                    "value": ""
                },
                {
                    "access": "Write",
                    "defaultValue": "{\"640\" : \"sknlbl727272SSPReg15px\", \"768\": \"sknlbl727272SSPReg15px\", \"1024\": \"sknlbl727272SSPReg15px\", \"default\": \"bbSknLbl424242SSP20Px\"}",
                    "group": "Skins",
                    "kuid": "fea7f0a301ec4830ac4bf60fdd816e66",
                    "originalPropertyKey": "sknLblText",
                    "propertyIndex": 3,
                    "propertyKey": "sknLblText",
                    "pw": {
                        "displayName": "Label Text Msg",
                        "uiRepresentation": "Label-Textbox"
                    },
                    "srcWgtKUID": "d8566b55c34c4ab3aadc549475ece11f",
                    "type": "string",
                    "value": ""
                },
                {
                    "access": "Write",
                    "defaultValue": "{\"640\" : {\"normalSkin\": \"sknBtnNormalSSPFFFFFF13Px\", \"hoverSkin\": \"sknBtnNormalSSPFFFFFFHover13Px\", \"focusSkin\": \"sknBtnNormalSSPFFFFFF13PxFocus\"}, \"768\": {\"normalSkin\": \"sknBtnNormalSSPFFFFFF13Px\", \"hoverSkin\": \"sknBtnNormalSSPFFFFFFHover13Px\", \"focusSkin\": \"sknBtnNormalSSPFFFFFF13PxFocus\"}, \"default\": {\"normalSkin\": \"sknBtnNormalSSPFFFFFF15Px\", \"hoverSkin\": \"sknBtnNormalSSPFFFFFFHover15Px\", \"focusSkin\": \"sknBtnNormalSSPFFFFFF15PxFocus\"}}",
                    "group": "Skins",
                    "kuid": "c22afd04bc7f4a79a84d670bd20949e3",
                    "originalPropertyKey": "btnEnableSkin",
                    "propertyIndex": 4,
                    "propertyKey": "btnEnableSkin",
                    "pw": {
                        "displayName": "Button Enabled Skins",
                        "uiRepresentation": "Label-Textbox"
                    },
                    "srcWgtKUID": "d8566b55c34c4ab3aadc549475ece11f",
                    "type": "string",
                    "value": ""
                },
                {
                    "access": "Write",
                    "defaultValue": "{\"640\" : {\"normalSkin\": \"sknBtnBlockedSSP0273e313px\", \"hoverSkin\": \"sknBtnBlockedSSP0273e313px\", \"focusSkin\": \"sknBtnBlockedSSP0273e313px\"}, \"768\": {\"normalSkin\": \"sknBtnBlockedSSP0273e313px\", \"hoverSkin\": \"sknBtnBlockedSSP0273e313px\", \"focusSkin\": \"sknBtnBlockedSSP0273e313px\"},\"default\": {\"normalSkin\": \"sknBtnBlockedSSP0273e315px\", \"hoverSkin\": \"sknBtnBlockedSSP0273e315px\", \"focusSkin\": \"sknBtnBlockedSSP0273e315px\"}}",
                    "group": "Skins",
                    "kuid": "d4be2f4e03d941d8a39505f26916ffe8",
                    "originalPropertyKey": "btnDisableSkin",
                    "propertyIndex": 5,
                    "propertyKey": "btnDisableSkin",
                    "pw": {
                        "displayName": "Button Disabled Skins",
                        "uiRepresentation": "Label-Textbox"
                    },
                    "srcWgtKUID": "d8566b55c34c4ab3aadc549475ece11f",
                    "type": "string",
                    "value": ""
                }
            ],
            "passthrough": []
        },
        "widgets": {
            "expose": [],
            "passthrough": []
        }
    },
    "namespace": "com.temenos.infinity",
    "version": "1.0.0"
}