{
    "DNDConfig": null,
    "__parentReadjusting__": false,
    "_height_": {
        "type": "string",
        "value": "60dp"
    },
    "_left_": {
        "type": "string",
        "value": "0dp"
    },
    "_margin_": [
        0,
        0,
        0,
        0
    ],
    "_orientation_": 6,
    "_padding_": [
        0,
        0,
        0,
        0
    ],
    "_percent_": true,
    "_skin_": "sec33ce747114bec824bad2508e6968f",
    "_top_": {
        "type": "string",
        "value": "0dp"
    },
    "_width_": {
        "type": "string",
        "value": "100%"
    },
    "allboxes": [],
    "autogrowmode": 0,
    "canUpdateUI": true,
    "children": [
        "lblImgAccounts",
        "lblAccounts",
        "flxAccountsCollapse",
        "flxSeperator16"
    ],
    "clipbounds": true,
    "containerweight": 100,
    "desktopweb": {
        "psp": {
            "hoverSkin": "s6c4cbf31f7c4fc08f7236fc38f01a0e"
        }
    },
    "enablescrolling": true,
    "id": "flxAccountsMenu",
    "info": null,
    "isvisible": false,
    "kuid": "i4b63bd736dc49cdad9a9a450ed2cda9",
    "layouttype": 2,
    "name": "kony.ui.FlexContainer",
    "parent": "flxMenuWrapper",
    "pf": "userwidgetmodel",
    "snapgridsize": 10,
    "snaptogrid": true,
    "wType": "FlexContainer",
    "widgetalignment": 1,
    "zindex": 1
}