{
    "DNDConfig": null,
    "__parentReadjusting__": false,
    "_height_": {
        "type": "string",
        "value": "23px"
    },
    "_margin_": [
        0,
        0,
        0,
        0
    ],
    "_orientation_": 6,
    "_padding_": [
        0,
        0,
        0,
        0
    ],
    "_percent_": true,
    "_right_": {
        "type": "string",
        "value": "15dp"
    },
    "_skin_": "sec33ce747114bec824bad2508e6968f",
    "_width_": {
        "type": "string",
        "value": "25dp"
    },
    "allboxes": [],
    "autogrowmode": 0,
    "canUpdateUI": true,
    "centery": {
        "type": "string",
        "value": "50%"
    },
    "children": [
        "lblCollapseAccounts",
        "imgCollapseAccounts"
    ],
    "clipbounds": true,
    "containerweight": 100,
    "enablescrolling": true,
    "id": "flxAccountsCollapse",
    "info": null,
    "isvisible": true,
    "kuid": "f0de1b1daa2a4932a901b99201a1f6a5",
    "layouttype": 2,
    "name": "kony.ui.FlexContainer",
    "parent": "flxAccountsMenu",
    "pf": "userwidgetmodel",
    "snapgridsize": 10,
    "snaptogrid": true,
    "wType": "FlexContainer",
    "widgetalignment": 1,
    "zindex": 1
}