{
    "DNDConfig": null,
    "__parentReadjusting__": false,
    "_height_": {
        "type": "ref",
        "value": "preferred"
    },
    "_left_": {
        "type": "string",
        "value": "100dp"
    },
    "_margin_": [
        0,
        0,
        0,
        0
    ],
    "_orientation_": 6,
    "_padding_": [
        0,
        0,
        0,
        0
    ],
    "_percent_": true,
    "_skin_": "scbd4cac3526468089bf3013adff0549",
    "_top_": {
        "type": "string",
        "value": "450dp"
    },
    "_width_": {
        "type": "string",
        "value": "270dp"
    },
    "allboxes": [],
    "autogrowmode": 1,
    "canUpdateUI": true,
    "children": [
        "imgToolTip",
        "flxInformationText",
        "lblSeperator"
    ],
    "clipbounds": false,
    "containerweight": 100,
    "enablescrolling": true,
    "id": "AllForms",
    "info": null,
    "isvisible": false,
    "kuid": "bad6f8307f2648c2bd69124ebb55a2bc",
    "layouttype": 4,
    "name": "kony.ui.FlexContainer",
    "parent": "flxActivateWireTransfer",
    "pf": "frmActivateWireTransfer",
    "responsiveData": {
        "b1": {
            "isVisible": false,
            "left": {
                "type": "string",
                "value": "125dp"
            },
            "top": {
                "type": "string",
                "value": "446dp"
            }
        },
        "b2": {
            "isVisible": false,
            "left": {
                "type": "string",
                "value": "125dp"
            },
            "top": {
                "type": "string",
                "value": "455dp"
            }
        },
        "b3": {
            "isVisible": false,
            "left": {
                "type": "string",
                "value": "177dp"
            },
            "top": {
                "type": "string",
                "value": "463dp"
            },
            "width": {
                "type": "string",
                "value": "270dp"
            }
        },
        "b4": {
            "isVisible": false,
            "left": {
                "type": "string",
                "value": "97dp"
            },
            "top": {
                "type": "string",
                "value": "535dp"
            },
            "width": {
                "type": "string",
                "value": "270dp"
            }
        }
    },
    "snapgridsize": 10,
    "snaptogrid": true,
    "vizProps": {
        "hidewidgethierarchy": false
    },
    "wType": "FlexContainer",
    "widgetalignment": 1,
    "zindex": 20
}