{
    "DNDConfig": null,
    "__parentReadjusting__": false,
    "_height_": {
        "type": "string",
        "value": "50dp"
    },
    "_left_": {
        "type": "string",
        "value": "0dp"
    },
    "_margin_": [
        0,
        0,
        0,
        0
    ],
    "_orientation_": 6,
    "_padding_": [
        0,
        0,
        0,
        0
    ],
    "_percent_": true,
    "_skin_": "s24c92fc23b14f5484b693ee9b8a9b35",
    "_top_": {
        "type": "string",
        "value": "10dp"
    },
    "_width_": {
        "type": "string",
        "value": "100%"
    },
    "allboxes": [],
    "autogrowmode": 0,
    "canUpdateUI": true,
    "children": [
        "lblDefaultAccountForSending",
        "flxDefaultAccountForSendingInfo",
        "lbxDefaultAccountForSending"
    ],
    "clipbounds": true,
    "containerweight": 100,
    "enablescrolling": true,
    "id": "flxDefaultAccountForSending",
    "info": null,
    "isvisible": true,
    "kuid": "d85319e661ed4cdfadab9185ce035a1e",
    "layouttype": 3,
    "name": "kony.ui.FlexContainer",
    "parent": "flxDetails",
    "pf": "frmActivateWireTransfer",
    "responsiveData": {
        "b4": {
            "height": {
                "type": "string",
                "value": "90dp"
            },
            "layoutType": 2
        }
    },
    "snapgridsize": 10,
    "snaptogrid": true,
    "wType": "FlexContainer",
    "widgetalignment": 1,
    "zindex": 2
}