{
    "@class": "com.kony.gen.viz.model.component.KVizLabel",
    "DNDConfig": null,
    "__parentReadjusting__": false,
    "_height_": {
        "type": "string",
        "value": "28px"
    },
    "_left_": {
        "type": "string",
        "value": "2.30%"
    },
    "_margin_": [
        1,
        1,
        1,
        1
    ],
    "_padding_": [
        0,
        0,
        0,
        0
    ],
    "_skin_": "s9739fe0569d4851a6e139a20b64dd6e",
    "_text_": "",
    "_top_": {
        "type": "string",
        "value": "12dp"
    },
    "_width_": {
        "type": "string",
        "value": "90%"
    },
    "_wrapping_": 2,
    "accessibilityconfig": {
        "a11yLabel": "Wire Transfer Guidelines:"
    },
    "android": {
        "textStyle": {
            "letterSpacing": 0,
            "strikeThrough": false
        }
    },
    "canUpdateUI": true,
    "containerweight": 100,
    "contentalignment": 4,
    "id": "lblHeading2",
    "info": null,
    "ipad": {
        "psp": {
            "wrapping": 2
        }
    },
    "iphone": {
        "psp": {
            "wrapping": 2
        }
    },
    "isvisible": true,
    "kuid": "d2b1e98d6d07477d9f42a7ac2cd77321",
    "name": "kony.ui.Label",
    "parent": "flxDetails",
    "pf": "frmActivateWireTransfer",
    "texti18n": "i18n.WireTransfer.WireTransferGuidelines",
    "tooltip": "",
    "wType": "Label",
    "zindex": 1
}