{
    "DNDConfig": null,
    "_height_": {
        "type": "string",
        "value": "40dp"
    },
    "_left_": {
        "type": "string",
        "value": "0%"
    },
    "_margin_": [
        0,
        0,
        0,
        0
    ],
    "_orientation_": 6,
    "_padding_": [
        0,
        0,
        0,
        0
    ],
    "_percent_": true,
    "_skin_": "s10a240ff40146de8fe3b093d819809b",
    "_top_": {
        "type": "string",
        "value": "0dp"
    },
    "_width_": {
        "type": "string",
        "value": "300px"
    },
    "allboxes": [],
    "autogrowmode": 0,
    "canUpdateUI": true,
    "children": [
        "lblCurrencySymbol1",
        "tbxAmount1"
    ],
    "clipbounds": true,
    "containerId": true,
    "containerweight": 100,
    "desktopweb": {
        "psp": {
            "hoverSkin": "s30a9cf8af664a65907169e38b6f3912"
        }
    },
    "disabledSkins": {},
    "enablescrolling": true,
    "focusskin": "s30a9cf8af664a65907169e38b6f3912",
    "id": "flxAmount1",
    "info": null,
    "isvisible": true,
    "kuid": "b369bca4e25048a2a6dc08550c202c3b",
    "layouttype": 2,
    "name": "kony.ui.FlexContainer",
    "parent": "flxAlertAttribute1",
    "pf": "segCategoryAlertRow",
    "snapgridsize": 10,
    "snaptogrid": true,
    "wType": "FlexContainer",
    "widgetalignment": 1,
    "zindex": 1
}