{
    "DNDConfig": null,
    "_height_": {
        "type": "string",
        "value": "40px"
    },
    "_left_": {
        "type": "string",
        "value": "41dp"
    },
    "_margin_": [
        0,
        0,
        0,
        0
    ],
    "_orientation_": 6,
    "_padding_": [
        0,
        0,
        0,
        0
    ],
    "_percent_": true,
    "_skin_": "s24c92fc23b14f5484b693ee9b8a9b35",
    "_top_": {
        "type": "string",
        "value": "0dp"
    },
    "_width_": {
        "type": "string",
        "value": "40px"
    },
    "allboxes": [],
    "autogrowmode": 0,
    "canUpdateUI": true,
    "children": [
        "imgZoomOut"
    ],
    "clipbounds": true,
    "containerweight": 100,
    "desktopweb": {
        "psp": {
            "hoverSkin": "sccbaf607c724dae895ec97caa9faed0"
        }
    },
    "enablescrolling": true,
    "id": "flxZoomOut",
    "info": null,
    "isvisible": true,
    "kuid": "ff4c114ee69244d6b5137fb5995182e3",
    "layouttype": 2,
    "name": "kony.ui.FlexContainer",
    "parent": "flxZoom",
    "pf": "frmLocateUsATMTab",
    "snapgridsize": 10,
    "snaptogrid": true,
    "wType": "FlexContainer",
    "widgetalignment": 1,
    "zindex": 2
}