{
    "@class": "com.kony.gen.viz.model.component.KVizTextBox2",
    "DNDConfig": null,
    "_height_": {
        "type": "string",
        "value": "40dp"
    },
    "_left_": {
        "type": "string",
        "value": "0dp"
    },
    "_margin_": [
        0,
        0,
        0,
        0
    ],
    "_padding_": [
        50,
        0,
        50,
        0
    ],
    "_placeholder_": "Placeholder",
    "_skin_": "see5cceb37bc48a1a30aced8b8753dd0",
    "_text_": "",
    "_top_": {
        "type": "string",
        "value": "0dp"
    },
    "_width_": {
        "type": "string",
        "value": "100%"
    },
    "autocapitalize": "none",
    "autocomplete": false,
    "autocorrect": false,
    "autofilter": false,
    "canUpdateUI": true,
    "containerheight": "",
    "containerheightmode": 1,
    "containerweight": 100,
    "contentalignment": 4,
    "desktopweb": {
        "padding": [
            50,
            0,
            50,
            0
        ],
        "paddingInPixel": true
    },
    "disabledSkins": {
        "focusSkin": "sfee68d81fdb48eeb728bd95aaf1bb75"
    },
    "id": "tbxSearch",
    "info": null,
    "iscustomlayout": false,
    "isvisible": true,
    "keyboardtype": "A",
    "kuid": "dbf7b5b11a7545319b4ca741e4dd61ed",
    "mode": "A",
    "name": "kony.ui.TextBox2",
    "paddinginpixel": false,
    "parent": "flxSearch",
    "pf": "frmLocateUsATMTab",
    "placeholderi18n": "i18n.LocateUs.Searchforplacepincodeetc",
    "placeholderskin": "s6bef0f091374991a154eb89a7b6eef8",
    "retaincontentalignment": false,
    "retainflexpositionproperties": false,
    "securetextentry": false,
    "textinputmode": "A",
    "tooltip": "",
    "viewtype": "default",
    "wType": "TextField",
    "zindex": 1
}