{
    "@class": "com.kony.gen.viz.model.component.KVizUserWidget",
    "DNDConfig": null,
    "__parentReadjusting__": false,
    "_android_": {},
    "_androidwearos_": {},
    "_children_": [],
    "_desktopweb_": {},
    "_height_": {
        "type": "string",
        "value": "111dp"
    },
    "_ipad_": {},
    "_iphone_": {},
    "_kiosk_": {},
    "_margin_": [
        0,
        0,
        0,
        0
    ],
    "_orientation_": 1,
    "_padding_": [
        0,
        0,
        0,
        0
    ],
    "_percent_": true,
    "_responsiveData_": {
        "b3": {
            "height": {
                "type": "string",
                "value": "140dp"
            }
        }
    },
    "_skin_": "s24c92fc23b14f5484b693ee9b8a9b35",
    "_spa_": {},
    "_spaan_": {},
    "_spaandroidtablet_": {},
    "_spabb_": {},
    "_spaip_": {},
    "_spaipad_": {},
    "_spamobile_": {},
    "_spatablet_": {},
    "_spawindowstablet_": {},
    "_spawinphone8_": {},
    "_tabrcandroid_": {},
    "_top_": {
        "type": "string",
        "value": "0dp"
    },
    "_vizProps_": {
        "hidewidgethierarchy": false
    },
    "_width_": {
        "type": "string",
        "value": "100%"
    },
    "_windows10_": {},
    "_windows8_": {},
    "_winphone10_": {},
    "_winphone8_": {},
    "areflexpropsreferenced": false,
    "autogrowmode": 0,
    "canUpdateUI": true,
    "centerx": {
        "type": "string",
        "value": "50%"
    },
    "clipbounds": true,
    "containerweight": 0,
    "dataDiffs": {
        "btnCancel": {
            "__events__": {},
            "__info__": {
                "kuid": "abd22193098b4d759361864f689f827e",
                "srcKUID": "e47a358a81aa4a0da07a4a7c8e127177",
                "wType": "Button"
            },
            "centerY": {},
            "i18n_text": "i18n.konybb.common.cancel",
            "left": {
                "Default": {
                    "type": "string",
                    "value": ""
                }
            },
            "responsiveData": {
                "b1": {
                    "right": {
                        "type": "string",
                        "value": "25%"
                    }
                },
                "b2": {
                    "right": {
                        "type": "string",
                        "value": "20%"
                    },
                    "width": {
                        "type": "string",
                        "value": "15%"
                    }
                },
                "b3": {
                    "centerY": {
                        "type": "string",
                        "value": ""
                    },
                    "top": {
                        "type": "number",
                        "value": "70"
                    }
                }
            },
            "right": {
                "Default": {
                    "type": "string",
                    "value": "23%"
                }
            },
            "text": "",
            "top": {},
            "width": {
                "Default": {
                    "type": "string",
                    "value": "18%"
                }
            }
        },
        "btnNext": {
            "__events__": {},
            "__info__": {
                "kuid": "dfb279ca99d94733837cbc611da93c28",
                "srcKUID": "b82d156418d9458d809e69dc41992a16",
                "wType": "Button"
            },
            "centerY": {},
            "i18n_text": "i18n.konybb.common.Proceed",
            "left": {
                "Default": {
                    "type": "string",
                    "value": "77.35%"
                }
            },
            "responsiveData": {
                "b2": {
                    "left": {
                        "type": "string",
                        "value": ""
                    },
                    "width": {
                        "type": "string",
                        "value": "15%"
                    }
                },
                "b3": {
                    "centerY": {
                        "type": "string",
                        "value": ""
                    },
                    "left": {
                        "type": "string",
                        "value": "2.50%"
                    },
                    "top": {
                        "type": "string",
                        "value": "20dp"
                    },
                    "width": {
                        "type": "string",
                        "value": "95%"
                    }
                },
                "b4": {
                    "left": {
                        "type": "string",
                        "value": ""
                    },
                    "right": {
                        "type": "string",
                        "value": "2.50%"
                    },
                    "width": {
                        "type": "string",
                        "value": "18%"
                    }
                }
            },
            "right": {},
            "text": "",
            "top": {},
            "width": {
                "Default": {
                    "type": "string",
                    "value": "18.99%"
                }
            }
        },
        "btnOption": {
            "__events__": {},
            "__info__": {
                "kuid": "bb68ee4d8bd04ae39cf7452594b5cd68",
                "srcKUID": "ebf49918aa7a419fb39b29e23b734b42",
                "wType": "Button"
            },
            "isVisible": false,
            "left": {
                "Default": {
                    "type": "string",
                    "value": ""
                }
            },
            "responsiveData": {
                "b1": {
                    "isVisible": false,
                    "right": {
                        "type": "string",
                        "value": "45.50%"
                    }
                },
                "b2": {
                    "right": {
                        "type": "string",
                        "value": "37.50%"
                    },
                    "width": {
                        "type": "string",
                        "value": "15%"
                    }
                }
            },
            "right": {
                "Default": {
                    "type": "string",
                    "value": "43.50%"
                }
            },
            "width": {
                "Default": {
                    "type": "string",
                    "value": "18%"
                }
            }
        },
        "flxMain": {
            "__events__": {},
            "__info__": {
                "kuid": "e73bb9f207d94b4e80149db778b9e11a",
                "srcKUID": "d54f919210284a3a8ba217e23f749884",
                "wType": "FlexContainer"
            }
        },
        "formActionsNew": {
            "__events__": {},
            "__info__": {
                "isRoot": true,
                "kuid": "f1f18cee2a8748b387fc6528402170d1",
                "srcKUID": "a571c5a347394d3fb1e9debcf70da170",
                "wType": "FlexContainer"
            },
            "autogrowMode": {
                "Default": 0
            },
            "height": {},
            "responsiveData": {
                "b3": {
                    "height": {
                        "type": "string",
                        "value": "140dp"
                    }
                }
            }
        }
    },
    "enablescrolling": true,
    "id": "createFlowFormActionsNew",
    "info": null,
    "iscustomlayout": false,
    "isdatareferenced": false,
    "isvisible": true,
    "kuid": "f1f18cee2a8748b387fc6528402170d1",
    "layouttype": 2,
    "masterType": 0,
    "name": "kony.ui.UserWidgetInstance",
    "parent": "flxCreateUI",
    "pf": "frmACHDashboard",
    "retaincontentalignment": false,
    "retainflexpositionproperties": false,
    "snapgridsize": 10,
    "snaptogrid": true,
    "sourceUserWidget": "a571c5a347394d3fb1e9debcf70da170",
    "wType": "UserWidgetInstance",
    "zindex": 1
}