{
    "@class": "com.kony.gen.viz.model.component.KVizUserWidget",
    "DNDConfig": null,
    "__parentReadjusting__": false,
    "_children_": [],
    "_height_": {
        "type": "string",
        "value": "100%"
    },
    "_left_": {
        "type": "string",
        "value": "0dp"
    },
    "_margin_": [
        0,
        0,
        0,
        0
    ],
    "_orientation_": 1,
    "_padding_": [
        0,
        0,
        0,
        0
    ],
    "_percent_": true,
    "_render_": true,
    "_skin_": "s24c92fc23b14f5484b693ee9b8a9b35",
    "_width_": {
        "type": "string",
        "value": "100%"
    },
    "canUpdateUI": true,
    "centery": {
        "type": "string",
        "value": "50%"
    },
    "containerweight": 0,
    "data": {
        "successImgWidth": {
            "Default": {
                "type": "string",
                "value": "4.44%"
            }
        },
        "successMsg": "Your transaction has been successfully submitted\nReference Number 45423792753"
    },
    "id": "flxAcknowledgement",
    "info": null,
    "iscustomlayout": false,
    "isvisible": false,
    "kuid": "d02fe631365342ee9d7d7025531179ac",
    "masterType": 1,
    "name": "kony.ui.UserWidgetInstance",
    "parent": "flxAcknowledgementContainer",
    "pf": "frmACHDashboard",
    "retaincontentalignment": false,
    "retainflexpositionproperties": false,
    "sourceUserWidget": "affe004aa1bf4932b22021db5563ce15",
    "wType": "UserWidgetInstance"
}