{
    "DNDConfig": null,
    "__parentReadjusting__": false,
    "_bottom_": {
        "type": "string",
        "value": "30dp"
    },
    "_height_": {
        "type": "string",
        "value": "520dp"
    },
    "_left_": {
        "type": "string",
        "value": "0dp"
    },
    "_margin_": [
        0,
        0,
        0,
        0
    ],
    "_orientation_": 6,
    "_padding_": [
        0,
        0,
        0,
        0
    ],
    "_percent_": true,
    "_skin_": "sdc143f0e5b64ae3a3f155f691c73fa7",
    "_top_": {
        "type": "string",
        "value": "0dp"
    },
    "_width_": {
        "type": "string",
        "value": "100%"
    },
    "allboxes": [],
    "canUpdateUI": true,
    "children": [
        "flxRecipientType",
        "flxDBXAccount",
        "flxExternalAccount",
        "flxInternationalAccount",
        "flxRecipient",
        "flxActivatePayAPerson"
    ],
    "clipbounds": false,
    "containerweight": 100,
    "enablescrolling": true,
    "id": "flxAddRecipientGateway",
    "info": null,
    "isvisible": true,
    "kuid": "dd6352906714446ba79e35d41f0d94bc",
    "layouttype": 2,
    "minheight": {
        "type": "string",
        "value": "455dp"
    },
    "name": "kony.ui.FlexContainer",
    "parent": "flxSubContainer",
    "pf": "frmFastRecipientGateWay",
    "responsiveData": {
        "b3": {
            "height": {
                "type": "string",
                "value": "470dp"
            },
            "layoutType": 4,
            "minHeight": {
                "type": "string",
                "value": "470dp"
            },
            "skin": "s24c92fc23b14f5484b693ee9b8a9b35"
        }
    },
    "snapgridsize": 10,
    "snaptogrid": true,
    "wType": "FlexContainer",
    "widgetalignment": 1,
    "zindex": 1
}