{
    "DNDConfig": null,
    "__parentReadjusting__": false,
    "_height_": {
        "type": "string",
        "value": "37dp"
    },
    "_left_": {
        "type": "number",
        "value": "0"
    },
    "_margin_": [
        0,
        0,
        0,
        0
    ],
    "_orientation_": 6,
    "_padding_": [
        0,
        0,
        0,
        0
    ],
    "_percent_": true,
    "_skin_": "s576844bc0e148a9a02e6171eac305ac",
    "_top_": {
        "type": "string",
        "value": "0dp"
    },
    "_width_": {
        "type": "string",
        "value": "99%"
    },
    "allboxes": [],
    "canUpdateUI": true,
    "children": [
        "btnDBXAccountkProceed"
    ],
    "clipbounds": true,
    "containerweight": 100,
    "enablescrolling": true,
    "id": "flxDBXAccountProceed",
    "info": null,
    "isvisible": true,
    "kuid": "i2fadfe6faaf42dd9bebbc61b35e00eb",
    "layouttype": 2,
    "name": "kony.ui.FlexContainer",
    "parent": "flxDBXAccount",
    "pf": "frmFastRecipientGateWay",
    "responsiveData": {
        "b3": {
            "height": {
                "type": "string",
                "value": "72dp"
            },
            "isVisible": false
        }
    },
    "snapgridsize": 10,
    "snaptogrid": true,
    "wType": "FlexContainer",
    "widgetalignment": 1,
    "zindex": 1
}