{
    "DNDConfig": null,
    "_height_": {
        "type": "string",
        "value": "107dp"
    },
    "_left_": {
        "type": "string",
        "value": "0"
    },
    "_margin_": [
        0,
        0,
        0,
        0
    ],
    "_orientation_": 6,
    "_padding_": [
        0,
        0,
        0,
        0
    ],
    "_percent_": true,
    "_skin_": "sdc143f0e5b64ae3a3f155f691c73fa7",
    "_top_": {
        "type": "string",
        "value": "0"
    },
    "_width_": {
        "type": "string",
        "value": "250dp"
    },
    "allboxes": [],
    "canUpdateUI": true,
    "children": [
        "lblAddressLine1InfoHead",
        "lblAddressLine1InfoBody",
        "imgCloseInfoAddressLine1"
    ],
    "clipbounds": true,
    "containerweight": 100,
    "enablescrolling": true,
    "id": "flxInfoAddressLine1",
    "info": null,
    "iscustomlayout": false,
    "isvisible": true,
    "kuid": "a30fe6c73cae42d7a89146ed0909f187",
    "layouttype": 2,
    "name": "kony.ui.FlexContainer",
    "parent": "flxAddress",
    "pf": "userwidgetmodel",
    "responsiveData": {
        "b1": {
            "height": {
                "type": "string",
                "value": "150dp"
            },
            "isVisible": false,
            "left": {
                "type": "string",
                "value": "100dp"
            },
            "top": {
                "type": "string",
                "value": "120dp"
            },
            "width": {
                "type": "string",
                "value": "300dp"
            }
        },
        "b2": {
            "height": {
                "type": "string",
                "value": "120dp"
            },
            "isVisible": false,
            "left": {
                "type": "string",
                "value": "140dp"
            },
            "top": {
                "type": "string",
                "value": "60dp"
            },
            "width": {
                "type": "string",
                "value": "300dp"
            }
        },
        "b3": {
            "isVisible": false,
            "left": {
                "type": "string",
                "value": "5%"
            },
            "skin": "sdc143f0e5b64ae3a3f155f691c73fa7",
            "top": {
                "type": "string",
                "value": "150dp"
            }
        },
        "b4": {
            "height": {
                "type": "string",
                "value": "150dp"
            },
            "isVisible": false,
            "left": {
                "type": "string",
                "value": "100dp"
            },
            "top": {
                "type": "string",
                "value": "120dp"
            },
            "width": {
                "type": "string",
                "value": "300dp"
            }
        }
    },
    "retaincontentalignment": false,
    "retainflexpositionproperties": false,
    "retainflowhorizontalalignment": false,
    "snapgridsize": 10,
    "snaptogrid": true,
    "wType": "FlexContainer",
    "widgetalignment": 1,
    "zindex": 5
}