{
    "@class": "com.kony.gen.viz.model.component.KVizLabel",
    "DNDConfig": null,
    "_height_": {
        "type": "ref",
        "value": "preferred"
    },
    "_left_": {
        "type": "string",
        "value": "0"
    },
    "_margin_": [
        1,
        1,
        1,
        1
    ],
    "_padding_": [
        0,
        0,
        0,
        0
    ],
    "_skin_": "sb75b207521b47ba8f721dca18b56352",
    "_text_": "Label",
    "_top_": {
        "type": "string",
        "value": "0"
    },
    "_width_": {
        "type": "ref",
        "value": "preferred"
    },
    "_wrapping_": 2,
    "android": {
        "textStyle": {
            "letterSpacing": 0,
            "strikeThrough": false
        }
    },
    "canUpdateUI": true,
    "containerweight": 100,
    "contentalignment": 4,
    "id": "lblAddressLine1InfoBody",
    "info": null,
    "ipad": {
        "psp": {
            "wrapping": 2
        }
    },
    "iphone": {
        "psp": {
            "wrapping": 2
        }
    },
    "iscustomlayout": false,
    "isvisible": true,
    "kuid": "h429723c32514578bae99161d675e978",
    "name": "kony.ui.Label",
    "parent": "flxInfoAddressLine1",
    "pf": "userwidgetmodel",
    "responsiveData": {
        "b1": {
            "left": {
                "type": "string",
                "value": "20dp"
            },
            "skin": "sea036eb47af415aac240e12d8ea4a76",
            "top": {
                "type": "string",
                "value": "50dp"
            },
            "width": {
                "type": "string",
                "value": "85%"
            }
        },
        "b2": {
            "left": {
                "type": "string",
                "value": "20dp"
            },
            "skin": "sea036eb47af415aac240e12d8ea4a76",
            "top": {
                "type": "string",
                "value": "45dp"
            },
            "width": {
                "type": "string",
                "value": "85%"
            }
        },
        "b3": {
            "left": {
                "type": "string",
                "value": "10dp"
            },
            "skin": "sa10c2d0462b4427a1b56f4dc2cc1e27",
            "text": "Label",
            "top": {
                "type": "string",
                "value": "36dp"
            },
            "width": {
                "type": "string",
                "value": "85%"
            }
        },
        "b4": {
            "left": {
                "type": "string",
                "value": "20dp"
            },
            "skin": "sea036eb47af415aac240e12d8ea4a76",
            "text": "Label",
            "top": {
                "type": "string",
                "value": "50dp"
            },
            "width": {
                "type": "string",
                "value": "85%"
            }
        }
    },
    "retaincontentalignment": false,
    "retainflexpositionproperties": false,
    "tooltip": "",
    "wType": "Label"
}