{
    "@class": "com.kony.gen.viz.model.component.KVizLabel",
    "DNDConfig": null,
    "_height_": {
        "type": "ref",
        "value": "preferred"
    },
    "_left_": {
        "type": "string",
        "value": "0dp"
    },
    "_margin_": [
        1,
        1,
        1,
        1
    ],
    "_padding_": [
        0,
        0,
        0,
        0
    ],
    "_skin_": "sb75b207521b47ba8f721dca18b56352",
    "_text_": "Label",
    "_top_": {
        "type": "string",
        "value": "5dp"
    },
    "_width_": {
        "type": "ref",
        "value": "preferred"
    },
    "_wrapping_": 2,
    "android": {
        "textStyle": {
            "letterSpacing": 0,
            "strikeThrough": false
        }
    },
    "canUpdateUI": true,
    "containerweight": 100,
    "contentalignment": 4,
    "id": "lblAddressLine2",
    "info": null,
    "ipad": {
        "psp": {
            "wrapping": 2
        }
    },
    "iphone": {
        "psp": {
            "wrapping": 2
        }
    },
    "iscustomlayout": false,
    "isvisible": true,
    "kuid": "g38cf6b79791421d906eb1bed49379be",
    "name": "kony.ui.Label",
    "parent": "flxAddressLine2Name",
    "pf": "userwidgetmodel",
    "responsiveData": {
        "b1": {
            "skin": "sc6c33de9c2c4f168e90ffc2db978006",
            "text": "Address Line 02: (Optional)",
            "top": {
                "type": "string",
                "value": "0dp"
            }
        },
        "b2": {
            "skin": "sc6c33de9c2c4f168e90ffc2db978006",
            "top": {
                "type": "string",
                "value": "0dp"
            }
        },
        "b3": {
            "skin": "s77e67aa16c74466beaf27ae9efe941a",
            "text": "Address Line 02: (Optional)",
            "top": {
                "type": "string",
                "value": "0dp"
            }
        },
        "b4": {
            "skin": "sc6c33de9c2c4f168e90ffc2db978006",
            "text": "Address Line 02:",
            "top": {
                "type": "string",
                "value": "0dp"
            }
        }
    },
    "retaincontentalignment": false,
    "retainflexpositionproperties": false,
    "tooltip": "",
    "wType": "Label",
    "zindex": 1
}