{
    "@class": "com.kony.gen.viz.model.component.KVizLabel",
    "DNDConfig": null,
    "_height_": {
        "type": "ref",
        "value": "preferred"
    },
    "_left_": {
        "type": "string",
        "value": "0"
    },
    "_margin_": [
        1,
        1,
        1,
        1
    ],
    "_padding_": [
        0,
        0,
        0,
        0
    ],
    "_skin_": "sb75b207521b47ba8f721dca18b56352",
    "_text_": "Label",
    "_top_": {
        "type": "string",
        "value": "0"
    },
    "_width_": {
        "type": "ref",
        "value": "preferred"
    },
    "_wrapping_": 2,
    "android": {
        "textStyle": {
            "letterSpacing": 0,
            "strikeThrough": false
        }
    },
    "canUpdateUI": true,
    "containerweight": 100,
    "contentalignment": 4,
    "id": "lblEmailInfoHead",
    "info": null,
    "ipad": {
        "psp": {
            "wrapping": 2
        }
    },
    "iphone": {
        "psp": {
            "wrapping": 2
        }
    },
    "iscustomlayout": false,
    "isvisible": true,
    "kuid": "b1d0e8a67aae433da044529f83d8be70",
    "name": "kony.ui.Label",
    "parent": "flxInfoEmail",
    "pf": "userwidgetmodel",
    "responsiveData": {
        "b1": {
            "left": {
                "type": "string",
                "value": "20dp"
            },
            "skin": "s4f1e5cddba94a329cee14a5a487115f",
            "top": {
                "type": "string",
                "value": "17dp"
            }
        },
        "b2": {
            "left": {
                "type": "string",
                "value": "20dp"
            },
            "skin": "s4f1e5cddba94a329cee14a5a487115f",
            "top": {
                "type": "string",
                "value": "17dp"
            }
        },
        "b3": {
            "left": {
                "type": "string",
                "value": "10dp"
            },
            "skin": "s135686ab9af408b8c83963a1513eda3",
            "text": "Label",
            "top": {
                "type": "string",
                "value": "7dp"
            }
        },
        "b4": {
            "left": {
                "type": "string",
                "value": "20dp"
            },
            "skin": "s4f1e5cddba94a329cee14a5a487115f",
            "top": {
                "type": "string",
                "value": "17dp"
            }
        }
    },
    "retaincontentalignment": false,
    "retainflexpositionproperties": false,
    "tooltip": "",
    "wType": "Label"
}