{
    "DNDConfig": null,
    "__parentReadjusting__": false,
    "_height_": {
        "type": "string",
        "value": "50dp"
    },
    "_left_": {
        "type": "string",
        "value": "0dp"
    },
    "_margin_": [
        0,
        0,
        0,
        0
    ],
    "_orientation_": 6,
    "_padding_": [
        0,
        0,
        0,
        0
    ],
    "_percent_": true,
    "_skin_": "s344174b66d24a22be7a954acfcdefc5",
    "_top_": {
        "type": "string",
        "value": "0dp"
    },
    "_width_": {
        "type": "string",
        "value": "100%"
    },
    "accessibilityconfig": {
        "a11yARIA": {
            "tabindex": 1
        }
    },
    "allboxes": [],
    "canUpdateUI": true,
    "children": [
        "lblAddKonyAccount",
        "flxSperator2"
    ],
    "clipbounds": true,
    "containerweight": 100,
    "desktopweb": {
        "psp": {
            "hoverSkin": "s6c4cbf31f7c4fc08f7236fc38f01a0e"
        }
    },
    "enablescrolling": true,
    "id": "flxAddKonyAccount",
    "info": null,
    "isvisible": true,
    "kuid": "a996618481614324a00142881f02da19",
    "layouttype": 2,
    "name": "kony.ui.FlexContainer",
    "parent": "flxAddAccountWindow",
    "pf": "frmFastTransfersActivites",
    "responsiveData": {
        "b1": {
            "height": {
                "type": "string",
                "value": "50dp"
            }
        },
        "b4": {
            "height": {
                "type": "string",
                "value": "50dp"
            }
        }
    },
    "snapgridsize": 10,
    "snaptogrid": true,
    "wType": "FlexContainer",
    "widgetalignment": 1,
    "zindex": 1
}