{
    "@class": "com.kony.gen.viz.model.component.KVizLabel",
    "DNDConfig": null,
    "__parentReadjusting__": false,
    "_height_": {
        "type": "ref",
        "value": "preferred"
    },
    "_left_": {
        "type": "string",
        "value": "1.5%"
    },
    "_margin_": [
        1,
        1,
        1,
        1
    ],
    "_padding_": [
        2,
        0,
        2,
        1
    ],
    "_skin_": "sa197a32d8df46f99a5ad54786a54394",
    "_text_": "Label",
    "_top_": {
        "type": "string",
        "value": "214dp"
    },
    "_width_": {
        "type": "string",
        "value": "98%"
    },
    "_wrapping_": 2,
    "accessibilityconfig": {
        "a11yLabel": "Would you like to take a two-minute survey to help us serve you better?"
    },
    "android": {
        "textStyle": {
            "letterSpacing": 0,
            "strikeThrough": false
        }
    },
    "canUpdateUI": true,
    "containerweight": 100,
    "contentalignment": 5,
    "id": "lblRefrenceNumber",
    "info": null,
    "ipad": {
        "psp": {
            "wrapping": 2
        }
    },
    "iphone": {
        "psp": {
            "wrapping": 2
        }
    },
    "isvisible": true,
    "kuid": "b663f2a2e8934a5f9c7cb35008aab8f8",
    "name": "kony.ui.Label",
    "paddinginpixel": false,
    "parent": "acknowledgment",
    "pf": "userwidgetmodel",
    "texti18n": "i18n.CustomerFeedback.FeedbackAckQuestion",
    "tooltip": "",
    "wType": "Label",
    "zindex": 1
}