{
    "@class": "com.kony.gen.viz.model.component.KVizRichText",
    "DNDConfig": null,
    "__parentReadjusting__": false,
    "_height_": {
        "type": "ref",
        "value": "preferred"
    },
    "_left_": {
        "type": "string",
        "value": "1%"
    },
    "_margin_": [
        0,
        0,
        0,
        0
    ],
    "_padding_": [
        0,
        0,
        0,
        0
    ],
    "_skin_": "sc4cc30bc71442ee9f8b2e9230a973fa",
    "_text_": "Set up monthly automatic transfers of $25 or more to  reach your savings goals",
    "_top_": {
        "type": "string",
        "value": "4dp"
    },
    "_width_": {
        "type": "string",
        "value": "96%"
    },
    "_wrapping_": 2,
    "accessibilityconfig": {
        "a11yLabel": "Set up monthly automatic transfers of $25 or more to  reach your savings goals"
    },
    "canUpdateUI": true,
    "containerId": true,
    "containerweight": 100,
    "contentalignment": 1,
    "id": "lblRule2",
    "info": null,
    "iscustomlayout": false,
    "isvisible": true,
    "kuid": "de5851763e6c4fb4b04feb69dab39089",
    "linkskin": "s68be632cc934210829c785f1cfb09f0",
    "name": "kony.ui.RichText",
    "parent": "flxRule2",
    "pf": "segSelectProductsNUOMobile",
    "retaincontentalignment": false,
    "retainflexpositionproperties": false,
    "wType": "RichText",
    "watchos": {
        "render": false
    },
    "widgetalignment": 5,
    "windows10": {
        "render": false
    },
    "winphone10": {
        "render": false
    },
    "zindex": 1
}