{
    "@class": "com.kony.gen.viz.model.component.KVizDateField",
    "DNDConfig": null,
    "Image": "calendar.png",
    "__id": "uwu35f2d8846ab44859412dda39e4af4c9_calDateOfIssue",
    "__input": "calDateOfIssue",
    "_data_": null,
    "_date_": [
        null,
        null,
        null
    ],
    "_height_": {
        "type": "string",
        "value": "40dp"
    },
    "_left_": {
        "type": "string",
        "value": "0dp"
    },
    "_margin_": [
        0,
        0,
        0,
        0
    ],
    "_padding_": [
        2,
        0,
        1,
        0
    ],
    "_skin_": "s309f86f067941bbb828e53b34e06a77",
    "_startG": [
        0,
        7,
        2017
    ],
    "_top_": {
        "type": "string",
        "value": "25dp"
    },
    "_width_": {
        "type": "string",
        "value": "357px"
    },
    "advview": "default",
    "calendaricon": "calbtn.png",
    "canUpdateUI": true,
    "containerweight": 100,
    "contentalignment": 5,
    "datecomponents": [
        null,
        null,
        null
    ],
    "dateeditable": true,
    "dateformat": "dd/MM/yyyy",
    "datesGroup": [],
    "datesState": 0,
    "day": null,
    "daytextalignmentincell": 5,
    "desktopweb": {
        "calendarIcon": "calendar.png"
    },
    "disabledSkins": {},
    "displayedMonths": [
        7,
        2017
    ],
    "entereddate": null,
    "focusskin": "seb8ea02d2bd442ebe692e7030860d3f",
    "format": "dd/MM/yyyy",
    "formatteddate": "",
    "hidedaysheader": false,
    "hidemonthsheader": false,
    "hour": 0,
    "id": "calDateOfIssue",
    "info": null,
    "isvisible": true,
    "kiosk": {
        "psp": {
            "toolTip": "From date"
        }
    },
    "kuid": "abadf8c41b714e8ab0a660f340ddf47a",
    "luadate": [
        null,
        null,
        null
    ],
    "minutes": 0,
    "month": null,
    "monthsinrow": 3,
    "name": "kony.ui.Calendar",
    "navigatorAlert": "Invalid Selection",
    "noofmonths": 1,
    "pagedate": "/2017",
    "parent": "flxDateOfIssue",
    "pf": "frmStopPayments",
    "popupHeight": "auto",
    "popupWidth": "auto",
    "responsiveData": {
        "b1": {},
        "b3": {
            "contentAlignment": 4,
            "width": {
                "type": "string",
                "value": "100%"
            }
        },
        "b4": {
            "width": {
                "type": "string",
                "value": "100%"
            }
        }
    },
    "seconds": 0,
    "selectdate": "//2017",
    "startDay": 0,
    "viewconfig": {
        "gridConfig": {
            "allowWeekendSelectable": true,
            "leftNavigationImage": "",
            "rightNavigationImage": "arrow_right.png"
        }
    },
    "viewtype": "default",
    "wType": "Calendar",
    "widgetalignment": 5,
    "widths": [
        "14.2857%;",
        "14.2857%;",
        "14.2857%;",
        "14.2857%;",
        "14.2857%;",
        "14.2857%;",
        "14.2857%;"
    ],
    "year": null,
    "zindex": 1
}