{
    "DNDConfig": null,
    "_height_": {
        "type": "ref",
        "value": "preferred"
    },
    "_left_": {
        "type": "string",
        "value": "10dp"
    },
    "_margin_": [
        0,
        0,
        0,
        0
    ],
    "_orientation_": 6,
    "_padding_": [
        0,
        0,
        0,
        0
    ],
    "_percent_": true,
    "_skin_": "sf052fd82d224fc1a020a88977067dd5",
    "_top_": {
        "type": "string",
        "value": "10dp"
    },
    "_width_": {
        "type": "string",
        "value": "100%"
    },
    "allboxes": [],
    "autogrowmode": 1,
    "canUpdateUI": true,
    "children": [
        "flxAcknowledgeHeader",
        "flxLineSeparator1",
        "flxAccount",
        "flxChequeBooks",
        "flxFee",
        "flxDeliveryType",
        "flxAddress",
        "flxNotes",
        "flxExtra1",
        "flxExtra2"
    ],
    "clipbounds": true,
    "containerweight": 100,
    "enablescrolling": true,
    "id": "flxAcknowledgementDetails",
    "info": null,
    "isvisible": true,
    "kuid": "i5f274b23b9c48aa8776045efffe7376",
    "layouttype": 4,
    "name": "kony.ui.FlexContainer",
    "parent": "flxTransactionDetails",
    "pf": "frmStopPayments",
    "responsiveData": {
        "b1": {
            "width": {
                "type": "string",
                "value": "97%"
            }
        },
        "b2": {
            "width": {
                "type": "string",
                "value": "97%"
            }
        }
    },
    "snapgridsize": 10,
    "snaptogrid": true,
    "wType": "FlexContainer",
    "widgetalignment": 1,
    "zindex": 1
}