{
    "DNDConfig": null,
    "__parentReadjusting__": false,
    "_bottom_": {
        "type": "string",
        "value": ""
    },
    "_height_": {
        "type": "ref",
        "value": "preferred"
    },
    "_left_": {
        "type": "string",
        "value": "5.70%"
    },
    "_margin_": [
        0,
        0,
        0,
        0
    ],
    "_orientation_": 6,
    "_padding_": [
        0,
        0,
        0,
        0
    ],
    "_percent_": true,
    "_right_": {
        "type": "number",
        "value": ""
    },
    "_skin_": "sdc143f0e5b64ae3a3f155f691c73fa7",
    "_top_": {
        "type": "string",
        "value": "20dp"
    },
    "_width_": {
        "type": "string",
        "value": "794dp"
    },
    "allboxes": [],
    "autogrowmode": 1,
    "canUpdateUI": true,
    "centerx": {
        "type": "number",
        "value": ""
    },
    "children": [
        "RequestChequeBookSeriesMultiple",
        "flxChequeBookRequests"
    ],
    "clipbounds": false,
    "containerweight": 100,
    "enablescrolling": true,
    "id": "flxRequestChequeBook",
    "info": null,
    "isvisible": true,
    "kuid": "bac13356abf34a8586490557f4951d31",
    "layouttype": 4,
    "minheight": {
        "type": "string",
        "value": "240dp"
    },
    "name": "kony.ui.FlexContainer",
    "parent": "flxChequeBookContainer",
    "pf": "frmStopPayments",
    "responsiveData": {
        "b1": {
            "left": {
                "type": "string",
                "value": "6.07%"
            },
            "width": {
                "type": "string",
                "value": "58.12%"
            }
        },
        "b2": {
            "left": {
                "type": "string",
                "value": "6.07%"
            },
            "width": {
                "type": "string",
                "value": "58.12%"
            }
        },
        "b3": {
            "centerX": {
                "type": "string",
                "value": "50%"
            },
            "left": {
                "type": "string",
                "value": "2%"
            },
            "width": {
                "type": "string",
                "value": "96%"
            }
        },
        "b4": {
            "left": {
                "type": "string",
                "value": "2.50%"
            },
            "right": {
                "type": "string",
                "value": "2.50%"
            },
            "width": {
                "type": "string",
                "value": "95%"
            }
        }
    },
    "snapgridsize": 10,
    "snaptogrid": true,
    "wType": "FlexContainer",
    "widgetalignment": 1,
    "zindex": 1
}