{
    "@class": "com.kony.gen.viz.model.component.KVizLabel",
    "DNDConfig": null,
    "__parentReadjusting__": false,
    "_height_": {
        "type": "ref",
        "value": "preferred"
    },
    "_left_": {
        "type": "string",
        "value": "30px"
    },
    "_margin_": [
        1,
        1,
        1,
        1
    ],
    "_padding_": [
        0,
        0,
        0,
        0
    ],
    "_skin_": "sd58e7dec3cf45cfb721a7ac97d2837a",
    "_text_": "Check 1:",
    "_top_": {
        "type": "string",
        "value": "16px"
    },
    "_width_": {
        "type": "ref",
        "value": "preferred"
    },
    "_wrapping_": 2,
    "accessibilityconfig": {
        "a11yLabel": "Check 1:"
    },
    "android": {
        "textStyle": {
            "letterSpacing": 0,
            "strikeThrough": false
        }
    },
    "canUpdateUI": true,
    "containerweight": 100,
    "contentalignment": 4,
    "id": "lblCheckAndNum",
    "info": null,
    "ipad": {
        "psp": {
            "wrapping": 2
        }
    },
    "iphone": {
        "psp": {
            "wrapping": 2
        }
    },
    "isvisible": false,
    "kuid": "f3281880746942b89bb177dcf41814a2",
    "name": "kony.ui.Label",
    "parent": "flxSingleMultiplechecksWrapper",
    "pf": "frmStopPayments",
    "responsiveData": {
        "b1": {
            "top": {
                "type": "string",
                "value": ""
            }
        },
        "b3": {
            "left": {
                "type": "string",
                "value": "0px"
            },
            "width": {
                "type": "string",
                "value": "100%"
            }
        }
    },
    "tooltip": "",
    "wType": "Label",
    "zindex": 1
}