{
    "@class": "com.kony.gen.viz.model.component.KVizButton",
    "DNDConfig": null,
    "_height_": {
        "type": "string",
        "value": "50dp"
    },
    "_margin_": [
        6,
        6,
        6,
        6
    ],
    "_padding_": [
        0,
        0,
        0,
        0
    ],
    "_right_": {
        "type": "string",
        "value": "308dp"
    },
    "_skin_": "s215ef7edf8c4dbc2e0c21fca82d7f41",
    "_text_": "No",
    "_top_": {
        "type": "string",
        "value": "30dp"
    },
    "_width_": {
        "type": "string",
        "value": "258dp"
    },
    "accessibilityconfig": {
        "a11yLabel": "No"
    },
    "canUpdateUI": true,
    "centery": {
        "type": "string",
        "value": "50%"
    },
    "containerweight": 100,
    "contentalignment": 5,
    "desktopweb": {
        "psp": {
            "hoverSkin": "s3c14c92a3bb47c1b72994f0d0c960a3"
        }
    },
    "disabledSkins": {},
    "displaytext": true,
    "focusskin": "sb5f66ef201648009a1b04e50c66a98f",
    "id": "btnCancelIC",
    "info": null,
    "isvisible": true,
    "kuid": "f42939e9b09c45db833c6114ea9fd1ec",
    "name": "kony.ui.Button",
    "parent": "flxButtonsIC",
    "pf": "userwidgetmodel",
    "responsiveData": {
        "b1": {
            "height": {
                "type": "string",
                "value": "40dp"
            },
            "right": {
                "type": "string",
                "value": "190dp"
            },
            "width": {
                "type": "string",
                "value": "150dp"
            }
        },
        "b2": {
            "height": {
                "type": "string",
                "value": "40dp"
            },
            "right": {
                "type": "string",
                "value": "20dp"
            },
            "top": {
                "type": "string",
                "value": ""
            },
            "width": {
                "type": "string",
                "value": "150dp"
            }
        },
        "b3": {
            "height": {
                "type": "string",
                "value": "40dp"
            },
            "right": {
                "type": "string",
                "value": "20dp"
            },
            "top": {
                "type": "string",
                "value": ""
            },
            "width": {
                "type": "string",
                "value": "30%"
            }
        }
    },
    "texti18n": "i18n.common.no",
    "tooltip": "No",
    "wType": "Button",
    "zindex": 2
}