{
    "DNDConfig": null,
    "_height_": {
        "type": "string",
        "value": "268px"
    },
    "_left_": {
        "type": "string",
        "value": "0dp"
    },
    "_margin_": [
        0,
        0,
        0,
        0
    ],
    "_orientation_": 6,
    "_padding_": [
        0,
        0,
        0,
        0
    ],
    "_percent_": true,
    "_right_": {
        "type": "number",
        "value": ""
    },
    "_skin_": "s701065f11074080832b59947e720059",
    "_top_": {
        "type": "string",
        "value": "25%"
    },
    "_width_": {
        "type": "string",
        "value": "44.30%"
    },
    "allboxes": [],
    "canUpdateUI": true,
    "centerx": {
        "type": "string",
        "value": "50.00%"
    },
    "centery": {
        "type": "string",
        "value": ""
    },
    "children": [
        "flxHeaderIC",
        "flxCross2IC",
        "flxSeperatorIC",
        "lblPopupMessageIC",
        "flxSeperator2IC",
        "btnYesIC",
        "btnNoIC"
    ],
    "clipbounds": false,
    "containerweight": 100,
    "enablescrolling": true,
    "id": "CustomPopupIC",
    "info": null,
    "isvisible": true,
    "kuid": "ecfcce9fb68043ee890f606f5b756b24",
    "layouttype": 2,
    "name": "kony.ui.FlexContainer",
    "parent": "flxDeletePopupIC",
    "pf": "userwidgetmodel",
    "responsiveData": {
        "b1": {},
        "b2": {
            "isVisible": true,
            "width": {
                "type": "string",
                "value": "64.30%"
            }
        },
        "b3": {
            "left": {
                "type": "string",
                "value": "15dp"
            },
            "right": {
                "type": "string",
                "value": "15dp"
            },
            "width": {
                "type": "string",
                "value": ""
            }
        }
    },
    "snapgridsize": 10,
    "snaptogrid": true,
    "vizProps": {
        "hidewidgethierarchy": false
    },
    "wType": "FlexContainer",
    "widgetalignment": 1,
    "zindex": 1100
}