{
    "DNDConfig": null,
    "_height_": {
        "type": "string",
        "value": "110dp"
    },
    "_left_": {
        "type": "string",
        "value": "0dp"
    },
    "_margin_": [
        0,
        0,
        0,
        0
    ],
    "_orientation_": 6,
    "_padding_": [
        0,
        0,
        0,
        0
    ],
    "_percent_": true,
    "_right_": {
        "type": "number",
        "value": ""
    },
    "_skin_": "s4c164186eb63fc9826ae5eb1db8a1a1",
    "_top_": {
        "type": "string",
        "value": "0dp"
    },
    "_width_": {
        "type": "string",
        "value": "100%"
    },
    "allboxes": [],
    "canUpdateUI": true,
    "children": [
        "btnProceedIC",
        "btnCancelIC"
    ],
    "clipbounds": true,
    "containerweight": 100,
    "enablescrolling": true,
    "id": "flxButtonsIC",
    "info": null,
    "isvisible": true,
    "kuid": "bba14d7898534a2ea7248c5c455bc004",
    "layouttype": 2,
    "name": "kony.ui.FlexContainer",
    "parent": "flxActivateBillerContainerIC",
    "pf": "userwidgetmodel",
    "responsiveData": {
        "b1": {},
        "b2": {
            "height": {
                "type": "string",
                "value": "90dp"
            },
            "layoutType": 3,
            "right": {
                "type": "string",
                "value": ""
            }
        },
        "b3": {
            "height": {
                "type": "string",
                "value": "90dp"
            },
            "layoutType": 3
        }
    },
    "reverselayoutdirection": true,
    "snapgridsize": 10,
    "snaptogrid": true,
    "wType": "FlexContainer",
    "widgetalignment": 1,
    "zindex": 2
}