{
    "@class": "com.kony.gen.viz.model.component.KVizLabel",
    "DNDConfig": null,
    "_height_": {
        "type": "ref",
        "value": "preferred"
    },
    "_left_": {
        "type": "string",
        "value": "3.77%"
    },
    "_margin_": [
        1,
        1,
        1,
        1
    ],
    "_padding_": [
        0,
        0,
        0,
        0
    ],
    "_skin_": "s6b2602967934db5a7734f4c176b5b62",
    "_text_": "Biller Name:",
    "_top_": {
        "type": "string",
        "value": "0px"
    },
    "_width_": {
        "type": "string",
        "value": "17%"
    },
    "_wrapping_": 2,
    "accessibilityconfig": {
        "a11yLabel": "Biller Name:"
    },
    "android": {
        "textStyle": {
            "letterSpacing": 0,
            "strikeThrough": false
        }
    },
    "canUpdateUI": true,
    "containerweight": 100,
    "contentalignment": 4,
    "id": "lblField1",
    "info": null,
    "ipad": {
        "psp": {
            "wrapping": 2
        }
    },
    "iphone": {
        "psp": {
            "wrapping": 2
        }
    },
    "isvisible": true,
    "kuid": "d8d9bb1fa2fc41ea842fdf3f6a090f8d",
    "name": "kony.ui.Label",
    "parent": "flxField1",
    "pf": "userwidgetmodel",
    "responsiveData": {
        "b1": {
            "width": {
                "type": "string",
                "value": "20%"
            }
        },
        "b2": {
            "width": {
                "type": "string",
                "value": "20%"
            }
        },
        "b3": {
            "width": {
                "type": "string",
                "value": "80%"
            }
        }
    },
    "texti18n": "i18n.BillPay.BillerName",
    "tooltip": "",
    "wType": "Label",
    "zindex": 1
}