{
    "@class": "com.kony.gen.viz.model.component.KVizButton",
    "DNDConfig": null,
    "_height_": {
        "type": "string",
        "value": "100%"
    },
    "_left_": {
        "type": "string",
        "value": "20dp"
    },
    "_margin_": [
        6,
        6,
        6,
        6
    ],
    "_padding_": [
        1,
        0,
        1,
        0
    ],
    "_skin_": "s9f63adb1c8f4170bd52037748d951a0",
    "_text_": "{ \"Savings\":\"Interest Detail\", \"Checking\": \"Interest Detail\", \"Loan\": \"Interest Detail\", \"Deposit\": \"Interest Detail\", \"CreditCard\": \"Balance & Bill Detail\" }",
    "_width_": {
        "type": "ref",
        "value": "preferred"
    },
    "accessibilityconfig": {
        "a11yLabel": "Balance & Interest Detail"
    },
    "canUpdateUI": true,
    "centery": {
        "type": "string",
        "value": "50%"
    },
    "containerweight": 100,
    "contentalignment": 5,
    "desktopweb": {
        "psp": {}
    },
    "disabledSkins": {
        "focusSkin": "sf44d06ca8224832827ea7fdff757013",
        "hoverSkin": "s7aa37a8503744838191e0f5bdd6be93"
    },
    "displaytext": true,
    "id": "btnTab2",
    "info": null,
    "isvisible": true,
    "kuid": "f756b2af659047ac97b6cabbf0334f11",
    "name": "kony.ui.Button",
    "paddinginpixel": false,
    "parent": "flxTabs",
    "pf": "userwidgetmodel",
    "responsiveData": {
        "b1": {}
    },
    "tooltip": "Interest Detail",
    "wType": "Button",
    "zindex": 2
}