{
    "DNDConfig": null,
    "_height_": {
        "type": "string",
        "value": "150px"
    },
    "_margin_": [
        0,
        0,
        0,
        0
    ],
    "_orientation_": 6,
    "_padding_": [
        0,
        0,
        0,
        0
    ],
    "_percent_": true,
    "_skin_": "s24c92fc23b14f5484b693ee9b8a9b35",
    "allboxes": [],
    "autogrowmode": 0,
    "canUpdateUI": true,
    "children": [
        "flxIdentifier",
        "flxSelectedRowWrapper",
        "flxBottomSeperator"
    ],
    "clipbounds": true,
    "containerId": true,
    "containerweight": 100,
    "controllerInfo": {
        "default": {
            "channel": "desktop",
            "name": "flxSendRequestSelectedController"
        }
    },
    "enablescrolling": true,
    "id": "flxSendRequestSelected",
    "info": null,
    "isvisible": true,
    "kuid": "g8b3875a41424e1f93e511ac87ab1db7",
    "layouttype": 2,
    "name": "kony.ui.FlexContainer",
    "parent": "segSendRequestSelected",
    "pf": "segSendRequestSelected",
    "snapgridsize": 10,
    "snaptogrid": true,
    "wType": "FlexContainer",
    "widgetalignment": 1
}