{
    "DNDConfig": null,
    "_height_": {
        "type": "string",
        "value": "15dp"
    },
    "_left_": {
        "type": "number",
        "value": ""
    },
    "_margin_": [
        0,
        0,
        0,
        0
    ],
    "_orientation_": 6,
    "_padding_": [
        0,
        0,
        0,
        0
    ],
    "_percent_": true,
    "_right_": {
        "type": "string",
        "value": "4.08%"
    },
    "_skin_": "sc872bd1632b4f5c8729917a819a1c50",
    "_width_": {
        "type": "string",
        "value": "15dp"
    },
    "accessibilityconfig": {
        "a11yARIA": {
            "tabindex": 1
        }
    },
    "allboxes": [],
    "canUpdateUI": true,
    "centery": {
        "type": "string",
        "value": "50%"
    },
    "children": [
        "imgClose"
    ],
    "clipbounds": true,
    "containerweight": 100,
    "enablescrolling": true,
    "id": "flxClose",
    "info": null,
    "isvisible": true,
    "kuid": "f511473eff004642a2e0710ccd656316",
    "layouttype": 2,
    "name": "kony.ui.FlexContainer",
    "parent": "flxHeaderColumnDisplay",
    "pf": "userwidgetmodel",
    "responsiveData": {
        "b1": {
            "height": {
                "type": "string",
                "value": "100%"
            },
            "left": {
                "type": "string",
                "value": "0%"
            },
            "right": {
                "type": "string",
                "value": "0%"
            },
            "width": {
                "type": "string",
                "value": "10%"
            }
        },
        "b2": {
            "height": {
                "type": "string",
                "value": "100%"
            },
            "left": {
                "type": "string",
                "value": "0%"
            },
            "right": {
                "type": "string",
                "value": "0%"
            },
            "width": {
                "type": "string",
                "value": "10%"
            }
        },
        "b3": {
            "height": {
                "type": "string",
                "value": "100%"
            },
            "left": {
                "type": "string",
                "value": "0%"
            },
            "width": {
                "type": "string",
                "value": "10%"
            }
        },
        "b4": {
            "height": {
                "type": "string",
                "value": "100%"
            },
            "left": {
                "type": "string",
                "value": "0%"
            },
            "right": {
                "type": "string",
                "value": ""
            },
            "width": {
                "type": "string",
                "value": "10%"
            }
        }
    },
    "snapgridsize": 10,
    "snaptogrid": true,
    "wType": "FlexContainer",
    "widgetalignment": 1,
    "zindex": 1
}