{
    "DNDConfig": null,
    "_height_": {
        "type": "string",
        "value": "220dp"
    },
    "_left_": {
        "type": "string",
        "value": "2dp"
    },
    "_margin_": [
        0,
        0,
        0,
        0
    ],
    "_orientation_": 6,
    "_padding_": [
        0,
        0,
        0,
        0
    ],
    "_percent_": true,
    "_skin_": "s24c92fc23b14f5484b693ee9b8a9b35",
    "_top_": {
        "type": "string",
        "value": "6dp"
    },
    "_width_": {
        "type": "string",
        "value": "100%"
    },
    "allboxes": [],
    "canUpdateUI": true,
    "children": [
        "flxHeaderLabel",
        "flxClose"
    ],
    "clipbounds": true,
    "containerweight": 100,
    "enablescrolling": true,
    "id": "flxHeaderColumnDisplay",
    "info": null,
    "iscustomlayout": false,
    "isvisible": true,
    "kuid": "b41f815a832a448fa8656588f87b62a5",
    "layouttype": 2,
    "name": "kony.ui.FlexContainer",
    "parent": "flxCustomDisplayHeader",
    "pf": "userwidgetmodel",
    "responsiveData": {
        "b1": {
            "height": {
                "type": "string",
                "value": "90%"
            },
            "layoutType": 3,
            "left": {
                "type": "string",
                "value": "0dp"
            },
            "skin": "sd0a2082b8fd4776ba82fa55435f323f",
            "top": {
                "type": "string",
                "value": "0dp"
            }
        },
        "b2": {
            "height": {
                "type": "string",
                "value": "90%"
            },
            "layoutType": 3,
            "left": {
                "type": "string",
                "value": "0dp"
            },
            "top": {
                "type": "string",
                "value": "0dp"
            }
        },
        "b3": {
            "height": {
                "type": "string",
                "value": "97%"
            },
            "layoutType": 3,
            "left": {
                "type": "string",
                "value": "0dp"
            },
            "skin": "sf0a238897324f988fb0660641b5886d",
            "top": {
                "type": "string",
                "value": "0dp"
            }
        },
        "b4": {
            "height": {
                "type": "string",
                "value": "97%"
            },
            "layoutType": 3,
            "left": {
                "type": "string",
                "value": "0dp"
            },
            "top": {
                "type": "string",
                "value": "0dp"
            }
        }
    },
    "retaincontentalignment": false,
    "retainflexpositionproperties": false,
    "retainflowhorizontalalignment": false,
    "snapgridsize": 10,
    "snaptogrid": true,
    "wType": "FlexContainer",
    "widgetalignment": 1,
    "zindex": 1
}