{
    "DNDConfig": null,
    "_height_": {
        "type": "string",
        "value": "50dp"
    },
    "_margin_": [
        0,
        0,
        0,
        0
    ],
    "_orientation_": 6,
    "_padding_": [
        0,
        0,
        0,
        0
    ],
    "_percent_": true,
    "_skin_": "scf14515e2d444a590ca002fed32ff6d",
    "_width_": {
        "type": "string",
        "value": "100%"
    },
    "allboxes": [],
    "autogrowmode": 0,
    "canUpdateUI": true,
    "children": [
        "flxDetailsHighlighter",
        "flxCustomerCheckbox",
        "lblUserType",
        "lblCustomerName",
        "lblCustomerNumber",
        "field3"
    ],
    "clipbounds": true,
    "containerId": true,
    "containerweight": 100,
    "enablescrolling": true,
    "id": "flxCustomerDetails",
    "info": null,
    "iscustomlayout": false,
    "isvisible": false,
    "kuid": "db11cce58c4c42e5bd28efc0f6c57c23",
    "layouttype": 3,
    "name": "kony.ui.FlexContainer",
    "parent": "flxCustomer",
    "pf": "segContractsCollapsed",
    "retaincontentalignment": false,
    "retainflexpositionproperties": false,
    "retainflowhorizontalalignment": false,
    "snapgridsize": 10,
    "snaptogrid": true,
    "wType": "FlexContainer",
    "widgetalignment": 1,
    "zindex": 1
}