{
    "DNDConfig": null,
    "_height_": {
        "type": "string",
        "value": "100%"
    },
    "_left_": {
        "type": "string",
        "value": "0dp"
    },
    "_margin_": [
        0,
        0,
        0,
        0
    ],
    "_orientation_": 6,
    "_padding_": [
        0,
        0,
        0,
        0
    ],
    "_percent_": true,
    "_skin_": "s53f49af3c0b48ce84224ff45ee570ec",
    "_top_": {
        "type": "string",
        "value": "0dp"
    },
    "_width_": {
        "type": "string",
        "value": "5dp"
    },
    "allboxes": [],
    "autogrowmode": 0,
    "canUpdateUI": true,
    "children": [
        "lbldetailHighlighterVertical",
        "imgSampleHighlighter"
    ],
    "clipbounds": true,
    "containerId": true,
    "containerweight": 100,
    "enablescrolling": true,
    "id": "flxSeparatorVertical",
    "info": null,
    "iscustomlayout": false,
    "isvisible": false,
    "kuid": "bdf526348d2f4239b105c46fd737057b",
    "layouttype": 2,
    "name": "kony.ui.FlexContainer",
    "parent": "flxContractsCollapsedWrapper",
    "pf": "segContractsCollapsed",
    "retaincontentalignment": false,
    "retainflexpositionproperties": false,
    "snapgridsize": 10,
    "snaptogrid": true,
    "wType": "FlexContainer",
    "widgetalignment": 1,
    "zindex": 1
}