{
    "@class": "com.kony.gen.viz.model.component.KVizLabel",
    "DNDConfig": null,
    "_height_": {
        "type": "ref",
        "value": "preferred"
    },
    "_left_": {
        "type": "string",
        "value": "30px"
    },
    "_margin_": [
        1,
        1,
        1,
        1
    ],
    "_padding_": [
        0,
        0,
        0,
        0
    ],
    "_skin_": "sef7435c9384402492b9fa63fd4ede2d",
    "_text_": "Label",
    "_top_": {
        "type": "string",
        "value": "0px"
    },
    "_width_": {
        "type": "ref",
        "value": "preferred"
    },
    "_wrapping_": 2,
    "accessibilityconfig": {
        "a11yLabel": "SWIFT Code"
    },
    "android": {
        "textStyle": {
            "letterSpacing": 0,
            "strikeThrough": false
        }
    },
    "canUpdateUI": true,
    "containerweight": 100,
    "contentalignment": 4,
    "id": "lblField1Key",
    "info": null,
    "ipad": {
        "psp": {
            "wrapping": 2
        }
    },
    "iphone": {
        "psp": {
            "wrapping": 2
        }
    },
    "iscustomlayout": false,
    "isvisible": true,
    "kuid": "bc591eda4d664cfdae7afba4632621f2",
    "name": "kony.ui.Label",
    "parent": "flxField1",
    "pf": "userwidgetmodel",
    "responsiveData": {
        "b1": {
            "zIndex": 5
        },
        "b2": {
            "left": {
                "type": "string",
                "value": "0dp"
            },
            "text": "Label"
        },
        "b3": {
            "left": {
                "type": "string",
                "value": "0px"
            },
            "skin": "sf268b27d4964f6da0f21cc493f8731b",
            "text": "Label",
            "width": {
                "type": "string",
                "value": "100%"
            }
        }
    },
    "retaincontentalignment": false,
    "retainflexpositionproperties": false,
    "texti18n": "i18n.transfers.swiftcode",
    "tooltip": "",
    "wType": "Label",
    "zindex": 1
}