{
    "@class": "com.kony.gen.viz.model.component.KVizLabel",
    "DNDConfig": null,
    "_height_": {
        "type": "ref",
        "value": "preferred"
    },
    "_left_": {
        "type": "string",
        "value": "5.07%"
    },
    "_margin_": [
        1,
        1,
        1,
        1
    ],
    "_padding_": [
        0,
        0,
        0,
        0
    ],
    "_skin_": "s6e13e645ba1488d9cac62841907bbb3",
    "_text_": "PAYEE DETAILS",
    "_width_": {
        "type": "ref",
        "value": "preferred"
    },
    "_wrapping_": 2,
    "accessibilityconfig": {
        "a11yLabel": "Payee Details"
    },
    "android": {
        "textStyle": {
            "letterSpacing": 0,
            "strikeThrough": false
        }
    },
    "canUpdateUI": true,
    "centery": {
        "type": "string",
        "value": "50%"
    },
    "containerweight": 100,
    "contentalignment": 4,
    "id": "lblHeaderPayeeDetails",
    "info": null,
    "ipad": {
        "psp": {
            "wrapping": 2
        }
    },
    "iphone": {
        "psp": {
            "wrapping": 2
        }
    },
    "isvisible": true,
    "kuid": "if44519183a143b694e93610e96ce441",
    "name": "kony.ui.Label",
    "parent": "flxPayeeDetailsHeader",
    "pf": "frmPayeeAcknowledgement",
    "responsiveData": {
        "b1": {
            "text": "Account Details"
        },
        "b2": {
            "left": {
                "type": "string",
                "value": "2.50%"
            }
        },
        "b3": {
            "left": {
                "type": "string",
                "value": "3%"
            }
        },
        "b4": {}
    },
    "texti18n": "i18n.transfers.accountDetails",
    "tooltip": "",
    "wType": "Label",
    "zindex": 1
}