{
    "@class": "com.kony.gen.viz.model.component.KVizLabel",
    "DNDConfig": null,
    "_height_": {
        "type": "string",
        "value": "30dp"
    },
    "_margin_": [
        0,
        0,
        0,
        0
    ],
    "_padding_": [
        0,
        1,
        0,
        0
    ],
    "_right_": {
        "type": "string",
        "value": "16dp"
    },
    "_skin_": "s7a9f301d5d24de3a1babce7a8f9a28b",
    "_text_": "N",
    "_width_": {
        "type": "string",
        "value": "30dp"
    },
    "_wrapping_": 2,
    "accessibilityconfig": {
        "a11yARIA": {
            "tabindex": -1
        },
        "a11yHidden": true,
        "a11yLabel": "N"
    },
    "android": {
        "textStyle": {
            "letterSpacing": 0,
            "strikeThrough": false
        }
    },
    "canUpdateUI": true,
    "centery": {
        "type": "string",
        "value": "50%"
    },
    "containerweight": 100,
    "contentalignment": 4,
    "id": "imgNewPIN",
    "info": null,
    "ipad": {
        "psp": {
            "wrapping": 2
        }
    },
    "iphone": {
        "psp": {
            "wrapping": 2
        }
    },
    "isvisible": false,
    "kuid": "c903f0d25d744127aeb5265cc0be07dc",
    "name": "kony.ui.Label",
    "parent": "flxNewPIN",
    "pf": "frmCardManagementConfirmPin",
    "responsiveData": {
        "b3": {
            "width": {
                "type": "string",
                "value": "22dp"
            }
        },
        "b4": {
            "width": {
                "type": "string",
                "value": "30dp"
            }
        }
    },
    "tooltip": "",
    "wType": "Label",
    "zindex": 1
}