{
    "@class": "com.kony.gen.viz.model.component.KVizLabel",
    "DNDConfig": null,
    "_height_": {
        "type": "ref",
        "value": "preferred"
    },
    "_left_": {
        "type": "string",
        "value": "0dp"
    },
    "_margin_": [
        1,
        1,
        1,
        1
    ],
    "_padding_": [
        0,
        0,
        0,
        0
    ],
    "_right_": {
        "type": "number",
        "value": "20"
    },
    "_skin_": "se56454286124fef97a46e7249497088",
    "_text_": "Reason For Changing PIN",
    "_top_": {
        "type": "string",
        "value": "20dp"
    },
    "_wrapping_": 2,
    "accessibilityconfig": {
        "a11yLabel": "Reason For Changing PIN"
    },
    "android": {
        "textStyle": {
            "letterSpacing": 0,
            "strikeThrough": false
        }
    },
    "canUpdateUI": true,
    "containerweight": 100,
    "contentalignment": 4,
    "id": "lblReason",
    "info": null,
    "ipad": {
        "psp": {
            "wrapping": 2
        }
    },
    "iphone": {
        "psp": {
            "wrapping": 2
        }
    },
    "isvisible": true,
    "kuid": "ea3f68be138046d2b267b8e6cf942928",
    "name": "kony.ui.Label",
    "parent": "flxConfirmPIN",
    "pf": "frmCardManagementConfirmPin",
    "texti18n": "i18n.CardManagement.ReasonForChangingPIN",
    "tooltip": "",
    "wType": "Label",
    "zindex": 1
}