{
    "@class": "com.kony.gen.viz.model.component.KVizButton",
    "DNDConfig": null,
    "__parentReadjusting__": false,
    "_height_": {
        "type": "ref",
        "value": "preferred"
    },
    "_left_": {
        "type": "string",
        "value": "0.20%"
    },
    "_margin_": [
        6,
        6,
        6,
        6
    ],
    "_padding_": [
        0,
        0,
        0,
        0
    ],
    "_skin_": "s21421219ef3483ba150fa5f08a73f72",
    "_text_": "CANCEL",
    "_top_": {
        "type": "string",
        "value": "21dp"
    },
    "_width_": {
        "type": "ref",
        "value": "preferred"
    },
    "canUpdateUI": true,
    "containerweight": 100,
    "contentalignment": 5,
    "disabledSkins": {
        "focusSkin": "sf44d06ca8224832827ea7fdff757013",
        "hoverSkin": "s701b348b3684a418368d037692a34ab"
    },
    "displaytext": true,
    "id": "lblResendOption2",
    "info": null,
    "isvisible": true,
    "kuid": "g304e56e43dc4ec4ba9ad12c18bd68bc",
    "name": "kony.ui.Button",
    "parent": "flxResendOption",
    "pf": "userwidgetmodel",
    "texti18n": "i18n.MFA.RESEND",
    "tooltip": "Resend",
    "wType": "Button",
    "zindex": 2
}