{
    "@class": "com.kony.gen.viz.model.component.KVizLabel",
    "DNDConfig": null,
    "__parentReadjusting__": false,
    "_height_": {
        "type": "string",
        "value": "28px"
    },
    "_left_": {
        "type": "string",
        "value": "2.30%"
    },
    "_margin_": [
        1,
        1,
        1,
        1
    ],
    "_padding_": [
        0,
        0,
        0,
        0
    ],
    "_skin_": "s5f8b41d51524755bcda94b365b223ed",
    "_text_": "I agree all the terms and conditions",
    "_top_": {
        "type": "number",
        "value": "16"
    },
    "_width_": {
        "type": "string",
        "value": "13%"
    },
    "_wrapping_": 2,
    "android": {
        "textStyle": {
            "letterSpacing": 0,
            "strikeThrough": false
        }
    },
    "canUpdateUI": true,
    "containerweight": 100,
    "contentalignment": 4,
    "id": "lblSecureAccessCode",
    "info": null,
    "ipad": {
        "psp": {
            "wrapping": 2
        }
    },
    "iphone": {
        "psp": {
            "wrapping": 2
        }
    },
    "isvisible": true,
    "kuid": "a4f883e6ccd34a7888659a2c637071fe",
    "name": "kony.ui.Label",
    "parent": "flxSecureAccessCodetxtBox",
    "pf": "userwidgetmodel",
    "texti18n": "i18n.MFA.SecureAccessCode",
    "tooltip": "",
    "wType": "Label",
    "zindex": 2
}