{
    "DNDConfig": null,
    "__parentReadjusting__": false,
    "_height_": {
        "type": "string",
        "value": "40dp"
    },
    "_left_": {
        "type": "string",
        "value": "0dp"
    },
    "_margin_": [
        0,
        0,
        0,
        0
    ],
    "_orientation_": 6,
    "_padding_": [
        0,
        0,
        0,
        0
    ],
    "_percent_": true,
    "_skin_": "scf14515e2d444a590ca002fed32ff6d",
    "_top_": {
        "type": "string",
        "value": "0dp"
    },
    "_width_": {
        "type": "string",
        "value": "100%"
    },
    "allboxes": [],
    "autogrowmode": 0,
    "canUpdateUI": true,
    "children": [
        "lblApprovalName",
        "lblApprovalRole",
        "lblUserCreatedDate",
        "lblApprovalActions"
    ],
    "clipbounds": true,
    "containerId": true,
    "containerweight": 100,
    "disabledSkins": {},
    "enablescrolling": true,
    "focusskin": "scf14515e2d444a590ca002fed32ff6d",
    "id": "flxSegBBUserApprovalsHeader",
    "info": null,
    "isTemplate": true,
    "iscustomlayout": false,
    "isvisible": false,
    "kuid": "h856c7c956ce43fbab0ced155f103949",
    "layouttype": 2,
    "name": "kony.ui.FlexContainer",
    "parent": "flxBBUserDashboardCommonHeader",
    "pf": "segBBAllUsersHeader",
    "retaincontentalignment": false,
    "retainflexpositionproperties": false,
    "snapgridsize": 10,
    "snaptogrid": true,
    "wType": "FlexContainer",
    "widgetalignment": 1
}