{
    "@class": "com.kony.gen.viz.model.component.KVizButton",
    "DNDConfig": null,
    "_height_": {
        "type": "string",
        "value": "50dp"
    },
    "_left_": {
        "type": "string",
        "value": "20dp"
    },
    "_margin_": [
        6,
        6,
        6,
        6
    ],
    "_padding_": [
        0,
        0,
        0,
        0
    ],
    "_skin_": "s3392ef9d10746188bd552dff50e1b72",
    "_text_": "Button",
    "_top_": {
        "type": "string",
        "value": "23dp"
    },
    "_width_": {
        "type": "string",
        "value": "300dp"
    },
    "canUpdateUI": true,
    "containerweight": 100,
    "contentalignment": 5,
    "disabledSkins": {},
    "displaytext": true,
    "focusskin": "s5495bd040c94991a043932d65a33261",
    "id": "btnCombinedStatements",
    "info": null,
    "iscustomlayout": false,
    "isvisible": true,
    "kuid": "jf1b56b8bb6c4c4bb3483a2d98b471b1",
    "name": "kony.ui.Button",
    "parent": "flxStatementsTab",
    "pf": "userwidgetmodel",
    "responsiveData": {
        "b1": {
            "disabledSkins": {
                "focusSkin": "s6cc32f783a048e98fcfb83f1b046c84"
            },
            "height": {
                "type": "string",
                "value": "38dp"
            },
            "padding": [
                0,
                0,
                0,
                1
            ],
            "skin": "s57839e75cf54e85b54122e57c29aa22",
            "text": "Combined Statements",
            "top": {
                "type": "string",
                "value": "11dp"
            },
            "width": {
                "type": "ref",
                "value": "preferred"
            }
        },
        "b2": {
            "focusSkin": "s7c03a67da7f437395974eb07e972971",
            "height": {
                "type": "string",
                "value": "40dp"
            },
            "isVisible": true,
            "left": {
                "type": "string",
                "value": "21dp"
            },
            "skin": "s57839e75cf54e85b54122e57c29aa22",
            "top": {
                "type": "string",
                "value": "13dp"
            },
            "width": {
                "type": "ref",
                "value": "preferred"
            }
        },
        "b3": {
            "focusSkin": "s7c03a67da7f437395974eb07e972971",
            "height": {
                "type": "string",
                "value": "38dp"
            },
            "left": {
                "type": "string",
                "value": "15dp"
            },
            "skin": "s7119e60db914a309ecd50bd8dc9f7fa",
            "text": "Combined Statements",
            "top": {
                "type": "string",
                "value": "0dp"
            },
            "width": {
                "type": "ref",
                "value": "preferred"
            }
        }
    },
    "retaincontentalignment": false,
    "retainflexpositionproperties": false,
    "texti18n": "i18n.olb.ViewCombinedStatement",
    "wType": "Button",
    "zindex": 1
}