{
    "@class": "com.kony.gen.viz.model.component.KVizUserWidget",
    "DNDConfig": null,
    "_children_": [],
    "_height_": {
        "type": "string",
        "value": "268px"
    },
    "_left_": {
        "type": "string",
        "value": "0dp"
    },
    "_margin_": [
        0,
        0,
        0,
        0
    ],
    "_orientation_": 1,
    "_padding_": [
        0,
        0,
        0,
        0
    ],
    "_percent_": true,
    "_render_": true,
    "_skin_": "s701065f11074080832b59947e731160",
    "_top_": {
        "type": "string",
        "value": "300dp"
    },
    "_width_": {
        "type": "string",
        "value": "44.30%"
    },
    "android": {},
    "androidwearos": {},
    "areflexpropsreferenced": false,
    "canUpdateUI": true,
    "centerx": {
        "type": "string",
        "value": "50.00%"
    },
    "centery": {
        "type": "string",
        "value": ""
    },
    "clipbounds": false,
    "containerweight": 0,
    "dataDiffs": {
        "CustomPopup": {
            "__events__": {},
            "__info__": {
                "isRoot": true,
                "kuid": "cb0716b1563346b7b7efbadcb3236158",
                "srcKUID": "eb2d311dcb4744a7b05aa4f5428a6c53",
                "wType": "FlexContainer"
            },
            "autogrowMode": {
                "Default": 0
            },
            "bottom": {},
            "centerX": {
                "Default": {
                    "type": "string",
                    "value": "50.00%"
                }
            },
            "centerY": {
                "Default": {
                    "type": "string",
                    "value": ""
                }
            },
            "height": {
                "Default": {
                    "type": "string",
                    "value": "268px"
                }
            },
            "left": {},
            "responsiveData": {
                "b1": {
                    "centerY": {
                        "type": "string",
                        "value": "50%"
                    }
                },
                "b2": {
                    "width": {
                        "type": "string",
                        "value": "75%"
                    }
                },
                "b3": {
                    "bottom": {
                        "type": "string",
                        "value": ""
                    },
                    "height": {
                        "type": "string",
                        "value": "268px"
                    },
                    "left": {
                        "type": "string",
                        "value": "10dp"
                    },
                    "right": {
                        "type": "string",
                        "value": ""
                    },
                    "top": {
                        "type": "string",
                        "value": "300dp"
                    },
                    "width": {
                        "type": "string",
                        "value": "75%"
                    }
                },
                "b4": {
                    "centerY": {
                        "type": "string",
                        "value": "50%"
                    }
                }
            },
            "right": {},
            "top": {
                "Default": {
                    "type": "string",
                    "value": "300dp"
                }
            },
            "width": {
                "Default": {
                    "type": "string",
                    "value": "44.30%"
                }
            },
            "zIndex": {
                "Default": 1100
            }
        },
        "btnNo": {
            "__events__": {},
            "__info__": {
                "kuid": "icabc2c93f494c299d3bffa499d7e816",
                "srcKUID": "h61577b4448c4e22a2636221e8fe0d6d",
                "wType": "Button"
            },
            "bottom": {},
            "left": {},
            "responsiveData": {
                "b3": {
                    "bottom": {
                        "type": "string",
                        "value": "30dp"
                    },
                    "left": {
                        "type": "string",
                        "value": "4%"
                    },
                    "right": {
                        "type": "string",
                        "value": ""
                    },
                    "top": {
                        "type": "string",
                        "value": ""
                    },
                    "width": {
                        "type": "string",
                        "value": "45%"
                    }
                }
            },
            "right": {},
            "top": {},
            "width": {}
        },
        "btnYes": {
            "__events__": {},
            "__info__": {
                "kuid": "a469d50d20ee4c089e07a3b0800419ac",
                "srcKUID": "e1c11d09edb846848d4aaf921cb1e5a0",
                "wType": "Button"
            },
            "bottom": {},
            "responsiveData": {
                "b3": {
                    "bottom": {
                        "type": "string",
                        "value": "30dp"
                    },
                    "right": {
                        "type": "string",
                        "value": "4%"
                    },
                    "top": {
                        "type": "string",
                        "value": ""
                    },
                    "width": {
                        "type": "string",
                        "value": "45%"
                    }
                }
            },
            "right": {},
            "top": {},
            "width": {}
        },
        "flxCross": {
            "__events__": {},
            "__info__": {
                "kuid": "fb77e33bc3d64f7d95945c0c1e241ebc",
                "srcKUID": "e896a8d6e1244397be41e1011101c6ec",
                "wType": "FlexContainer"
            },
            "responsiveData": {
                "b3": {
                    "right": {
                        "type": "string",
                        "value": "3%"
                    }
                }
            },
            "right": {}
        },
        "flxHeader": {
            "__events__": {},
            "__info__": {
                "kuid": "eeac6ebed2114437923324be57ab9286",
                "srcKUID": "b6d465d7232a428eba11c466c6843856",
                "wType": "FlexContainer"
            }
        },
        "flxSeperator": {
            "__events__": {},
            "__info__": {
                "kuid": "ceebd9d8653148d18c58be4e3132b274",
                "srcKUID": "b469cc45156e429d8fa47b9786168d10",
                "wType": "FlexContainer"
            }
        },
        "flxSeperator2": {
            "__events__": {},
            "__info__": {
                "kuid": "e29b359145ce4de2b40c2a25ae781bf1",
                "srcKUID": "e909e4e4b4a145b1aa92b22ece7050d3",
                "wType": "FlexContainer"
            },
            "responsiveData": {
                "b3": {
                    "isVisible": false
                }
            }
        },
        "imgCross": {
            "__events__": {},
            "__info__": {
                "kuid": "da3614f37ce44e8fad11b161c2459c95",
                "srcKUID": "ja13bba308404016b1cd223dbcdf01ae",
                "wType": "Image"
            },
            "height": {
                "Default": {
                    "type": "string",
                    "value": "15dp"
                }
            },
            "src": "bbcloseicon.png"
        },
        "lblHeading": {
            "__events__": {},
            "__info__": {
                "kuid": "c33be8f0a3f243a6a08ab9dfc1f05ec0",
                "srcKUID": "f97c1408984847af9f3cd9984a260c74",
                "wType": "Label"
            },
            "i18n_text": "i18n.transfers.deleteExternalAccount",
            "left": {},
            "responsiveData": {
                "b3": {
                    "left": {
                        "type": "string",
                        "value": "4%"
                    }
                }
            }
        },
        "lblPopupMessage": {
            "__events__": {},
            "__info__": {
                "kuid": "b5cb1395bd26449294c32abe7ba6b8e4",
                "srcKUID": "f7c7509dccf24b88aeb13dc3d34fcc6b",
                "wType": "Label"
            },
            "i18n_text": "i18n.billpay.deleteBillerAlert",
            "left": {},
            "responsiveData": {
                "b3": {
                    "left": {
                        "type": "string",
                        "value": "4%"
                    }
                }
            }
        },
        "lblcross": {
            "__events__": {},
            "__info__": {
                "kuid": "cfa4ab40550648f6ba3925686aa8d4f6",
                "srcKUID": "fd30aa3a9d8f4077b98f3053f04a091b",
                "wType": "Label"
            }
        }
    },
    "desktopweb": {},
    "id": "DeletePopup",
    "info": null,
    "ipad": {},
    "iphone": {},
    "isdatareferenced": false,
    "isvisible": true,
    "kiosk": {},
    "kuid": "cb0716b1563346b7b7efbadcb3236158",
    "layouttype": 2,
    "masterType": 0,
    "name": "kony.ui.UserWidgetInstance",
    "parent": "flxDeletePopup",
    "pf": "frmScheduledPaymentsEurNew",
    "responsiveData": {
        "b1": {
            "centerY": {
                "type": "string",
                "value": "50%"
            }
        },
        "b2": {
            "width": {
                "type": "string",
                "value": "75%"
            }
        },
        "b3": {
            "bottom": {
                "type": "string",
                "value": ""
            },
            "height": {
                "type": "string",
                "value": "268px"
            },
            "left": {
                "type": "string",
                "value": "10dp"
            },
            "right": {
                "type": "string",
                "value": ""
            },
            "top": {
                "type": "string",
                "value": "300dp"
            },
            "width": {
                "type": "string",
                "value": "75%"
            }
        },
        "b4": {
            "centerY": {
                "type": "string",
                "value": "50%"
            }
        }
    },
    "snaptogrid": true,
    "sourceUserWidget": "eb2d311dcb4744a7b05aa4f5428a6c53",
    "spa": {},
    "spaan": {},
    "spaandroidtablet": {},
    "spabb": {},
    "spaip": {},
    "spaipad": {},
    "spamobile": {},
    "spatablet": {},
    "spawindowstablet": {},
    "spawinphone8": {},
    "tabrcandroid": {},
    "vizProps": {
        "hidewidgethierarchy": false
    },
    "vizprops": {
        "hidewidgethierarchy": false
    },
    "wType": "UserWidgetInstance",
    "windows10": {},
    "windows8": {},
    "winphone10": {},
    "winphone8": {},
    "zindex": 1100
}