{
    "DNDConfig": null,
    "_bottom_": {
        "type": "string",
        "value": "1dp"
    },
    "_height_": {
        "type": "string",
        "value": "1dp"
    },
    "_left_": {
        "type": "string",
        "value": "0dp"
    },
    "_margin_": [
        0,
        0,
        0,
        0
    ],
    "_orientation_": 6,
    "_padding_": [
        0,
        0,
        0,
        0
    ],
    "_percent_": true,
    "_skin_": "s294228bd4704f2bb11597405c469ae0",
    "_top_": {
        "type": "number",
        "value": ""
    },
    "_width_": {
        "type": "string",
        "value": "100%"
    },
    "allboxes": [],
    "autogrowmode": 0,
    "canUpdateUI": true,
    "children": [],
    "clipbounds": true,
    "containerweight": 100,
    "enablescrolling": true,
    "id": "flxSeperator1",
    "info": null,
    "isvisible": true,
    "kuid": "d4945eff3fa543e2bddfa88c6706d3c4",
    "layouttype": 2,
    "name": "kony.ui.FlexContainer",
    "parent": "flxNewPayment",
    "pf": "frmScheduledPaymentsEurNew",
    "responsiveData": {
        "b1": {
            "bottom": {
                "type": "string",
                "value": ""
            },
            "top": {
                "type": "string",
                "value": "47dp"
            }
        },
        "b4": {
            "bottom": {
                "type": "string",
                "value": ""
            },
            "top": {
                "type": "string",
                "value": "47dp"
            }
        }
    },
    "snapgridsize": 10,
    "snaptogrid": true,
    "wType": "FlexContainer",
    "widgetalignment": 1,
    "zindex": 1
}