{
    "DNDConfig": null,
    "__parentReadjusting__": false,
    "_height_": {
        "type": "string",
        "value": "220dp"
    },
    "_left_": {
        "type": "string",
        "value": "539dp"
    },
    "_margin_": [
        0,
        0,
        0,
        0
    ],
    "_orientation_": 6,
    "_padding_": [
        0,
        0,
        0,
        0
    ],
    "_percent_": true,
    "_right_": {
        "type": "number",
        "value": ""
    },
    "_skin_": "s24c92fc23b14f5484b693ee9b8a9b35",
    "_top_": {
        "type": "string",
        "value": "3dp"
    },
    "_width_": {
        "type": "string",
        "value": "100%"
    },
    "allboxes": [],
    "canUpdateUI": true,
    "centery": {
        "type": "number",
        "value": ""
    },
    "children": [
        "lblView",
        "LisiBox1"
    ],
    "clipbounds": true,
    "containerweight": 100,
    "enablescrolling": true,
    "id": "flxListBox",
    "info": null,
    "iscustomlayout": false,
    "isvisible": true,
    "kuid": "c3134f1c8c3f4782933168bccbe3a69b",
    "layouttype": 2,
    "name": "kony.ui.FlexContainer",
    "parent": "flxSearch",
    "pf": "frmBulkTransferFiles",
    "responsiveData": {
        "b1": {
            "height": {
                "type": "string",
                "value": "42dp"
            },
            "isVisible": true,
            "left": {
                "type": "string",
                "value": "570dp"
            },
            "skin": "s5d7c30d77224eaea4fdd50e49d2fd48",
            "top": {
                "type": "string",
                "value": "30dp"
            },
            "width": {
                "type": "string",
                "value": "26%"
            }
        },
        "b2": {
            "height": {
                "type": "string",
                "value": "42dp"
            },
            "left": {
                "type": "string",
                "value": "70%"
            },
            "skin": "s5d7c30d77224eaea4fdd50e49d2fd48",
            "top": {
                "type": "string",
                "value": "30dp"
            },
            "width": {
                "type": "string",
                "value": "27%"
            }
        },
        "b3": {
            "height": {
                "type": "string",
                "value": "42dp"
            },
            "left": {
                "type": "string",
                "value": "72%"
            },
            "skin": "s5d7c30d77224eaea4fdd50e49d2fd48",
            "top": {
                "type": "string",
                "value": "30dp"
            },
            "width": {
                "type": "string",
                "value": "25%"
            }
        },
        "b4": {
            "centerY": {
                "type": "string",
                "value": "50px"
            },
            "height": {
                "type": "string",
                "value": "50dp"
            },
            "left": {
                "type": "string",
                "value": "3.70%"
            },
            "right": {
                "type": "string",
                "value": "3.70%"
            },
            "skin": "s05adfd3fa3549188157dbe140db728e",
            "top": {
                "type": "string",
                "value": "30dp"
            },
            "width": {
                "type": "string",
                "value": ""
            }
        }
    },
    "retaincontentalignment": false,
    "retainflexpositionproperties": false,
    "retainflowhorizontalalignment": false,
    "snapgridsize": 10,
    "snaptogrid": true,
    "wType": "FlexContainer",
    "widgetalignment": 1,
    "zindex": 5
}