{
    "DNDConfig": null,
    "__parentReadjusting__": false,
    "_height_": {
        "type": "string",
        "value": "50dp"
    },
    "_left_": {
        "type": "string",
        "value": "0dp"
    },
    "_margin_": [
        0,
        0,
        0,
        0
    ],
    "_orientation_": 6,
    "_padding_": [
        0,
        0,
        0,
        0
    ],
    "_percent_": true,
    "_skin_": "se2c51e2a5574dcc8bc00a48bc7649ca",
    "_top_": {
        "type": "string",
        "value": "0dp"
    },
    "_width_": {
        "type": "string",
        "value": "100%"
    },
    "allboxes": [],
    "canUpdateUI": true,
    "children": [
        "flxSortDate",
        "flxSortSentTo",
        "flxSortAmount",
        "lblActions"
    ],
    "clipbounds": true,
    "containerweight": 100,
    "enablescrolling": true,
    "id": "flxSortRecent",
    "info": null,
    "isvisible": false,
    "kuid": "ed736732a0b5408b8483ca11d56e1145",
    "layouttype": 3,
    "name": "kony.ui.FlexContainer",
    "parent": "flxMainContainerTable",
    "pf": "frmBulkTransferFiles",
    "responsiveData": {
        "b1": {
            "isVisible": false
        },
        "b2": {},
        "b3": {
            "isVisible": false
        },
        "b4": {
            "height": {
                "type": "string",
                "value": "0dp"
            },
            "isVisible": true,
            "width": {
                "type": "string",
                "value": "0%"
            }
        }
    },
    "snapgridsize": 10,
    "snaptogrid": true,
    "wType": "FlexContainer",
    "widgetalignment": 1,
    "zindex": 5
}