{
    "@class": "com.kony.gen.viz.model.component.KVizUserWidget",
    "DNDConfig": null,
    "__parentReadjusting__": false,
    "_bottom_": {
        "type": "number",
        "value": ""
    },
    "_children_": [],
    "_height_": {
        "type": "string",
        "value": "100dp"
    },
    "_left_": {
        "type": "string",
        "value": "0dp"
    },
    "_margin_": [
        0,
        0,
        0,
        0
    ],
    "_orientation_": 1,
    "_padding_": [
        0,
        0,
        0,
        0
    ],
    "_percent_": true,
    "_render_": true,
    "_skin_": "s24c92fc23b14f5484b693ee9b8a9b35",
    "_top_": {
        "type": "string",
        "value": "0dp"
    },
    "_width_": {
        "type": "string",
        "value": "100%"
    },
    "areflexpropsreferenced": false,
    "canUpdateUI": true,
    "clipbounds": false,
    "containerweight": 0,
    "dataDiffs": {
        "Search": {
            "__events__": {},
            "__info__": {
                "isRoot": true,
                "kuid": "b7d09b3019324a369fc434c67459d0ff",
                "srcKUID": "afd57c04bad743bba99d0e5529f286ef",
                "wType": "FlexContainer"
            },
            "autogrowMode": {
                "Default": 0
            },
            "bottom": {
                "Default": {
                    "type": "number",
                    "value": ""
                }
            },
            "height": {
                "Default": {
                    "type": "string",
                    "value": "100dp"
                }
            },
            "left": {
                "Default": {
                    "type": "string",
                    "value": "0dp"
                }
            },
            "responsiveData": {
                "b2": {
                    "width": {
                        "type": "string",
                        "value": "67%"
                    }
                },
                "b3": {
                    "width": {
                        "type": "string",
                        "value": "70%"
                    }
                },
                "b4": {
                    "bottom": {
                        "type": "string",
                        "value": "25dp"
                    },
                    "height": {
                        "type": "string",
                        "value": "50dp"
                    },
                    "left": {
                        "type": "string",
                        "value": "0dp"
                    },
                    "top": {
                        "type": "string",
                        "value": "100dp"
                    },
                    "width": {
                        "type": "string",
                        "value": "100%"
                    }
                }
            },
            "top": {
                "Default": {
                    "type": "string",
                    "value": "0dp"
                }
            },
            "width": {
                "Default": {
                    "type": "string",
                    "value": "100%"
                }
            },
            "zIndex": {
                "Default": 1
            }
        },
        "btnConfirm": {
            "__events__": {},
            "__info__": {
                "kuid": "c192802ea58140c986d35f622fb02b47",
                "srcKUID": "e9702e4808614e879fc1c538e8418494",
                "wType": "FlexContainer"
            },
            "left": {
                "Default": {
                    "type": "string",
                    "value": "15px"
                }
            },
            "responsiveData": {
                "b1": {
                    "width": {
                        "type": "string",
                        "value": "20dp"
                    }
                },
                "b4": {
                    "width": {
                        "type": "string",
                        "value": "17dp"
                    }
                }
            },
            "width": {
                "Default": {
                    "type": "string",
                    "value": "17dp"
                }
            }
        },
        "btnConfirm1": {
            "__events__": {},
            "__info__": {
                "kuid": "b7443f05f31d4b53bb0e43e23d01c45e",
                "srcKUID": "af76dace2e82450d9f162b8462c58110",
                "wType": "Button"
            },
            "isVisible": false,
            "responsiveData": {
                "b1": {
                    "isVisible": false
                }
            }
        },
        "flxClearBtn": {
            "__events__": {},
            "__info__": {
                "kuid": "be1cdaf062f84430ab30bda16a6e29a7",
                "srcKUID": "d3fe792123d04455b5f0b964efb41461",
                "wType": "FlexContainer"
            },
            "isVisible": false,
            "width": {
                "Default": {
                    "type": "string",
                    "value": "40dp"
                }
            }
        },
        "flxtxtSearchandClearbtn": {
            "__events__": {},
            "__info__": {
                "kuid": "hc15100fff7d439abfacacda8d31535b",
                "srcKUID": "c09f8d65274f4847b9b386da774ae9ed",
                "wType": "FlexContainer"
            },
            "autogrowMode": {
                "Default": 0
            },
            "centerX": {
                "Default": {
                    "type": "number",
                    "value": ""
                }
            },
            "centerY": {
                "Default": {
                    "type": "string",
                    "value": "50%"
                }
            },
            "height": {
                "Default": {
                    "type": "string",
                    "value": "40dp"
                }
            },
            "layoutType": 2,
            "responsiveData": {
                "b1": {
                    "height": {
                        "type": "string",
                        "value": "42dp"
                    },
                    "right": {
                        "type": "string",
                        "value": "30%"
                    }
                },
                "b2": {
                    "height": {
                        "type": "string",
                        "value": "42dp"
                    },
                    "right": {
                        "type": "string",
                        "value": "30%"
                    },
                    "width": {
                        "type": "string",
                        "value": "95%"
                    }
                },
                "b3": {
                    "centerY": {
                        "type": "string",
                        "value": "50%"
                    },
                    "height": {
                        "type": "string",
                        "value": "42dp"
                    }
                },
                "b4": {
                    "centerX": {
                        "type": "string",
                        "value": ""
                    },
                    "height": {
                        "type": "string",
                        "value": "50dp"
                    },
                    "width": {
                        "type": "string",
                        "value": ""
                    }
                }
            },
            "right": {
                "Default": {
                    "type": "string",
                    "value": "3.70%"
                }
            },
            "top": {
                "Default": {
                    "type": "number",
                    "value": ""
                }
            },
            "width": {
                "Default": {
                    "type": "number",
                    "value": ""
                }
            }
        },
        "imgCross": {
            "__events__": {},
            "__info__": {
                "kuid": "g413f06dede34ccfb35446e71c6c10b5",
                "srcKUID": "eaa7b734e8034d52976bb1bb5a6ef8df",
                "wType": "Image"
            },
            "src": "search_close.png"
        },
        "lblSearch": {
            "__events__": {},
            "__info__": {
                "kuid": "j7a3eaed125546ca94dd461a0398ded5",
                "srcKUID": "ha872e5f14bd4b81be4c93f1a3c18480",
                "wType": "Label"
            },
            "centerY": {
                "Default": {
                    "type": "string",
                    "value": "50%"
                }
            },
            "responsiveData": {
                "b4": {
                    "centerY": {
                        "type": "string",
                        "value": "58%"
                    }
                }
            }
        },
        "txtSearch": {
            "__events__": {},
            "__info__": {
                "kuid": "ba1be95305c84cdbb53b904ecc1321f3",
                "srcKUID": "i3f8ddcc8538436280c67c4c0ccc7cb6",
                "wType": "TextField"
            },
            "centerX": {},
            "i18n_placeholder": null,
            "isVisible": true,
            "left": {
                "Default": {
                    "type": "string",
                    "value": "42px"
                }
            },
            "placeholder": "Search By Keywords",
            "responsiveData": {
                "b3": {
                    "centerX": {
                        "type": "string",
                        "value": "50%"
                    }
                },
                "b4": {
                    "isVisible": true
                }
            },
            "right": {
                "Default": {
                    "type": "string",
                    "value": "40px"
                }
            },
            "width": {
                "Default": {
                    "type": "string",
                    "value": ""
                }
            }
        }
    },
    "id": "Search",
    "info": null,
    "isdatareferenced": false,
    "isvisible": true,
    "kuid": "b7d09b3019324a369fc434c67459d0ff",
    "layouttype": 2,
    "masterType": 0,
    "name": "kony.ui.UserWidgetInstance",
    "parent": "flxSearch",
    "pf": "frmBulkTransferFiles",
    "snapgridsize": 10,
    "snaptogrid": true,
    "sourceUserWidget": "afd57c04bad743bba99d0e5529f286ef",
    "wType": "UserWidgetInstance",
    "zindex": 1
}