{
    "@class": "com.kony.gen.viz.model.component.KVizLabel",
    "DNDConfig": null,
    "__parentReadjusting__": false,
    "_bottom_": {
        "type": "string",
        "value": "8dp"
    },
    "_height_": {
        "type": "ref",
        "value": "preferred"
    },
    "_left_": {
        "type": "string",
        "value": "80dp"
    },
    "_margin_": [
        1,
        1,
        1,
        1
    ],
    "_padding_": [
        0,
        0,
        0,
        0
    ],
    "_right_": {
        "type": "string",
        "value": "50dp"
    },
    "_skin_": "se56454286124fef97a46e7249497088",
    "_text_": "Our online banking application will be unavailable o.",
    "_top_": {
        "type": "string",
        "value": "8dp"
    },
    "_wrapping_": 2,
    "accessibilityconfig": {
        "a11yLabel": "One or more of your accounts may be overdrawn once your scheduled transactions are executed. Please make sure your accounts have sufficient funds or reschedule your transactions to avoid overdraft fees."
    },
    "android": {
        "textStyle": {
            "letterSpacing": 0,
            "strikeThrough": false
        }
    },
    "canUpdateUI": true,
    "containerweight": 100,
    "contentalignment": 4,
    "id": "lblOverdraftWarning",
    "info": null,
    "ipad": {
        "psp": {
            "wrapping": 2
        }
    },
    "iphone": {
        "psp": {
            "wrapping": 2
        }
    },
    "isvisible": true,
    "kuid": "afd6346395774347b0ccf8f609388c68",
    "name": "kony.ui.Label",
    "paddinginpixel": false,
    "parent": "flxOverdraftWarning",
    "pf": "frmAccountsLanding",
    "responsiveData": {
        "b1": {
            "contentAlignment": 4
        },
        "b3": {
            "contentAlignment": 1,
            "left": {
                "type": "string",
                "value": "60dp"
            }
        },
        "b4": {}
    },
    "texti18n": "i18n.AccountsLanding.OverDraftWarning",
    "tooltip": "",
    "wType": "Label",
    "zindex": 1
}