{
    "@class": "com.kony.gen.viz.model.component.KVizUserWidget",
    "DNDConfig": null,
    "__parentReadjusting__": false,
    "_android_": {},
    "_androidwearos_": {},
    "_children_": [],
    "_desktopweb_": {},
    "_height_": {
        "type": "ref",
        "value": "preferred"
    },
    "_ipad_": {},
    "_iphone_": {},
    "_kiosk_": {},
    "_left_": {
        "type": "string",
        "value": "0dp"
    },
    "_margin_": [
        0,
        0,
        0,
        0
    ],
    "_orientation_": 1,
    "_padding_": [
        0,
        0,
        0,
        0
    ],
    "_percent_": true,
    "_render_": true,
    "_skin_": "s24c92fc23b14f5484b693ee9b8a9b35",
    "_spa_": {},
    "_spaan_": {},
    "_spaandroidtablet_": {},
    "_spabb_": {},
    "_spaip_": {},
    "_spaipad_": {},
    "_spamobile_": {},
    "_spatablet_": {},
    "_spawindowstablet_": {},
    "_spawinphone8_": {},
    "_tabrcandroid_": {},
    "_top_": {
        "type": "string",
        "value": "20dp"
    },
    "_vizProps_": {
        "hidewidgethierarchy": false
    },
    "_width_": {
        "type": "string",
        "value": "100%"
    },
    "_windows10_": {},
    "_windows8_": {},
    "_winphone10_": {},
    "_winphone8_": {},
    "areflexpropsreferenced": false,
    "autogrowmode": 1,
    "canUpdateUI": true,
    "clipbounds": true,
    "containerweight": 0,
    "dataDiffs": {
        "flxContainer": {
            "__events__": {},
            "__info__": {
                "kuid": "e67bab4b58ff419b88ede6a03819e863",
                "srcKUID": "f13dc08cac9b42cf84a6cd0eb46e5de8",
                "wType": "FlexContainer"
            }
        },
        "flxInfo": {
            "__events__": {},
            "__info__": {
                "kuid": "a8ace0b270f44919bd7fb0250747bb65",
                "srcKUID": "e95f6b8ffb5f415db6652af917c31c62",
                "wType": "FlexContainer"
            }
        },
        "flxKey": {
            "__events__": {},
            "__info__": {
                "kuid": "c9b515b3885242489043cead5aa46be4",
                "srcKUID": "d4492c719df94445a861e97f34dc4949",
                "wType": "FlexContainer"
            }
        },
        "flxValue": {
            "__events__": {},
            "__info__": {
                "kuid": "j3e6ba6281ff40e8831cf50d10390c76",
                "srcKUID": "b141325e5e9048519b71af002cfee26a",
                "wType": "FlexContainer"
            }
        },
        "imgWhatIsSSN": {
            "__events__": {},
            "__info__": {
                "kuid": "d2e5f98ae2794c10b94d3f9145774103",
                "srcKUID": "f54ec2da1e9d451d9345687646b48cc3",
                "wType": "Image"
            },
            "src": "info_grey.png"
        },
        "keyValue": {
            "__events__": {},
            "__info__": {
                "isRoot": true,
                "kuid": "jb1fa92c180a496eb9842ed99a5390c8",
                "srcKUID": "cc43b83fad51498eaee44e391076b1e1",
                "wType": "FlexContainer"
            },
            "autogrowMode": 1,
            "height": {
                "Default": {
                    "type": "ref",
                    "value": "preferred"
                }
            },
            "left": {
                "Default": {
                    "type": "string",
                    "value": "0dp"
                }
            },
            "top": {
                "Default": {
                    "type": "string",
                    "value": "20dp"
                }
            },
            "zIndex": {
                "Default": 5
            }
        },
        "lblColon": {
            "__events__": {},
            "__info__": {
                "kuid": "ee0cfc684ce645788153f2955f5292aa",
                "srcKUID": "c1b15d6a704e4365be1c4ff0a75c3f55",
                "wType": "Label"
            }
        },
        "lblKey": {
            "__events__": {},
            "__info__": {
                "kuid": "i685ab48983f4485a038d48f894aa312",
                "srcKUID": "daa1384a75084c57b8a708d751b05837",
                "wType": "Label"
            },
            "i18n_text": "i18n.transfers.accountNickName"
        },
        "lblValue": {
            "__events__": {},
            "__info__": {
                "kuid": "ed001f966eb847d8b1339d9d50e41fb0",
                "srcKUID": "had7006a19c947e7ae413b191f0cc841",
                "wType": "Label"
            },
            "text": "My BOA Account"
        }
    },
    "id": "keyValueFrequencyType",
    "info": null,
    "isdatareferenced": false,
    "isvisible": true,
    "kuid": "f96221bee940411eb0d263db6ae7ed56",
    "layouttype": 2,
    "masterType": 0,
    "name": "kony.ui.UserWidgetInstance",
    "parent": "flxMain",
    "pf": "userwidgetmodel",
    "snaptogrid": true,
    "sourceUserWidget": "cc43b83fad51498eaee44e391076b1e1",
    "wType": "UserWidgetInstance",
    "zindex": 5
}