{
    "DNDConfig": null,
    "__parentReadjusting__": false,
    "_bottom_": {
        "type": "number",
        "value": "0"
    },
    "_height_": {
        "type": "string",
        "value": "50dp"
    },
    "_left_": {
        "type": "string",
        "value": "0dp"
    },
    "_margin_": [
        0,
        0,
        0,
        0
    ],
    "_orientation_": 6,
    "_padding_": [
        0,
        0,
        0,
        0
    ],
    "_percent_": true,
    "_skin_": "s24c92fc23b14f5484b693ee9b8a9b35",
    "_top_": {
        "type": "string",
        "value": "0dp"
    },
    "_width_": {
        "type": "string",
        "value": "100%"
    },
    "allboxes": [],
    "autogrowmode": 0,
    "canUpdateUI": true,
    "children": [
        "flxTabsBottomBorder",
        "flxTabsSeperator1",
        "btnMakeTransfer",
        "flxTabsSeperator2",
        "btnRecent",
        "flxTabsSeperator3",
        "btnManageRecipient",
        "flxTabsSeperator4",
        "flxTabsBottomBorder2"
    ],
    "clipbounds": false,
    "containerweight": 100,
    "enablescrolling": true,
    "id": "flxTabs",
    "info": null,
    "isvisible": true,
    "kuid": "ca8f80e7c73a40a8a74c149605f5b4d8",
    "layouttype": 3,
    "name": "kony.ui.FlexContainer",
    "parent": "flxMainContainerTable",
    "pf": "userwidgetmodel",
    "snapgridsize": 10,
    "snaptogrid": true,
    "wType": "FlexContainer",
    "widgetalignment": 1,
    "zindex": 1
}