{
    "@class": "com.kony.gen.viz.model.component.KVizButton",
    "DNDConfig": null,
    "__parentReadjusting__": false,
    "_height_": {
        "type": "ref",
        "value": "preferred"
    },
    "_margin_": [
        6,
        6,
        6,
        6
    ],
    "_padding_": [
        0,
        0,
        0,
        0
    ],
    "_right_": {
        "type": "string",
        "value": "5dp"
    },
    "_skin_": "se4cbdf6e51f48eda9966caa941c6a19",
    "_text_": "Cancel Transfer",
    "_top_": {
        "type": "string",
        "value": "0dp"
    },
    "_width_": {
        "type": "string",
        "value": "14%"
    },
    "accessibilityconfig": {
        "a11yLabel": "Cancel Transfer"
    },
    "canUpdateUI": true,
    "containerweight": 100,
    "contentalignment": 1,
    "desktopweb": {
        "psp": {}
    },
    "disabledSkins": {
        "focusSkin": "sf44d06ca8224832827ea7fdff757013"
    },
    "displaytext": true,
    "id": "btnCancelThisOccurence",
    "info": null,
    "isvisible": true,
    "kuid": "j1be76fb32db4ae4becf8e884eaf1ecc",
    "name": "kony.ui.Button",
    "parent": "flxRowOne",
    "pf": "segFastScheduledTransfersSelected",
    "tooltip": "REPEAT",
    "wType": "Button",
    "zindex": 1
}