{
    "DNDConfig": null,
    "_height_": {
        "type": "string",
        "value": "150%"
    },
    "_left_": {
        "type": "string",
        "value": "0dp"
    },
    "_margin_": [
        0,
        0,
        0,
        0
    ],
    "_orientation_": 6,
    "_padding_": [
        0,
        0,
        0,
        0
    ],
    "_percent_": true,
    "_skin_": "s33fa12a911a45c49c6435621160a9c1",
    "_top_": {
        "type": "string",
        "value": "0dp"
    },
    "_width_": {
        "type": "string",
        "value": "100%"
    },
    "allboxes": [],
    "autogrowmode": 0,
    "canUpdateUI": true,
    "children": [
        "flxDownloadItems"
    ],
    "clipbounds": true,
    "containerweight": 100,
    "enablescrolling": true,
    "id": "flxDownloadAttachment",
    "info": null,
    "iscustomlayout": false,
    "isvisible": false,
    "kuid": "fc71457f2036423dbaf4e17f96eb10f2",
    "layouttype": 2,
    "name": "kony.ui.FlexContainer",
    "parent": "frmAccountsDetails",
    "pf": "frmAccountsDetails",
    "responsiveData": {
        "b1": {},
        "b2": {},
        "b4": {}
    },
    "retaincontentalignment": false,
    "retainflexpositionproperties": false,
    "retainflowhorizontalalignment": false,
    "snapgridsize": 10,
    "snaptogrid": true,
    "wType": "FlexContainer",
    "widgetalignment": 1,
    "zindex": 1000
}