{
    "DNDConfig": null,
    "_bottom_": {
        "type": "string",
        "value": "-10dp"
    },
    "_height_": {
        "type": "string",
        "value": "60dp"
    },
    "_left_": {
        "type": "string",
        "value": "0%"
    },
    "_margin_": [
        0,
        0,
        0,
        0
    ],
    "_orientation_": 6,
    "_padding_": [
        0,
        0,
        0,
        0
    ],
    "_percent_": true,
    "_skin_": "sa8d52a315c34fd0b98ab4bce8f84f02",
    "_top_": {
        "type": "string",
        "value": "30dp"
    },
    "_width_": {
        "type": "string",
        "value": "88%"
    },
    "allboxes": [],
    "canUpdateUI": true,
    "centerx": {
        "type": "string",
        "value": "50%"
    },
    "children": [
        "imgExpired",
        "lblRenewExpired",
        "btnRenew"
    ],
    "clipbounds": true,
    "containerweight": 100,
    "enablescrolling": true,
    "id": "flxRenewExpired",
    "info": null,
    "isvisible": false,
    "kuid": "f35a67fa8f87492da9250eee33588714",
    "layouttype": 3,
    "name": "kony.ui.FlexContainer",
    "parent": "flxMain",
    "pf": "frmAccountsDetails",
    "responsiveData": {
        "b1": {
            "height": {
                "type": "string",
                "value": "50dp"
            },
            "layoutType": 2,
            "skin": "sc4501b9ac9f47198fee932a0c20d1e1"
        },
        "b2": {
            "height": {
                "type": "string",
                "value": "108dp"
            },
            "layoutType": 2,
            "skin": "sc4501b9ac9f47198fee932a0c20d1e1",
            "width": {
                "type": "string",
                "value": "98%"
            }
        },
        "b3": {
            "height": {
                "type": "string",
                "value": "50dp"
            },
            "isVisible": false,
            "layoutType": 2,
            "skin": "sc4501b9ac9f47198fee932a0c20d1e1",
            "top": {
                "type": "string",
                "value": "30dp"
            },
            "width": {
                "type": "string",
                "value": "94.50%"
            }
        },
        "b4": {
            "height": {
                "type": "string",
                "value": "50dp"
            },
            "layoutType": 2,
            "skin": "sc4501b9ac9f47198fee932a0c20d1e1"
        }
    },
    "snapgridsize": 10,
    "snaptogrid": true,
    "wType": "FlexContainer",
    "widgetalignment": 1,
    "zindex": 1
}