{
    "@class": "com.kony.gen.viz.model.component.KVizUserWidget",
    "DNDConfig": null,
    "_bottom_": {
        "type": "number",
        "value": ""
    },
    "_children_": [],
    "_height_": {
        "type": "string",
        "value": "100%"
    },
    "_left_": {
        "type": "string",
        "value": "0dp"
    },
    "_margin_": [
        0,
        0,
        0,
        0
    ],
    "_orientation_": 1,
    "_padding_": [
        0,
        0,
        0,
        0
    ],
    "_percent_": true,
    "_render_": true,
    "_right_": {
        "type": "number",
        "value": ""
    },
    "_skin_": "s24c92fc23b14f5484b693ee9b8a9b35",
    "_top_": {
        "type": "string",
        "value": "0dp"
    },
    "_width_": {
        "type": "string",
        "value": "100%"
    },
    "canUpdateUI": true,
    "containerweight": 0,
    "data": {
        "link1Text": "quicklinks  1",
        "link2Text": "quicklinks 2",
        "link3Text": "quicklinks3",
        "link4Text": "quicklinks 4",
        "sknRowSeperator": "sknFlxe3e3e3bg"
    },
    "id": "quicklinks",
    "info": null,
    "iscustomlayout": false,
    "issegmentchild": false,
    "isvisible": true,
    "kuid": "e3a8d2b4e9984652beb27fe5b7bc70f1",
    "masterType": 1,
    "maxheight": {
        "type": "number",
        "value": ""
    },
    "name": "kony.ui.UserWidgetInstance",
    "parent": "flxActions",
    "pf": "frmAccountsDetails",
    "responsiveData": {
        "b1": {
            "bottom": {
                "type": "string",
                "value": "15px"
            },
            "height": {
                "type": "ref",
                "value": "preferred"
            },
            "isVisible": true,
            "left": {
                "type": "string",
                "value": ""
            },
            "maxHeight": {
                "type": "string",
                "value": "300dp"
            },
            "right": {
                "type": "string",
                "value": "6%"
            },
            "top": {
                "type": "string",
                "value": ""
            },
            "width": {
                "type": "string",
                "value": "28.50%"
            },
            "zIndex": 2
        },
        "b2": {
            "bottom": {
                "type": "string",
                "value": "15px"
            },
            "height": {
                "type": "ref",
                "value": "preferred"
            },
            "isVisible": false,
            "left": {
                "type": "string",
                "value": ""
            },
            "right": {
                "type": "string",
                "value": "6%"
            },
            "skin": "s239091db7434caea47c90b15e785665",
            "top": {
                "type": "number",
                "value": "0"
            },
            "width": {
                "type": "string",
                "value": "28.50%"
            }
        },
        "b3": {
            "bottom": {
                "type": "string",
                "value": "15px"
            },
            "height": {
                "type": "ref",
                "value": "preferred"
            },
            "isVisible": false,
            "right": {
                "type": "string",
                "value": "6%"
            },
            "top": {
                "type": "number",
                "value": "0"
            }
        },
        "b4": {
            "bottom": {
                "type": "string",
                "value": "15px"
            },
            "height": {
                "type": "ref",
                "value": "preferred"
            },
            "left": {
                "type": "string",
                "value": ""
            },
            "right": {
                "type": "string",
                "value": "6%"
            },
            "top": {
                "type": "string",
                "value": ""
            },
            "width": {
                "type": "string",
                "value": "28.50%"
            },
            "zIndex": 2
        }
    },
    "retaincontentalignment": false,
    "retainflexpositionproperties": false,
    "retainflowhorizontalalignment": false,
    "sourceUserWidget": "ic86e8ae6ec2455cbea0040f234407df",
    "wType": "UserWidgetInstance",
    "zindex": 1
}