{
    "DNDConfig": null,
    "__parentReadjusting__": false,
    "_bottom_": {
        "type": "string",
        "value": "5dp"
    },
    "_height_": {
        "type": "string",
        "value": "300dp"
    },
    "_left_": {
        "type": "string",
        "value": "30dp"
    },
    "_margin_": [
        0,
        0,
        0,
        0
    ],
    "_orientation_": 6,
    "_padding_": [
        0,
        0,
        0,
        0
    ],
    "_percent_": true,
    "_skin_": "s105ec3c20d849e1b69ab0d3b0fb2fb2",
    "_top_": {
        "type": "string",
        "value": "80dp"
    },
    "_width_": {
        "type": "string",
        "value": "92.50%"
    },
    "allboxes": [],
    "allowhorizontalbounce": false,
    "allowverticalbounce": true,
    "bounces": true,
    "canUpdateUI": true,
    "children": [
        "segTransferFrom",
        "flxNoAccountsFrom",
        "flxNoResultsFrom"
    ],
    "clipbounds": false,
    "containerweight": 100,
    "decelerat": false,
    "dragg": false,
    "enablescrolling": true,
    "horizontalscrollindicator": true,
    "id": "flxFromSegment",
    "info": null,
    "iscustomlayout": false,
    "isvisible": false,
    "kuid": "b1dafa77352942faafd2ad2ea5fa47c1",
    "layouttype": 2,
    "name": "kony.ui.FlexScrollContainer",
    "pagingenabled": false,
    "parent": "flxFrom",
    "pf": "frmWireTransferMakeTransfer",
    "responsiveData": {
        "b1": {
            "height": {
                "type": "string",
                "value": "290dp"
            }
        },
        "b2": {
            "height": {
                "type": "string",
                "value": "290dp"
            }
        },
        "b3": {
            "height": {
                "type": "string",
                "value": "290dp"
            }
        },
        "b4": {
            "height": {
                "type": "string",
                "value": "290dp"
            },
            "isVisible": false,
            "left": {
                "type": "string",
                "value": "15dp"
            },
            "width": {
                "type": "string",
                "value": "95%"
            }
        }
    },
    "retaincontentalignment": false,
    "retainflexpositionproperties": false,
    "retainflowhorizontalalignment": false,
    "scrolldirection": 2,
    "snapgridsize": 10,
    "snaptogrid": true,
    "track": false,
    "verticalscrollindicator": true,
    "vizProps": {},
    "wType": "FlexScrollContainer",
    "widgetalignment": 1,
    "zindex": 100
}