{
    "@class": "com.kony.gen.viz.model.component.KVizTextBox2",
    "DNDConfig": null,
    "__parentReadjusting__": false,
    "_height_": {
        "type": "string",
        "value": "40dp"
    },
    "_left_": {
        "type": "string",
        "value": "30dp"
    },
    "_margin_": [
        0,
        0,
        0,
        0
    ],
    "_padding_": [
        2,
        0,
        0,
        0
    ],
    "_placeholder_": "",
    "_right_": {
        "type": "string",
        "value": "30dp"
    },
    "_skin_": "sbad3c0dbd09447ea3f81eebcfc69002",
    "_text_": "Gift to son",
    "_top_": {
        "type": "string",
        "value": "40dp"
    },
    "autocapitalize": "none",
    "autocomplete": false,
    "autocorrect": false,
    "autofilter": false,
    "canUpdateUI": true,
    "containerheight": "",
    "containerheightmode": 1,
    "containerweight": 100,
    "contentalignment": 4,
    "desktopweb": {
        "psp": {
            "hoverSkin": "s80a8c5539a441ee9b9b49917cc45cc2"
        }
    },
    "focusskin": "s2faf9c2766d4142ab33d0bf97445ae0",
    "id": "tbxNotes",
    "info": null,
    "isvisible": true,
    "keyboardtype": "A",
    "kuid": "dfce05ab53e3475e85afd696c997499a",
    "maxtextlength": 150,
    "mode": "A",
    "name": "kony.ui.TextBox2",
    "paddinginpixel": false,
    "parent": "flxNotes",
    "pf": "frmWireTransferMakeTransfer",
    "placeholderi18n": "i18n.WireTransfers.Gifttoson",
    "responsiveData": {
        "b4": {
            "left": {
                "type": "string",
                "value": "15dp"
            },
            "right": {
                "type": "string",
                "value": "15dp"
            }
        }
    },
    "securetextentry": false,
    "textinputmode": "A",
    "tooltip": "",
    "viewtype": "default",
    "wType": "TextField",
    "zindex": 1
}