{
    "DNDConfig": null,
    "__parentReadjusting__": false,
    "_height_": {
        "type": "string",
        "value": "100%"
    },
    "_left_": {
        "type": "string",
        "value": "0dp"
    },
    "_margin_": [
        0,
        0,
        0,
        0
    ],
    "_orientation_": 6,
    "_padding_": [
        0,
        0,
        0,
        0
    ],
    "_percent_": true,
    "_skin_": "s24c92fc23b14f5484b693ee9b8a9b35",
    "_top_": "0dp",
    "_width_": {
        "type": "string",
        "value": "100%"
    },
    "allboxes": [],
    "autogrowmode": 0,
    "canUpdateUI": true,
    "children": [
        "flxHeaderNError",
        "imgKony",
        "flxLoginUser",
        "flxUserNameLabel",
        "flxUserName",
        "flxPasswordLabel",
        "flxPassword",
        "flxRememberMe",
        "btnLogin",
        "flxNewNEnroll",
        "lblWelcome",
        "lblAppName",
        "flxImageUser",
        "carousel"
    ],
    "clipbounds": true,
    "containerweight": 100,
    "enablescrolling": true,
    "id": "flxContainer",
    "info": null,
    "isvisible": true,
    "kuid": "affaef772c3943abb94a9e0332769cc2",
    "layouttype": 4,
    "name": "kony.ui.FlexContainer",
    "parent": "main",
    "pf": "userwidgetmodel",
    "snapgridsize": 10,
    "snaptogrid": true,
    "wType": "FlexContainer",
    "widgetalignment": 1,
    "zindex": 1
}