{
    "BusinessControllerConfig": {
        "BusinessControllerClass": "BusinessBanking/BusinessControllers/BusinessController",
        "CommandHandler": []
    },
    "Forms": {
        "desktop": {
            "frmBBUsersDashboard": {
                "Controller": "BusinessBanking/frmBBUsersDashboardController",
                "ControllerExtensions": [],
                "FormController": "kony.mvc.MDAFormController",
                "FormName": "BusinessBanking/frmBBUsersDashboard",
                "friendlyName": "frmBBUsersDashboard"
            },
            "frmUserManagement": {
                "Controller": "BusinessBanking/frmUserManagementController",
                "ControllerExtensions": [],
                "FormController": "kony.mvc.MDAFormController",
                "FormName": "BusinessBanking/frmUserManagement",
                "friendlyName": "frmUserManagement"
            },
            "frmPermissionsTemplate": {
                "Controller": "BusinessBanking/frmPermissionsTemplateController",
                "ControllerExtensions": [],
                "FormController": "kony.mvc.MDAFormController",
                "FormName": "BusinessBanking/frmPermissionsTemplate",
                "friendlyName": "frmPermissionsTemplate"
            },
            "frmConfirmAndAck": {
                "Controller": "BusinessBanking/frmConfirmAndAckController",
                "ControllerExtensions": [],
                "FormController": "kony.mvc.MDAFormController",
                "FormName": "BusinessBanking/frmConfirmAndAck",
                "friendlyName": "frmConfirmAndAck"
            },
            "frmCreateUserManually": {
                "Controller": "BusinessBanking/frmCreateUserManuallyController",
                "ControllerExtensions": [],
                "FormController": "kony.mvc.MDAFormController",
                "FormName": "BusinessBanking/frmCreateUserManually",
                "friendlyName": "frmCreateUserManually"
            },
            "frmRetrieveExistingUser": {
                "Controller": "BusinessBanking/frmRetrieveExistingUserController",
                "ControllerExtensions": [],
                "FormController": "kony.mvc.MDAFormController",
                "FormName": "BusinessBanking/frmRetrieveExistingUser",
                "friendlyName": "frmRetrieveExistingUser"
            },
            "frmUserCreationSuccess": {
                "Controller": "BusinessBanking/frmUserCreationSuccessController",
                "ControllerExtensions": [],
                "FormController": "kony.mvc.MDAFormController",
                "FormName": "BusinessBanking/frmUserCreationSuccess",
                "friendlyName": "frmUserCreationSuccess"
            },
            "frmTransactionLimits": {
                "Controller": "BusinessBanking/frmTransactionLimitsController",
                "ControllerExtensions": [],
                "FormController": "kony.mvc.MDAFormController",
                "FormName": "BusinessBanking/frmTransactionLimits",
                "friendlyName": "frmTransactionLimits"
            },
            "frmUpdatePermissionsInBulk": {
                "Controller": "BusinessBanking/frmUpdatePermissionsInBulkController",
                "ControllerExtensions": [],
                "FormController": "kony.mvc.MDAFormController",
                "FormName": "BusinessBanking/frmUpdatePermissionsInBulk",
                "friendlyName": "frmUpdatePermissionsInBulk"
            },
            "frmAccountLevelFeaturePermissions": {
                "Controller": "BusinessBanking/frmAccountLevelFeaturePermissionsController",
                "ControllerExtensions": [],
                "FormController": "kony.mvc.MDAFormController",
                "FormName": "BusinessBanking/frmAccountLevelFeaturePermissions",
                "friendlyName": "frmAccountLevelFeaturePermissions"
            },
            "frmAccountLevelFeature": {
                "Controller": "BusinessBanking/frmAccountLevelFeatureController",
                "ControllerExtensions": [],
                "FormController": "kony.mvc.MDAFormController",
                "FormName": "BusinessBanking/frmAccountLevelFeature",
                "friendlyName": "frmAccountLevelFeature"
            },
            "frmNonAccountLevelFeature": {
                "Controller": "BusinessBanking/frmNonAccountLevelFeatureController",
                "ControllerExtensions": [],
                "FormController": "kony.mvc.MDAFormController",
                "FormName": "BusinessBanking/frmNonAccountLevelFeature",
                "friendlyName": "frmNonAccountLevelFeature"
            },
            "frmFeaturePermissions": {
                "Controller": "BusinessBanking/frmFeaturePermissionsController",
                "ControllerExtensions": [],
                "FormController": "kony.mvc.MDAFormController",
                "FormName": "BusinessBanking/frmFeaturePermissionsPermissions",
                "friendlyName": "frmFeaturePermissionsPermissions"
            },
            "frmBBAccountAccessAndRole": {
                "Controller": "BusinessBanking/frmBBAccountAccessAndRoleController",
                "ControllerExtensions": [],
                "FormController": "kony.mvc.MDAFormController",
                "FormName": "BusinessBanking/frmBBAccountAccessAndRole",
                "friendlyName": "frmBBAccountAccessAndRole"
            },
            "frmBBCopyPermission": {
                "Controller": "BusinessBanking/frmBBCopyPermissionController",
                "ControllerExtensions": [],
                "FormController": "kony.mvc.MDAFormController",
                "FormName": "BusinessBanking/frmBBCopyPermission",
                "friendlyName": "frmBBCopyPermission"
            },
            "frmUserManagementTransactionLimit": {
                "Controller": "BusinessBanking/frmUserManagementTransactionLimitController",
                "ControllerExtensions": [],
                "FormController": "kony.mvc.MDAFormController",
                "FormName": "BusinessBanking/frmUserManagementTransactionLimit",
                "friendlyName": "frmUserManagementTransactionLimit"
            },
            "frmCustomRoleAcknowledgement": {
                "Controller": "BusinessBanking/frmCustomRoleAcknowledgementController",
                "ControllerExtensions": [],
                "FormController": "kony.mvc.MDAFormController",
                "FormName": "BusinessBanking/frmCustomRoleAcknowledgement",
                "friendlyName": "frmCustomRoleAcknowledgement"
            },
            "frmCreateCustomRoleName": {
                "Controller": "BusinessBanking/frmCreateCustomRoleNameController",
                "ControllerExtensions": [],
                "FormController": "kony.mvc.MDAFormController",
                "FormName": "BusinessBanking/frmCreateCustomRoleName",
                "friendlyName": "frmCreateCustomRoleName"
            }
        }
    },
    "ModuleName": "BusinessBanking",
    "PresentationControllerConfig": {
        "Default": {
            "PresentationControllerClass": "BusinessBanking/PresentationControllers/PresentationController",
            "PresentationExtensions": []
        }
    }
}