{
    "DNDConfig": null,
    "__parentReadjusting__": false,
    "_height_": {
        "type": "string",
        "value": "123.00%"
    },
    "_left_": {
        "type": "string",
        "value": "0dp"
    },
    "_margin_": [
        0,
        0,
        0,
        0
    ],
    "_orientation_": 6,
    "_padding_": [
        0,
        0,
        0,
        0
    ],
    "_percent_": true,
    "_skin_": "sa7320aafe2446c8b36f17443b9a66d1",
    "_top_": {
        "type": "string",
        "value": "0dp"
    },
    "_width_": {
        "type": "string",
        "value": "6px"
    },
    "allboxes": [],
    "autogrowmode": 0,
    "canUpdateUI": true,
    "centery": {
        "type": "string",
        "value": "-50%"
    },
    "children": [
        "CopylblIdentifier0e63fc2f403994a"
    ],
    "clipbounds": true,
    "containerId": true,
    "containerweight": 100,
    "enablescrolling": true,
    "id": "flxIdentifier",
    "info": null,
    "isvisible": true,
    "kuid": "ebfc88c6e2d74487a9b4f7055c47e9ef",
    "layouttype": 2,
    "name": "kony.ui.FlexContainer",
    "parent": "flxDisputedChecksSelectedWrapper",
    "pf": "segDisputedChecksSelectedWrapper",
    "snapgridsize": 10,
    "snaptogrid": true,
    "wType": "FlexContainer",
    "widgetalignment": 1,
    "zindex": 100
}