{
    "@class": "com.kony.gen.viz.model.component.KVizUserWidget",
    "DNDConfig": null,
    "__parentReadjusting__": false,
    "_android_": {},
    "_androidwearos_": {},
    "_children_": [],
    "_desktopweb_": {},
    "_height_": {
        "type": "string",
        "value": "268px"
    },
    "_ipad_": {},
    "_iphone_": {},
    "_kiosk_": {},
    "_left_": {
        "type": "string",
        "value": "0dp"
    },
    "_margin_": [
        0,
        0,
        0,
        0
    ],
    "_orientation_": 1,
    "_padding_": [
        0,
        0,
        0,
        0
    ],
    "_percent_": true,
    "_render_": true,
    "_responsiveData_": {
        "b3": {
            "bottom": {
                "type": "string",
                "value": ""
            },
            "left": {
                "type": "string",
                "value": "15dp"
            },
            "right": {
                "type": "string",
                "value": "15dp"
            },
            "top": {
                "type": "string",
                "value": "300dp"
            },
            "width": {
                "type": "string",
                "value": ""
            }
        },
        "b4": {
            "width": {
                "type": "string",
                "value": "75%"
            }
        }
    },
    "_skin_": "s701065f11074080832b59947e731160",
    "_spa_": {},
    "_spaan_": {},
    "_spaandroidtablet_": {},
    "_spabb_": {},
    "_spaip_": {},
    "_spaipad_": {},
    "_spamobile_": {},
    "_spatablet_": {},
    "_spawindowstablet_": {},
    "_spawinphone8_": {},
    "_tabrcandroid_": {},
    "_top_": {
        "type": "string",
        "value": "300dp"
    },
    "_vizProps_": {
        "hidewidgethierarchy": false
    },
    "_width_": {
        "type": "string",
        "value": "44.30%"
    },
    "_windows10_": {},
    "_windows8_": {},
    "_winphone10_": {},
    "_winphone8_": {},
    "android": {},
    "androidwearos": {},
    "areflexpropsreferenced": false,
    "canUpdateUI": true,
    "centerx": {
        "type": "string",
        "value": "50.00%"
    },
    "centery": {
        "type": "string",
        "value": ""
    },
    "clipbounds": false,
    "containerweight": 0,
    "dataDiffs": {
        "CustomPopup": {
            "__events__": {},
            "__info__": {
                "isRoot": true,
                "kuid": "d6aad5ad62614a88a9068a73ecc9df06",
                "srcKUID": "eb2d311dcb4744a7b05aa4f5428a6c53",
                "wType": "FlexContainer"
            },
            "bottom": {},
            "centerX": {
                "Default": {
                    "type": "string",
                    "value": "50.00%"
                }
            },
            "centerY": {
                "Default": {
                    "type": "string",
                    "value": ""
                }
            },
            "left": {},
            "responsiveData": {
                "b2": {},
                "b3": {
                    "bottom": {
                        "type": "string",
                        "value": ""
                    },
                    "left": {
                        "type": "string",
                        "value": "15dp"
                    },
                    "right": {
                        "type": "string",
                        "value": "15dp"
                    },
                    "top": {
                        "type": "string",
                        "value": "300dp"
                    }
                }
            },
            "right": {},
            "top": {
                "Default": {
                    "type": "string",
                    "value": "300dp"
                }
            },
            "width": {
                "Default": {
                    "type": "string",
                    "value": "44.30%"
                }
            },
            "zIndex": {
                "Default": 1100
            }
        },
        "btnNo": {
            "__events__": {},
            "__info__": {
                "kuid": "i3236e0f171642e3a5ba4ce772b0f950",
                "srcKUID": "h61577b4448c4e22a2636221e8fe0d6d",
                "wType": "Button"
            },
            "responsiveData": {
                "b2": {
                    "right": {
                        "type": "string",
                        "value": "41%"
                    }
                }
            },
            "right": {}
        },
        "btnYes": {
            "__events__": {},
            "__info__": {
                "kuid": "e086ef669a7a4bb48be7e079822343bb",
                "srcKUID": "e1c11d09edb846848d4aaf921cb1e5a0",
                "wType": "Button"
            }
        },
        "flxCross": {
            "__events__": {},
            "__info__": {
                "kuid": "e13500aebaad43ca96cf4c27636d44e7",
                "srcKUID": "e896a8d6e1244397be41e1011101c6ec",
                "wType": "FlexContainer"
            }
        },
        "flxHeader": {
            "__events__": {},
            "__info__": {
                "kuid": "e43c67a4ea5b45b795ac920b21f2e7a5",
                "srcKUID": "b6d465d7232a428eba11c466c6843856",
                "wType": "FlexContainer"
            }
        },
        "flxSeperator": {
            "__events__": {},
            "__info__": {
                "kuid": "iea88c9b52204f6c86594c14fc525f4b",
                "srcKUID": "b469cc45156e429d8fa47b9786168d10",
                "wType": "FlexContainer"
            }
        },
        "flxSeperator2": {
            "__events__": {},
            "__info__": {
                "kuid": "gcf1a497cff24fcaa3b8c4f05e5c2b7b",
                "srcKUID": "e909e4e4b4a145b1aa92b22ece7050d3",
                "wType": "FlexContainer"
            }
        },
        "imgCross": {
            "__events__": {},
            "__info__": {
                "kuid": "haccfff4223343d198988d600a3088f1",
                "srcKUID": "ja13bba308404016b1cd223dbcdf01ae",
                "wType": "Image"
            },
            "height": {
                "Default": {
                    "type": "string",
                    "value": "15dp"
                }
            },
            "src": "bbcloseicon.png"
        },
        "lblHeading": {
            "__events__": {},
            "__info__": {
                "kuid": "d9731c9909354a5cb5235fb3e6ccde7c",
                "srcKUID": "f97c1408984847af9f3cd9984a260c74",
                "wType": "Label"
            },
            "i18n_text": "i18n.billPay.QuitBillPay"
        },
        "lblPopupMessage": {
            "__events__": {},
            "__info__": {
                "kuid": "j429fefe52094f9c95ea44dce1dba7f1",
                "srcKUID": "f7c7509dccf24b88aeb13dc3d34fcc6b",
                "wType": "Label"
            },
            "i18n_text": "i18n.Transfers.Areyousureyouwanttocancelthistransaction"
        }
    },
    "desktopweb": {},
    "id": "CustomPopupLogout",
    "info": null,
    "ipad": {},
    "iphone": {},
    "isdatareferenced": false,
    "isvisible": true,
    "kiosk": {},
    "kuid": "d6aad5ad62614a88a9068a73ecc9df06",
    "layouttype": 2,
    "masterType": 0,
    "name": "kony.ui.UserWidgetInstance",
    "parent": "flxLogout",
    "pf": "frmWireTransfersManageRecipients",
    "responsiveData": {
        "b2": {},
        "b3": {
            "bottom": {
                "type": "string",
                "value": ""
            },
            "left": {
                "type": "string",
                "value": "15dp"
            },
            "right": {
                "type": "string",
                "value": "15dp"
            },
            "top": {
                "type": "string",
                "value": "300dp"
            }
        }
    },
    "snaptogrid": true,
    "sourceUserWidget": "eb2d311dcb4744a7b05aa4f5428a6c53",
    "spa": {},
    "spaan": {},
    "spaandroidtablet": {},
    "spabb": {},
    "spaip": {},
    "spaipad": {},
    "spamobile": {},
    "spatablet": {},
    "spawindowstablet": {},
    "spawinphone8": {},
    "tabrcandroid": {},
    "vizProps": {
        "hidewidgethierarchy": false
    },
    "vizprops": {
        "hidewidgethierarchy": false
    },
    "wType": "UserWidgetInstance",
    "windows10": {},
    "windows8": {},
    "winphone10": {},
    "winphone8": {},
    "zindex": 1100
}