{
    "DNDConfig": null,
    "__parentReadjusting__": false,
    "_height_": {
        "type": "string",
        "value": "538dp"
    },
    "_left_": {
        "type": "string",
        "value": "0dp"
    },
    "_margin_": [
        0,
        0,
        0,
        0
    ],
    "_orientation_": 6,
    "_padding_": [
        0,
        0,
        0,
        0
    ],
    "_percent_": true,
    "_skin_": "sdc143f0e5b64ae3a3f155f691c73fa7",
    "_top_": {
        "type": "string",
        "value": "0dp"
    },
    "_width_": {
        "type": "string",
        "value": "100%"
    },
    "allboxes": [],
    "canUpdateUI": true,
    "children": [
        "flxMainNoRecipients"
    ],
    "clipbounds": false,
    "containerweight": 100,
    "enablescrolling": true,
    "id": "flxNoRecipientsWindow",
    "info": null,
    "isvisible": true,
    "kuid": "f99d5de5b5d646b18030b7309f7cabbe",
    "layouttype": 2,
    "name": "kony.ui.FlexContainer",
    "parent": "flxNoRecipients",
    "pf": "frmWireTransfersManageRecipients",
    "responsiveData": {
        "b4": {
            "height": {
                "type": "string",
                "value": "488dp"
            }
        }
    },
    "snapgridsize": 10,
    "snaptogrid": true,
    "vizProps": {
        "hidewidgethierarchy": false
    },
    "wType": "FlexContainer",
    "widgetalignment": 1
}