{
    "DNDConfig": null,
    "__parentReadjusting__": false,
    "_height_": {
        "type": "string",
        "value": "100dp"
    },
    "_left_": {
        "type": "string",
        "value": "0dp"
    },
    "_margin_": [
        0,
        0,
        0,
        0
    ],
    "_orientation_": 6,
    "_padding_": [
        0,
        0,
        0,
        0
    ],
    "_percent_": true,
    "_skin_": "s24c92fc23b14f5484b693ee9b8a9b35",
    "_top_": {
        "type": "string",
        "value": "0dp"
    },
    "_width_": {
        "type": "string",
        "value": "100%"
    },
    "allboxes": [],
    "autogrowmode": 0,
    "canUpdateUI": true,
    "children": [
        "Search",
        "flxSearchSortSeparator1",
        "flxFiltersList"
    ],
    "clipbounds": false,
    "containerweight": 100,
    "enablescrolling": true,
    "id": "flxSearch",
    "info": null,
    "isvisible": true,
    "kuid": "dacf5d89cdbe46c6935f6c76b983d8de",
    "layouttype": 4,
    "name": "kony.ui.FlexContainer",
    "parent": "flxMainContainerTable",
    "pf": "frmWireTransfersManageRecipients",
    "responsiveData": {
        "b1": {
            "layoutType": 2
        },
        "b2": {
            "layoutType": 2
        },
        "b3": {
            "layoutType": 2
        },
        "b4": {
            "layoutType": 2
        }
    },
    "snapgridsize": 10,
    "snaptogrid": true,
    "wType": "FlexContainer",
    "widgetalignment": 1,
    "zindex": 10
}