{
    "@class": "com.kony.gen.viz.model.component.KVizUserWidget",
    "DNDConfig": null,
    "__parentReadjusting__": false,
    "_android_": {},
    "_androidwearos_": {},
    "_children_": [],
    "_desktopweb_": {},
    "_height_": {
        "type": "ref",
        "value": "preferred"
    },
    "_ipad_": {},
    "_iphone_": {},
    "_kiosk_": {},
    "_left_": {
        "type": "string",
        "value": "0dp"
    },
    "_margin_": [
        0,
        0,
        0,
        0
    ],
    "_orientation_": 1,
    "_padding_": [
        0,
        0,
        0,
        0
    ],
    "_percent_": true,
    "_responsiveData_": {},
    "_skin_": "s24c92fc23b14f5484b693ee9b8a9b35",
    "_spa_": {},
    "_spaan_": {},
    "_spaandroidtablet_": {},
    "_spabb_": {},
    "_spaip_": {},
    "_spaipad_": {},
    "_spamobile_": {},
    "_spatablet_": {},
    "_spawindowstablet_": {},
    "_spawinphone8_": {},
    "_tabrcandroid_": {},
    "_top_": {
        "type": "string",
        "value": "0dp"
    },
    "_vizProps_": {
        "hidewidgethierarchy": false
    },
    "_width_": {
        "type": "string",
        "value": "100%"
    },
    "_windows10_": {},
    "_windows8_": {},
    "_winphone10_": {},
    "_winphone8_": {},
    "areflexpropsreferenced": false,
    "autogrowmode": 1,
    "canUpdateUI": true,
    "clipbounds": true,
    "containerweight": 0,
    "dataDiffs": {
        "AllForms": {
            "__events__": {},
            "__info__": {
                "kuid": "a9339e51ab0544929c5e0e6743be3347",
                "srcKUID": "b38249009bcf4f298d0684471a8824e2",
                "wType": "FlexContainer"
            }
        },
        "CopyflxInfo0a2966745b9e643": {
            "__events__": {},
            "__info__": {
                "kuid": "de28ee99303343318a6ca21b15c7ccad",
                "srcKUID": "hcccc39aee5d406a88f24bb69ffc69d8",
                "wType": "FlexContainer"
            }
        },
        "CopyimgInfoIcon0c5e8897ff2be47": {
            "__events__": {},
            "__info__": {
                "kuid": "f74eb70811474636bc6a4453b1fd2122",
                "srcKUID": "d24d33d8bb2f47d3b6deee422b1a1d12",
                "wType": "Image"
            }
        },
        "RichTextInfo": {
            "__events__": {},
            "__info__": {
                "kuid": "a083dbf70dc743538392daf0af14c00c",
                "srcKUID": "c5ef2d6b359d45b69c8e4796658724ff",
                "wType": "RichText"
            }
        },
        "flxAccountInfoForAccountTransfer": {
            "__events__": {},
            "__info__": {
                "kuid": "hb0303c90fbb422ead490f9410b7765f",
                "srcKUID": "a20258bb94e4461cbc9b27078478fb9c",
                "wType": "FlexContainer"
            },
            "responsiveData": {},
            "top": {
                "Default": {
                    "type": "string",
                    "value": "0dp"
                }
            }
        },
        "flxAccountType": {
            "__events__": {},
            "__info__": {
                "kuid": "h4e78d987e434858bb4f6e672845ab89",
                "srcKUID": "fa25320decdd4b89a86f623eeefdc3b8",
                "wType": "FlexContainer"
            }
        },
        "flxAddAccountWindow": {
            "__events__": {},
            "__info__": {
                "kuid": "a80284057dc44254a5fc72303208a96b",
                "srcKUID": "af1f73154ce64efdbbc461323e1aeb40",
                "wType": "FlexContainer"
            }
        },
        "flxAddBulkTransferFile": {
            "__events__": {},
            "__info__": {
                "kuid": "ga2f31625aeb4658ae8c1a3ef6ef1cc3",
                "srcKUID": "c3e292e6d63444d0ae3590fffdbe5b22",
                "wType": "FlexContainer"
            },
            "responsiveData": {},
            "top": {
                "Default": {
                    "type": "string",
                    "value": "0dp"
                }
            }
        },
        "flxAddInternationalAccount": {
            "__events__": {},
            "__info__": {
                "kuid": "gd791013e3c54b3099dd10e7cd7434ca",
                "srcKUID": "d2607841be804a40b8a691b374d7c6bf",
                "wType": "FlexContainer"
            },
            "responsiveData": {},
            "top": {
                "Default": {
                    "type": "string",
                    "value": "0dp"
                }
            }
        },
        "flxAddKonyAccount": {
            "__events__": {},
            "__info__": {
                "kuid": "fa1114e7e4e14251b81ba06ab5429888",
                "srcKUID": "eb583846f48542898c4c023da4da9aae",
                "wType": "FlexContainer"
            }
        },
        "flxAddNonKonyAccount": {
            "__events__": {},
            "__info__": {
                "kuid": "b9830465cf664418ad1e4a5598212c19",
                "srcKUID": "c49b6be6b57f4b1e9f32826722ee4653",
                "wType": "FlexContainer"
            },
            "responsiveData": {},
            "top": {
                "Default": {
                    "type": "string",
                    "value": "0dp"
                }
            }
        },
        "flxBulkTransfer": {
            "__events__": {},
            "__info__": {
                "kuid": "e98c8b87be4047c3ad3696d6984a143e",
                "srcKUID": "if4ff7b2531f4f3e81dc01b33ae2dbc1",
                "wType": "FlexContainer"
            },
            "responsiveData": {},
            "top": {
                "Default": {
                    "type": "string",
                    "value": "0dp"
                }
            }
        },
        "flxCreateNewTemplate": {
            "__events__": {},
            "__info__": {
                "kuid": "b020f754c02744899cc0c2fc0bd5e558",
                "srcKUID": "fa09d7cc39f54a35bc67d534a619bcca",
                "wType": "FlexContainer"
            },
            "responsiveData": {},
            "top": {
                "Default": {
                    "type": "string",
                    "value": "0dp"
                }
            }
        },
        "flxCross": {
            "__events__": {},
            "__info__": {
                "kuid": "h3732cd8f1334177bf619090290d9b5a",
                "srcKUID": "a39ae9f82d0a49b3aa5050b04830a14c",
                "wType": "FlexContainer"
            }
        },
        "flxInfo": {
            "__events__": {},
            "__info__": {
                "kuid": "h7dd4a5804db4a629ce2a956b5b016e3",
                "srcKUID": "j0495c8fc5d948a9b73c8c45eebdd0e1",
                "wType": "FlexContainer"
            }
        },
        "flxInformation": {
            "__events__": {},
            "__info__": {
                "kuid": "a8caaff95b6148a29b8f6d333731279e",
                "srcKUID": "eacdc6e0327a4a6abe1fab7487539414",
                "wType": "FlexContainer"
            }
        },
        "flxInformationText": {
            "__events__": {},
            "__info__": {
                "kuid": "d1b0e66284d64f3c8ff558af6c326a26",
                "srcKUID": "abf727bece8840d4adaba25790fcda24",
                "wType": "FlexContainer"
            }
        },
        "imgAccountInfoForAccountTransfer": {
            "__events__": {},
            "__info__": {
                "kuid": "i74a023b9d9f4f858a7ac88bb023c28e",
                "srcKUID": "b6cd4e8a8c9a43978fd6470d4782d3c8",
                "wType": "Image"
            }
        },
        "imgAddBulkTransferFile": {
            "__events__": {},
            "__info__": {
                "kuid": "fc32116802f343e6a4ca2b50281ebca2",
                "srcKUID": "d2f94153bbc54f828e6c935c1a86b846",
                "wType": "Image"
            }
        },
        "imgBulkTransfer": {
            "__events__": {},
            "__info__": {
                "kuid": "e22d747581fb45f79bff194976834987",
                "srcKUID": "a5a41cf2f81b4b7dacf5fe11d2a6af13",
                "wType": "Image"
            }
        },
        "imgCross": {
            "__events__": {},
            "__info__": {
                "kuid": "d946b4efad6a429cb8646676951cbad2",
                "srcKUID": "b6779ba9570a4af0b3c812a2562e8c76",
                "wType": "Image"
            }
        },
        "imgInfo": {
            "__events__": {},
            "__info__": {
                "kuid": "cb996debfc1b42fcbd784c5d905b8e1b",
                "srcKUID": "ea7125af68124be08d7b99d38750ab6f",
                "wType": "Image"
            }
        },
        "imgInfoIcon": {
            "__events__": {},
            "__info__": {
                "kuid": "ee5393181c1b44f0baf43789677bd1ad",
                "srcKUID": "fefbbae13c6f41159eabfcd9a5134d21",
                "wType": "Image"
            }
        },
        "imgToolTip": {
            "__events__": {},
            "__info__": {
                "kuid": "a2c7e5623ad94b9ba227ea70a7fc361b",
                "srcKUID": "j31c3d12b2fb4fd480aa08101c0c5fbc",
                "wType": "Image"
            }
        },
        "lblAccountInfoForAccountTransfer": {
            "__events__": {},
            "__info__": {
                "kuid": "b0008ed3eb2948879a3447e5d86a3243",
                "srcKUID": "gbc1e25a00984a6fa8a6d63e12d76238",
                "wType": "Label"
            }
        },
        "lblAddBulkTransferFile": {
            "__events__": {},
            "__info__": {
                "kuid": "bae50b1e0e7f428599cc47b2c2c1c963",
                "srcKUID": "ebdaa90d7b8c47e9a776d2d0b7cecde5",
                "wType": "Label"
            }
        },
        "lblAddInternationalAccount": {
            "__events__": {},
            "__info__": {
                "kuid": "b1fe4365614e4a589c88e15649c405b9",
                "srcKUID": "jeb2e34cbb604f47ba2b106aa302e7ec",
                "wType": "Label"
            }
        },
        "lblAddKonyAccount": {
            "__events__": {},
            "__info__": {
                "kuid": "a0adf9cc69a84f71b2ca479626570dd1",
                "srcKUID": "a802baae7034445dbe8033492a94c3c4",
                "wType": "Label"
            }
        },
        "lblAddNonKonyAccount": {
            "__events__": {},
            "__info__": {
                "kuid": "a6e3338b26d04423983e487668ad54c6",
                "srcKUID": "c2aeafdce6134bd6bc1c0b4407da4795",
                "wType": "Label"
            }
        },
        "lblBulkTransfer": {
            "__events__": {},
            "__info__": {
                "kuid": "he088747b1b349afb8a823893a188dec",
                "srcKUID": "ac41fe57c1f0479baf4439e0567321d1",
                "wType": "Label"
            }
        },
        "lblInfo": {
            "__events__": {},
            "__info__": {
                "kuid": "c87d5414495043e6befbb30b42c36668",
                "srcKUID": "c2c143861a834871b01240e7cb4fd0ed",
                "wType": "Label"
            }
        },
        "lblSeparator": {
            "__events__": {},
            "__info__": {
                "kuid": "ce47c7150a8c4f44a533a274e4d8c59d",
                "srcKUID": "a0c02cf3425942828e09cee1c58ac865",
                "wType": "Label"
            },
            "bottom": {
                "Default": {
                    "type": "string",
                    "value": ""
                }
            },
            "responsiveData": {},
            "top": {
                "Default": {
                    "type": "string",
                    "value": "49dp"
                }
            }
        },
        "lblSeparator1": {
            "__events__": {},
            "__info__": {
                "kuid": "e534a15fee9f4d2a894cab0a5bd4d62f",
                "srcKUID": "afded7624890486d8d7b2f622920fffb",
                "wType": "Label"
            },
            "bottom": {
                "Default": {
                    "type": "string",
                    "value": ""
                }
            },
            "responsiveData": {},
            "top": {
                "Default": {
                    "type": "string",
                    "value": "49dp"
                }
            }
        },
        "lblSeparator2": {
            "__events__": {},
            "__info__": {
                "kuid": "d4afd80331774afe86c1149e2c8998d1",
                "srcKUID": "j68aeca9f6d44c788df19712b4067db8",
                "wType": "Label"
            },
            "bottom": {
                "Default": {
                    "type": "string",
                    "value": ""
                }
            },
            "responsiveData": {},
            "top": {
                "Default": {
                    "type": "string",
                    "value": "49dp"
                }
            }
        },
        "lblSeparator3": {
            "__events__": {},
            "__info__": {
                "kuid": "b182f0a13e304bd89b76441c3432e091",
                "srcKUID": "bd300794d11841db85e1148c33ae4e1e",
                "wType": "Label"
            },
            "bottom": {
                "Default": {
                    "type": "string",
                    "value": ""
                }
            },
            "responsiveData": {},
            "top": {
                "Default": {
                    "type": "string",
                    "value": "49dp"
                }
            }
        },
        "lblSeparator4": {
            "__events__": {},
            "__info__": {
                "kuid": "d29962c5fee941f8ae0533573900c51d",
                "srcKUID": "be1c055b6ad944b4869c21a3ab42d94a",
                "wType": "Label"
            },
            "bottom": {
                "Default": {
                    "type": "string",
                    "value": ""
                }
            },
            "responsiveData": {},
            "top": {
                "Default": {
                    "type": "string",
                    "value": "49dp"
                }
            }
        },
        "lblSeparator5": {
            "__events__": {},
            "__info__": {
                "kuid": "i4e4b30d2c894686aceb8aa3ee325110",
                "srcKUID": "f63eab80ecd640e78848da7611489c84",
                "wType": "Label"
            },
            "bottom": {
                "Default": {
                    "type": "string",
                    "value": ""
                }
            },
            "responsiveData": {},
            "top": {
                "Default": {
                    "type": "string",
                    "value": "49dp"
                }
            }
        },
        "lblSeperator": {
            "__events__": {},
            "__info__": {
                "kuid": "a5662c3f1345468aa54e1f2f1794ba9e",
                "srcKUID": "j7a61ca35c8840f3bcbfe8511da12e6b",
                "wType": "Label"
            }
        },
        "wireTransferRightbar": {
            "__events__": {},
            "__info__": {
                "isRoot": true,
                "kuid": "db4676539fc0453cbbd3a4425f6c7787",
                "srcKUID": "f828159eeeac4ad394a5054626224524",
                "wType": "FlexContainer"
            }
        }
    },
    "enablescrolling": true,
    "id": "wireTransferRightbar",
    "info": null,
    "iscustomlayout": false,
    "isdatareferenced": false,
    "isvisible": true,
    "kuid": "db4676539fc0453cbbd3a4425f6c7787",
    "layouttype": 2,
    "masterType": 0,
    "name": "kony.ui.UserWidgetInstance",
    "parent": "flxRightBar",
    "pf": "frmWireTransfersManageRecipients",
    "retaincontentalignment": false,
    "retainflexpositionproperties": false,
    "retainflowhorizontalalignment": false,
    "snapgridsize": 10,
    "snaptogrid": true,
    "sourceUserWidget": "f828159eeeac4ad394a5054626224524",
    "wType": "UserWidgetInstance"
}