{
    "@class": "com.kony.gen.viz.model.component.KVizButton",
    "DNDConfig": null,
    "_bottom_": {
        "type": "number",
        "value": ""
    },
    "_height_": {
        "type": "string",
        "value": "40px"
    },
    "_left_": {
        "type": "string",
        "value": ""
    },
    "_margin_": [
        6,
        6,
        6,
        6
    ],
    "_padding_": [
        0,
        0,
        0,
        0
    ],
    "_right_": {
        "type": "string",
        "value": "44.82%"
    },
    "_skin_": "sa611611b2f24e93bcfd09e1606c0d86",
    "_text_": "Accounts",
    "_top_": {
        "type": "string",
        "value": "0dp"
    },
    "_width_": {
        "type": "string",
        "value": "250px"
    },
    "accessibilityconfig": {
        "a11yLabel": "Accounts"
    },
    "canUpdateUI": true,
    "containerweight": 100,
    "contentalignment": 5,
    "desktopweb": {
        "psp": {
            "hoverSkin": "s83729feaa224e359d660d5af05c4bac"
        }
    },
    "disabledSkins": {},
    "displaytext": true,
    "focusskin": "sb23593b913b4005add4a246020aa1cc",
    "hoverskin": "",
    "id": "btnAccounts",
    "info": null,
    "iscustomlayout": false,
    "isvisible": true,
    "kuid": "a15063fd3a78469fade8dda34de3c23a",
    "name": "kony.ui.Button",
    "parent": "flxAddAckButtons",
    "pf": "frmAddBeneficiaryAcknowledgementEuro",
    "responsiveData": {
        "b1": {
            "width": {
                "type": "string",
                "value": "16.84%"
            }
        },
        "b2": {
            "right": {
                "type": "string",
                "value": "51%"
            },
            "width": {
                "type": "string",
                "value": "22%"
            }
        },
        "b3": {
            "bottom": {
                "type": "string",
                "value": ""
            },
            "left": {
                "type": "string",
                "value": "2%"
            },
            "right": {
                "type": "string",
                "value": ""
            },
            "top": {
                "type": "string",
                "value": "20dp"
            },
            "width": {
                "type": "string",
                "value": "96%"
            }
        }
    },
    "retaincontentalignment": false,
    "retainflexpositionproperties": false,
    "texti18n": "i18n.topmenu.accounts",
    "tooltip": "Accounts",
    "wType": "Button",
    "zindex": 1
}