{
    "@class": "com.kony.gen.viz.model.component.KVizUserWidget",
    "DNDConfig": null,
    "_children_": [],
    "_height_": {
        "type": "ref",
        "value": "preferred"
    },
    "_left_": {
        "type": "string",
        "value": "0dp"
    },
    "_margin_": [
        0,
        0,
        0,
        0
    ],
    "_orientation_": 1,
    "_padding_": [
        0,
        0,
        0,
        0
    ],
    "_percent_": true,
    "_skin_": "s24c92fc23b14f5484b693ee9b8a9b35",
    "_top_": {
        "type": "string",
        "value": "0dp"
    },
    "_width_": {
        "type": "string",
        "value": "100%"
    },
    "android": {},
    "androidwearos": {},
    "areflexpropsreferenced": false,
    "autogrowmode": 1,
    "canUpdateUI": true,
    "clipbounds": true,
    "containerweight": 0,
    "dataDiffs": {
        "flxColumn1": {
            "__events__": {},
            "__info__": {
                "kuid": "gc5eab2ee16c419e8aa68c3c528d602c",
                "srcKUID": "ca2fa3f672ae4a959573870d37e7a3f8",
                "wType": "FlexContainer"
            }
        },
        "flxColumn2": {
            "__events__": {},
            "__info__": {
                "kuid": "a60229e84f3746dda1876a7ea13164a7",
                "srcKUID": "f2e3442a5303475fa17201d983fdebf2",
                "wType": "FlexContainer"
            }
        },
        "flxColumn3": {
            "__events__": {},
            "__info__": {
                "kuid": "e42e3330cfc24f808e99978ff061d93b",
                "srcKUID": "dc37cc4e0c8749989a63876aef88763c",
                "wType": "FlexContainer"
            }
        },
        "flxHeader": {
            "__events__": {},
            "__info__": {
                "kuid": "j668315fdd0340ed8a7b868150d9fa60",
                "srcKUID": "fec28b2520e94ea09cfa01883630fbf4",
                "wType": "FlexContainer"
            }
        },
        "flxHorizontalLine1": {
            "__events__": {},
            "__info__": {
                "kuid": "c71af59c2d8b4de390af31d2a78082ee",
                "srcKUID": "ab19b02d38ec43c7bc80fee12299f7d6",
                "wType": "FlexContainer"
            },
            "clipBounds": false,
            "isVisible": false
        },
        "flxHorizontalLine2": {
            "__events__": {},
            "__info__": {
                "kuid": "bd57ebd28ac9443a992be7db3421e3e1",
                "srcKUID": "a9344250ce36447399e63467457459b4",
                "wType": "FlexContainer"
            }
        },
        "flxHorizontalLine3": {
            "__events__": {},
            "__info__": {
                "kuid": "gd9ceb8fd901485e817657b950c2a789",
                "srcKUID": "a62d0c6bbf9941e0bbd687cfe0d1c206",
                "wType": "FlexContainer"
            }
        },
        "flxSegContainer": {
            "__events__": {},
            "__info__": {
                "kuid": "ea4bf4583f6b4f03b65069416cab9de6",
                "srcKUID": "bd3af797d3654f1bbd143ebb0dabfbfe",
                "wType": "FlexContainer"
            }
        },
        "flxSegmentHeader": {
            "__events__": {},
            "__info__": {
                "kuid": "e3ed52779ee3467cbcdebd1eff356ad0",
                "srcKUID": "f65203aeba304219b53ed02003f1ba9c",
                "wType": "FlexContainer"
            }
        },
        "flxSortSixColumn": {
            "__events__": {},
            "__info__": {
                "kuid": "c42cd3419cfb42b5b4e2f2c430f28283",
                "srcKUID": "f0f7004621b1469096cd7fb516fc7eec",
                "wType": "FlexContainer"
            }
        },
        "imgSortColumn1": {
            "__events__": {},
            "__info__": {
                "kuid": "fb420ef3a05e4355ad610a907838ab1f",
                "srcKUID": "f6b6f98f864c47e581b875aa476f24ab",
                "wType": "Image"
            }
        },
        "imgSortColumn2": {
            "__events__": {},
            "__info__": {
                "kuid": "b0a608ec14744417b9004cdddf3e1e49",
                "srcKUID": "bb3d8182186a4ec2b2048640abc70979",
                "wType": "Image"
            }
        },
        "lblColumn1": {
            "__events__": {},
            "__info__": {
                "kuid": "gb0e985409d34d52b05bd747751c4f3a",
                "srcKUID": "g7703d5f0426495f998d36effe98536e",
                "wType": "Label"
            }
        },
        "lblColumn2": {
            "__events__": {},
            "__info__": {
                "kuid": "deaa96270cbc4965bf0a19faedf6c6d2",
                "srcKUID": "c0ca327d2a7a4c1dafaa9142d0771465",
                "wType": "Label"
            }
        },
        "lblColumn3": {
            "__events__": {},
            "__info__": {
                "kuid": "ia7961f61ac54973824e3c6c3854f2f6",
                "srcKUID": "f03d2a5e9c61445dba4a88e36bb62d0e",
                "wType": "Label"
            }
        },
        "lblHeaderContracts": {
            "__events__": {},
            "__info__": {
                "kuid": "ec58a6042b5740efb05b357fe115b9f2",
                "srcKUID": "a9a6908190794300a21532dfc5a53e41",
                "wType": "Label"
            }
        },
        "screenConfirm": {
            "__events__": {},
            "__info__": {
                "isRoot": true,
                "kuid": "h9cb347c418148c0a8d82a3e6d4ae486",
                "srcKUID": "a4f7dc7591b4491caab8410be9f7bbb0",
                "wType": "FlexContainer"
            }
        },
        "segContracts": {
            "__events__": {},
            "__info__": {
                "kuid": "d08ad59d19404226b56ce40eebee04ea",
                "srcKUID": "f93de29ff28e4295b8de0c2d951a41c0",
                "wType": "Segment"
            }
        }
    },
    "desktopweb": {},
    "enablescrolling": true,
    "id": "screenConfirm",
    "info": null,
    "ipad": {},
    "iphone": {},
    "iscustomlayout": false,
    "isdatareferenced": false,
    "isvisible": true,
    "kiosk": {},
    "kuid": "h9cb347c418148c0a8d82a3e6d4ae486",
    "layouttype": 4,
    "masterType": 0,
    "name": "kony.ui.UserWidgetInstance",
    "parent": "flxContractsComponent",
    "pf": "frmAddBeneficiaryAcknowledgementEuro",
    "retaincontentalignment": false,
    "retainflexpositionproperties": false,
    "retainflowhorizontalalignment": false,
    "snapgridsize": 10,
    "snaptogrid": true,
    "sourceUserWidget": "a4f7dc7591b4491caab8410be9f7bbb0",
    "spa": {},
    "spaan": {},
    "spaandroidtablet": {},
    "spabb": {},
    "spaip": {},
    "spaipad": {},
    "spamobile": {},
    "spatablet": {},
    "spawindowstablet": {},
    "spawinphone8": {},
    "tabrcandroid": {},
    "vizProps": {
        "hidewidgethierarchy": false
    },
    "wType": "UserWidgetInstance",
    "windows10": {},
    "windows8": {},
    "winphone10": {},
    "winphone8": {}
}