{
    "DNDConfig": null,
    "_height_": {
        "type": "string",
        "value": "415dp"
    },
    "_margin_": [
        0,
        0,
        0,
        0
    ],
    "_orientation_": 6,
    "_padding_": [
        0,
        0,
        0,
        0
    ],
    "_percent_": true,
    "_skin_": "s32db308af9e4770a9ccf700cbe81176",
    "allboxes": [],
    "autogrowmode": 0,
    "canUpdateUI": true,
    "children": [
        "flxIdentifier",
        "flxContent",
        "lblSeparatorBottom"
    ],
    "clipbounds": true,
    "containerId": true,
    "containerweight": 100,
    "controllerInfo": {
        "default": {
            "channel": "desktop",
            "name": "flxBillPayManagePayeesEditController"
        }
    },
    "enablescrolling": true,
    "id": "flxBillPayManagePayeesEdit",
    "info": null,
    "isTemplate": true,
    "isvisible": true,
    "kuid": "ifc20cba1f164bc2b0488ec59b5a1a6f",
    "layouttype": 2,
    "name": "kony.ui.FlexContainer",
    "parent": "segBillPayManagePayeesEdit",
    "pf": "segBillPayManagePayeesEdit",
    "snapgridsize": 10,
    "snaptogrid": true,
    "wType": "FlexContainer",
    "widgetalignment": 1
}