{
    "@class": "com.kony.gen.viz.model.component.KVizButton",
    "DNDConfig": null,
    "_height_": {
        "type": "string",
        "value": "40dp"
    },
    "_left_": {
        "type": "string",
        "value": "79.83%"
    },
    "_margin_": [
        6,
        6,
        6,
        6
    ],
    "_padding_": [
        1,
        0,
        1,
        0
    ],
    "_right_": {
        "type": "string",
        "value": "2.50%"
    },
    "_skin_": "sfbbba35ede4457b94eb681b72349b98",
    "_text_": "Next",
    "_width_": {
        "type": "string",
        "value": "17.66%"
    },
    "canUpdateUI": true,
    "centery": {
        "type": "string",
        "value": "50%"
    },
    "containerweight": 100,
    "contentalignment": 5,
    "desktopweb": {
        "psp": {
            "hoverSkin": "s7ab6326aaf94c28b90b61fcb1b54547"
        }
    },
    "disabledSkins": {},
    "displaytext": true,
    "focusskin": "s5a4f67acd3e47b9be6d6910a7a6686f",
    "id": "btnNext",
    "info": null,
    "iscustomlayout": false,
    "isvisible": true,
    "kuid": "b82d156418d9458d809e69dc41992a16",
    "name": "kony.ui.Button",
    "parent": "flxMain",
    "pf": "userwidgetmodel",
    "retaincontentalignment": false,
    "retainflexpositionproperties": false,
    "wType": "Button",
    "zindex": 1
}