{
    "DNDConfig": null,
    "__parentReadjusting__": false,
    "_height_": {
        "type": "ref",
        "value": "preferred"
    },
    "_margin_": [
        0,
        0,
        0,
        0
    ],
    "_orientation_": 6,
    "_padding_": [
        0,
        0,
        0,
        0
    ],
    "_percent_": true,
    "_right_": {
        "type": "number",
        "value": "10"
    },
    "_skin_": "s1daa9076f304c4bafa48a8d45b4a29b",
    "_top_": {
        "type": "string",
        "value": "50dp"
    },
    "_width_": {
        "type": "string",
        "value": "170dp"
    },
    "allboxes": [],
    "autogrowmode": 1,
    "canUpdateUI": true,
    "children": [
        "segMenuDropdown"
    ],
    "clipbounds": false,
    "containerweight": 100,
    "enablescrolling": true,
    "id": "flxCombinedAccessMenu",
    "ide_onTouchEnd": "AS_FlexContainer_d5e410b3c47f487f85aa149adc755739",
    "info": null,
    "isvisible": true,
    "kuid": "bdae63a5fe4c45e286c78c0c305f92df",
    "layouttype": 4,
    "name": "kony.ui.FlexContainer",
    "parent": "flxCombined",
    "pf": "userwidgetmodel",
    "snapgridsize": 10,
    "snaptogrid": true,
    "wType": "FlexContainer",
    "widgetalignment": 1,
    "zindex": 7777
}