{
    "DNDConfig": null,
    "_height_": {
        "type": "string",
        "value": "52dp"
    },
    "_left_": {
        "type": "string",
        "value": "0dp"
    },
    "_margin_": [
        0,
        0,
        0,
        0
    ],
    "_orientation_": 6,
    "_padding_": [
        0,
        0,
        0,
        0
    ],
    "_percent_": true,
    "_skin_": "s4b5ad27f86e4f7c8aaa9a78bf7cc838",
    "_top_": {
        "type": "string",
        "value": "0dp"
    },
    "_width_": {
        "type": "string",
        "value": "100%"
    },
    "allboxes": [],
    "autogrowmode": 0,
    "canUpdateUI": true,
    "children": [
        "CopylblRightSubMainHeader0d8e47bdde80444",
        "CopyflxRightSeparator0i0eaab1329fd40"
    ],
    "clipbounds": true,
    "containerweight": 100,
    "enablescrolling": true,
    "id": "CopyflxRightSubMainHeader0a676aaa3ba4745",
    "info": null,
    "isvisible": true,
    "kuid": "d1f4c08e3cf0453da68724e93c87e5f6",
    "layouttype": 2,
    "name": "kony.ui.FlexContainer",
    "parent": "flxRightContainer",
    "pf": "frmBBCopyPermission",
    "responsiveData": {
        "b1": {},
        "b2": {
            "isVisible": true
        }
    },
    "snapgridsize": 10,
    "snaptogrid": true,
    "wType": "FlexContainer",
    "widgetalignment": 1,
    "zindex": 1
}