{
    "DNDConfig": null,
    "_bottom_": {
        "type": "number",
        "value": ""
    },
    "_height_": {
        "type": "ref",
        "value": "preferred"
    },
    "_left_": {
        "type": "string",
        "value": "0"
    },
    "_margin_": [
        0,
        0,
        0,
        0
    ],
    "_orientation_": 6,
    "_padding_": [
        0,
        0,
        0,
        0
    ],
    "_percent_": true,
    "_skin_": "s24c92fc23b14f5484b693ee9b8a9b35",
    "_top_": {
        "type": "string",
        "value": "0"
    },
    "_width_": {
        "type": "string",
        "value": "100%"
    },
    "allboxes": [],
    "autogrowmode": 1,
    "canUpdateUI": true,
    "children": [
        "lblInformation",
        "flxInfoSeparator",
        "flxRoleCreation"
    ],
    "clipbounds": true,
    "containerweight": 100,
    "enablescrolling": true,
    "id": "flxCustomRoleInfo",
    "info": null,
    "iscustomlayout": false,
    "isvisible": true,
    "kuid": "h1d40c0aa4bf4589ad995a8d09f2b37d",
    "layouttype": 2,
    "name": "kony.ui.FlexContainer",
    "parent": "flxSelectRole",
    "pf": "frmBBCopyPermission",
    "responsiveData": {
        "b1": {
            "isVisible": false,
            "layoutType": 4
        },
        "b2": {
            "bottom": {
                "type": "string",
                "value": ""
            },
            "isVisible": true,
            "layoutType": 4
        },
        "b4": {
            "isVisible": false
        }
    },
    "retaincontentalignment": false,
    "retainflexpositionproperties": false,
    "retainflowhorizontalalignment": false,
    "snapgridsize": 10,
    "snaptogrid": true,
    "wType": "FlexContainer",
    "widgetalignment": 1
}