{
    "DNDConfig": null,
    "_height_": {
        "type": "string",
        "value": "220dp"
    },
    "_left_": {
        "type": "string",
        "value": "0"
    },
    "_margin_": [
        0,
        0,
        0,
        0
    ],
    "_orientation_": 6,
    "_padding_": [
        0,
        0,
        0,
        0
    ],
    "_percent_": true,
    "_skin_": "s24c92fc23b14f5484b693ee9b8a9b35",
    "_top_": {
        "type": "string",
        "value": "0"
    },
    "_width_": {
        "type": "string",
        "value": "100%"
    },
    "allboxes": [],
    "canUpdateUI": true,
    "children": [],
    "clipbounds": true,
    "containerweight": 100,
    "enablescrolling": true,
    "id": "flxPermissionSeparator",
    "info": null,
    "iscustomlayout": false,
    "isvisible": true,
    "kuid": "hbf5a9cff7184200a97db0cea078d059",
    "layouttype": 2,
    "minwidth": {
        "type": "number",
        "value": ""
    },
    "name": "kony.ui.FlexContainer",
    "parent": "flxUserRoles",
    "pf": "frmBBCopyPermission",
    "responsiveData": {
        "b1": {
            "height": {
                "type": "string",
                "value": "1dp"
            },
            "isVisible": false,
            "left": {
                "type": "string",
                "value": "20dp"
            },
            "minWidth": {
                "type": "string",
                "value": ""
            },
            "skin": "s17f53a9155d49b680b96ae3be6b82c8",
            "top": {
                "type": "string",
                "value": "16dp"
            },
            "width": {
                "type": "string",
                "value": "94%"
            }
        },
        "b2": {
            "height": {
                "type": "string",
                "value": "1dp"
            },
            "isVisible": false,
            "left": {
                "type": "string",
                "value": "20dp"
            },
            "minWidth": {
                "type": "string",
                "value": ""
            },
            "skin": "s17f53a9155d49b680b96ae3be6b82c8",
            "top": {
                "type": "string",
                "value": "16dp"
            },
            "width": {
                "type": "string",
                "value": "94%"
            }
        },
        "b4": {
            "isVisible": false
        }
    },
    "retaincontentalignment": false,
    "retainflexpositionproperties": false,
    "retainflowhorizontalalignment": false,
    "snapgridsize": 10,
    "snaptogrid": true,
    "wType": "FlexContainer",
    "widgetalignment": 1
}