{
    "DNDConfig": null,
    "_height_": {
        "type": "ref",
        "value": "preferred"
    },
    "_left_": {
        "type": "string",
        "value": "0dp"
    },
    "_margin_": [
        0,
        0,
        0,
        0
    ],
    "_orientation_": 6,
    "_padding_": [
        0,
        0,
        0,
        0
    ],
    "_percent_": true,
    "_skin_": "s17f53a9155d49b680b96ae3be6b82c8",
    "_top_": {
        "type": "string",
        "value": "0dp"
    },
    "_width_": {
        "type": "string",
        "value": "1px"
    },
    "allboxes": [],
    "autogrowmode": 0,
    "canUpdateUI": true,
    "children": [
        "CopyflxRightSubMainHeader0a676aaa3ba4745",
        "CopyflxRoleRightContainer0h9c5af22a4004e"
    ],
    "clipbounds": true,
    "containerweight": 100,
    "enablescrolling": true,
    "id": "flxRightContainer",
    "info": null,
    "iscustomlayout": false,
    "isvisible": true,
    "kuid": "e642a41d46d9436ab83eb0638731e050",
    "layouttype": 2,
    "name": "kony.ui.FlexContainer",
    "parent": "flxRoleMainContainer",
    "pf": "frmBBCopyPermission",
    "responsiveData": {
        "b1": {
            "height": {
                "type": "string",
                "value": "904dp"
            },
            "isVisible": true,
            "layoutType": 4,
            "top": {
                "type": "string",
                "value": "-3dp"
            },
            "width": {
                "type": "string",
                "value": "70.40%"
            },
            "zIndex": 2
        },
        "b2": {
            "height": {
                "type": "string",
                "value": "900px"
            }
        },
        "b4": {
            "height": {
                "type": "string",
                "value": "904dp"
            },
            "layoutType": 4,
            "top": {
                "type": "string",
                "value": "-3dp"
            },
            "width": {
                "type": "string",
                "value": "70.40%"
            }
        }
    },
    "retaincontentalignment": false,
    "retainflexpositionproperties": false,
    "snapgridsize": 10,
    "snaptogrid": true,
    "wType": "FlexContainer",
    "widgetalignment": 1,
    "zindex": 1
}