{
    "DNDConfig": null,
    "_height_": {
        "type": "string",
        "value": "1dp"
    },
    "_left_": {
        "type": "string",
        "value": "0dp"
    },
    "_margin_": [
        0,
        0,
        0,
        0
    ],
    "_orientation_": 6,
    "_padding_": [
        0,
        0,
        0,
        0
    ],
    "_percent_": true,
    "_skin_": "s47c798875da45eb876a3a2eac29c538",
    "_top_": {
        "type": "string",
        "value": "48dp"
    },
    "_width_": {
        "type": "string",
        "value": "100%"
    },
    "allboxes": [],
    "canUpdateUI": true,
    "children": [],
    "clipbounds": true,
    "containerweight": 100,
    "enablescrolling": true,
    "id": "flxSeparatorMain4",
    "info": null,
    "iscustomlayout": false,
    "isvisible": true,
    "kuid": "a49d89232ce34025ac922c92f3e0eda4",
    "layouttype": 2,
    "name": "kony.ui.FlexContainer",
    "parent": "flxAccDetailsMain",
    "pf": "frmBBCopyPermission",
    "responsiveData": {
        "b1": {},
        "b4": {
            "top": {
                "type": "string",
                "value": "49dp"
            }
        }
    },
    "retaincontentalignment": false,
    "retainflexpositionproperties": false,
    "retainflowhorizontalalignment": false,
    "snapgridsize": 10,
    "snaptogrid": true,
    "wType": "FlexContainer",
    "widgetalignment": 1,
    "zindex": 1
}