{
    "@class": "com.kony.gen.viz.model.component.KVizImage2",
    "DNDConfig": null,
    "_base64_": null,
    "_height_": {
        "type": "string",
        "value": "150dp"
    },
    "_left_": {
        "type": "string",
        "value": "0"
    },
    "_margin_": [
        0,
        0,
        0,
        0
    ],
    "_padding_": [
        0,
        0,
        0,
        0
    ],
    "_skin_": "s78a5f26c9f14cec9ebed1bb46098f80",
    "_src_": "imagedrag.png",
    "_top_": {
        "type": "string",
        "value": "0"
    },
    "_width_": {
        "type": "string",
        "value": "150dp"
    },
    "accessibilityconfig": {
        "a11yLabel": "Expand"
    },
    "canUpdateUI": true,
    "centery": {
        "type": "number",
        "value": ""
    },
    "containerweight": 100,
    "id": "imgExistingUsersExpand",
    "imagescalemode": 1,
    "imagewhiledownloading": "img_transparent.png",
    "info": null,
    "invokedProperty": "src",
    "iscustomlayout": false,
    "isvisible": true,
    "kuid": "e970e11bf17445188d7bb77756f29a42",
    "name": "kony.ui.Image2",
    "parent": "flxExistingUsersExpand",
    "pf": "frmBBCopyPermission",
    "responsiveData": {
        "b1": {
            "centerY": {
                "type": "string",
                "value": "50%"
            },
            "height": {
                "type": "string",
                "value": "15dp"
            },
            "isVisible": false,
            "skin": "s8ee487de5774c1eb668e74bf92f5cdd",
            "src": "arrow_down.png",
            "width": {
                "type": "string",
                "value": "15dp"
            }
        },
        "b2": {
            "centerY": {
                "type": "string",
                "value": "50%"
            },
            "height": {
                "type": "string",
                "value": "15dp"
            },
            "isVisible": false,
            "skin": "s8ee487de5774c1eb668e74bf92f5cdd",
            "src": "arrow_down.png",
            "width": {
                "type": "string",
                "value": "15dp"
            }
        }
    },
    "retaincontentalignment": false,
    "retainflexpositionproperties": false,
    "srcType": 1,
    "wType": "Image",
    "widgetalignment": 5
}