{
    "@class": "com.kony.gen.viz.model.component.KVizLabel",
    "DNDConfig": null,
    "_height_": {
        "type": "ref",
        "value": "preferred"
    },
    "_left_": {
        "type": "string",
        "value": "51dp"
    },
    "_margin_": [
        1,
        1,
        1,
        1
    ],
    "_padding_": [
        0,
        0,
        0,
        0
    ],
    "_skin_": "sdfb2a61c65c4adba5a5eaa8aa0ef3d2",
    "_text_": "",
    "_top_": {
        "type": "string",
        "value": "15px"
    },
    "_width_": {
        "type": "ref",
        "value": "preferred"
    },
    "_wrapping_": 2,
    "android": {
        "textStyle": {
            "letterSpacing": 0,
            "strikeThrough": false
        }
    },
    "canUpdateUI": true,
    "containerweight": 100,
    "contentalignment": 4,
    "id": "lblRolePermissions",
    "info": null,
    "ipad": {
        "psp": {
            "wrapping": 2
        }
    },
    "iphone": {
        "psp": {
            "wrapping": 2
        }
    },
    "iscustomlayout": false,
    "isvisible": true,
    "kuid": "g625d2722cb7480681f34ef333eb62be",
    "name": "kony.ui.Label",
    "parent": "flxUserRoles",
    "pf": "frmBBCopyPermission",
    "responsiveData": {
        "b1": {
            "isVisible": false,
            "left": {
                "type": "string",
                "value": "24dp"
            },
            "skin": "s2ac445d876246978f2537c63ae81fab"
        },
        "b2": {
            "left": {
                "type": "string",
                "value": "24dp"
            },
            "skin": "s2ac445d876246978f2537c63ae81fab"
        },
        "b4": {
            "isVisible": false
        }
    },
    "retaincontentalignment": false,
    "retainflexpositionproperties": false,
    "texti18n": "i18n.userManagement.rolePermissions",
    "tooltip": "",
    "wType": "Label",
    "zindex": 1
}