{
    "@class": "com.kony.gen.viz.model.component.KVizLabel",
    "DNDConfig": null,
    "_height_": {
        "type": "ref",
        "value": "preferred"
    },
    "_left_": {
        "type": "string",
        "value": "29dp"
    },
    "_margin_": [
        1,
        1,
        1,
        1
    ],
    "_padding_": [
        0,
        0,
        0,
        0
    ],
    "_skin_": "sc39b68cb14e457b9b79ba3c8c3b88d1",
    "_text_": "Transaction Limis",
    "_top_": {
        "type": "string",
        "value": "14dp"
    },
    "_width_": {
        "type": "ref",
        "value": "preferred"
    },
    "_wrapping_": 2,
    "android": {
        "textStyle": {
            "letterSpacing": 0,
            "strikeThrough": false
        }
    },
    "canUpdateUI": true,
    "centery": {
        "type": "number",
        "value": ""
    },
    "containerweight": 100,
    "contentalignment": 4,
    "id": "lbltransactionLimits",
    "info": null,
    "ipad": {
        "psp": {
            "wrapping": 2
        }
    },
    "iphone": {
        "psp": {
            "wrapping": 2
        }
    },
    "iscustomlayout": false,
    "isvisible": true,
    "kuid": "f2a09fb978fb4e3092e358ced371da4a",
    "name": "kony.ui.Label",
    "parent": "flxTransactionLimits",
    "pf": "frmBBCopyPermission",
    "responsiveData": {
        "b1": {
            "skin": "sd58e7dec3cf45cfb721a7ac97d2837a"
        },
        "b4": {
            "centerY": {
                "type": "string",
                "value": "50%"
            },
            "skin": "sd58e7dec3cf45cfb721a7ac97d2837a"
        }
    },
    "retaincontentalignment": false,
    "retainflexpositionproperties": false,
    "texti18n": "i18n.konybb.TransactionLimits",
    "tooltip": "",
    "wType": "Label",
    "zindex": 1
}