{
    "@class": "com.kony.gen.viz.model.container.KVizSegment2",
    "DNDConfig": null,
    "_bottom_": {
        "type": "string",
        "value": "2dp"
    },
    "_data_": [
        [
            {
                "lblBank": {
                    "@class": "com.viz.ide.model.segment.SimpleTextSegmentData",
                    "text": "ABC Bank"
                },
                "lblDropdown": {
                    "@class": "com.viz.ide.model.segment.SimpleTextSegmentData",
                    "text": "O"
                },
                "lblIcon": {
                    "@class": "com.viz.ide.model.segment.SimpleTextSegmentData",
                    "text": "s"
                },
                "lblRecipient": {
                    "@class": "com.viz.ide.model.segment.SimpleTextSegmentData",
                    "text": "Eliza Walsh"
                },
                "lblReferenceID": {
                    "@class": "com.viz.ide.model.segment.SimpleTextSegmentData",
                    "text": "3456782414"
                },
                "lblSeparator": {
                    "@class": "com.viz.ide.model.segment.SimpleTextSegmentData",
                    "text": ""
                }
            },
            []
        ],
        [
            {
                "lblBank": {
                    "@class": "com.viz.ide.model.segment.SimpleTextSegmentData",
                    "text": "ABC Bank"
                },
                "lblDropdown": {
                    "@class": "com.viz.ide.model.segment.SimpleTextSegmentData",
                    "text": "O"
                },
                "lblIcon": {
                    "@class": "com.viz.ide.model.segment.SimpleTextSegmentData",
                    "text": "s"
                },
                "lblRecipient": {
                    "@class": "com.viz.ide.model.segment.SimpleTextSegmentData",
                    "text": "Eliza Walsh"
                },
                "lblReferenceID": {
                    "@class": "com.viz.ide.model.segment.SimpleTextSegmentData",
                    "text": "3456782414"
                },
                "lblSeparator": {
                    "@class": "com.viz.ide.model.segment.SimpleTextSegmentData",
                    "text": ""
                }
            },
            []
        ]
    ],
    "_height_": {
        "type": "ref",
        "value": "preferred"
    },
    "_indicator_": "none",
    "_left_": {
        "type": "string",
        "value": "0dp"
    },
    "_margin_": [
        0,
        0,
        0,
        0
    ],
    "_orientation_": 2,
    "_padding_": [
        0,
        0,
        0,
        0
    ],
    "_top_": {
        "type": "string",
        "value": "0dp"
    },
    "_width_": {
        "type": "string",
        "value": "100%"
    },
    "autogrowmode": 1,
    "canUpdateUI": true,
    "containerweight": 100,
    "counter": "01",
    "disabledSkins": {},
    "focusedindex": null,
    "focuseditem": null,
    "groupcells": false,
    "hasSections": true,
    "id": "segTransactionLimit",
    "info": null,
    "ipad": {
        "psp": {
            "indicator": "rowselect"
        }
    },
    "iphone": {
        "psp": {
            "indicator": "rowselect"
        }
    },
    "isvisible": true,
    "kuid": "ae574cb4ffde4964945795af892224b1",
    "masterdata": {},
    "name": "kony.ui.SegmentedUI2",
    "needpageindicator": true,
    "pageoffdotimage": "pageoffdot.png",
    "pageondotimage": "pageondot.png",
    "paginationconfig": {
        "position": "bottom"
    },
    "parent": "flxOtherFeaturePermissionsSeg",
    "pf": "frmBBCopyPermission",
    "responsiveData": {
        "b1": {},
        "b4": {
            "bottom": {
                "type": "string",
                "value": "2dp"
            },
            "width": {
                "type": "string",
                "value": "100%"
            }
        }
    },
    "retainselection": false,
    "rowTemplateId": "fec590258d3b49b68c7af4d895fe64e6",
    "rowcounter": 1,
    "rowfocusskin": "s9f69e977910472eb44c62ae28c41fe1",
    "rowskin": "scf5f90f6ac04976ab88b2a4f7153285",
    "rowtemplate": "flxUserManagementLabelText",
    "screenlevelwidget": false,
    "seccounter": 0,
    "sectionHeaderTemplateId": "ff007041a5484f54b0bd2858ae9d6f2c",
    "sectionheaderskin": "sdc4ff4ed1584272be2ae69045dfb29d",
    "sectionheadertemplate": "flxUserManagementAccPermissions",
    "selectedRows": null,
    "selectedState": false,
    "selectedindex": null,
    "selectedindices": null,
    "selecteditems": null,
    "selectedsectionindex": 0,
    "selectionbehavior": "default",
    "separatorcolor": "e9ebee00",
    "separatorrequired": true,
    "separatorthickness": 1,
    "showscrollbars": false,
    "viewtype": "tableview",
    "vizProps": {},
    "wType": "Segment",
    "widgetalignment": 5,
    "widgetdatamap": {
        "CopylblAccountName0gacd6598ba8147": "CopylblAccountName0gacd6598ba8147",
        "flxAccountListItemWrapper": "flxAccountListItemWrapper",
        "flxBank": "flxBank",
        "flxCurrency": "flxCurrency",
        "flxDropdown": "flxDropdown",
        "flxReferenceID": "flxReferenceID",
        "flxSegBulkWireAckWrapper": "flxSegBulkWireAckWrapper",
        "flxUserManagementAccPermissions": "flxUserManagementAccPermissions",
        "flxUserManagementLabelText": "flxUserManagementLabelText",
        "flxWrapper": "flxWrapper",
        "lblAccountName": "lblAccountName",
        "lblBank": "lblBank",
        "lblDropdown": "lblDropdown",
        "lblIcon": "lblIcon",
        "lblRecipient": "lblRecipient",
        "lblReferenceID": "lblReferenceID",
        "lblSeparator": "lblSeparator"
    },
    "zindex": 1
}