{
    "@class": "com.kony.gen.viz.model.component.KVizButton",
    "DNDConfig": null,
    "_height_": {
        "type": "string",
        "value": "40dp"
    },
    "_left_": {
        "type": "number",
        "value": ""
    },
    "_margin_": [
        6,
        6,
        6,
        6
    ],
    "_padding_": [
        0,
        0,
        0,
        0
    ],
    "_right_": {
        "type": "string",
        "value": "2.20%"
    },
    "_skin_": "sea99be5c3a043fc90271f90eddb6b04",
    "_text_": "Continue",
    "_top_": {
        "type": "number",
        "value": ""
    },
    "_width_": {
        "type": "string",
        "value": "12.50%"
    },
    "accessibilityconfig": {
        "a11yLabel": "Add Account"
    },
    "canUpdateUI": true,
    "centery": {
        "type": "string",
        "value": "50%"
    },
    "containerweight": 100,
    "contentalignment": 5,
    "desktopweb": {
        "psp": {
            "hoverSkin": "s7ab6326aaf94c28b90b61fcb1b541zm"
        }
    },
    "disabledSkins": {},
    "displaytext": true,
    "focusskin": "s7388a571dae4f0dade7428f0bf881zy",
    "id": "btnConfirm",
    "info": null,
    "isvisible": true,
    "kuid": "i9c5353f489743e3b4ffbcc345bf5a13",
    "name": "kony.ui.Button",
    "parent": "confirmflxButtons",
    "pf": "userwidgetmodel",
    "responsiveData": {
        "b2": {
            "right": {
                "type": "string",
                "value": "2.50%"
            },
            "width": {
                "type": "string",
                "value": "22%"
            }
        },
        "b3": {
            "centerY": {
                "type": "string",
                "value": ""
            },
            "left": {
                "type": "string",
                "value": "2%"
            },
            "right": {
                "type": "string",
                "value": "2%"
            },
            "top": {
                "type": "string",
                "value": "20dp"
            },
            "width": {
                "type": "string",
                "value": "96%"
            }
        }
    },
    "texti18n": "i18n.FastTransfers.AddAccount",
    "tooltip": "Confirm",
    "wType": "Button",
    "zindex": 1
}