{
    "@class": "com.kony.gen.viz.model.component.KVizLabel",
    "DNDConfig": null,
    "_height_": {
        "type": "ref",
        "value": "preferred"
    },
    "_left_": {
        "type": "string",
        "value": "2.10%"
    },
    "_margin_": [
        1,
        1,
        1,
        1
    ],
    "_padding_": [
        0,
        0,
        0,
        0
    ],
    "_skin_": "s6e13e645ba1488d9cac62841907b1xa",
    "_text_": "Label",
    "_top_": {
        "type": "string",
        "value": "21dp"
    },
    "_width_": {
        "type": "ref",
        "value": "preferred"
    },
    "_wrapping_": 2,
    "accessibilityconfig": {
        "a11yLabel": "Confirm Recipient Details"
    },
    "android": {
        "textStyle": {
            "letterSpacing": 0,
            "strikeThrough": false
        }
    },
    "canUpdateUI": true,
    "centery": {
        "type": "string",
        "value": "50%"
    },
    "containerweight": 100,
    "contentalignment": 4,
    "id": "editlblHeader",
    "info": null,
    "ipad": {
        "psp": {
            "wrapping": 2
        }
    },
    "iphone": {
        "psp": {
            "wrapping": 2
        }
    },
    "isvisible": true,
    "kuid": "c5a3a0c40764462fa035c46bc808625c",
    "name": "kony.ui.Label",
    "parent": "editflxHeader",
    "pf": "userwidgetmodel",
    "responsiveData": {
        "b1": {
            "left": {
                "type": "string",
                "value": "30dp"
            },
            "top": {
                "type": "string",
                "value": ""
            }
        },
        "b3": {
            "centerY": {
                "type": "string",
                "value": "50%"
            },
            "top": {
                "type": "string",
                "value": ""
            }
        },
        "b4": {
            "top": {
                "type": "string",
                "value": ""
            }
        }
    },
    "texti18n": "i18n.PayAPerson.ConfirmRecipientDetails",
    "tooltip": "",
    "wType": "Label",
    "zindex": 1
}