{
    "@class": "com.kony.gen.viz.model.component.KVizLabel",
    "DNDConfig": null,
    "_height_": {
        "type": "ref",
        "value": "preferred"
    },
    "_left_": {
        "type": "string",
        "value": "20dp"
    },
    "_margin_": [
        1,
        1,
        1,
        1
    ],
    "_padding_": [
        0,
        0,
        0,
        0
    ],
    "_right_": {
        "type": "number",
        "value": ""
    },
    "_skin_": "s38a9e5740c14392a16107956172e69c",
    "_text_": "Are you sure you want to cancel?",
    "_top_": {
        "type": "string",
        "value": "85dp"
    },
    "_width_": {
        "type": "ref",
        "value": "preferred"
    },
    "_wrapping_": 2,
    "android": {
        "textStyle": {
            "letterSpacing": 0,
            "strikeThrough": false
        }
    },
    "canUpdateUI": true,
    "containerweight": 100,
    "contentalignment": 4,
    "id": "editlblCancel",
    "info": null,
    "ipad": {
        "psp": {
            "wrapping": 2
        }
    },
    "iphone": {
        "psp": {
            "wrapping": 2
        }
    },
    "iscustomlayout": false,
    "isvisible": true,
    "kuid": "c16db6ce007745a59343fc619602a38f",
    "name": "kony.ui.Label",
    "parent": "editflxClosePopup",
    "pf": "userwidgetmodel",
    "responsiveData": {
        "b1": {
            "left": {
                "type": "string",
                "value": "30dp"
            },
            "skin": "s1fc21c47afc4253874e0879629fed86",
            "top": {
                "type": "string",
                "value": "73dp"
            },
            "width": {
                "type": "string",
                "value": "90%"
            }
        },
        "b2": {
            "left": {
                "type": "string",
                "value": "30dp"
            },
            "skin": "s1fc21c47afc4253874e0879629fed86",
            "top": {
                "type": "string",
                "value": "73dp"
            },
            "width": {
                "type": "string",
                "value": "90%"
            }
        },
        "b3": {
            "left": {
                "type": "string",
                "value": "30dp"
            },
            "right": {
                "type": "string",
                "value": "20dp"
            },
            "skin": "s1fc21c47afc4253874e0879629fed86",
            "top": {
                "type": "string",
                "value": "73dp"
            }
        },
        "b4": {
            "left": {
                "type": "string",
                "value": "30dp"
            },
            "top": {
                "type": "string",
                "value": "73dp"
            },
            "width": {
                "type": "string",
                "value": "90%"
            }
        }
    },
    "retaincontentalignment": false,
    "retainflexpositionproperties": false,
    "tooltip": "",
    "wType": "Label",
    "zindex": 1
}