{
    "DNDConfig": null,
    "_height_": {
        "type": "ref",
        "value": "preferred"
    },
    "_left_": {
        "type": "string",
        "value": "2.50%"
    },
    "_margin_": [
        0,
        0,
        0,
        0
    ],
    "_orientation_": 6,
    "_padding_": [
        0,
        0,
        0,
        0
    ],
    "_percent_": true,
    "_skin_": "s24c92fc23b14f5484b693ee9b8a9b35",
    "_top_": {
        "type": "string",
        "value": "0dp"
    },
    "_width_": {
        "type": "string",
        "value": "45%"
    },
    "allboxes": [],
    "autogrowmode": 1,
    "canUpdateUI": true,
    "children": [
        "flxStateTab",
        "listState"
    ],
    "clipbounds": true,
    "containerweight": 100,
    "enablescrolling": true,
    "id": "flxState",
    "info": null,
    "isvisible": true,
    "kuid": "i0c7056a5a224078a6f0f39c2f757554",
    "layouttype": 4,
    "name": "kony.ui.FlexContainer",
    "parent": "flxCnS",
    "pf": "userwidgetmodel",
    "responsiveData": {
        "b1": {},
        "b2": {
            "width": {
                "type": "string",
                "value": "46%"
            }
        },
        "b3": {
            "left": {
                "type": "string",
                "value": "0%"
            },
            "top": {
                "type": "string",
                "value": "18dp"
            },
            "width": {
                "type": "string",
                "value": "94%"
            }
        },
        "b4": {}
    },
    "snapgridsize": 10,
    "snaptogrid": true,
    "wType": "FlexContainer",
    "widgetalignment": 1,
    "zindex": 1
}