{
    "@class": "com.kony.gen.viz.model.component.KVizLabel",
    "DNDConfig": null,
    "_height_": {
        "type": "ref",
        "value": "preferred"
    },
    "_left_": {
        "type": "string",
        "value": "56dp"
    },
    "_margin_": [
        1,
        1,
        1,
        1
    ],
    "_padding_": [
        0,
        0,
        0,
        0
    ],
    "_skin_": "s8eadfd8620c42c6aaf28842e95d37cd",
    "_text_": "Label",
    "_top_": {
        "type": "string",
        "value": "8dp"
    },
    "_width_": {
        "type": "ref",
        "value": "preferred"
    },
    "_wrapping_": 2,
    "android": {
        "textStyle": {
            "letterSpacing": 0,
            "strikeThrough": false
        }
    },
    "canUpdateUI": true,
    "containerweight": 100,
    "contentalignment": 4,
    "id": "lblValue2",
    "info": null,
    "ipad": {
        "psp": {
            "wrapping": 2
        }
    },
    "iphone": {
        "psp": {
            "wrapping": 2
        }
    },
    "iscustomlayout": false,
    "isvisible": true,
    "kuid": "b00fe1613fce45c2a53988977e7bb34d",
    "name": "kony.ui.Label",
    "parent": "flxValue2",
    "pf": "userwidgetmodel",
    "responsiveData": {
        "b1": {
            "isVisible": false,
            "left": {
                "type": "string",
                "value": "0dp"
            },
            "text": "",
            "top": {
                "type": "string",
                "value": "0dp"
            },
            "width": {
                "type": "string",
                "value": "95%"
            }
        },
        "b2": {
            "isVisible": false,
            "left": {
                "type": "string",
                "value": "0dp"
            },
            "text": "",
            "top": {
                "type": "string",
                "value": "0dp"
            },
            "width": {
                "type": "string",
                "value": "94%"
            }
        },
        "b3": {
            "isVisible": false,
            "left": {
                "type": "string",
                "value": ""
            },
            "text": "",
            "top": {
                "type": "string",
                "value": "0dp"
            },
            "width": {
                "type": "string",
                "value": "90%"
            }
        },
        "b4": {
            "isVisible": false,
            "left": {
                "type": "string",
                "value": "0dp"
            },
            "text": "",
            "top": {
                "type": "string",
                "value": "0dp"
            },
            "width": {
                "type": "string",
                "value": "95%"
            }
        }
    },
    "retaincontentalignment": false,
    "retainflexpositionproperties": false,
    "tooltip": "",
    "wType": "Label",
    "zindex": 1
}