{
    "@class": "com.kony.gen.viz.model.container.KVizSegment2",
    "DNDConfig": null,
    "_data_": [
        {},
        {},
        {},
        {},
        {},
        {},
        {},
        {},
        {},
        {}
    ],
    "_height_": {
        "type": "string",
        "value": "240dp"
    },
    "_indicator_": "none",
    "_left_": {
        "type": "string",
        "value": "24dp"
    },
    "_margin_": [
        0,
        0,
        0,
        0
    ],
    "_orientation_": 2,
    "_padding_": [
        0,
        0,
        0,
        0
    ],
    "_top_": {
        "type": "string",
        "value": "17dp"
    },
    "_width_": {
        "type": "string",
        "value": "100%"
    },
    "canUpdateUI": true,
    "containerweight": 100,
    "counter": "09",
    "desktop": {
        "_data_": [
            {},
            {},
            {},
            {},
            {},
            {},
            {},
            {},
            {},
            {}
        ],
        "rowTemplateId": null,
        "rowtemplate": null,
        "sectionHeaderTemplateId": null,
        "sectionheadertemplate": null,
        "selectionBehaviorConfig": null,
        "widgetdatamap": {}
    },
    "focusedindex": null,
    "focuseditem": null,
    "groupcells": false,
    "hasSections": false,
    "id": "segAddress",
    "info": null,
    "ipad": {
        "psp": {
            "indicator": "rowselect"
        }
    },
    "iphone": {
        "psp": {
            "indicator": "rowselect"
        }
    },
    "iscustomlayout": false,
    "isvisible": true,
    "kuid": "ice4602cebae47289707df6455050827",
    "masterdata": {},
    "name": "kony.ui.SegmentedUI2",
    "needpageindicator": true,
    "pageoffdotimage": "pageoffdot.png",
    "pageondotimage": "pageondot.png",
    "paginationconfig": {
        "position": "bottom",
        "vdistance": 1
    },
    "parent": "flxAddressSuggestions",
    "pf": "userwidgetmodel",
    "responsiveData": {
        "b1": {
            "data": [
                {},
                {},
                {},
                {},
                {},
                {},
                {},
                {},
                {},
                {}
            ],
            "height": {
                "type": "ref",
                "value": "preferred"
            },
            "left": {
                "type": "string",
                "value": "0dp"
            },
            "rowTemplate": "g73a7069890d437cbc66c0068d27602e",
            "sectionHeaderTemplate": null,
            "top": {
                "type": "string",
                "value": "0dp"
            },
            "widgetDataMap": {}
        },
        "b2": {
            "data": [
                {
                    "btnRowClick": {
                        "@class": "com.viz.ide.model.segment.SimpleTextSegmentData",
                        "text": ""
                    },
                    "lblCountryCodeKA": {
                        "@class": "com.viz.ide.model.segment.SimpleTextSegmentData",
                        "text": ""
                    },
                    "lblCountryNameKA": {
                        "@class": "com.viz.ide.model.segment.SimpleTextSegmentData",
                        "text": ""
                    },
                    "lblLeftBracketKA": {
                        "@class": "com.viz.ide.model.segment.SimpleTextSegmentData",
                        "text": ""
                    },
                    "lblRightBracketKA": {
                        "@class": "com.viz.ide.model.segment.SimpleTextSegmentData",
                        "text": ""
                    }
                },
                {
                    "btnRowClick": {
                        "@class": "com.viz.ide.model.segment.SimpleTextSegmentData",
                        "text": ""
                    },
                    "lblCountryCodeKA": {
                        "@class": "com.viz.ide.model.segment.SimpleTextSegmentData",
                        "text": ""
                    },
                    "lblCountryNameKA": {
                        "@class": "com.viz.ide.model.segment.SimpleTextSegmentData",
                        "text": ""
                    },
                    "lblLeftBracketKA": {
                        "@class": "com.viz.ide.model.segment.SimpleTextSegmentData",
                        "text": ""
                    },
                    "lblRightBracketKA": {
                        "@class": "com.viz.ide.model.segment.SimpleTextSegmentData",
                        "text": ""
                    }
                }
            ],
            "height": {
                "type": "ref",
                "value": "preferred"
            },
            "left": {
                "type": "string",
                "value": "0dp"
            },
            "rowTemplate": "g73a7069890d437cbc66c0068d27602e",
            "sectionHeaderTemplate": null,
            "top": {
                "type": "string",
                "value": "0dp"
            },
            "widgetDataMap": {}
        },
        "b3": {
            "data": [
                {
                    "btnRowClick": {
                        "@class": "com.viz.ide.model.segment.SimpleTextSegmentData",
                        "text": "."
                    },
                    "lblCountryCodeKA": {
                        "@class": "com.viz.ide.model.segment.SimpleTextSegmentData",
                        "text": "+91"
                    },
                    "lblCountryNameKA": {
                        "@class": "com.viz.ide.model.segment.SimpleTextSegmentData",
                        "text": "Label"
                    },
                    "lblLeftBracketKA": {
                        "@class": "com.viz.ide.model.segment.SimpleTextSegmentData",
                        "text": "("
                    },
                    "lblRightBracketKA": {
                        "@class": "com.viz.ide.model.segment.SimpleTextSegmentData",
                        "text": ")"
                    }
                },
                {
                    "btnRowClick": {
                        "@class": "com.viz.ide.model.segment.SimpleTextSegmentData",
                        "text": "."
                    },
                    "lblCountryCodeKA": {
                        "@class": "com.viz.ide.model.segment.SimpleTextSegmentData",
                        "text": "+91"
                    },
                    "lblCountryNameKA": {
                        "@class": "com.viz.ide.model.segment.SimpleTextSegmentData",
                        "text": "Label"
                    },
                    "lblLeftBracketKA": {
                        "@class": "com.viz.ide.model.segment.SimpleTextSegmentData",
                        "text": "("
                    },
                    "lblRightBracketKA": {
                        "@class": "com.viz.ide.model.segment.SimpleTextSegmentData",
                        "text": ")"
                    }
                }
            ],
            "height": {
                "type": "ref",
                "value": "preferred"
            },
            "left": {
                "type": "string",
                "value": "0dp"
            },
            "rowTemplate": "g73a7069890d437cbc66c0068d27602e",
            "sectionHeaderTemplate": null,
            "top": {
                "type": "string",
                "value": "0dp"
            },
            "widgetDataMap": {
                "btnRowClick": "btnRowClick",
                "flxCountry": "flxCountry",
                "flxDropdownKA": "flxDropdownKA",
                "lblCountryCodeKA": "lblCountryCodeKA",
                "lblCountryNameKA": "lblCountryNameKA",
                "lblLeftBracketKA": "lblLeftBracketKA",
                "lblRightBracketKA": "lblRightBracketKA"
            }
        },
        "b4": {
            "data": [
                {},
                {},
                {},
                {},
                {},
                {},
                {},
                {},
                {},
                {}
            ],
            "height": {
                "type": "ref",
                "value": "preferred"
            },
            "left": {
                "type": "string",
                "value": "0dp"
            },
            "rowTemplate": "g73a7069890d437cbc66c0068d27602e",
            "sectionHeaderTemplate": null,
            "top": {
                "type": "string",
                "value": "0dp"
            },
            "widgetDataMap": {}
        }
    },
    "retaincontentalignment": false,
    "retainflexpositionproperties": false,
    "retainselection": false,
    "rowTemplateId": null,
    "rowcounter": 9,
    "rowfocusskin": "sdc47c9bd5274b72b3c8b55cea6a3cad",
    "rowskin": "scf5f90f6ac04976ab88b2a4f7153285",
    "rowtemplate": null,
    "screenlevelwidget": false,
    "seccounter": 0,
    "sectionHeaderTemplateId": null,
    "sectionheaderskin": "sdc4ff4ed1584272be2ae69045dfb29d",
    "selectedRows": null,
    "selectedState": false,
    "selectedindex": null,
    "selectedindices": null,
    "selecteditems": null,
    "selectedsectionindex": 0,
    "selectionbehavior": "default",
    "selectionbehaviorconfig": null,
    "separatorcolor": "aaaaaa00",
    "separatorrequired": true,
    "separatorthickness": 1,
    "showscrollbars": false,
    "swipeContext": {
        "currentPage": 0,
        "imageWidth": 600,
        "widthRatio": 0
    },
    "viewtype": "tableview",
    "vizProps": {},
    "wType": "Segment",
    "widgetalignment": 5,
    "widgetdatamap": {
        "btnRowClick": "btnRowClick",
        "flxCountry": "flxCountry",
        "flxDropdownKA": "flxDropdownKA",
        "lblCountryCodeKA": "lblCountryCodeKA",
        "lblCountryNameKA": "lblCountryNameKA",
        "lblLeftBracketKA": "lblLeftBracketKA",
        "lblRightBracketKA": "lblRightBracketKA"
    },
    "zindex": 1
}