{
    "@class": "com.kony.gen.viz.model.component.KVizLabel",
    "DNDConfig": null,
    "__parentReadjusting__": false,
    "_blur_": {
        "enabled": false,
        "value": 0
    },
    "_height_": {
        "type": "ref",
        "value": "preferred"
    },
    "_left_": {
        "type": "string",
        "value": "32dp"
    },
    "_margin_": [
        1,
        1,
        1,
        1
    ],
    "_padding_": [
        0,
        0,
        0,
        0
    ],
    "_skin_": "sd9fada740124e4a99edc1f0a05ec2d0",
    "_text_": "Select Type",
    "_top_": {
        "type": "number",
        "value": "16"
    },
    "_width_": {
        "type": "string",
        "value": "94%"
    },
    "_wrapping_": 2,
    "accessibilityconfig": {
        "a11yLabel": "Select Type"
    },
    "android": {
        "textStyle": {
            "letterSpacing": 0,
            "strikeThrough": false
        }
    },
    "canUpdateUI": true,
    "containerweight": 100,
    "contentalignment": 4,
    "desktopweb": {
        "width": {
            "type": "ref",
            "value": "preferred"
        }
    },
    "id": "lblSelectType",
    "info": null,
    "ipad": {
        "psp": {
            "wrapping": 2
        }
    },
    "iphone": {
        "psp": {
            "wrapping": 2
        }
    },
    "isvisible": true,
    "kuid": "b4e0da8de16b45eeb4f3dddde1e8a92c",
    "name": "kony.ui.Label",
    "parent": "flxRow3",
    "pf": "userwidgetmodel",
    "texti18n": "i18n.StopcheckPayments.SelectType",
    "tooltip": "",
    "wType": "Label",
    "zindex": 1
}