{
    "BusinessControllerConfig": {
        "BusinessControllerClass": "WireTransferModule/BusinessControllers/BusinessController",
        "CommandHandler": []
    },
    "Forms": {
        "desktop": {
            "frmWireTransfer": {
                "Controller": "WireTransferModule/frmWireTransferController",
                "ControllerExtensions": [],
                "FormController": "kony.mvc.MDAFormController",
                "FormName": "WireTransferModule/frmWireTransfer",
                "friendlyName": "frmWireTransfer"
            }
        }
    },
    "ModuleName": "WireTransferModule",
    "PresentationControllerConfig": {
        "Default": {
            "PresentationControllerClass": "WireTransferModule/PresentationControllers/PresentationController",
            "PresentationExtensions": []
        }
    }
}