{
    "DNDConfig": null,
    "_height_": {
        "type": "string",
        "value": "250dp"
    },
    "_left_": {
        "type": "string",
        "value": "0dp"
    },
    "_margin_": [
        0,
        0,
        0,
        0
    ],
    "_orientation_": 6,
    "_padding_": [
        0,
        0,
        0,
        0
    ],
    "_percent_": true,
    "_skin_": "s6a74a59e6e441d0a584663bd8753d2a",
    "_text_": {
        "type": "number",
        "value": ""
    },
    "_top_": {
        "type": "string",
        "value": "0dp"
    },
    "_width_": {
        "type": "string",
        "value": "100%"
    },
    "allboxes": [],
    "canUpdateUI": true,
    "children": [
        "flxBFLeftSearch",
        "flxBFRightSearch"
    ],
    "clipbounds": true,
    "containerweight": 100,
    "enablescrolling": true,
    "id": "flxBFSearchContainer",
    "info": null,
    "isvisible": false,
    "kuid": "c66d4b5d36694f188476744ab091c907",
    "layouttype": 3,
    "name": "kony.ui.FlexContainer",
    "parent": "flxSearchContainer",
    "pf": "userwidgetmodel",
    "responsiveData": {
        "b1": {
            "isVisible": false
        },
        "b2": {
            "isVisible": false
        },
        "b3": {
            "height": {
                "type": "string",
                "value": "450dp"
            },
            "isVisible": false,
            "layoutType": 4,
            "text": "By Date:"
        }
    },
    "snapgridsize": 10,
    "snaptogrid": true,
    "wType": "FlexContainer",
    "widgetalignment": 1,
    "zindex": 1
}