{
    "@class": "com.kony.gen.viz.model.component.KVizImage2",
    "DNDConfig": null,
    "_base64_": null,
    "_height_": {
        "type": "string",
        "value": "26dp"
    },
    "_margin_": [
        0,
        0,
        0,
        0
    ],
    "_padding_": [
        0,
        0,
        0,
        0
    ],
    "_skin_": "sfd202f4f97041e0a5cab584a5780bfa",
    "_src_": "download_blue_1_1.png",
    "_width_": {
        "type": "string",
        "value": "15dp"
    },
    "accessibilityconfig": {
        "a11yLabel": "Download",
        "a11yValue": ""
    },
    "canUpdateUI": true,
    "centerx": {
        "type": "string",
        "value": "50%"
    },
    "centery": {
        "type": "string",
        "value": "50%"
    },
    "containerweight": 100,
    "id": "imgDownload",
    "imagescalemode": 1,
    "imagewhiledownloading": "img_transparent_4.png",
    "info": null,
    "invokedProperty": "src",
    "isvisible": false,
    "kuid": "d27eeea04e89418e84e24538e1375b94",
    "name": "kony.ui.Image2",
    "parent": "flxDownload",
    "pf": "userwidgetmodel",
    "responsiveData": {
        "b1": {
            "height": {
                "type": "string",
                "value": "18dp"
            },
            "isVisible": false,
            "src": "download_blue.png",
            "width": {
                "type": "string",
                "value": "13dp"
            }
        },
        "b2": {}
    },
    "srcType": 1,
    "tooltip": "Download",
    "wType": "Image",
    "widgetalignment": 5,
    "zindex": 1
}