{
    "@class": "com.kony.gen.viz.model.component.KVizImage2",
    "DNDConfig": null,
    "_base64_": null,
    "_height_": {
        "type": "string",
        "value": "25dp"
    },
    "_margin_": [
        0,
        0,
        0,
        0
    ],
    "_padding_": [
        0,
        0,
        0,
        0
    ],
    "_skin_": "sfd202f4f97041e0a5cab584a5780bfa",
    "_src_": "print_blue_1_1.png",
    "_width_": {
        "type": "string",
        "value": "27dp"
    },
    "accessibilityconfig": {
        "a11yLabel": "Print",
        "a11yValue": ""
    },
    "canUpdateUI": true,
    "centerx": {
        "type": "string",
        "value": "50%"
    },
    "centery": {
        "type": "string",
        "value": "50%"
    },
    "containerweight": 100,
    "id": "imgPrint",
    "imagescalemode": 1,
    "imagewhiledownloading": "img_transparent_4.png",
    "info": null,
    "invokedProperty": "src",
    "isvisible": false,
    "kuid": "c5243f0c97224ee6acc52d98228f6fd4",
    "name": "kony.ui.Image2",
    "parent": "flxPrint",
    "pf": "userwidgetmodel",
    "responsiveData": {
        "b1": {
            "height": {
                "type": "string",
                "value": "19dp"
            },
            "isVisible": true,
            "src": "print_blue.png",
            "width": {
                "type": "string",
                "value": "21dp"
            }
        },
        "b2": {
            "height": {
                "type": "string",
                "value": "19dp"
            },
            "isVisible": true,
            "src": "print_blue.png",
            "width": {
                "type": "string",
                "value": "21dp"
            }
        }
    },
    "srcType": 1,
    "tooltip": "Print",
    "wType": "Image",
    "widgetalignment": 5,
    "zindex": 1
}