{
    "@class": "com.kony.gen.viz.model.component.KVizListBox",
    "DNDConfig": null,
    "_height_": {
        "type": "string",
        "value": "40dp"
    },
    "_left_": {
        "type": "string",
        "value": "0dp"
    },
    "_margin_": [
        0,
        0,
        0,
        0
    ],
    "_padding_": [
        0,
        0,
        0,
        0
    ],
    "_placeholder_": "Please Select",
    "_skin_": "s8fbe546c2e744119a6b45dd6f33303b",
    "_top_": {
        "type": "string",
        "value": "10dp"
    },
    "_width_": {
        "type": "string",
        "value": "100%"
    },
    "canUpdateUI": true,
    "containerweight": 100,
    "contentalignment": 4,
    "dropdownimage": "listboxarw.png",
    "focusskin": "s347ac8f0c3549608f5d05527258678f",
    "groupcells": false,
    "id": "lbxlanguage",
    "info": null,
    "iscustomlayout": false,
    "isvisible": true,
    "kiosk": {
        "psp": {
            "placeholder": "Language"
        }
    },
    "kuid": "d50149e6d8d6466b88b1ecf29cb03db6",
    "masterdata": [
        [
            "lb1",
            "Placeholder One"
        ],
        [
            "lb2",
            "Placeholder Two"
        ],
        [
            "lb3",
            "Placeholder Three"
        ]
    ],
    "name": "kony.ui.ListBox",
    "parent": "flxLanguagetbx",
    "pf": "userwidgetmodel",
    "responsiveData": {
        "b1": {
            "padding": [
                3,
                0,
                0,
                0
            ]
        }
    },
    "retaincontentalignment": false,
    "retainflexpositionproperties": false,
    "selectedkey": null,
    "selectedkeys": null,
    "selectedkeyvalue": null,
    "selectedkeyvalues": null,
    "size": 18,
    "viewconfig": {
        "toggleViewConfig": {
            "viewStyle": 0
        }
    },
    "viewtype": 0,
    "wType": "ListBox",
    "zindex": 1
}