{
    "@class": "com.kony.gen.viz.model.component.KVizTextBox2",
    "DNDConfig": null,
    "_height_": {
        "type": "string",
        "value": "40dp"
    },
    "_left_": {
        "type": "string",
        "value": "0dp"
    },
    "_margin_": [
        0,
        0,
        0,
        0
    ],
    "_padding_": [
        25,
        3,
        1,
        3
    ],
    "_placeholder_": "",
    "_skin_": "se5360ebfaf74fa7b84007825d2087c1",
    "_text_": "",
    "_top_": {
        "type": "string",
        "value": "0dp"
    },
    "_width_": {
        "type": "string",
        "value": "100%"
    },
    "accessibilityconfig": {
        "a11yLabel": "$"
    },
    "autocapitalize": "none",
    "autocomplete": false,
    "autocorrect": false,
    "autofilter": false,
    "canUpdateUI": true,
    "containerheight": "",
    "containerheightmode": 1,
    "containerweight": 100,
    "contentalignment": 4,
    "desktopweb": {
        "padding": [
            25,
            3,
            1,
            3
        ],
        "paddingInPixel": true,
        "placeholderSkin": "sb15c159fa224e949e3697a52ad431e5"
    },
    "disabledSkins": {},
    "focusskin": "s4eee533107848e395d481e067e3e97d",
    "id": "txtAmountRangeFrom",
    "info": null,
    "isvisible": true,
    "keyboardtype": "A",
    "kiosk": {
        "psp": {
            "toolTip": "From"
        }
    },
    "kuid": "ac6ca36ad5b949cfa3012644b3a6239b",
    "mode": "A",
    "name": "kony.ui.TextBox2",
    "paddinginpixel": false,
    "parent": "flxAmountRangeFrom",
    "pf": "userwidgetmodel",
    "placeholderskin": "sb15c159fa224e949e3697a52ad431e5",
    "securetextentry": false,
    "textinputmode": "A",
    "viewtype": "default",
    "wType": "TextField",
    "zindex": 1
}