{
	 "@class": "com.kony.gen.viz.model.component.KVizLabel",
	 "DNDConfig": null,
	 "__parentReadjusting__": false,
	 "_height_": {
		 "type": "string",
		 "value": "30dp"
	},
	 "_left_": {
		 "type": "string",
		 "value": "2dp"
	},
	 "_margin_": [
		 0,
		 0,
		 0,
		 0
	],
	 "_padding_": [
		 0,
		 0,
		 0,
		 0
	],
	 "_skin_": "s5b5d2802d29421e91f20a1ec11d45e4",
	 "_text_": "M",
	 "_top_": {
		 "type": "string",
		 "value": "0dp"
	},
	 "_width_": {
		 "type": "string",
		 "value": "20dp"
	},
	 "_wrapping_": 2,
	 "accessibilityconfig": {
		 "a11yLabel": "Radio Button"
	},
	 "android": {
		 "textStyle": {
			 "letterSpacing": 0,
			 "strikeThrough": false
		}
	},
	 "canUpdateUI": true,
	 "containerweight": 100,
	 "contentalignment": 1,
	 "id": "imgRadioBtnRecipientType1",
	 "info": null,
	 "ipad": {
		 "psp": {
			 "wrapping": 2
		}
	},
	 "iphone": {
		 "psp": {
			 "wrapping": 2
		}
	},
	 "isvisible": true,
	 "kuid": "f24a95e288da4ac9bfbe1190755a4063",
	 "name": "kony.ui.Label",
	 "parent": "flxTypeRadio1",
	 "pf": "userwidgetmodel",
	 "tooltip": "",
	 "wType": "Label",
	 "zindex": 1
}