{
    "DNDConfig": null,
    "_height_": {
        "type": "string",
        "value": "99px"
    },
    "_margin_": [
        0,
        0,
        0,
        0
    ],
    "_orientation_": 6,
    "_padding_": [
        0,
        0,
        0,
        0
    ],
    "_percent_": true,
    "_skin_": "s24c92fc23b14f5484b693ee9b8a9b35",
    "allboxes": [],
    "autogrowmode": 0,
    "canUpdateUI": true,
    "children": [
        "flxRow2",
        "flxAccountDetails",
        "flxAlertsRow1",
        "flxSeperator"
    ],
    "clipbounds": true,
    "containerId": true,
    "containerweight": 100,
    "controllerInfo": {
        "default": {
            "channel": "desktop",
            "name": "flxAccountIdAlertsController"
        }
    },
    "enablescrolling": true,
    "id": "flxAccountIdAlerts",
    "info": null,
    "isTemplate": true,
    "isvisible": true,
    "kuid": "g884f7896667415480990268c9b46886",
    "layouttype": 4,
    "name": "kony.ui.FlexContainer",
    "parent": "segAccountIdAlerts",
    "pf": "segAccountIdAlerts",
    "snapgridsize": 10,
    "snaptogrid": true,
    "wType": "FlexContainer",
    "widgetalignment": 1
}