{
    "DNDConfig": null,
    "_height_": {
        "type": "ref",
        "value": "preferred"
    },
    "_left_": {
        "type": "number",
        "value": ""
    },
    "_margin_": [
        0,
        0,
        0,
        0
    ],
    "_orientation_": 6,
    "_padding_": [
        0,
        0,
        0,
        0
    ],
    "_percent_": true,
    "_right_": {
        "type": "string",
        "value": "6%"
    },
    "_skin_": "sdc143f0e5b64ae3a3f155f691c73fa7",
    "_top_": {
        "type": "string",
        "value": "0dp"
    },
    "_width_": {
        "type": "string",
        "value": "43.27%"
    },
    "allboxes": [],
    "autogrowmode": 0,
    "canUpdateUI": true,
    "children": [
        "flxYourTransactionDetails",
        "flxFrom",
        "flxTo",
        "flxAmount",
        "flxFrequency",
        "flxPaymentDate",
        "flxEndDate",
        "flxDeliverBy",
        "flxNotes"
    ],
    "clipbounds": false,
    "containerweight": 100,
    "enablescrolling": true,
    "id": "flxBillPayDetails",
    "info": null,
    "isvisible": true,
    "kuid": "e55e1b3ac36b4689ba0f50efe3b4ab3c",
    "layouttype": 4,
    "minheight": {
        "type": "string",
        "value": "406dp"
    },
    "name": "kony.ui.FlexContainer",
    "parent": "flxMainContainer",
    "pf": "frmPayBillAcknowledgement",
    "responsiveData": {
        "b1": {
            "height": {
                "type": "string",
                "value": "418dp"
            },
            "minHeight": {
                "type": "string",
                "value": ""
            },
            "width": {
                "type": "string",
                "value": "43.27%"
            }
        },
        "b2": {
            "left": {
                "type": "string",
                "value": "2.50%"
            },
            "minHeight": {
                "type": "string",
                "value": "380dp"
            },
            "right": {
                "type": "string",
                "value": "2.50%"
            },
            "top": {
                "type": "string",
                "value": "20dp"
            },
            "width": {
                "type": "string",
                "value": "95%"
            }
        },
        "b3": {
            "left": {
                "type": "string",
                "value": "2%"
            },
            "minHeight": {
                "type": "string",
                "value": "563dp"
            },
            "right": {
                "type": "string",
                "value": "2%"
            },
            "top": {
                "type": "string",
                "value": "20dp"
            },
            "width": {
                "type": "string",
                "value": "96%"
            }
        },
        "b4": {
            "height": {
                "type": "string",
                "value": "430dp"
            },
            "minHeight": {
                "type": "string",
                "value": ""
            }
        }
    },
    "snapgridsize": 10,
    "snaptogrid": true,
    "wType": "FlexContainer",
    "widgetalignment": 1,
    "zindex": 1
}