{
    "DNDConfig": null,
    "__parentReadjusting__": false,
    "_height_": {
        "type": "ref",
        "value": "preferred"
    },
    "_left_": {
        "type": "string",
        "value": "83dp"
    },
    "_margin_": [
        0,
        0,
        0,
        0
    ],
    "_orientation_": 6,
    "_padding_": [
        0,
        0,
        0,
        0
    ],
    "_percent_": true,
    "_right_": {
        "type": "number",
        "value": ""
    },
    "_skin_": "sdc143f0e5b64ae3a3f155f691c73fa7",
    "_top_": {
        "type": "string",
        "value": "0dp"
    },
    "_width_": {
        "type": "string",
        "value": "590px"
    },
    "allboxes": [],
    "autogrowmode": 0,
    "canUpdateUI": true,
    "children": [
        "flxAcknowledgementHeader",
        "lblSuccessMessage",
        "ImgAcknowledged",
        "lblRefrenceNumber",
        "lblRefrenceNumberValue",
        "flxAvailableBalance"
    ],
    "clipbounds": false,
    "containerweight": 100,
    "enablescrolling": true,
    "id": "flxSuccess",
    "info": null,
    "iscustomlayout": false,
    "isvisible": true,
    "kuid": "iebc4c4213f94b35857b066a43c71e3e",
    "layouttype": 4,
    "minheight": {
        "type": "string",
        "value": "406dp"
    },
    "name": "kony.ui.FlexContainer",
    "parent": "flxMainContainer",
    "pf": "frmPayBillAcknowledgement",
    "responsiveData": {
        "b1": {
            "height": {
                "type": "string",
                "value": "418dp"
            },
            "minHeight": {
                "type": "string",
                "value": ""
            },
            "width": {
                "type": "string",
                "value": "43.27%"
            }
        },
        "b2": {
            "left": {
                "type": "string",
                "value": "2.50%"
            },
            "minHeight": {
                "type": "string",
                "value": "418dp"
            },
            "right": {
                "type": "string",
                "value": "2.50%"
            },
            "width": {
                "type": "string",
                "value": "95%"
            }
        },
        "b3": {
            "left": {
                "type": "string",
                "value": "2%"
            },
            "minHeight": {
                "type": "string",
                "value": "426dp"
            },
            "right": {
                "type": "string",
                "value": "2%"
            },
            "width": {
                "type": "string",
                "value": "96%"
            }
        },
        "b4": {
            "height": {
                "type": "string",
                "value": "430dp"
            },
            "left": {
                "type": "string",
                "value": "6%"
            },
            "minHeight": {
                "type": "string",
                "value": ""
            },
            "width": {
                "type": "string",
                "value": "43.27%"
            }
        }
    },
    "retaincontentalignment": false,
    "retainflexpositionproperties": false,
    "retainflowhorizontalalignment": false,
    "snapgridsize": 10,
    "snaptogrid": true,
    "wType": "FlexContainer",
    "widgetalignment": 1,
    "zindex": 1
}