{
    "@class": "com.kony.gen.viz.model.component.KVizButton",
    "DNDConfig": null,
    "_height_": {
        "type": "ref",
        "value": "preferred"
    },
    "_left_": {
        "type": "string",
        "value": "0dp"
    },
    "_margin_": [
        6,
        6,
        6,
        6
    ],
    "_padding_": [
        0,
        0,
        0,
        0
    ],
    "_skin_": "sdb9d18f726a491390c0de98860b057a",
    "_text_": "",
    "_top_": {
        "type": "string",
        "value": "13dp"
    },
    "_width_": {
        "type": "ref",
        "value": "preferred"
    },
    "accessibilityconfig": {
        "a11yLabel": "CANCEL CARD"
    },
    "canUpdateUI": true,
    "containerId": true,
    "containerweight": 100,
    "contentalignment": 4,
    "disabledSkins": {
        "focusSkin": "sf44d06ca8224832827ea7fdff757013"
    },
    "displaytext": true,
    "id": "btnAction8",
    "info": null,
    "isvisible": false,
    "kuid": "cc18f69d552f434da69d1b4599af1cf4",
    "maxwidth": {
        "type": "string",
        "value": "110px"
    },
    "name": "kony.ui.Button",
    "parent": "flxActionsContainer",
    "pf": "segMyCardsExpanded",
    "wType": "Button",
    "zindex": 1
}