{
    "@class": "com.kony.gen.viz.model.component.KVizButton",
    "DNDConfig": null,
    "__parentReadjusting__": false,
    "_height_": {
        "type": "string",
        "value": "100%"
    },
    "_left_": {
        "type": "string",
        "value": "0dp"
    },
    "_margin_": [
        6,
        6,
        6,
        6
    ],
    "_padding_": [
        2,
        0,
        2,
        0
    ],
    "_skin_": "s5dd5bb2b8874529bd590fd8525a7fd5",
    "_text_": "Manage Payees",
    "_width_": {
        "type": "ref",
        "value": "preferred"
    },
    "accessibilityconfig": {
        "a11yLabel": "WITHDRAWALS"
    },
    "canUpdateUI": true,
    "centery": {
        "type": "string",
        "value": "50%"
    },
    "containerweight": 100,
    "contentalignment": 5,
    "desktopweb": {
        "psp": {
            "hoverSkin": "sc81e19f9198454c82d4f148a92a2561"
        }
    },
    "disabledSkins": {
        "focusSkin": "sf44d06ca8224832827ea7fdff757013"
    },
    "displaytext": true,
    "id": "btnManagePayees",
    "info": null,
    "isvisible": true,
    "kuid": "c9a2fe660cd64ef690a88646ad476fde",
    "name": "kony.ui.Button",
    "paddinginpixel": false,
    "parent": "flxTabsChecking",
    "pf": "frmManagePayees",
    "texti18n": "i18n.billPay.ManagePayee",
    "tooltip": "Manage Payees",
    "wType": "Button",
    "zindex": 1
}