{
    "@class": "com.kony.gen.viz.model.component.KVizUserWidget",
    "DNDConfig": null,
    "_children_": [],
    "_height_": {
        "type": "string",
        "value": "400dp"
    },
    "_left_": {
        "type": "string",
        "value": "0dp"
    },
    "_margin_": [
        0,
        0,
        0,
        0
    ],
    "_orientation_": 1,
    "_padding_": [
        0,
        0,
        0,
        0
    ],
    "_percent_": true,
    "_skin_": "s701065f11074080832b59947e731160",
    "_top_": {
        "type": "string",
        "value": "0dp"
    },
    "_width_": {
        "type": "string",
        "value": "40%"
    },
    "areflexpropsreferenced": false,
    "autogrowmode": 0,
    "canUpdateUI": true,
    "centerx": {
        "type": "string",
        "value": "50%"
    },
    "centery": {
        "type": "string",
        "value": "50%"
    },
    "clipbounds": false,
    "containerweight": 0,
    "dataDiffs": {
        "CustomPopupDelete": {
            "__events__": {},
            "__info__": {
                "isRoot": true,
                "kuid": "ae18e0d3d0ff47858374a9d7ba8f09cf",
                "srcKUID": "e7dd1be9b67742b7986ee62906e809a3",
                "wType": "FlexContainer"
            },
            "autogrowMode": {
                "Default": 0
            },
            "centerX": {
                "Default": {
                    "type": "string",
                    "value": "50%"
                }
            },
            "centerY": {
                "Default": {
                    "type": "string",
                    "value": "50%"
                }
            },
            "height": {
                "Default": {
                    "type": "string",
                    "value": "400dp"
                }
            },
            "responsiveData": {},
            "width": {
                "Default": {
                    "type": "string",
                    "value": "40%"
                }
            }
        },
        "btnNo": {
            "__events__": {},
            "__info__": {
                "kuid": "aa5794c63a1947609ab807ec09a7b8df",
                "srcKUID": "c072bdebbfc44e39a20a51cf9fc4e912",
                "wType": "Button"
            }
        },
        "btnYes": {
            "__events__": {},
            "__info__": {
                "kuid": "j8641885763340708043d6da33180020",
                "srcKUID": "a0314903f457417c8f8a422fbbf99925",
                "wType": "Button"
            }
        },
        "flxAvailableFeatures": {
            "__events__": {},
            "__info__": {
                "kuid": "h32077f195f54fb5953571bd40ed4d82",
                "srcKUID": "f6783f851633470f95fc021d8b0024a7",
                "wType": "FlexContainer"
            },
            "left": {
                "Default": {
                    "type": "string",
                    "value": "20dp"
                }
            },
            "responsiveData": {}
        },
        "flxCross": {
            "__events__": {},
            "__info__": {
                "kuid": "cbbd00b8685e45b5b7015c7b1b2ca7a4",
                "srcKUID": "ecf5d0504a18406281304e5f5a7deab3",
                "wType": "FlexContainer"
            }
        },
        "flxFeatureContainer": {
            "__events__": {},
            "__info__": {
                "kuid": "f28c9bf313ef4b1ca204d7dca4ba5771",
                "srcKUID": "h10f53297fdc4261b02edcc57dbe9922",
                "wType": "FlexContainer"
            },
            "left": {
                "Default": {
                    "type": "string",
                    "value": "0dp"
                }
            },
            "responsiveData": {
                "b2": {},
                "b3": {},
                "b4": {}
            }
        },
        "flxHeader": {
            "__events__": {},
            "__info__": {
                "kuid": "f17ab542b0224afc9582fe9fa1ab1f71",
                "srcKUID": "de31ce17c7d24c448325ba3f3b53b33e",
                "wType": "FlexContainer"
            }
        },
        "flxSelectAvailableCompanies": {
            "__events__": {},
            "__info__": {
                "kuid": "i5025ea8eb9a41a0a4d292e6b047bce3",
                "srcKUID": "a3df0ead93ca41eba4970a49ca63a922",
                "wType": "FlexContainer"
            }
        },
        "flxSeperator": {
            "__events__": {},
            "__info__": {
                "kuid": "f37c3adaf8fc4efb806868992e9e953c",
                "srcKUID": "hfe1174281ac4b989d4203aad6575e30",
                "wType": "FlexContainer"
            }
        },
        "flxSeperator2": {
            "__events__": {},
            "__info__": {
                "kuid": "ad993e9e1edc446cbedb4b18aa107e5d",
                "srcKUID": "ga653983579f4e5088539fd9efd8e33c",
                "wType": "FlexContainer"
            }
        },
        "imgCross": {
            "__events__": {},
            "__info__": {
                "kuid": "d712a9e94f4849db80b573ad1c1dc1de",
                "srcKUID": "c1b14e49482d4402add24b3f5a7cf2cd",
                "wType": "Image"
            }
        },
        "lblCheckSelectAll": {
            "__events__": {},
            "__info__": {
                "kuid": "adfebea7c2844d1fb245564dde0f0fa0",
                "srcKUID": "ec11e3ea7b08424db56b3e4604acbf08",
                "wType": "Label"
            }
        },
        "lblHeading": {
            "__events__": {},
            "__info__": {
                "kuid": "f7848bc8b0314167870743ad6216d071",
                "srcKUID": "e431cf2594104e0994a8154cf7acf59f",
                "wType": "Label"
            }
        },
        "lblPopupMessage": {
            "__events__": {},
            "__info__": {
                "kuid": "c013c48d48b6469b9575ca4d02c88326",
                "srcKUID": "f93a468a72fe46da9ebaeb3359642684",
                "wType": "Label"
            }
        },
        "lblSelectAll": {
            "__events__": {},
            "__info__": {
                "kuid": "b52377899b6d484880a6402445c8a79f",
                "srcKUID": "gcd0a0d34fdf4e5d87ad5e16786dda69",
                "wType": "Label"
            },
            "left": {
                "Default": {
                    "type": "string",
                    "value": "10dp"
                }
            },
            "responsiveData": {
                "b4": {}
            }
        },
        "lblcross": {
            "__events__": {},
            "__info__": {
                "kuid": "f48c259737394e0ca0ede5d9989eacf5",
                "srcKUID": "hdeef5a1afe547ebaf5d8155597d66c7",
                "wType": "Label"
            }
        },
        "segAllCompanies": {
            "__events__": {},
            "__info__": {
                "kuid": "d8d06a79f57f42a38e362f2de6ad1822",
                "srcKUID": "f127f998bd9a4cfc855b5c0bcfc75156",
                "wType": "Segment"
            },
            "data": {
                "desktop": [{
                        "lblAccountName": {
                            "@class": "com.viz.ide.model.segment.SimpleTextSegmentData",
                            "text": "Label"
                        },
                        "lblCheckAccount": {
                            "@class": "com.viz.ide.model.segment.SimpleTextSegmentData",
                            "text": "C"
                        }
                    },
                    {
                        "lblAccountName": {
                            "@class": "com.viz.ide.model.segment.SimpleTextSegmentData",
                            "text": "Label"
                        },
                        "lblCheckAccount": {
                            "@class": "com.viz.ide.model.segment.SimpleTextSegmentData",
                            "text": "C"
                        }
                    },
                    {
                        "lblAccountName": {
                            "@class": "com.viz.ide.model.segment.SimpleTextSegmentData",
                            "text": "Label"
                        },
                        "lblCheckAccount": {
                            "@class": "com.viz.ide.model.segment.SimpleTextSegmentData",
                            "text": "C"
                        }
                    },
                    {
                        "lblAccountName": {
                            "@class": "com.viz.ide.model.segment.SimpleTextSegmentData",
                            "text": "Label"
                        },
                        "lblCheckAccount": {
                            "@class": "com.viz.ide.model.segment.SimpleTextSegmentData",
                            "text": "C"
                        }
                    }
                ]
            },
            "left": {
                "Default": {
                    "type": "string",
                    "value": "0dp"
                }
            },
            "responsiveData": {
                "b2": {},
                "b3": {},
                "b4": {}
            }
        }
    },
    "enablescrolling": true,
    "id": "CustomPopupDelete",
    "info": null,
    "isdatareferenced": false,
    "isvisible": true,
    "kuid": "ae18e0d3d0ff47858374a9d7ba8f09cf",
    "layouttype": 2,
    "masterType": 0,
    "name": "kony.ui.UserWidgetInstance",
    "parent": "flxDeletePopupCompany",
    "pf": "frmManagePayees",
    "snapgridsize": 10,
    "snaptogrid": true,
    "sourceUserWidget": "e7dd1be9b67742b7986ee62906e809a3",
    "wType": "UserWidgetInstance"
}