{
    "@class": "com.kony.gen.viz.model.component.KVizLabel",
    "DNDConfig": null,
    "__parentReadjusting__": false,
    "_height_": {
        "type": "ref",
        "value": "preferred"
    },
    "_left_": {
        "type": "string",
        "value": "106dp"
    },
    "_margin_": [
        1,
        1,
        1,
        1
    ],
    "_padding_": [
        0,
        0,
        0,
        0
    ],
    "_skin_": "s32e9f56b1cb42539383a35652e7f8e1",
    "_text_": "Account Number",
    "_top_": {
        "type": "string",
        "value": "19dp"
    },
    "_width_": {
        "type": "ref",
        "value": "preferred"
    },
    "_wrapping_": 2,
    "accessibilityconfig": {
        "a11yLabel": "Label"
    },
    "android": {
        "textStyle": {
            "letterSpacing": 0,
            "strikeThrough": false
        }
    },
    "canUpdateUI": true,
    "containerweight": 100,
    "contentalignment": 4,
    "id": "lblAccNumberKey",
    "info": null,
    "ipad": {
        "psp": {
            "wrapping": 2
        }
    },
    "iphone": {
        "psp": {
            "wrapping": 2
        }
    },
    "iscustomlayout": false,
    "isvisible": true,
    "kuid": "d276621c16124546a86615f122efd269",
    "name": "kony.ui.Label",
    "parent": "flxEditBillerHeaderMobile",
    "pf": "frmManagePayees",
    "responsiveData": {
        "b3": {
            "left": {
                "type": "string",
                "value": "10dp"
            },
            "skin": "s32e9f56b1cb42539383a35652e7f8e1",
            "top": {
                "type": "string",
                "value": "12dp"
            },
            "width": {
                "type": "string",
                "value": "75%"
            }
        }
    },
    "retaincontentalignment": false,
    "retainflexpositionproperties": false,
    "texti18n": "i18n.common.accountNumber",
    "tooltip": "",
    "wType": "Label",
    "zindex": 1
}