{
    "DNDConfig": null,
    "_height_": {
        "type": "string",
        "value": "70%"
    },
    "_margin_": [
        0,
        0,
        0,
        0
    ],
    "_orientation_": 6,
    "_padding_": [
        0,
        0,
        0,
        0
    ],
    "_percent_": true,
    "_skin_": "sdc143f0e5b64ae3a3f155f691c73fa7",
    "_top_": {
        "type": "string",
        "value": "15%"
    },
    "_width_": {
        "type": "string",
        "value": "58%"
    },
    "allboxes": [],
    "autogrowmode": 0,
    "canUpdateUI": true,
    "centerx": {
        "type": "string",
        "value": "50%"
    },
    "children": [
        "flxTermsAndConditionsHeader",
        "flxSeperator1",
        "flxTCContents",
        "flxTCCheckBox",
        "flxSeperator2",
        "flxContentsButtons",
        "flxScrollDetails"
    ],
    "clipbounds": true,
    "containerweight": 100,
    "enablescrolling": true,
    "id": "flxTC",
    "info": null,
    "isvisible": true,
    "kuid": "gf85cbdff2c748b3857d36892210d688",
    "layouttype": 4,
    "name": "kony.ui.FlexContainer",
    "parent": "flxTermsAndConditionsPopUp",
    "pf": "frmCardManagementActivate",
    "responsiveData": {
        "b1": {},
        "b2": {
            "width": {
                "type": "string",
                "value": "90%"
            }
        },
        "b3": {
            "width": {
                "type": "string",
                "value": "90%"
            }
        },
        "b4": {
            "width": {
                "type": "string",
                "value": "765dp"
            }
        }
    },
    "snapgridsize": 10,
    "snaptogrid": true,
    "vizProps": {},
    "wType": "FlexContainer",
    "widgetalignment": 1,
    "zindex": 1
}