{
    "@class": "com.kony.gen.viz.model.component.KVizLabel",
    "DNDConfig": null,
    "_height_": {
        "type": "ref",
        "value": "preferred"
    },
    "_left_": {
        "type": "string",
        "value": "20px"
    },
    "_margin_": [
        1,
        1,
        1,
        1
    ],
    "_padding_": [
        0,
        0,
        0,
        0
    ],
    "_right_": {
        "type": "string",
        "value": "0px"
    },
    "_skin_": "s415be662ebd4bc8b09a3193c2067ba6",
    "_text_": "Payment guidline number three.",
    "_top_": {
        "type": "string",
        "value": "1px"
    },
    "_wrapping_": 2,
    "accessibilityconfig": {
        "a11yLabel": "Benefit Description Three"
    },
    "android": {
        "textStyle": {
            "letterSpacing": 0,
            "strikeThrough": false
        }
    },
    "canUpdateUI": true,
    "containerweight": 100,
    "contentalignment": 4,
    "id": "lblIns3",
    "info": null,
    "ipad": {
        "psp": {
            "wrapping": 2
        }
    },
    "iphone": {
        "psp": {
            "wrapping": 2
        }
    },
    "isvisible": true,
    "kuid": "d4ca7e45cbc24a10bb2cfc98753ef870",
    "name": "kony.ui.Label",
    "parent": "flxThree",
    "pf": "frmCardManagementActivate",
    "responsiveData": {
        "b2": {
            "width": {
                "type": "string",
                "value": "80%"
            }
        }
    },
    "texti18n": "i18n.CardManagement.BenefitDescriptionThree",
    "tooltip": "",
    "wType": "Label",
    "zindex": 1
}