{
    "@class": "com.kony.gen.viz.model.component.KVizButton",
    "DNDConfig": null,
    "__parentReadjusting__": false,
    "_height_": {
        "type": "string",
        "value": "100%"
    },
    "_left_": {
        "type": "string",
        "value": "0dp"
    },
    "_margin_": [
        6,
        6,
        6,
        6
    ],
    "_padding_": [
        1,
        0,
        1,
        0
    ],
    "_skin_": "s7c03a67da7f437395974eb07e972971",
    "_text_": "MANAGE RECIEPIENT",
    "_width_": {
        "type": "ref",
        "value": "preferred"
    },
    "accessibilityconfig": {
        "a11yLabel": "Manage Recipients"
    },
    "canUpdateUI": true,
    "centery": {
        "type": "string",
        "value": "50%"
    },
    "containerweight": 100,
    "contentalignment": 5,
    "desktopweb": {
        "psp": {}
    },
    "disabledSkins": {
        "focusSkin": "sf44d06ca8224832827ea7fdff757013",
        "hoverSkin": "s14e5f4459414366a95c5a71c1f39486"
    },
    "displaytext": true,
    "id": "btnManageRecepient",
    "info": null,
    "isvisible": true,
    "kuid": "ca33584344354240aee7bc6bcd18b56b",
    "name": "kony.ui.Button",
    "paddinginpixel": false,
    "parent": "flxTabs",
    "pf": "userwidgetmodel",
    "texti18n": "i18n.PayAPerson.ManageRecipient",
    "tooltip": "Manage Recipient",
    "wType": "Button",
    "zindex": 1
}