{
    "BusinessControllerConfig": {
        "BusinessControllerClass": "AuthModule/BusinessControllers/BusinessController",
        "CommandHandler": []
    },
    "Forms": {
        "desktop": {
            "frmAccountsLanding": {
                "Controller": "AccountsModule/frmAccountsLandingController",
                "ControllerExtensions": [],
                "FormController": "kony.mvc.MDAFormController",
                "FormName": "AccountsModule/frmAccountsLanding",
                "friendlyName": "frmAccountsLanding"
            },
            "frmEnrollNow": {
                "ControllerExtensions": [],
                "FormController": "kony.mvc.MDAFormController",
                "Controller": "AuthModule/frmEnrollNowController",
                "FormName": "AuthModule/frmEnrollNow",
                "friendlyName": "frmEnrollNow"
            },
            "frmLogin": {
                "ControllerExtensions": [],
                "FormController": "kony.mvc.MDAFormController",
                "Controller": "AuthModule/frmLoginController",
                "FormName": "AuthModule/frmLogin",
                "friendlyName": "frmLogin"
            },
            "frmLoginLanguage": {
                "ControllerExtensions": [],
                "FormController": "kony.mvc.MDAFormController",
                "Controller": "AuthModule/frmLoginLanguageController",
                "FormName": "AuthModule/frmLoginLanguage",
                "friendlyName": "frmLoginLanguage"
            },
            "frmMFAPreLogin": {
                "ControllerExtensions": [],
                "FormController": "kony.mvc.MDAFormController",
                "Controller": "AuthModule/frmMFAPreLoginController",
                "FormName": "AuthModule/frmMFAPreLogin",
                "friendlyName": "frmMFAPreLogin"
            },
            "frmResetPassword": {
                "ControllerExtensions": [],
                "FormController": "kony.mvc.MDAFormController",
                "Controller": "AuthModule/frmResetPasswordController",
                "FormName": "AuthModule/frmResetPassword",
                "friendlyName": "frmResetPassword"
            },
            "frmLogout": {
                "ControllerExtensions": [],
                "FormController": "kony.mvc.MDAFormController",
                "Controller": "AuthModule/frmLogoutController",
                "FormName": "AuthModule/frmLogout",
                "friendlyName": "frmLogout"
            },
        }
    },
    "ModuleName": "AuthModule",
    "PresentationControllerConfig": {
        "Default": {
            "PresentationControllerClass": "AuthModule/PresentationControllers/PresentationController",
            "PresentationExtensions": [
                "AuthModule/PresentationControllers/PresentationController_Extn"
            ]
        }
    }
}