{
    "DNDConfig": null,
    "__parentReadjusting__": false,
    "_height_": {
        "type": "string",
        "value": "100%"
    },
    "_left_": {
        "type": "string",
        "value": "-1dp"
    },
    "_margin_": [
        0,
        0,
        0,
        0
    ],
    "_orientation_": 6,
    "_padding_": [
        0,
        0,
        0,
        0
    ],
    "_percent_": true,
    "_skin_": "scf14515e2d444a590ca002fed32ff6d",
    "_top_": {
        "type": "string",
        "value": "0dp"
    },
    "_width_": {
        "type": "string",
        "value": "100%"
    },
    "allboxes": [],
    "autogrowmode": 0,
    "canUpdateUI": true,
    "children": [
        "flxDetailsHighlighter",
        "flxTransactionDetails",
        "flxFileDetails",
        "flxUserApprovalDetails",
        "lblDetailsSeperator",
        "flxActions",
        "flxBottomSeperator"
    ],
    "clipbounds": true,
    "containerId": true,
    "containerweight": 100,
    "disabledSkins": {},
    "enablescrolling": true,
    "focusskin": "scf14515e2d444a590ca002fed32ff6d",
    "id": "flxMyApprovalsRowDetails",
    "info": null,
    "iscustomlayout": false,
    "isvisible": true,
    "kuid": "h33577dc142742b08fcc1bdb456d09b4",
    "layouttype": 4,
    "name": "kony.ui.FlexContainer",
    "parent": "flxMain",
    "pf": "segACHMyApprovalsRowMobileTemplate",
    "retaincontentalignment": false,
    "retainflexpositionproperties": false,
    "snapgridsize": 10,
    "snaptogrid": true,
    "wType": "FlexContainer",
    "widgetalignment": 1,
    "zindex": 1
}