{
    "@class": "com.kony.gen.viz.model.component.KVizUserWidget",
    "DNDConfig": null,
    "__parentReadjusting__": false,
    "_android_": {},
    "_androidwearos_": {},
    "_children_": [],
    "_desktopweb_": {},
    "_height_": {
        "type": "ref",
        "value": "preferred"
    },
    "_ipad_": {},
    "_iphone_": {},
    "_kiosk_": {},
    "_left_": {
        "type": "string",
        "value": "30dp"
    },
    "_margin_": [
        0,
        0,
        0,
        0
    ],
    "_orientation_": 1,
    "_padding_": [
        0,
        0,
        0,
        0
    ],
    "_percent_": true,
    "_responsiveData_": {
        "b1": {
            "right": {
                "type": "number",
                "value": "30"
            },
            "top": {
                "type": "string",
                "value": "0dp"
            }
        },
        "b3": {
            "left": {
                "type": "string",
                "value": "2%"
            },
            "right": {
                "type": "string",
                "value": "2%"
            },
            "top": {
                "type": "string",
                "value": "0dp"
            },
            "width": {
                "type": "string",
                "value": "96%"
            }
        }
    },
    "_right_": {
        "type": "string",
        "value": "30dp"
    },
    "_skin_": "s5ac428eca2b4b9881b43c71899c5118",
    "_spa_": {},
    "_spaan_": {},
    "_spaandroidtablet_": {},
    "_spabb_": {},
    "_spaip_": {},
    "_spaipad_": {},
    "_spamobile_": {},
    "_spatablet_": {},
    "_spawindowstablet_": {},
    "_spawinphone8_": {},
    "_tabrcandroid_": {},
    "_top_": {
        "type": "string",
        "value": "0dp"
    },
    "_vizProps_": {
        "hidewidgethierarchy": false
    },
    "_width_": {
        "type": "string",
        "value": ""
    },
    "_windows10_": {},
    "_windows8_": {},
    "_winphone10_": {},
    "_winphone8_": {},
    "areflexpropsreferenced": false,
    "autogrowmode": 1,
    "canUpdateUI": true,
    "clipbounds": true,
    "containerweight": 0,
    "dataDiffs": {
        "btnCancel": {
            "__events__": {},
            "__info__": {
                "kuid": "d462a6862c324e08b35093bff63cf170",
                "srcKUID": "f634cf72a4ec4aad86fb1635ecd50e2a",
                "wType": "Button"
            },
            "bottom": {},
            "left": {},
            "responsiveData": {
                "b1": {
                    "right": {
                        "type": "string",
                        "value": "190dp"
                    }
                },
                "b3": {
                    "bottom": {
                        "type": "string",
                        "value": ""
                    },
                    "left": {
                        "type": "string",
                        "value": "0dp"
                    },
                    "right": {
                        "type": "string",
                        "value": ""
                    },
                    "top": {
                        "type": "string",
                        "value": "60dp"
                    },
                    "width": {
                        "type": "string",
                        "value": "100%"
                    }
                }
            },
            "right": {},
            "top": {},
            "width": {
                "Default": {
                    "type": "string",
                    "value": "150dp"
                }
            }
        },
        "btnProceed": {
            "__events__": {},
            "__info__": {
                "kuid": "b523d39c43ed49f48974c953fd0b2e9e",
                "srcKUID": "a1c990e36a2e4f35a06c409311594ae2",
                "wType": "Button"
            },
            "i18n_text": "i18n.enrollNow.proceed",
            "left": {},
            "responsiveData": {
                "b1": {
                    "right": {
                        "type": "string",
                        "value": "20dp"
                    }
                },
                "b3": {
                    "left": {
                        "type": "string",
                        "value": "0dp"
                    },
                    "right": {
                        "type": "string",
                        "value": ""
                    },
                    "top": {
                        "type": "string",
                        "value": "5dp"
                    },
                    "width": {
                        "type": "string",
                        "value": "100%"
                    }
                }
            },
            "right": {},
            "top": {},
            "width": {}
        },
        "btnProfileSettings": {
            "__events__": {},
            "__info__": {
                "kuid": "e2cc1f573a604e698bc4292c8bca666b",
                "srcKUID": "f6856e862de64876abc3e4cac7391d05",
                "wType": "Button"
            }
        },
        "flxActions": {
            "__events__": {},
            "__info__": {
                "kuid": "a1e1be53447641de8b19fc1184a10174",
                "srcKUID": "bdafd89b35ed4fb5808f30ebadd837dd",
                "wType": "FlexContainer"
            },
            "autogrowMode": {
                "Default": 0
            },
            "height": {},
            "responsiveData": {
                "b3": {
                    "height": {
                        "type": "string",
                        "value": "120dp"
                    },
                    "right": {
                        "type": "string",
                        "value": ""
                    },
                    "top": {
                        "type": "string",
                        "value": "20dp"
                    },
                    "width": {
                        "type": "string",
                        "value": "100%"
                    }
                }
            },
            "right": {},
            "top": {},
            "width": {}
        },
        "flxAnswerSecurityQuestions": {
            "__events__": {},
            "__info__": {
                "kuid": "ec9346c6b9c34d72a44ccccc4bd66931",
                "srcKUID": "d00231dd52514b569384ea14417f9632",
                "wType": "FlexContainer"
            },
            "responsiveData": {
                "b3": {
                    "right": {
                        "type": "string",
                        "value": "0dp"
                    },
                    "top": {
                        "type": "string",
                        "value": "0dp"
                    },
                    "width": {
                        "type": "string",
                        "value": "100%"
                    }
                }
            },
            "right": {},
            "top": {},
            "width": {}
        },
        "flxAnswerSecurityQuestionsQASet1": {
            "__events__": {},
            "__info__": {
                "kuid": "aeef01b206e140059a1e4064954cbf69",
                "srcKUID": "d5142cd503bf4bba810f8db0df0e7612",
                "wType": "FlexContainer"
            }
        },
        "flxAnswerSecurityQuestionsQASet2": {
            "__events__": {},
            "__info__": {
                "kuid": "d981182c8c4a4c3380ef910495cd5c83",
                "srcKUID": "a9cdc0ea378c4bba91885d7f85dc2be2",
                "wType": "FlexContainer"
            }
        },
        "flxExtendedNotes": {
            "__events__": {},
            "__info__": {
                "kuid": "cb2bc5b9a0b641498bb2c63d5489b356",
                "srcKUID": "bfc7eb6e812841ecaf4bfe6c0276dcaf",
                "wType": "FlexContainer"
            },
            "bottom": {},
            "responsiveData": {
                "b3": {
                    "bottom": {
                        "type": "string",
                        "value": "10dp"
                    },
                    "top": {
                        "type": "string",
                        "value": "10dp"
                    }
                }
            },
            "top": {}
        },
        "flxHeaderText": {
            "__events__": {},
            "__info__": {
                "kuid": "afd60b8257974de8932246c1da2263d0",
                "srcKUID": "b482bcab44e848cbbcb47c6754897cd8",
                "wType": "FlexContainer"
            },
            "autogrowMode": {
                "Default": 1
            },
            "clipBounds": true,
            "height": {
                "Default": {
                    "type": "ref",
                    "value": "preferred"
                }
            },
            "responsiveData": {
                "b3": {}
            }
        },
        "flxQuestion1": {
            "__events__": {},
            "__info__": {
                "kuid": "d88fab1bcd304383b6aa7b1d0cd27da5",
                "srcKUID": "f83cb49074e74a26bf18c62efbde134d",
                "wType": "FlexContainer"
            }
        },
        "flxQuestion2": {
            "__events__": {},
            "__info__": {
                "kuid": "gdb0ac2fd12e4121b064a821f573a1d0",
                "srcKUID": "e5fd125beb7c4a749a3cb4b63a23b07d",
                "wType": "FlexContainer"
            }
        },
        "flxSeparator2": {
            "__events__": {},
            "__info__": {
                "kuid": "e1520a1c7f214f629558053b990b9b27",
                "srcKUID": "a286ee036bff4d7ca4b2998edaa002a3",
                "wType": "FlexContainer"
            },
            "autogrowMode": {
                "Default": 0
            },
            "centerY": {
                "Default": {
                    "type": "string",
                    "value": ""
                }
            },
            "height": {
                "Default": {
                    "type": "string",
                    "value": "1dp"
                }
            },
            "left": {
                "Default": {
                    "type": "string",
                    "value": "-1%"
                }
            },
            "responsiveData": {
                "b1": {
                    "top": {
                        "type": "string",
                        "value": "30dp"
                    }
                },
                "b3": {
                    "top": {
                        "type": "string",
                        "value": "10dp"
                    },
                    "width": {
                        "type": "string",
                        "value": "101%"
                    }
                },
                "b4": {}
            },
            "right": {
                "Default": {
                    "type": "string",
                    "value": "0dp"
                }
            },
            "top": {},
            "width": {
                "Default": {
                    "type": "string",
                    "value": "102%"
                }
            },
            "zIndex": {
                "Default": 3
            }
        },
        "lblHeading2": {
            "__events__": {},
            "__info__": {
                "kuid": "fc7ce432efdd4774834f48bfb551044f",
                "srcKUID": "ca1c045c422745d28077f7119e6eace4",
                "wType": "Label"
            },
            "responsiveData": {
                "b1": {
                    "top": {
                        "type": "string",
                        "value": "45dp"
                    }
                },
                "b2": {
                    "width": {
                        "type": "string",
                        "value": "90%"
                    }
                },
                "b3": {
                    "width": {
                        "type": "string",
                        "value": "85%"
                    }
                }
            },
            "width": {}
        },
        "lblHeadingMFA": {
            "__events__": {},
            "__info__": {
                "kuid": "ea738287a22845699451c4ee41b58a90",
                "srcKUID": "e4b700003e32494487e288e632533776",
                "wType": "Label"
            }
        },
        "lblNote": {
            "__events__": {},
            "__info__": {
                "kuid": "f9c91f24a2524de3ad28a7f7daf41e7b",
                "srcKUID": "cabdb33d7008489bb31e3e3edef2eff2",
                "wType": "Label"
            },
            "i18n_text": "i18n.MFA.NoteYourSecurityAnswersAndQuestionsAreConfidential",
            "responsiveData": {
                "b1": {
                    "top": {
                        "type": "string",
                        "value": "30dp"
                    }
                },
                "b2": {
                    "bottom": {
                        "type": "string",
                        "value": "10dp"
                    }
                },
                "b3": {
                    "top": {
                        "type": "string",
                        "value": "15dp"
                    },
                    "width": {
                        "type": "string",
                        "value": "95%"
                    }
                },
                "b4": {
                    "text": "Note: Your Secure Access Code is Confidential. Please do not share with anyone via Phone, Email or any other medium."
                }
            },
            "top": {},
            "width": {}
        },
        "lblQuestionImage": {
            "__events__": {},
            "__info__": {
                "kuid": "j509c95f960b4d8cad09f9b4c7e0d7cf",
                "srcKUID": "c87028a0d38c4978b47638428ba38e22",
                "wType": "Label"
            },
            "height": {},
            "responsiveData": {
                "b1": {
                    "height": {
                        "type": "string",
                        "value": "90dp"
                    }
                },
                "b2": {
                    "height": {
                        "type": "string",
                        "value": "75dp"
                    },
                    "top": {
                        "type": "number",
                        "value": "10"
                    }
                },
                "b3": {
                    "height": {
                        "type": "string",
                        "value": "75dp"
                    }
                },
                "b4": {
                    "height": {
                        "type": "string",
                        "value": "75dp"
                    }
                }
            },
            "top": {}
        },
        "lblQuestions1": {
            "__events__": {},
            "__info__": {
                "kuid": "gc620e97b5a04443a6e6288df547e358",
                "srcKUID": "a1f4b96b92834a4d836f76cfc3e31bc3",
                "wType": "Label"
            },
            "i18n_text": "i18n.MFA.Question1",
            "responsiveData": {}
        },
        "lblQuestions2": {
            "__events__": {},
            "__info__": {
                "kuid": "bdba889896fc4f12979bc9c184c2819f",
                "srcKUID": "c5d3129405644a61872fecef58bf6c93",
                "wType": "Label"
            },
            "i18n_text": "i18n.MFA.Question2",
            "responsiveData": {
                "b1": {
                    "top": {
                        "type": "string",
                        "value": "20dp"
                    }
                },
                "b2": {
                    "top": {
                        "type": "string",
                        "value": "20dp"
                    }
                },
                "b3": {
                    "top": {
                        "type": "string",
                        "value": "20dp"
                    }
                },
                "b4": {
                    "top": {
                        "type": "string",
                        "value": "20dp"
                    }
                }
            },
            "top": {}
        },
        "lblSecureAccessCodeNotes": {
            "__events__": {},
            "__info__": {
                "kuid": "e4a72607a57f408c8eb1fb1f666afab2",
                "srcKUID": "fd875a748cc74153ad9dbc0d870e50fe",
                "wType": "Label"
            },
            "height": {
                "Default": {
                    "type": "ref",
                    "value": "preferred"
                }
            },
            "responsiveData": {
                "b3": {
                    "width": {
                        "type": "string",
                        "value": "70%"
                    }
                }
            },
            "top": {
                "Default": {
                    "type": "string",
                    "value": "5dp"
                }
            },
            "width": {}
        },
        "lblSecurityQuestion1Desc": {
            "__events__": {},
            "__info__": {
                "kuid": "f2eef083ca064881a30cfb759b1de13e",
                "srcKUID": "ca506630860549b0a718458c4378db56",
                "wType": "Label"
            },
            "responsiveData": {
                "b2": {
                    "width": {
                        "type": "string",
                        "value": "800dp"
                    }
                },
                "b3": {
                    "width": {
                        "type": "string",
                        "value": "82%"
                    }
                },
                "b4": {
                    "top": {
                        "type": "string",
                        "value": "22dp"
                    }
                }
            },
            "top": {},
            "width": {}
        },
        "lblSecurityQuestion2Desc": {
            "__events__": {},
            "__info__": {
                "kuid": "ia22fe937e7544efb09623a01b449a50",
                "srcKUID": "b307b881b5574956b119c92aa4b600b1",
                "wType": "Label"
            },
            "responsiveData": {
                "b1": {
                    "top": {
                        "type": "string",
                        "value": "20dp"
                    }
                },
                "b2": {
                    "top": {
                        "type": "string",
                        "value": "20dp"
                    },
                    "width": {
                        "type": "string",
                        "value": "800dp"
                    }
                },
                "b3": {
                    "top": {
                        "type": "string",
                        "value": "20dp"
                    },
                    "width": {
                        "type": "string",
                        "value": "82%"
                    }
                },
                "b4": {
                    "top": {
                        "type": "string",
                        "value": "20dp"
                    }
                }
            },
            "top": {},
            "width": {}
        },
        "securityQuestions": {
            "__events__": {},
            "__info__": {
                "isRoot": true,
                "kuid": "gcd53f9264cc45b7898dc382e2829a2b",
                "srcKUID": "i22440d5250e40a088292ad8cb2fde54",
                "wType": "FlexContainer"
            },
            "left": {
                "Default": {
                    "type": "string",
                    "value": "30dp"
                }
            },
            "responsiveData": {
                "b1": {
                    "right": {
                        "type": "number",
                        "value": "30"
                    },
                    "top": {
                        "type": "string",
                        "value": "0dp"
                    }
                },
                "b3": {
                    "left": {
                        "type": "string",
                        "value": "2%"
                    },
                    "right": {
                        "type": "string",
                        "value": "2%"
                    },
                    "top": {
                        "type": "string",
                        "value": "0dp"
                    },
                    "width": {
                        "type": "string",
                        "value": "96%"
                    }
                }
            },
            "right": {
                "Default": {
                    "type": "string",
                    "value": "30dp"
                }
            },
            "top": {
                "Default": {
                    "type": "string",
                    "value": "0dp"
                }
            },
            "width": {
                "Default": {
                    "type": "string",
                    "value": ""
                }
            }
        },
        "tbxAnswers1": {
            "__events__": {},
            "__info__": {
                "kuid": "a70b1a696fc24c3dad9821c1bc2e5c18",
                "srcKUID": "bc84728b48d84d6c9ad3bf275848e51b",
                "wType": "TextField"
            },
            "i18n_placeholder": "i18n.MFA.TypeYourAnswerHere",
            "placeholder": "Type your answer here",
            "responsiveData": {
                "b1": {
                    "top": {
                        "type": "string",
                        "value": "10dp"
                    }
                },
                "b2": {
                    "top": {
                        "type": "string",
                        "value": "10dp"
                    }
                },
                "b3": {
                    "text": "",
                    "top": {
                        "type": "string",
                        "value": "10dp"
                    },
                    "width": {
                        "type": "string",
                        "value": "95%"
                    }
                },
                "b4": {
                    "top": {
                        "type": "string",
                        "value": "10dp"
                    }
                }
            },
            "top": {},
            "width": {}
        },
        "tbxAnswers2": {
            "__events__": {},
            "__info__": {
                "kuid": "j632d47b7d3449a9b111fe09ba73f096",
                "srcKUID": "ac5f455665114456966bbf457297546d",
                "wType": "TextField"
            },
            "i18n_placeholder": "i18n.MFA.TypeYourAnswerHere",
            "placeholder": "Type your answer here",
            "responsiveData": {
                "b1": {
                    "top": {
                        "type": "string",
                        "value": "10dp"
                    }
                },
                "b2": {
                    "top": {
                        "type": "string",
                        "value": "10dp"
                    }
                },
                "b3": {
                    "top": {
                        "type": "string",
                        "value": "10dp"
                    },
                    "width": {
                        "type": "string",
                        "value": "95%"
                    }
                },
                "b4": {
                    "top": {
                        "type": "string",
                        "value": "10dp"
                    }
                }
            },
            "top": {},
            "width": {}
        }
    },
    "enablescrolling": true,
    "id": "securityQuestions",
    "info": null,
    "iscustomlayout": false,
    "isdatareferenced": false,
    "issegmentchild": false,
    "isvisible": true,
    "kuid": "gcd53f9264cc45b7898dc382e2829a2b",
    "layouttype": 2,
    "masterType": 0,
    "name": "kony.ui.UserWidgetInstance",
    "parent": "flxAnswerSecurityQuestions",
    "pf": "frmMFATransactions",
    "retaincontentalignment": false,
    "retainflexpositionproperties": false,
    "snapgridsize": 10,
    "snaptogrid": true,
    "sourceUserWidget": "i22440d5250e40a088292ad8cb2fde54",
    "wType": "UserWidgetInstance"
}