{
    "@class": "com.kony.gen.viz.model.component.KVizUserWidget",
    "DNDConfig": null,
    "__parentReadjusting__": false,
    "_children_": [],
    "_height_": {
        "type": "ref",
        "value": "preferred"
    },
    "_left_": {
        "type": "string",
        "value": "2%"
    },
    "_margin_": [
        0,
        0,
        0,
        0
    ],
    "_orientation_": 1,
    "_padding_": [
        0,
        0,
        0,
        0
    ],
    "_percent_": true,
    "_right_": {
        "type": "string",
        "value": "2%"
    },
    "_skin_": "sb75f187c17c456fb0450d66550451bb",
    "_top_": {
        "type": "string",
        "value": "15dp"
    },
    "_width_": {
        "type": "string",
        "value": "96%"
    },
    "areflexpropsreferenced": false,
    "autogrowmode": 1,
    "canUpdateUI": true,
    "centerx": {
        "type": "number",
        "value": ""
    },
    "clipbounds": false,
    "containerweight": 0,
    "dataDiffs": {
        "ImgAcknowledged": {
            "__events__": {},
            "__info__": {
                "kuid": "caf7b9094ab841f39989eec964bd1c6c",
                "srcKUID": "e3701c0dac5f435d82671aa40ee50e3c",
                "wType": "Image"
            }
        },
        "acknowledgment": {
            "__events__": {},
            "__info__": {
                "isRoot": true,
                "kuid": "h0487e475a8849dd842e2cea347c413f",
                "srcKUID": "ee0a19e624344afb9280eea0cc145396",
                "wType": "FlexContainer"
            }
        },
        "btnAction1": {
            "__events__": {},
            "__info__": {
                "kuid": "ha4d0561a257477f9d1d3895f585ede9",
                "srcKUID": "c34138b5ffc6414a9105bfaedd3c549c",
                "wType": "Button"
            },
            "responsiveData": {
                "b1": {
                    "width": {
                        "type": "string",
                        "value": "150dp"
                    }
                },
                "b2": {
                    "right": {
                        "type": "string",
                        "value": "20dp"
                    },
                    "width": {
                        "type": "string",
                        "value": "150dp"
                    }
                },
                "b3": {
                    "right": {
                        "type": "string",
                        "value": "2%"
                    },
                    "width": {
                        "type": "string",
                        "value": "96%"
                    }
                },
                "b4": {
                    "right": {
                        "type": "string",
                        "value": "20dp"
                    },
                    "width": {
                        "type": "string",
                        "value": "150dp"
                    }
                }
            },
            "right": {
                "Default": {
                    "type": "string",
                    "value": "20dp"
                }
            },
            "width": {
                "Default": {
                    "type": "string",
                    "value": "250px"
                }
            }
        },
        "btnAction2": {
            "__events__": {},
            "__info__": {
                "kuid": "bfe47ab0ead1465dbfe0ef79c8ca0fdb",
                "srcKUID": "a7c974a2a12847a6a8f430f101a44adc",
                "wType": "Button"
            },
            "responsiveData": {
                "b1": {
                    "right": {
                        "type": "string",
                        "value": "0dp"
                    },
                    "width": {
                        "type": "string",
                        "value": "150dp"
                    }
                },
                "b2": {
                    "right": {
                        "type": "string",
                        "value": "1dp"
                    },
                    "width": {
                        "type": "string",
                        "value": "150dp"
                    }
                },
                "b3": {
                    "right": {
                        "type": "string",
                        "value": "2%"
                    },
                    "width": {
                        "type": "string",
                        "value": "96%"
                    }
                },
                "b4": {
                    "right": {
                        "type": "string",
                        "value": "0%"
                    },
                    "width": {
                        "type": "string",
                        "value": "150dp"
                    }
                }
            },
            "right": {
                "Default": {
                    "type": "string",
                    "value": "20dp"
                }
            },
            "width": {
                "Default": {
                    "type": "string",
                    "value": "250px"
                }
            }
        },
        "flxAckDetail1": {
            "__events__": {},
            "__info__": {
                "kuid": "a6a2c46a6cce4b41bd755c84f3f29ddb",
                "srcKUID": "cfe93d333fe84243944a0f142a5a0043",
                "wType": "FlexContainer"
            }
        },
        "flxAckDetail2": {
            "__events__": {},
            "__info__": {
                "kuid": "cc8a47d829404d36a9860f50e44fd7f7",
                "srcKUID": "e321e9eb2b444510b95ce0f4e9b535f7",
                "wType": "FlexContainer"
            }
        },
        "flxAckDetail3": {
            "__events__": {},
            "__info__": {
                "kuid": "b7a0849495c0480f8466ef57d69dd28f",
                "srcKUID": "db1ab0892b714a4c80488d9332a56603",
                "wType": "FlexContainer"
            }
        },
        "flxAckDetail33": {
            "__events__": {},
            "__info__": {
                "kuid": "c9af1e84269b47008ba9c8c4292321c3",
                "srcKUID": "e302c81559934b74a14bcc30a1e07af4",
                "wType": "FlexContainer"
            }
        },
        "flxAckDetail4": {
            "__events__": {},
            "__info__": {
                "kuid": "gda6fea38f9b4934bfd0056f0fcbc89b",
                "srcKUID": "daa9f57312174a449daf8e85cca9d01f",
                "wType": "FlexContainer"
            }
        },
        "flxAckDetail44": {
            "__events__": {},
            "__info__": {
                "kuid": "acd3639ec273486193d339ade814f119",
                "srcKUID": "b8b87396167e4f1abcb01bb73aad9408",
                "wType": "FlexContainer"
            }
        },
        "flxAckDetail5": {
            "__events__": {},
            "__info__": {
                "kuid": "cf7ed4f427ca423fa54a3299123f1dab",
                "srcKUID": "bdd4ec583a76493087d43e3375ec4954",
                "wType": "FlexContainer"
            },
            "isVisible": false,
            "responsiveData": {
                "b2": {},
                "b3": {}
            }
        },
        "flxAckDetail6": {
            "__events__": {},
            "__info__": {
                "kuid": "e21aea0267df43679cc63e809bd5ad28",
                "srcKUID": "g297ea1c4e894518a77c83185ff8d873",
                "wType": "FlexContainer"
            },
            "isVisible": false,
            "responsiveData": {
                "b2": {},
                "b3": {}
            }
        },
        "flxAckDetail7": {
            "__events__": {},
            "__info__": {
                "kuid": "c529279f371043cb9d9a79345208c079",
                "srcKUID": "e583476a74f5470d820c1e939e0ad203",
                "wType": "FlexContainer"
            },
            "isVisible": false,
            "responsiveData": {
                "b2": {},
                "b3": {}
            }
        },
        "flxAckDetail8": {
            "__events__": {},
            "__info__": {
                "kuid": "cafad6352e4941bda3fc75da1059bbd7",
                "srcKUID": "f6c4cce7d4ec4433ada09a27deabb112",
                "wType": "FlexContainer"
            },
            "isVisible": false,
            "responsiveData": {
                "b2": {},
                "b3": {}
            }
        },
        "flxAckDetail9": {
            "__events__": {},
            "__info__": {
                "kuid": "d847f0daac4346c9aa2357cc00375281",
                "srcKUID": "c8cff5ee23c7467d8b06f44773886641",
                "wType": "FlexContainer"
            },
            "isVisible": false,
            "responsiveData": {
                "b2": {},
                "b3": {}
            }
        },
        "flxAcknowledgementHeader": {
            "__events__": {},
            "__info__": {
                "kuid": "b1277171deb24060a33d7e69ebce14b2",
                "srcKUID": "cae7c05a030b4d1cb66a37336deb0059",
                "wType": "FlexContainer"
            }
        },
        "flxAvailableBalance": {
            "__events__": {},
            "__info__": {
                "kuid": "gde95ac110ad433f864066ce9fef5bf9",
                "srcKUID": "ja0eb9256b8642da8cfc4a70871345fb",
                "wType": "FlexContainer"
            },
            "isVisible": false,
            "responsiveData": {
                "b1": {},
                "b2": {},
                "b3": {},
                "b4": {}
            }
        },
        "flxButtons": {
            "__events__": {},
            "__info__": {
                "kuid": "e335784020394d1db2c52971604c3743",
                "srcKUID": "ae979264c46743719e47b2f02962f947",
                "wType": "FlexContainer"
            }
        },
        "flxConfirmDetails": {
            "__events__": {},
            "__info__": {
                "kuid": "c8c2f5a52da242cc972824a4190872fe",
                "srcKUID": "hf2dbada90a2422c88d8945308ff28d2",
                "wType": "FlexContainer"
            },
            "responsiveData": {
                "b1": {
                    "width": {
                        "type": "string",
                        "value": "48.50%"
                    }
                },
                "b2": {
                    "width": {
                        "type": "string",
                        "value": "100%"
                    }
                },
                "b3": {
                    "width": {
                        "type": "string",
                        "value": "96%"
                    }
                },
                "b4": {
                    "right": {
                        "type": "string",
                        "value": "0%"
                    },
                    "width": {
                        "type": "string",
                        "value": "49%"
                    }
                }
            },
            "right": {
                "Default": {
                    "type": "number",
                    "value": ""
                }
            },
            "width": {
                "Default": {
                    "type": "string",
                    "value": "590px"
                }
            }
        },
        "flxContent": {
            "__events__": {},
            "__info__": {
                "kuid": "a610f09f3cf94f43ae604358fd42a7f3",
                "srcKUID": "f7436c323ca34802896d608b81319cff",
                "wType": "FlexContainer"
            },
            "layoutType": 3,
            "responsiveData": {
                "b2": {
                    "layoutType": 4
                },
                "b3": {
                    "layoutType": 4
                },
                "b4": {
                    "layoutType": 2
                }
            }
        },
        "flxDetailsHeader": {
            "__events__": {},
            "__info__": {
                "kuid": "f574428f7ee641699dcb701ed9b403a3",
                "srcKUID": "d4aecd7d1120490b8d4ac1832e8d86a0",
                "wType": "FlexContainer"
            }
        },
        "flxIcon": {
            "__events__": {},
            "__info__": {
                "kuid": "cabf23acb4d64b06bbd2cc5ad21fad6d",
                "srcKUID": "d6bc3a06813d44e7a5797ca4842a73c8",
                "wType": "FlexContainer"
            }
        },
        "flxRecipientDetails": {
            "__events__": {},
            "__info__": {
                "kuid": "a00b7887ebb5448fb1179ce2c387c3cf",
                "srcKUID": "a90b3a36e4c84cb792c9729c4caa78a9",
                "wType": "FlexContainer"
            }
        },
        "flxSavings": {
            "__events__": {},
            "__info__": {
                "kuid": "j3e9a568cc584c959a45f60bc9930dc2",
                "srcKUID": "b2a4db87e6f140de96225b9ec4b9b592",
                "wType": "FlexContainer"
            }
        },
        "flxSavingsIcon": {
            "__events__": {},
            "__info__": {
                "kuid": "d4a723e168574a12b80020b4cd2f298e",
                "srcKUID": "e7f7850288e043198d183f3d33cfb7df",
                "wType": "FlexContainer"
            }
        },
        "flxSeparator10": {
            "__events__": {},
            "__info__": {
                "kuid": "b98cfed90b4d40ed9f260187f6e7bb1b",
                "srcKUID": "b22fe701f46d457ead13303aca44c0d7",
                "wType": "FlexContainer"
            }
        },
        "flxSeparator9": {
            "__events__": {},
            "__info__": {
                "kuid": "be0899157374412a8f841634eff4dfab",
                "srcKUID": "a34a39f8e09544c2b314ec64fb089b3f",
                "wType": "FlexContainer"
            }
        },
        "flxSuccess": {
            "__events__": {},
            "__info__": {
                "kuid": "fdfd46208bac41c089b4a65865e534d0",
                "srcKUID": "f51913b500174dfab930aa381cee90ea",
                "wType": "FlexContainer"
            },
            "responsiveData": {
                "b1": {
                    "width": {
                        "type": "string",
                        "value": "48.50%"
                    }
                },
                "b2": {
                    "width": {
                        "type": "string",
                        "value": "100%"
                    }
                },
                "b3": {
                    "width": {
                        "type": "string",
                        "value": "96%"
                    }
                },
                "b4": {
                    "width": {
                        "type": "string",
                        "value": "49%"
                    }
                }
            },
            "width": {
                "Default": {
                    "type": "string",
                    "value": "590px"
                }
            }
        },
        "lblAckDetailKey1": {
            "__events__": {},
            "__info__": {
                "kuid": "f042ed103d0f45dbb1d84374e927e954",
                "srcKUID": "ge187b7017b54c9d98a7a67c4ad1d07a",
                "wType": "Label"
            }
        },
        "lblAckDetailKey2": {
            "__events__": {},
            "__info__": {
                "kuid": "ed9ea165874242d28d9d5ca4274288dc",
                "srcKUID": "ffd4a0a9e9904ce8abe297fb7f0f9337",
                "wType": "Label"
            }
        },
        "lblAckDetailKey3": {
            "__events__": {},
            "__info__": {
                "kuid": "a62416d6b8e84691974f74df24c7b366",
                "srcKUID": "d48c4fbd9ee2476d87fd7e226dbb99d7",
                "wType": "Label"
            }
        },
        "lblAckDetailKey33": {
            "__events__": {},
            "__info__": {
                "kuid": "d7c8474506904a9d97a9fd30f07a9dd2",
                "srcKUID": "j1c1852aca2347b09efa9737b334dfbb",
                "wType": "Label"
            }
        },
        "lblAckDetailKey4": {
            "__events__": {},
            "__info__": {
                "kuid": "cc11dfe694bc41b5bf25fc66806794dc",
                "srcKUID": "b23bf4ae6a914b679ee1ff2020d20271",
                "wType": "Label"
            }
        },
        "lblAckDetailKey44": {
            "__events__": {},
            "__info__": {
                "kuid": "c0e6a1e6af634f28a0b51d130876f0cc",
                "srcKUID": "b30c429b3eb34d3a8659f35008bc24ef",
                "wType": "Label"
            }
        },
        "lblAckDetailKey5": {
            "__events__": {},
            "__info__": {
                "kuid": "ib0a337c521640b39e84d958abaa8e2d",
                "srcKUID": "b94cf86c095c4f16b0e68c80d7cfc750",
                "wType": "Label"
            }
        },
        "lblAckDetailKey6": {
            "__events__": {},
            "__info__": {
                "kuid": "a0f8d1b7bea14964963f60271b0ed65e",
                "srcKUID": "e197d0bd2bc34d6a837d5a65463dccf8",
                "wType": "Label"
            }
        },
        "lblAckDetailKey7": {
            "__events__": {},
            "__info__": {
                "kuid": "fbc4c188e3d0432da6ac6f1b7842ac9e",
                "srcKUID": "g3a3398246694f04aaa7a6acad11cc60",
                "wType": "Label"
            }
        },
        "lblAckDetailKey8": {
            "__events__": {},
            "__info__": {
                "kuid": "adacdb7458834897ba669afbc026d59e",
                "srcKUID": "e7f7378b132841ee86a511c54eefd302",
                "wType": "Label"
            }
        },
        "lblAckDetailKey9": {
            "__events__": {},
            "__info__": {
                "kuid": "ha60645ed9bb4f18b81ec605694143c6",
                "srcKUID": "b76670fa728b41eba895bef7ef60ce99",
                "wType": "Label"
            }
        },
        "lblAckDetailValue1": {
            "__events__": {},
            "__info__": {
                "kuid": "b8bf4bb79ae34704bf3a9372c89ebdab",
                "srcKUID": "i9f90c5e38fa401ab7ef97a77da2e79a",
                "wType": "Label"
            }
        },
        "lblAckDetailValue2": {
            "__events__": {},
            "__info__": {
                "kuid": "fbbb3cb0076c484b961899c4f92a65ea",
                "srcKUID": "fcd400369a2f448bbf3497d5cf7b2d8c",
                "wType": "Label"
            }
        },
        "lblAckDetailValue3": {
            "__events__": {},
            "__info__": {
                "kuid": "f96183d13c26497298a5e0f7fa6394d5",
                "srcKUID": "a8f762e81bcf4a4686e6153837e17771",
                "wType": "Label"
            }
        },
        "lblAckDetailValue33": {
            "__events__": {},
            "__info__": {
                "kuid": "d0bba38ff25f42b98d4a03e3feb1f6f7",
                "srcKUID": "h839d2586ea4421684ef916430a0e4c8",
                "wType": "Label"
            }
        },
        "lblAckDetailValue4": {
            "__events__": {},
            "__info__": {
                "kuid": "a7740a241d8140718a4fb9d8659a7560",
                "srcKUID": "ce525f0c5a5e4e4eb7314ddfcb57ba7b",
                "wType": "Label"
            }
        },
        "lblAckDetailValue44": {
            "__events__": {},
            "__info__": {
                "kuid": "eba75a4d603240f780fcaf15b5a34d09",
                "srcKUID": "gab0d043b3fe41ffacde26b1426eade4",
                "wType": "Label"
            }
        },
        "lblAckDetailValue5": {
            "__events__": {},
            "__info__": {
                "kuid": "e782d5507fd94b32ab36761d4d3ee1aa",
                "srcKUID": "ad57670b04c14c5484b3d5504f874270",
                "wType": "Label"
            }
        },
        "lblAckDetailValue6": {
            "__events__": {},
            "__info__": {
                "kuid": "i7b6fc7bec10452abc83f671a07a2881",
                "srcKUID": "ea6da15a8cc74436873cef54e3ec2e09",
                "wType": "Label"
            }
        },
        "lblAckDetailValue7": {
            "__events__": {},
            "__info__": {
                "kuid": "cf5d891dce8c4e0588afec855a5febdd",
                "srcKUID": "e826ca2f6f5c41c380cf533a8c6f29a9",
                "wType": "Label"
            }
        },
        "lblAckDetailValue8": {
            "__events__": {},
            "__info__": {
                "kuid": "g04095dff58b4b69a0d89e4ff57dad85",
                "srcKUID": "d33b19a1e9744436be53dd73016ff897",
                "wType": "Label"
            }
        },
        "lblAckDetailValue9": {
            "__events__": {},
            "__info__": {
                "kuid": "f7be31180368402fa2ed59d2bcda1bb5",
                "srcKUID": "h0878a0a14b544c38d7177615347c67d",
                "wType": "Label"
            }
        },
        "lblAcknowledgementHeader": {
            "__events__": {},
            "__info__": {
                "kuid": "c7256c9c85f34e2a86bffdb9cb0758c2",
                "srcKUID": "e314f9063e9f43d6ade9524c9bdf9bc9",
                "wType": "Label"
            }
        },
        "lblAvailableBalance": {
            "__events__": {},
            "__info__": {
                "kuid": "ga9412ff8c0146b9917fce38cae39d35",
                "srcKUID": "jefd1cf064414665aeccf6b0d622d8fd",
                "wType": "Label"
            }
        },
        "lblBalanceValue": {
            "__events__": {},
            "__info__": {
                "kuid": "c04f3c41b2204f0f8c301b0fd66d504a",
                "srcKUID": "c4c5a278c1004058bb2ef749caa2d468",
                "wType": "Label"
            }
        },
        "lblConfirmHeader": {
            "__events__": {},
            "__info__": {
                "kuid": "ce2a74ab9e464a97ab919b78bea0699d",
                "srcKUID": "b128f7e9d7ac43d0b3063de8951f3619",
                "wType": "Label"
            }
        },
        "lblIcon": {
            "__events__": {},
            "__info__": {
                "kuid": "h5dcad7fb8684ef9ac8de0b564f5c861",
                "srcKUID": "iab73775bc9744a6aa56c05cc9c0f359",
                "wType": "Label"
            }
        },
        "lblRefrenceNumber": {
            "__events__": {},
            "__info__": {
                "kuid": "g7d6df1a1da647a487c803e7c2dc3412",
                "srcKUID": "efcedd8d54714569ba7ce0b76a4a8de2",
                "wType": "Label"
            }
        },
        "lblRefrenceNumberValue": {
            "__events__": {},
            "__info__": {
                "kuid": "e28ad290aaf34096aa84958fe379dbf0",
                "srcKUID": "i3e1e6e982244236adaa71db9a0afe1a",
                "wType": "Label"
            }
        },
        "lblSavingsAccount": {
            "__events__": {},
            "__info__": {
                "kuid": "b1595e2ca4dc4bec88c2a887d341f468",
                "srcKUID": "j0115cb7c0d2413fb9c25f72e31ee60f",
                "wType": "Label"
            }
        },
        "lblSavingsIcon": {
            "__events__": {},
            "__info__": {
                "kuid": "fe6d0ed632b3441aa0c119e498812a33",
                "srcKUID": "had4794ffe2d48498d0f821d43869c61",
                "wType": "Label"
            }
        },
        "lblSuccessMessage": {
            "__events__": {},
            "__info__": {
                "kuid": "a23e5ae3d0fe4737a5f1dbad48b81b27",
                "srcKUID": "ide98c33488740e09bfcefcae1b16f30",
                "wType": "Label"
            }
        }
    },
    "enablescrolling": true,
    "id": "acknowledgment",
    "info": null,
    "iscustomlayout": false,
    "isdatareferenced": false,
    "isvisible": true,
    "kuid": "h0487e475a8849dd842e2cea347c413f",
    "layouttype": 4,
    "masterType": 0,
    "name": "kony.ui.UserWidgetInstance",
    "parent": "flxMain",
    "pf": "frmCreateBudgetAck",
    "retaincontentalignment": false,
    "retainflexpositionproperties": false,
    "retainflowhorizontalalignment": false,
    "snapgridsize": 10,
    "snaptogrid": true,
    "sourceUserWidget": "ee0a19e624344afb9280eea0cc145396",
    "wType": "UserWidgetInstance"
}