{
    "DNDConfig": null,
    "__parentReadjusting__": false,
    "_bottom_": {
        "type": "string",
        "value": "20dp"
    },
    "_height_": {
        "type": "string",
        "value": "220dp"
    },
    "_left_": {
        "type": "string",
        "value": "0dp"
    },
    "_margin_": [
        0,
        0,
        0,
        0
    ],
    "_orientation_": 6,
    "_padding_": [
        0,
        0,
        0,
        0
    ],
    "_percent_": true,
    "_right_": {
        "type": "number",
        "value": ""
    },
    "_skin_": "sdc143f0e5b64ae3a3f155f691c73fa7",
    "_top_": {
        "type": "string",
        "value": "0dp"
    },
    "_width_": {
        "type": "string",
        "value": "100%"
    },
    "allboxes": [],
    "canUpdateUI": true,
    "children": [
        "imgDowntimeWarning",
        "rtxDowntimeWarning"
    ],
    "clipbounds": false,
    "containerweight": 100,
    "enablescrolling": true,
    "id": "flxDowntimeWarning",
    "info": null,
    "iscustomlayout": false,
    "isvisible": false,
    "kuid": "c9dcb65dcf434a7fbd45d066d6af4fb3",
    "layouttype": 2,
    "name": "kony.ui.FlexContainer",
    "parent": "flxMain",
    "pf": "frmP2PSettings",
    "responsiveData": {
        "b1": {
            "height": {
                "type": "string",
                "value": "60dp"
            },
            "layoutType": 3,
            "right": {
                "type": "string",
                "value": ""
            }
        },
        "b2": {
            "height": {
                "type": "string",
                "value": "60dp"
            },
            "layoutType": 3
        },
        "b3": {
            "height": {
                "type": "string",
                "value": "60dp"
            },
            "layoutType": 3
        },
        "b4": {
            "height": {
                "type": "string",
                "value": "60dp"
            },
            "layoutType": 3,
            "width": {
                "type": "string",
                "value": "1200dp"
            },
            "zIndex": 2
        }
    },
    "retaincontentalignment": false,
    "retainflexpositionproperties": false,
    "retainflowhorizontalalignment": false,
    "snapgridsize": 10,
    "snaptogrid": true,
    "wType": "FlexContainer",
    "widgetalignment": 1,
    "zindex": 1
}