{
    "DNDConfig": null,
    "__parentReadjusting__": false,
    "_height_": {
        "type": "ref",
        "value": "preferred"
    },
    "_left_": {
        "type": "string",
        "value": "0dp"
    },
    "_margin_": [
        0,
        0,
        0,
        0
    ],
    "_orientation_": 6,
    "_padding_": [
        0,
        0,
        0,
        0
    ],
    "_percent_": true,
    "_skin_": "s24c92fc23b14f5484b693ee9b8a9b35",
    "_top_": {
        "type": "string",
        "value": "23dp"
    },
    "_width_": {
        "type": "string",
        "value": "100%"
    },
    "allboxes": [],
    "autogrowmode": 1,
    "canUpdateUI": true,
    "children": [
        "flxAccountTypeKey",
        "flxAccountTypeValue"
    ],
    "clipbounds": true,
    "containerweight": 100,
    "enablescrolling": true,
    "id": "flxRegisteredEmail",
    "info": null,
    "isvisible": true,
    "kuid": "e77b38ebcf66495fb54f8a929ad54b46",
    "layouttype": 2,
    "name": "kony.ui.FlexContainer",
    "parent": "flxSubConfirmation",
    "pf": "frmP2PSettings",
    "responsiveData": {
        "b1": {
            "top": {
                "type": "string",
                "value": "33dp"
            }
        },
        "b2": {
            "top": {
                "type": "string",
                "value": "33dp"
            }
        },
        "b3": {
            "top": {
                "type": "string",
                "value": "33dp"
            }
        },
        "b4": {
            "top": {
                "type": "string",
                "value": "33dp"
            }
        }
    },
    "snapgridsize": 10,
    "snaptogrid": true,
    "wType": "FlexContainer",
    "widgetalignment": 1,
    "zindex": 1
}