{
    "@class": "com.kony.gen.viz.model.component.KVizButton",
    "DNDConfig": null,
    "__parentReadjusting__": false,
    "_height_": {
        "type": "string",
        "value": "40dp"
    },
    "_margin_": [
        6,
        6,
        6,
        6
    ],
    "_padding_": [
        0,
        0,
        0,
        0
    ],
    "_right_": {
        "type": "string",
        "value": "30dp"
    },
    "_skin_": "sfbbba35ede4457b94eb681b72349b98",
    "_text_": "",
    "_width_": {
        "type": "string",
        "value": "150dp"
    },
    "accessibilityconfig": {
        "a11yLabel": "Assign"
    },
    "canUpdateUI": true,
    "centery": {
        "type": "string",
        "value": "50%"
    },
    "containerweight": 100,
    "contentalignment": 5,
    "desktopweb": {
        "psp": {
            "hoverSkin": "s81054b5e2b74f17a5261991df565427"
        }
    },
    "disabledSkins": {
        "focusSkin": "sf44d06ca8224832827ea7fdff757013"
    },
    "displaytext": true,
    "id": "btnDownload",
    "info": null,
    "isvisible": true,
    "kuid": "a656043c79ec4a3ab34735d9403520fe",
    "name": "kony.ui.Button",
    "parent": "flxButtons",
    "pf": "userwidgetmodel",
    "texti18n": "i18n.PFM.Assign",
    "tooltip": "Assign",
    "wType": "Button",
    "zindex": 1
}