{
    "@class": "com.kony.gen.viz.model.component.KVizUserWidget",
    "DNDConfig": null,
    "_children_": [],
    "_height_": {
        "type": "string",
        "value": "70dp"
    },
    "_left_": {
        "type": "string",
        "value": "0dp"
    },
    "_margin_": [
        0,
        0,
        0,
        0
    ],
    "_orientation_": 1,
    "_padding_": [
        0,
        0,
        0,
        0
    ],
    "_percent_": true,
    "_skin_": "s8168760435c4c49a85eefb1671b3654",
    "_top_": {
        "type": "string",
        "value": "0dp"
    },
    "_width_": {
        "type": "string",
        "value": "100%"
    },
    "android": {},
    "androidwearos": {},
    "areflexpropsreferenced": false,
    "autogrowmode": 0,
    "canUpdateUI": true,
    "clipbounds": true,
    "containerweight": 0,
    "dataDiffs": {
        "bannerError": {
            "__events__": {},
            "__info__": {
                "isRoot": true,
                "kuid": "b9cb9d853f524591aa401efa9ce2f8af",
                "srcKUID": "aed9f491ed5843f7a5841d3e803f04ce",
                "wType": "FlexContainer"
            },
            "responsiveData": {
                "b3": {
                    "width": {
                        "type": "string",
                        "value": "100%"
                    }
                }
            },
            "width": {}
        },
        "flxClose": {
            "__events__": {},
            "__info__": {
                "kuid": "f3b06adba5674d659409d062a83cee68",
                "srcKUID": "jf1fcf5a96b24c5ea32ea1bec76c7089",
                "wType": "FlexContainer"
            }
        },
        "imgError": {
            "__events__": {},
            "__info__": {
                "kuid": "cd4c7632783c4cd796450f53a0499cc9",
                "srcKUID": "e3c08f06333341468b0d9c573150f75e",
                "wType": "Image"
            },
            "src": "error_yellow.png"
        },
        "imgErrorCross": {
            "__events__": {},
            "__info__": {
                "kuid": "b8de6bf8160c4bca9062dbf858b5ae18",
                "srcKUID": "ba91cc77d61f4bbaaaac1fa40b06baf2",
                "wType": "Image"
            },
            "src": "bbcloseicon.png"
        },
        "lblError": {
            "__events__": {},
            "__info__": {
                "kuid": "hf6379ba717a47d1b3d6857ec03be98f",
                "srcKUID": "cfa1d40e039b46329007403580f36f4f",
                "wType": "Label"
            }
        }
    },
    "desktopweb": {},
    "enablescrolling": true,
    "id": "bannerError",
    "info": null,
    "ipad": {},
    "iphone": {},
    "iscustomlayout": false,
    "isdatareferenced": false,
    "isvisible": true,
    "kiosk": {},
    "kuid": "b9cb9d853f524591aa401efa9ce2f8af",
    "layouttype": 2,
    "masterType": 0,
    "name": "kony.ui.UserWidgetInstance",
    "parent": "flxWarning",
    "pf": "frmNewMessages",
    "responsiveData": {
        "b3": {
            "width": {
                "type": "string",
                "value": "100%"
            }
        }
    },
    "retaincontentalignment": false,
    "retainflexpositionproperties": false,
    "retainflowhorizontalalignment": false,
    "snapgridsize": 10,
    "snaptogrid": true,
    "sourceUserWidget": "aed9f491ed5843f7a5841d3e803f04ce",
    "spa": {},
    "spaan": {},
    "spaandroidtablet": {},
    "spaip": {},
    "spaipad": {},
    "spamobile": {},
    "spatablet": {},
    "spawindowstablet": {},
    "spawinphone8": {},
    "tabrcandroid": {},
    "vizProps": {
        "hidewidgethierarchy": false
    },
    "wType": "UserWidgetInstance",
    "windows10": {},
    "windows8": {},
    "winphone10": {},
    "winphone8": {}
}