{
    "@class": "com.kony.gen.viz.model.component.KVizButton",
    "DNDConfig": null,
    "__parentReadjusting__": false,
    "_height_": {
        "type": "string",
        "value": "50dp"
    },
    "_margin_": [
        6,
        6,
        6,
        6
    ],
    "_padding_": [
        0,
        0,
        0,
        0
    ],
    "_right_": {
        "type": "string",
        "value": "2%"
    },
    "_skin_": "s50db16e48de4554a8f18a1e0b595067",
    "_text_": "Add",
    "_top_": {
        "type": "string",
        "value": "0dp"
    },
    "_width_": {
        "type": "ref",
        "value": "preferred"
    },
    "canUpdateUI": true,
    "containerId": true,
    "containerweight": 100,
    "contentalignment": 5,
    "displaytext": true,
    "focusskin": "s50db16e48de4554a8f18a1e0b595067",
    "id": "btnAddRole",
    "ide_onClick": "AS_Button_db79ef55ee564a7e98f73df8c9dc6693",
    "info": null,
    "iscustomlayout": false,
    "isvisible": false,
    "kuid": "i917d550c7f74e64a446f5607119f3ad",
    "name": "kony.ui.Button",
    "parent": "flxSearchRoles",
    "pf": "segBBSearchRoles",
    "retaincontentalignment": false,
    "retainflexpositionproperties": false,
    "wType": "Button",
    "zindex": 1
}