{
    "DNDConfig": null,
    "__parentReadjusting__": false,
    "_height_": {
        "type": "string",
        "value": "70dp"
    },
    "_margin_": [
        0,
        0,
        0,
        0
    ],
    "_orientation_": 6,
    "_padding_": [
        0,
        0,
        0,
        0
    ],
    "_percent_": true,
    "_right_": {
        "type": "string",
        "value": "4dp"
    },
    "_skin_": "s4554df0b23a4035958ca4e00a77cbba",
    "_top_": {
        "type": "string",
        "value": "0dp"
    },
    "_width_": {
        "type": "string",
        "value": "100%"
    },
    "allboxes": [],
    "autogrowmode": 0,
    "canUpdateUI": true,
    "children": [
        "flxMessages",
	   "flxNotifications",
        "flxVerticalSeperator1",
        "flxResetUserImg",
        "flxUserId",
        "flxVerticalSeperator2",
        "btnLogout",
        "flxWarning",
        "imgLogout",
	   "flxVerticalSeperator3"
    ],
    "clipbounds": false,
    "containerweight": 100,
    "enablescrolling": true,
    "id": "headermenu",
    "ide_preShow": "AS_FlexContainer_jbe983921fdd4e1b93c1df71390c6b2b",
    "info": null,
    "isvisible": true,
    "kuid": "ea013589dba0469f8dd12b43e0dac320",
    "layouttype": 2,
    "name": "kony.ui.FlexContainer",
    "parent": "userwidgetmodel",
    "pf": "userwidgetmodel",
    "snapgridsize": 10,
    "snaptogrid": true,
    "vizProps": {
        "hidewidgethierarchy": false
    },
    "wType": "FlexContainer",
    "widgetalignment": 1
}