{
    "DNDConfig": null,
    "_height_": {
        "type": "ref",
        "value": "preferred"
    },
    "_left_": {
        "type": "string",
        "value": "0dp"
    },
    "_margin_": [
        0,
        0,
        0,
        0
    ],
    "_orientation_": 6,
    "_padding_": [
        0,
        0,
        0,
        0
    ],
    "_percent_": true,
    "_skin_": "sc0e91d6fe694484bce684e400e25b04",
    "_top_": {
        "type": "string",
        "value": "0dp"
    },
    "_width_": {
        "type": "string",
        "value": "100%"
    },
    "allboxes": [],
    "autogrowmode": 1,
    "canUpdateUI": true,
    "centerx": {
        "type": "number",
        "value": ""
    },
    "children": [
        "lblTransfers",
        "flxContent"
    ],
    "clipbounds": true,
    "containerweight": 100,
    "desktopweb": {
        "ide_onBreakpointChange": "AS_FlexContainer_f4112d56f1a240f48ce5dd785f1d0e75"
    },
    "enablescrolling": true,
    "id": "addBenificiary",
    "ide_postShow": "AS_FlexContainer_bbcd8dc8117c45fc944603dd4a761fa6",
    "ide_preShow": "AS_FlexContainer_e69bf673f66741a6a461dae669a0f2bb",
    "info": null,
    "iscustomlayout": false,
    "isvisible": true,
    "kuid": "c1e275265b5e4e7eb7f68a32dbdb603e",
    "layouttype": 4,
    "name": "kony.ui.FlexContainer",
    "parent": "userwidgetmodel",
    "pf": "userwidgetmodel",
    "responsiveData": {
        "b2": {},
        "b3": {
            "centerX": {
                "type": "string",
                "value": "50%"
            }
        },
        "b4": {}
    },
    "retaincontentalignment": false,
    "retainflexpositionproperties": false,
    "retainflowhorizontalalignment": false,
    "snapgridsize": 10,
    "snaptogrid": true,
    "wType": "FlexContainer",
    "widgetalignment": 1,
    "zindex": 1
}