{
    "DNDConfig": null,
    "_height_": {
        "type": "ref",
        "value": "preferred"
    },
    "_left_": {
        "type": "string",
        "value": "0dp"
    },
    "_margin_": [
        0,
        0,
        0,
        0
    ],
    "_orientation_": 6,
    "_padding_": [
        0,
        0,
        0,
        0
    ],
    "_percent_": true,
    "_skin_": "s203e287fa7648b38239f010a389a940",
    "_top_": {
        "type": "string",
        "value": "20px"
    },
    "_width_": {
        "type": "string",
        "value": "100%"
    },
    "allboxes": [],
    "autogrowmode": 1,
    "canUpdateUI": true,
    "children": [
        "flxP2PQuickLink1",
        "flxP2PQuickLink2"
    ],
    "clipbounds": false,
    "containerweight": 100,
    "enablescrolling": true,
    "id": "flxP2PQuickLinks",
    "info": null,
    "isvisible": true,
    "kuid": "f273ca868836484dbe1628310c1604fe",
    "layouttype": 4,
    "name": "kony.ui.FlexContainer",
    "parent": "flxRight",
    "pf": "userwidgetmodel",
    "responsiveData": {
        "b1": {
            "skin": "s203e287fa7648b38239f010a389a940",
            "top": {
                "type": "string",
                "value": "20dp"
            }
        },
        "b4": {
            "left": {
                "type": "string",
                "value": "0dp"
            },
            "skin": "s203e287fa7648b38239f010a389a940",
            "top": {
                "type": "string",
                "value": "20dp"
            },
            "width": {
                "type": "string",
                "value": "100%"
            }
        }
    },
    "snapgridsize": 10,
    "snaptogrid": true,
    "wType": "FlexContainer",
    "widgetalignment": 1,
    "zindex": 1
}