{
    "@class": "com.kony.gen.viz.model.component.KVizLabel",
    "DNDConfig": null,
    "_height_": {
        "type": "ref",
        "value": "preferred"
    },
    "_left_": {
        "type": "string",
        "value": "10dp"
    },
    "_margin_": [
        1,
        1,
        1,
        1
    ],
    "_padding_": [
        0,
        0,
        0,
        0
    ],
    "_skin_": "s37b7d0788b74a2d866f234bcfc5e3d5",
    "_text_": "Label",
    "_top_": {
        "type": "string",
        "value": "0dp"
    },
    "_width_": {
        "type": "ref",
        "value": "preferred"
    },
    "_wrapping_": 2,
    "android": {
        "textStyle": {
            "letterSpacing": 0,
            "strikeThrough": false
        }
    },
    "canUpdateUI": true,
    "centerx": {
        "type": "number",
        "value": ""
    },
    "containerweight": 100,
    "contentalignment": 4,
    "id": "lbl1",
    "info": null,
    "ipad": {
        "psp": {
            "wrapping": 2
        }
    },
    "iphone": {
        "psp": {
            "wrapping": 2
        }
    },
    "iscustomlayout": false,
    "isvisible": true,
    "kuid": "cdda516554cb4a8d982ca9892ad687fe",
    "name": "kony.ui.Label",
    "parent": "flxDetailValue6",
    "pf": "userwidgetmodel",
    "responsiveData": {
        "b1": {
            "centerX": {
                "type": "string",
                "value": ""
            },
            "skin": "sff777f8381d4a6ebb6dd711181df2b4",
            "top": {
                "type": "string",
                "value": "3dp"
            }
        },
        "b2": {
            "skin": "sff777f8381d4a6ebb6dd711181df2b4",
            "top": {
                "type": "string",
                "value": "3dp"
            }
        },
        "b3": {
            "skin": "sff777f8381d4a6ebb6dd711181df2b4",
            "top": {
                "type": "string",
                "value": "3dp"
            }
        },
        "b4": {
            "skin": "sff777f8381d4a6ebb6dd711181df2b4",
            "top": {
                "type": "string",
                "value": "3dp"
            }
        }
    },
    "retaincontentalignment": false,
    "retainflexpositionproperties": false,
    "tooltip": "",
    "wType": "Label",
    "zindex": 1
}