{
    "@class": "com.kony.gen.viz.model.component.KVizLabel",
    "DNDConfig": null,
    "__parentReadjusting__": false,
    "_height_": {
        "type": "ref",
        "value": "preferred"
    },
    "_left_": {
        "type": "string",
        "value": "104dp"
    },
    "_margin_": [
        1,
        1,
        1,
        1
    ],
    "_padding_": [
        0,
        0,
        0,
        0
    ],
    "_skin_": "se56454286124fef97a46e7249497088",
    "_text_": "Transactions Initiated By :",
    "_top_": {
        "type": "number",
        "value": ""
    },
    "_width_": {
        "type": "string",
        "value": "166dp"
    },
    "_wrapping_": 2,
    "accessibilityconfig": {
        "a11yLabel": "Transaction Date"
    },
    "android": {
        "textStyle": {
            "letterSpacing": 0,
            "strikeThrough": false
        }
    },
    "canUpdateUI": true,
    "centery": {
        "type": "string",
        "value": "52%"
    },
    "containerweight": 100,
    "contentalignment": 4,
    "id": "lblDomesticTitle",
    "info": null,
    "ipad": {
        "psp": {
            "wrapping": 2
        }
    },
    "iphone": {
        "psp": {
            "wrapping": 2
        }
    },
    "isvisible": true,
    "kuid": "ba26a60efdd84e89ba6b4682a6c55d6b",
    "name": "kony.ui.Label",
    "parent": "flxFileDetails",
    "pf": "frmBWTemplateConfirmTransfer",
    "responsiveData": {
        "b1": {
            "left": {
                "type": "string",
                "value": "80dp"
            },
            "text": "Domestic Recipients :",
            "width": {
                "type": "ref",
                "value": "preferred"
            }
        },
        "b2": {
            "centerY": {
                "type": "string",
                "value": ""
            },
            "left": {
                "type": "string",
                "value": "20dp"
            },
            "text": "Domestic Recipients :",
            "top": {
                "type": "string",
                "value": "53dp"
            },
            "width": {
                "type": "ref",
                "value": "preferred"
            }
        },
        "b4": {
            "left": {
                "type": "string",
                "value": "80dp"
            },
            "text": "Domestic Recipients :",
            "width": {
                "type": "ref",
                "value": "preferred"
            }
        }
    },
    "texti18n": "i18n.bulkwires.domesticrecipients",
    "tooltip": "Domestic Recipients",
    "wType": "Label",
    "zindex": 1
}