{
    "@class": "com.kony.gen.viz.model.component.KVizLabel",
    "DNDConfig": null,
    "__parentReadjusting__": false,
    "_height_": {
        "type": "ref",
        "value": "preferred"
    },
    "_left_": {
        "type": "string",
        "value": "9px"
    },
    "_margin_": [
        1,
        1,
        1,
        1
    ],
    "_padding_": [
        0,
        0,
        0,
        0
    ],
    "_skin_": "sffbc44a10fa4aa8bf25ca668c19c580",
    "_text_": "Lorem ipsum dolor sit amet, consectetur adipiscing elit. Aenean euismod bibendum laoreet. Proin gravida dolor sit amet lacus accumsan et viverra justo commodo.",
    "_top_": {
        "type": "string",
        "value": "0dp"
    },
    "_width_": {
        "type": "string",
        "value": "95%"
    },
    "_wrapping_": 2,
    "accessibilityconfig": {
        "a11yLabel": ""
    },
    "android": {
        "textStyle": {
            "letterSpacing": 0,
            "strikeThrough": false
        }
    },
    "canUpdateUI": true,
    "containerweight": 100,
    "contentalignment": 4,
    "id": "lblTermOne",
    "info": null,
    "ipad": {
        "psp": {
            "wrapping": 2
        }
    },
    "iphone": {
        "psp": {
            "wrapping": 2
        }
    },
    "isvisible": true,
    "kuid": "c7e167b9192e49afa30f1a8cc1e1486f",
    "name": "kony.ui.Label",
    "parent": "flxTermOne",
    "pf": "frmBWTemplateConfirmTransfer",
    "responsiveData": {
        "b1": {
            "contentAlignment": 1,
            "text": "You authorize Infinity to withdraw You authorize Infinity to withdraw the amount of any requested wire transfer that you authorize and instruct via Infinity website, plus any applicable fees and charges from your designated account at Infinity . Each wire transfer requested by you shall be binding on you and Infinity shall have no liability or other obligation for any unauthorized wire transfer."
        },
        "b2": {
            "text": "You authorize Infinity to withdraw You authorize Infinity to withdraw the amount of any requested wire transfer that you authorize and instruct via Infinity website, plus any applicable fees and charges from your designated account at Infinity . Each wire transfer requested by you shall be binding on you and Infinity shall have no liability or other obligation for any unauthorized wire transfer.",
            "width": {
                "type": "string",
                "value": "98%"
            }
        },
        "b4": {
            "text": "You authorize Infinity to withdraw You authorize Infinity to withdraw the amount of any requested wire transfer that you authorize and instruct via Infinity website, plus any applicable fees and charges from your designated account at Infinity . Each wire transfer requested by you shall be binding on you and Infinity shall have no liability or other obligation for any unauthorized wire transfer."
        }
    },
    "tooltip": "",
    "wType": "Label",
    "zindex": 1
}