{
    "DNDConfig": null,
    "_height_": {
        "type": "string",
        "value": "25dp"
    },
    "_left_": {
        "type": "string",
        "value": "8.07%"
    },
    "_margin_": [
        0,
        0,
        0,
        0
    ],
    "_orientation_": 6,
    "_padding_": [
        0,
        0,
        0,
        0
    ],
    "_percent_": true,
    "_skin_": "s4554df0b23a4035958ca4e00a77cbba",
    "_top_": {
        "type": "string",
        "value": "26.60%"
    },
    "_width_": {
        "type": "string",
        "value": "91.93%"
    },
    "allboxes": [],
    "autogrowmode": 0,
    "canUpdateUI": true,
    "children": [
        "btnLocateUs",
        "flxVBar1",
        "btnContactUs",
        "flxVBar2",
        "btnPrivacy",
        "flxVBar3",
        "btnTermsAndConditions",
        "flxVBar4",
        "btnFaqs"
    ],
    "clipbounds": true,
    "containerweight": 100,
    "enablescrolling": true,
    "id": "flxFooterMenu",
    "info": null,
    "isvisible": true,
    "kuid": "c3f613e8e19b466e9898f5923eac6dac",
    "layouttype": 3,
    "name": "kony.ui.FlexContainer",
    "parent": "customfooternew",
    "pf": "userwidgetmodel",
    "snapgridsize": 10,
    "snaptogrid": true,
    "wType": "FlexContainer",
    "widgetalignment": 1,
    "zindex": 1
}