{
    "@class": "com.kony.gen.viz.model.component.KVizButton",
    "DNDConfig": null,
    "__parentReadjusting__": false,
    "_height_": {
        "type": "ref",
        "value": "preferred"
    },
    "_left_": {
        "type": "string",
        "value": "0dp"
    },
    "_margin_": [
        6,
        6,
        6,
        6
    ],
    "_padding_": [
        0,
        0,
        0,
        0
    ],
    "_skin_": "se4cbdf6e51f48eda9966caa941c6a19",
    "_text_": "VIEW E-BILL",
    "_top_": {
        "type": "string",
        "value": "10dp"
    },
    "_width_": {
        "type": "string",
        "value": "90%"
    },
    "accessibilityconfig": {
        "a11yLabel": "VIEW E-BILL"
    },
    "canUpdateUI": true,
    "containerId": true,
    "containerweight": 100,
    "contentalignment": 4,
    "desktopweb": {
        "psp": {
            "hoverSkin": "sd36babbd8f6461f8b492698ab830d13"
        }
    },
    "disabledSkins": {
        "focusSkin": "sf44d06ca8224832827ea7fdff757013"
    },
    "displaytext": true,
    "id": "btnViewEbill",
    "ide_onClick": "AS_Button_i34305962d4a4c9e8947e24ede5b29bc",
    "info": null,
    "isvisible": true,
    "kuid": "f5b62d367a4f4bb2bbf4329e7eac05c8",
    "name": "kony.ui.Button",
    "parent": "flxActions",
    "pf": "segBillPaymentManagePayeesSelected",
    "tooltip": "VIEW E-BILL",
    "wType": "Button",
    "zindex": 1
}