{
    "@class": "com.kony.gen.viz.model.container.KVizSegment2",
    "DNDConfig": null,
    "__parentReadjusting__": false,
    "_data_": [],
    "_height_": {
        "type": "string",
        "value": "325dp"
    },
    "_indicator_": "none",
    "_left_": {
        "type": "string",
        "value": "0dp"
    },
    "_margin_": [
        0,
        0,
        0,
        0
    ],
    "_orientation_": 2,
    "_padding_": [
        0,
        0,
        0,
        0
    ],
    "_top_": {
        "type": "string",
        "value": "0dp"
    },
    "_width_": {
        "type": "string",
        "value": "100%"
    },
    "autogrowmode": 0,
    "canUpdateUI": true,
    "containerweight": 100,
    "counter": "04",
    "desktop": {
        "_data_": [],
        "rowTemplateId": "ea8dbc610e0a4757bd9a194c82546d02",
        "rowtemplate": "flxNUOProductsAck",
        "widgetdatamap": {
            "flxNAOProductsAck": "flxNAOProductsAck",
            "flxSelectedProduct1": "flxSelectedProduct1",
            "flxSelectedProduct2": "flxSelectedProduct2",
            "imgSelectedProduct1": "imgSelectedProduct1",
            "imgSelectedProduct2": "imgSelectedProduct2",
            "lblSelectedDescriptionName2": "lblSelectedDescriptionName2",
            "lblSelectedDescriptonName1": "lblSelectedDescriptonName1",
            "lblSelectedProductName1": "lblSelectedProductName1",
            "lblSelectedProductName2": "lblSelectedProductName2"
        }
    },
    "focusedindex": null,
    "focuseditem": null,
    "groupcells": false,
    "hasSections": false,
    "id": "segProducts",
    "info": null,
    "ipad": {
        "psp": {
            "indicator": "rowselect"
        }
    },
    "iphone": {
        "psp": {
            "indicator": "rowselect"
        }
    },
    "iscustomlayout": false,
    "isvisible": false,
    "kuid": "jad8dbc7115e4d8389bd292b7071a67e",
    "masterdata": {},
    "name": "kony.ui.SegmentedUI2",
    "needpageindicator": true,
    "pageoffdotimage": "pageoffdot.png",
    "pageondotimage": "pageondot.png",
    "paginationconfig": {
        "position": "bottom"
    },
    "parent": "flxAcknowledgementMain",
    "pf": "userwidgetmodel",
    "retaincontentalignment": false,
    "retainflexpositionproperties": false,
    "retainselection": false,
    "rowcounter": 4,
    "rowfocusskin": "s9f69e977910472eb44c62ae28c41fe1",
    "rowskin": "scf5f90f6ac04976ab88b2a4f7153285",
    "rowtemplate": "flxNAOProductsAck",
    "screenlevelwidget": false,
    "seccounter": 0,
    "sectionheaderskin": "sdc4ff4ed1584272be2ae69045dfb29d",
    "selectedRows": null,
    "selectedState": false,
    "selectedindex": null,
    "selectedindices": null,
    "selecteditems": null,
    "selectedsectionindex": 0,
    "selectionbehavior": "default",
    "separatorcolor": "aaaaaa00",
    "separatorrequired": true,
    "separatorthickness": 0,
    "showscrollbars": false,
    "viewtype": "tableview",
    "vizProps": {},
    "wType": "Segment",
    "widgetalignment": 5,
    "widgetdatamap": {
        "flxNAOProductsAck": "flxNAOProductsAck",
        "flxSelectedProduct1": "flxSelectedProduct1",
        "flxSelectedProduct2": "flxSelectedProduct2",
        "imgSelectedProduct1": "imgSelectedProduct1",
        "imgSelectedProduct2": "imgSelectedProduct2",
        "lblSelectedDescriptionName2": "lblSelectedDescriptionName2",
        "lblSelectedDescriptonName1": "lblSelectedDescriptonName1",
        "lblSelectedProductName1": "lblSelectedProductName1",
        "lblSelectedProductName2": "lblSelectedProductName2"
    },
    "zindex": 1
}