{
    "DNDConfig": null,
    "__parentReadjusting__": false,
    "_bottom_": {
        "type": "number",
        "value": ""
    },
    "_height_": {
        "type": "string",
        "value": "110dp"
    },
    "_left_": {
        "type": "string",
        "value": "0dp"
    },
    "_margin_": [
        0,
        0,
        0,
        0
    ],
    "_orientation_": 6,
    "_padding_": [
        0,
        0,
        0,
        0
    ],
    "_percent_": true,
    "_skin_": "s24c92fc23b14f5484b693ee9b8a9b35",
    "_top_": {
        "type": "string",
        "value": "350dp"
    },
    "_width_": {
        "type": "string",
        "value": "100%"
    },
    "allboxes": [],
    "canUpdateUI": true,
    "children": [
        "flxButtonSeperator",
        "btnCancel",
        "btnContinue"
    ],
    "clipbounds": true,
    "containerweight": 100,
    "enablescrolling": true,
    "id": "flxButtons",
    "info": null,
    "isvisible": true,
    "kuid": "e4755e5e2c8746ae9c310fb6b28d9e0e",
    "layouttype": 2,
    "name": "kony.ui.FlexContainer",
    "parent": "flxEditPrimaryDetails",
    "pf": "frmEditTemplatePrimaryDetails",
    "responsiveData": {
        "b1": {},
        "b2": {
            "bottom": {
                "type": "string",
                "value": "0dp"
            },
            "height": {
                "type": "string",
                "value": "90px"
            }
        },
        "b3": {
            "height": {
                "type": "string",
                "value": "160dp"
            }
        },
        "b4": {
            "height": {
                "type": "string",
                "value": "100px"
            }
        }
    },
    "snapgridsize": 10,
    "snaptogrid": true,
    "wType": "FlexContainer",
    "widgetalignment": 1,
    "zindex": 1
}