{
    "@class": "com.kony.gen.viz.model.component.KVizLabel",
    "DNDConfig": null,
    "_height_": {
        "type": "ref",
        "value": "preferred"
    },
    "_left_": {
        "type": "string",
        "value": "0dp"
    },
    "_margin_": [
        1,
        1,
        1,
        1
    ],
    "_padding_": [
        0,
        0,
        0,
        0
    ],
    "_skin_": "sff777f8381d4a6ebb6dd711181df2b4",
    "_text_": "Time Warner Cable On- Line Time Warner Cable On- Line",
    "_top_": {
        "type": "string",
        "value": "10dp"
    },
    "_width_": {
        "type": "string",
        "value": "100%"
    },
    "_wrapping_": 2,
    "accessibilityconfig": {
        "a11yLabel": "Time Warner Cable On- Line"
    },
    "android": {
        "textStyle": {
            "letterSpacing": 0,
            "strikeThrough": false
        }
    },
    "canUpdateUI": true,
    "containerId": true,
    "containerweight": 100,
    "contentalignment": 4,
    "id": "lblDescription",
    "info": null,
    "ipad": {
        "psp": {
            "wrapping": 2
        }
    },
    "iphone": {
        "psp": {
            "wrapping": 2
        }
    },
    "isvisible": true,
    "kuid": "e8ba17b049f44377af07faa6cd213f06",
    "name": "kony.ui.Label",
    "parent": "flxDescription",
    "pf": "ICSegTransactionsRowSelectedSavings",
    "tooltip": "",
    "wType": "Label",
    "zindex": 1
}