{
    "DNDConfig": null,
    "_height_": {
        "type": "string",
        "value": "357dp"
    },
    "_left_": {
        "type": "string",
        "value": "0dp"
    },
    "_margin_": [
        0,
        0,
        0,
        0
    ],
    "_orientation_": 6,
    "_padding_": [
        0,
        0,
        0,
        0
    ],
    "_percent_": true,
    "_skin_": "s282ae8616b74efb83f4abf39f1af7f3",
    "_top_": {
        "type": "string",
        "value": "0dp"
    },
    "_width_": {
        "type": "string",
        "value": "100%"
    },
    "allboxes": [],
    "autogrowmode": 0,
    "canUpdateUI": true,
    "children": [
        "lblOverallSpendingMySpending",
        "lblOverallSpendingAmount",
        "flxMySpending"
    ],
    "clipbounds": true,
    "containerweight": 100,
    "enablescrolling": true,
    "id": "flxMySpendingWrapper",
    "info": null,
    "isvisible": true,
    "kuid": "b33da3a6995c4da690ee76e7e489cb5f",
    "layouttype": 2,
    "name": "kony.ui.FlexContainer",
    "parent": "mySpending",
    "pf": "userwidgetmodel",
    "snapgridsize": 10,
    "snaptogrid": true,
    "wType": "FlexContainer",
    "widgetalignment": 1,
    "zindex": 1
}