{
    "@class": "com.kony.gen.viz.model.component.KVizLabel",
    "DNDConfig": null,
    "_height_": {
        "type": "ref",
        "value": "preferred"
    },
    "_left_": {
        "type": "string",
        "value": "2.30%"
    },
    "_margin_": [
        1,
        1,
        1,
        1
    ],
    "_padding_": [
        0,
        0,
        0,
        0
    ],
    "_skin_": "s14b5921a566439e9ae8c94da666e722",
    "_text_": "",
    "_top_": {
        "type": "string",
        "value": "4dp"
    },
    "_width_": {
        "type": "ref",
        "value": "preferred"
    },
    "_wrapping_": 2,
    "accessibilityconfig": {
        "a11yLabel": "Password Rules:"
    },
    "android": {
        "textStyle": {
            "letterSpacing": 0,
            "strikeThrough": false
        }
    },
    "canUpdateUI": true,
    "centery": {
        "type": "string",
        "value": "50%"
    },
    "containerweight": 100,
    "contentalignment": 5,
    "id": "lblImportant",
    "info": null,
    "ipad": {
        "psp": {
            "wrapping": 2
        }
    },
    "iphone": {
        "psp": {
            "wrapping": 2
        }
    },
    "isvisible": true,
    "kuid": "fcb805a151e744ce9b54e3c18be2b70e",
    "name": "kony.ui.Label",
    "parent": "flxImportantHeader",
    "pf": "frmEditApprovalMatrixLimits",
    "responsiveData": {
        "b1": {
            "left": {
                "type": "string",
                "value": "10dp"
            }
        },
        "b2": {
            "left": {
                "type": "string",
                "value": "10px"
            }
        }
    },
    "texti18n": "i18n.userManagement.imprtntInfo",
    "tooltip": "",
    "wType": "Label",
    "zindex": 1
}