{
    "DNDConfig": null,
    "_height_": {
        "type": "ref",
        "value": "preferred"
    },
    "_left_": {
        "type": "string",
        "value": "0dp"
    },
    "_margin_": [
        0,
        0,
        0,
        0
    ],
    "_orientation_": 6,
    "_padding_": [
        0,
        0,
        0,
        0
    ],
    "_percent_": true,
    "_skin_": "s24c92fc23b14f5484b693ee9b8a9b35",
    "_top_": {
        "type": "string",
        "value": "0dp"
    },
    "_width_": {
        "type": "string",
        "value": "100%"
    },
    "allboxes": [],
    "autogrowmode": 1,
    "canUpdateUI": true,
    "children": [
        "flxOrder",
        "flxQuantity",
        "flxOrderType",
        "flxLimitPrice",
        "flxStopPrice",
        "flxValidity",
        "flxSeparatorLine1",
        "flxTotalAmountOrder",
        "flxEstimatedFees",
        "Buttons"
    ],
    "clipbounds": false,
    "containerweight": 100,
    "enablescrolling": true,
    "id": "flxMainConfirmPage",
    "info": null,
    "isvisible": true,
    "kuid": "aa4e1fec4cb74ccd8385b480924ba75c",
    "layouttype": 4,
    "name": "kony.ui.FlexContainer",
    "parent": "OrderDetailsConfirmation",
    "pf": "userwidgetmodel",
    "snapgridsize": 10,
    "snaptogrid": true,
    "wType": "FlexContainer",
    "widgetalignment": 1,
    "zindex": 1
}