{
    "DNDConfig": null,
    "__parentReadjusting__": false,
    "_height_": {
        "type": "string",
        "value": "444px"
    },
    "_left_": {
        "type": "string",
        "value": "0dp"
    },
    "_margin_": [
        0,
        0,
        0,
        0
    ],
    "_orientation_": 6,
    "_padding_": [
        0,
        0,
        0,
        0
    ],
    "_percent_": true,
    "_skin_": "s24c92fc23b14f5484b693ee9b8a9b35",
    "_top_": {
        "type": "string",
        "value": "0dp"
    },
    "_width_": {
        "type": "string",
        "value": "100%"
    },
    "allboxes": [],
    "autogrowmode": 0,
    "canUpdateUI": true,
    "children": [
        "lblTransferFrommod",
        "lblTransferTomod",
        "lbxFromAccountmod",
        "lbxToAccountmod",
        "lbxFrequencymod",
        "lbxForHowLongmod",
        "flxCalSendOnmod",
        "flxCalEndingOnmod",
        "tbxNoOfRecurrencesmod",
        "tbxNotesmod",
        "lblAmountmod",
        "lblFrequencymod",
        "lblSendOnmod",
        "lblNotesmod",
        "lblNoOfRecOrEndingOnmod",
        "lblForhowLongmod",
        "flxCalRenderereSendOn",
        "flxCalRenderereEndingOn",
        "flxAmountmod"
    ],
    "clipbounds": true,
    "containerweight": 100,
    "enablescrolling": true,
    "id": "flxNewTransferForm",
    "info": null,
    "isvisible": false,
    "kuid": "h18f68783c844245870480577431222e",
    "layouttype": 2,
    "name": "kony.ui.FlexContainer",
    "parent": "maketransfer",
    "pf": "userwidgetmodel",
    "snapgridsize": 10,
    "snaptogrid": true,
    "wType": "FlexContainer",
    "widgetalignment": 1,
    "zindex": 1
}