{
    "@class": "com.kony.gen.viz.model.component.KVizButton",
    "DNDConfig": null,
    "__parentReadjusting__": false,
    "_height_": {
        "type": "string",
        "value": "18dp"
    },
    "_left_": {
        "type": "string",
        "value": "39.80%"
    },
    "_margin_": [
        6,
        6,
        6,
        6
    ],
    "_padding_": [
        0,
        0,
        0,
        0
    ],
    "_skin_": "sc6cdb14f47b4dc4a58713707ce0c2c4",
    "_text_": "Button",
    "_top_": {
        "type": "string",
        "value": "50px"
    },
    "_width_": {
        "type": "string",
        "value": "4.50%"
    },
    "accessibilityconfig": {
        "a11yLabel": "E-Bill"
    },
    "canUpdateUI": true,
    "containerweight": 100,
    "contentalignment": 5,
    "disabledSkins": {
        "focusSkin": "sf44d06ca8224832827ea7fdff757013"
    },
    "displaytext": true,
    "id": "btnEbill",
    "info": null,
    "isvisible": false,
    "kuid": "f506763243bf48538e0e9162a2582afa",
    "name": "kony.ui.Button",
    "parent": "flxMain",
    "pf": "userwidgetmodel",
    "texti18n": "i18n.billPay.EBill",
    "wType": "Button",
    "zindex": 5
}