{
    "@class": "com.kony.gen.viz.model.component.KVizRichText",
    "DNDConfig": null,
    "__parentReadjusting__": false,
    "_height_": {
        "type": "ref",
        "value": "preferred"
    },
    "_left_": {
        "type": "string",
        "value": "76dp"
    },
    "_margin_": [
        0,
        0,
        0,
        0
    ],
    "_padding_": [
        0,
        0,
        0,
        0
    ],
    "_skin_": "sa7875ee0d0f446987db74d1dc49550e",
    "_text_": "",
    "_width_": {
        "type": "string",
        "value": "90%"
    },
    "_wrapping_": 2,
    "accessibilityconfig": {
        "a11yLabel": "Please verify the payment amount and your account balance."
    },
    "canUpdateUI": true,
    "centery": {
        "type": "string",
        "value": "50%"
    },
    "containerweight": 100,
    "contentalignment": 4,
    "id": "rtxErrorPayBill",
    "info": null,
    "isvisible": true,
    "kuid": "e0db8e13e9a94a8aa0e99cae9669e146",
    "name": "kony.ui.RichText",
    "parent": "flxError",
    "pf": "userwidgetmodel",
    "texti18n": "i18n.billpay.error.invalidAmount",
    "wType": "RichText",
    "widgetalignment": 5,
    "zindex": 1
}