{
    "DNDConfig": null,
    "__parentReadjusting__": false,
    "_height_": {
        "type": "string",
        "value": "100px"
    },
    "_left_": {
        "type": "string",
        "value": "63px"
    },
    "_margin_": [
        0,
        0,
        0,
        0
    ],
    "_orientation_": 6,
    "_padding_": [
        0,
        0,
        0,
        0
    ],
    "_percent_": true,
    "_skin_": "s24c92fc23b14f5484b693ee9b8a9b35",
    "_top_": {
        "type": "string",
        "value": "63px"
    },
    "_width_": {
        "type": "string",
        "value": "341px"
    },
    "allboxes": [],
    "autogrowmode": 0,
    "canUpdateUI": true,
    "children": [
        "lblHeading",
        "lblDetail"
    ],
    "clipbounds": true,
    "containerId": true,
    "containerweight": 100,
    "enablescrolling": true,
    "id": "flxDetail",
    "info": null,
    "isvisible": true,
    "kuid": "a9742d3df95e4dc98e578cc0f7d9698f",
    "layouttype": 2,
    "name": "kony.ui.FlexContainer",
    "parent": "flxGoalBudget",
    "pf": "segGoalBudget",
    "snapgridsize": 10,
    "snaptogrid": true,
    "wType": "FlexContainer",
    "widgetalignment": 1,
    "zindex": 1
}