{
    "DNDConfig": null,
    "_height_": {
        "type": "string",
        "value": "100%"
    },
    "_left_": {
        "type": "string",
        "value": "0dp"
    },
    "_margin_": [
        0,
        0,
        0,
        0
    ],
    "_orientation_": 6,
    "_padding_": [
        0,
        0,
        0,
        0
    ],
    "_percent_": true,
    "_skin_": "s680c9bafb594fe3adb321f84abd24a1",
    "_top_": {
        "type": "string",
        "value": "0dp"
    },
    "_width_": {
        "type": "string",
        "value": "8%"
    },
    "allboxes": [],
    "autogrowmode": 0,
    "canUpdateUI": true,
    "children": [
        "imgDropdown"
    ],
    "clipbounds": true,
    "containerId": true,
    "containerweight": 100,
    "desktopweb": {
        "psp": {
            "hoverSkin": "s1ad686327314f4ebd664a20730ba9d4"
        }
    },
    "enablescrolling": true,
    "id": "flxDropdown",
    "info": null,
    "isvisible": true,
    "kuid": "ec1891ec00d9434888eaecb869ca0330",
    "layouttype": 3,
    "name": "kony.ui.FlexContainer",
    "parent": "flxBillPayAllPayeesWrapper",
    "pf": "segBillPayManagePayeesSelectedIC",
    "snapgridsize": 10,
    "snaptogrid": true,
    "wType": "FlexContainer",
    "widgetalignment": 1,
    "zindex": 1
}