{
    "@class": "com.kony.gen.viz.model.component.KVizLabel",
    "DNDConfig": null,
    "_height_": {
        "type": "ref",
        "value": "preferred"
    },
    "_left_": {
        "type": "string",
        "value": "1dp"
    },
    "_margin_": [
        1,
        1,
        1,
        1
    ],
    "_padding_": [
        0,
        0,
        0,
        0
    ],
    "_skin_": "saba6a95063f454f8c0e121236f16026",
    "_text_": "",
    "_top_": {
        "type": "string",
        "value": "5dp"
    },
    "_width_": {
        "type": "string",
        "value": "93%"
    },
    "_wrapping_": 2,
    "accessibilityconfig": {
        "a11yLabel": "102 W. Ashley Wilson Rd Sweeny, TX 77480"
    },
    "android": {
        "textStyle": {
            "letterSpacing": 0,
            "strikeThrough": false
        }
    },
    "canUpdateUI": true,
    "containerId": true,
    "containerweight": 100,
    "contentalignment": 4,
    "id": "lblField9Value",
    "info": null,
    "ipad": {
        "psp": {
            "wrapping": 2
        }
    },
    "iphone": {
        "psp": {
            "wrapping": 2
        }
    },
    "isvisible": true,
    "kuid": "j24cbc87660b49ebaad6c397fe563ce5",
    "name": "kony.ui.Label",
    "parent": "flxField9",
    "pf": "segBillPayManagePayeesSelectedIC",
    "tooltip": "",
    "wType": "Label",
    "zindex": 1
}