{
    "@class": "com.kony.gen.viz.model.component.KVizButton",
    "DNDConfig": null,
    "_bottom_": {
        "type": "string",
        "value": "20px"
    },
    "_height_": {
        "type": "string",
        "value": "40dp"
    },
    "_left_": {
        "type": "string",
        "value": "72.91%"
    },
    "_margin_": [
        6,
        6,
        6,
        6
    ],
    "_padding_": [
        0,
        0,
        0,
        0
    ],
    "_right_": {
        "type": "number",
        "value": ""
    },
    "_skin_": "s215ef7edf8c4ddb8f9f91fcc80f7b42",
    "_text_": "GO TO ACCOUNT SUMMARY",
    "_top_": {
        "type": "string",
        "value": "590dp"
    },
    "_width_": {
        "type": "string",
        "value": "20.86%"
    },
    "accessibilityconfig": {
        "a11yLabel": "Go to Account Summary"
    },
    "canUpdateUI": true,
    "centerx": {
        "type": "number",
        "value": ""
    },
    "containerweight": 100,
    "contentalignment": 5,
    "desktopweb": {
        "psp": {
            "hoverSkin": "s81054b5e2b74f17a5261991df565427"
        }
    },
    "disabledSkins": {
        "focusSkin": "sf44d06ca8224832827ea7fdff757013"
    },
    "displaytext": true,
    "id": "btnBackToAccountSummary",
    "info": null,
    "isvisible": true,
    "kuid": "ff0895bcc4b04c86b2a5fe07fe35d603",
    "name": "kony.ui.Button",
    "parent": "flxButton",
    "pf": "frmFastTransfers",
    "responsiveData": {
        "b1": {
            "left": {
                "type": "string",
                "value": ""
            },
            "skin": "sea1525e3fa24829a889b1fd650f3f24",
            "top": {
                "type": "string",
                "value": "30dp"
            }
        },
        "b3": {
            "bottom": {
                "type": "string",
                "value": ""
            },
            "centerX": {
                "type": "string",
                "value": "50%"
            },
            "left": {
                "type": "string",
                "value": ""
            },
            "skin": "s215ef7edf8c4ddb8f9f91fcc80f7b42",
            "top": {
                "type": "string",
                "value": "20dp"
            },
            "width": {
                "type": "string",
                "value": "90%"
            }
        },
        "b4": {
            "bottom": {
                "type": "string",
                "value": ""
            },
            "left": {
                "type": "string",
                "value": ""
            },
            "skin": "sea1525e3fa24829a889b1fd650f3f24",
            "top": {
                "type": "string",
                "value": "30dp"
            }
        },
        "b5": {
            "bottom": {
                "type": "string",
                "value": "20px"
            },
            "height": {
                "type": "string",
                "value": "40dp"
            },
            "left": {
                "type": "string",
                "value": ""
            },
            "right": {
                "type": "string",
                "value": "3%"
            },
            "skin": "s4fe0674a3c84b76a21524a90bad4282",
            "top": {
                "type": "string",
                "value": "30dp"
            },
            "width": {
                "type": "string",
                "value": "25%"
            }
        }
    },
    "texti18n": "i18n.ViewStatements.GoToAccountSummary",
    "tooltip": "Go To Account Summary",
    "wType": "Button",
    "zindex": 1
}