{
    "@class": "com.kony.gen.viz.model.component.KVizButton",
    "DNDConfig": null,
    "_height_": {
        "type": "string",
        "value": "40dp"
    },
    "_left_": {
        "type": "string",
        "value": "55.91%"
    },
    "_margin_": [
        6,
        6,
        6,
        6
    ],
    "_padding_": [
        0,
        0,
        0,
        0
    ],
    "_right_": {
        "type": "string",
        "value": "23.20%"
    },
    "_skin_": "sa611611b2f24e93bcfd09e1606c0d86",
    "_text_": "Cancel",
    "_top_": {
        "type": "number",
        "value": ""
    },
    "_width_": {
        "type": "string",
        "value": "18.99%"
    },
    "accessibilityconfig": {
        "a11yLabel": "Cancel"
    },
    "canUpdateUI": true,
    "centery": {
        "type": "string",
        "value": "50.00%"
    },
    "containerweight": 100,
    "contentalignment": 5,
    "desktopweb": {
        "psp": {
            "hoverSkin": "s83729feaa224e359d660d5af05c4bac"
        }
    },
    "disabledSkins": {},
    "displaytext": true,
    "focusskin": "s434743e49c446699565893e4974ec52",
    "id": "btnModify",
    "info": null,
    "isvisible": true,
    "kuid": "a43e8887086849339c73777cbf4277d1",
    "name": "kony.ui.Button",
    "parent": "flxTransferSubmit",
    "pf": "frmFastTransfers",
    "responsiveData": {
        "b1": {
            "left": {
                "type": "string",
                "value": "56.50%"
            }
        },
        "b3": {
            "centerY": {
                "type": "string",
                "value": ""
            },
            "left": {
                "type": "string",
                "value": "2%"
            },
            "right": {
                "type": "string",
                "value": "2%"
            },
            "top": {
                "type": "string",
                "value": "80dp"
            },
            "width": {
                "type": "string",
                "value": "96%"
            }
        },
        "b4": {
            "left": {
                "type": "string",
                "value": ""
            },
            "right": {
                "type": "string",
                "value": "190dp"
            },
            "width": {
                "type": "string",
                "value": "150dp"
            }
        },
        "b5": {
            "left": {
                "type": "string",
                "value": ""
            },
            "right": {
                "type": "string",
                "value": "26.50%"
            },
            "width": {
                "type": "string",
                "value": "22%"
            }
        }
    },
    "texti18n": "i18n.transfers.Modify",
    "tooltip": "Modify",
    "wType": "Button",
    "zindex": 1
}