{
    "@class": "com.kony.gen.viz.model.component.KVizUserWidget",
    "DNDConfig": null,
    "_children_": [],
    "_height_": {
        "type": "ref",
        "value": "preferred"
    },
    "_left_": {
        "type": "string",
        "value": "6%"
    },
    "_margin_": [
        0,
        0,
        0,
        0
    ],
    "_orientation_": 1,
    "_padding_": [
        0,
        0,
        0,
        0
    ],
    "_percent_": true,
    "_render_": true,
    "_skin_": "sdc143f0e5b64ae3a3f155f691c73fa7",
    "_top_": {
        "type": "string",
        "value": "0dp"
    },
    "_width_": {
        "type": "string",
        "value": "88%"
    },
    "areflexpropsreferenced": false,
    "autogrowmode": 1,
    "canUpdateUI": true,
    "clipbounds": false,
    "containerweight": 0,
    "dataDiffs": {
        "btnTermsAndConditions": {
            "__events__": {},
            "__info__": {
                "kuid": "e97d648d6c1047c5a5568280ae1d4a9d",
                "srcKUID": "b6e92b9e13f841689eeb8440ab211d3b",
                "wType": "Button"
            }
        },
        "confirmButtons": {
            "__events__": {},
            "__info__": {
                "kuid": "a9d2f62d2916470dbf878a4c506dfae0",
                "srcKUID": "5a42c3c7ab1a47e1a14816c1b5e564f1",
                "wType": "UserWidgetInstance"
            },
            "autogrowMode": {
                "Default": 0
            },
            "height": {
                "Default": {
                    "type": "string",
                    "value": "120dp"
                }
            },
            "layoutType": 2,
            "responsiveData": {
                "b3": {
                    "height": {
                        "type": "string",
                        "value": "200dp"
                    },
                    "top": {
                        "type": "string",
                        "value": "10dp"
                    }
                },
                "b5": {
                    "height": null
                }
            },
            "top": {}
        },
        "confirmButtons.btnCancel": {
            "__events__": {},
            "__info__": {
                "kuid": "j8b35034b085457abc7f84969221a709",
                "srcKUID": "c69dd70537134dca91d79ecfae2ab801",
                "wType": "Button"
            },
            "centerY": {},
            "left": {},
            "responsiveData": {
                "b3": {
                    "centerY": {
                        "type": "string",
                        "value": ""
                    },
                    "left": {
                        "type": "string",
                        "value": "3%"
                    },
                    "top": {
                        "type": "string",
                        "value": "140dp"
                    },
                    "width": {
                        "type": "string",
                        "value": "94%"
                    }
                },
                "b5": {
                    "centerY": {
                        "type": "string",
                        "value": ""
                    },
                    "right": {
                        "type": "string",
                        "value": "49%"
                    },
                    "top": null,
                    "width": {
                        "type": "string",
                        "value": "20%"
                    }
                }
            },
            "right": {},
            "top": {
                "Default": {
                    "type": "string",
                    "value": "50dp"
                }
            },
            "width": {}
        },
        "confirmButtons.btnConfirm": {
            "__events__": {},
            "__info__": {
                "kuid": "jd367c98406944908c7810903466537e",
                "srcKUID": "id4ed79fda4946d7b788005be824b480",
                "wType": "Button"
            },
            "bottom": {
                "Default": {
                    "type": "string",
                    "value": ""
                }
            },
            "centerY": {},
            "left": {},
            "responsiveData": {
                "b3": {
                    "centerY": {
                        "type": "string",
                        "value": ""
                    },
                    "left": {
                        "type": "string",
                        "value": "3%"
                    },
                    "right": {
                        "type": "string",
                        "value": ""
                    },
                    "top": {
                        "type": "string",
                        "value": "20dp"
                    },
                    "width": {
                        "type": "string",
                        "value": "94%"
                    }
                },
                "b5": {
                    "centerY": {
                        "type": "string",
                        "value": ""
                    },
                    "right": {
                        "type": "string",
                        "value": "3%"
                    },
                    "top": null,
                    "width": {
                        "type": "string",
                        "value": "20%"
                    }
                }
            },
            "right": {},
            "top": {
                "Default": {
                    "type": "string",
                    "value": "50dp"
                }
            },
            "width": {}
        },
        "confirmButtons.btnModify": {
            "__events__": {},
            "__info__": {
                "kuid": "d596788dc9f048489605d99dc6f70cba",
                "srcKUID": "ib356fc7a2664bdfa2d82ba1e6d9bf5a",
                "wType": "Button"
            },
            "centerY": {},
            "left": {},
            "responsiveData": {
                "b3": {
                    "centerY": {
                        "type": "string",
                        "value": ""
                    },
                    "left": {
                        "type": "string",
                        "value": "3%"
                    },
                    "right": {
                        "type": "string",
                        "value": ""
                    },
                    "top": {
                        "type": "string",
                        "value": "80dp"
                    },
                    "width": {
                        "type": "string",
                        "value": "94%"
                    }
                },
                "b5": {
                    "centerY": {
                        "type": "string",
                        "value": ""
                    },
                    "right": {
                        "type": "string",
                        "value": "26%"
                    },
                    "top": null,
                    "width": {
                        "type": "string",
                        "value": "20%"
                    }
                }
            },
            "right": {},
            "top": {
                "Default": {
                    "type": "string",
                    "value": "50dp"
                }
            },
            "width": {}
        },
        "confirmButtons.flxHorizontalLine": {
            "__events__": {},
            "__info__": {
                "kuid": "ef181952e66b4edca3bef2c8d8225032",
                "srcKUID": "daa090bb00594a999e8dd106a8d4f9ec",
                "wType": "FlexContainer"
            },
            "left": {},
            "responsiveData": {
                "b3": {
                    "left": {
                        "type": "string",
                        "value": "3%"
                    },
                    "right": {
                        "type": "string",
                        "value": ""
                    },
                    "width": {
                        "type": "string",
                        "value": "94%"
                    }
                },
                "b5": {
                    "left": {
                        "type": "string",
                        "value": "3%"
                    },
                    "right": {
                        "type": "string",
                        "value": ""
                    },
                    "top": {
                        "type": "string",
                        "value": "20dp"
                    },
                    "width": {
                        "type": "string",
                        "value": "94%"
                    }
                }
            },
            "right": {},
            "top": {},
            "width": {}
        },
        "confirmHeaders": {
            "__events__": {},
            "__info__": {
                "kuid": "a9925f7e3385400b9c31df0793e78d42",
                "srcKUID": "09aba131fa64470bad5b79747c2fe9ba",
                "wType": "UserWidgetInstance"
            }
        },
        "confirmHeaders.flxHeader": {
            "__events__": {},
            "__info__": {
                "kuid": "bf5befa269274bed90f03b95d72001a4",
                "srcKUID": "bfbfb9f59a6f415880f5ba35fbddd249",
                "wType": "FlexContainer"
            },
            "autogrowMode": {
                "Default": 0
            },
            "height": {},
            "isVisible": true,
            "responsiveData": {
                "b5": {
                    "height": {
                        "type": "string",
                        "value": "50dp"
                    }
                }
            }
        },
        "confirmHeaders.lblHeading": {
            "__events__": {},
            "__info__": {
                "kuid": "ac0a39248eb543a9bb2524249a02e727",
                "srcKUID": "b632c5d3e7934929bf29a1aa5ab625f2",
                "wType": "Label"
            },
            "left": {},
            "responsiveData": {
                "b3": {
                    "left": {
                        "type": "string",
                        "value": "3%"
                    }
                },
                "b5": {
                    "left": {
                        "type": "string",
                        "value": "3%"
                    }
                }
            }
        },
        "confirmation": {
            "__events__": {},
            "__info__": {
                "isRoot": true,
                "kuid": "cd290531dcdd4199a1966f84ea365af0",
                "srcKUID": "bdae1d6d4d9b4341b5986ad17bb8aa55",
                "wType": "FlexContainer"
            },
            "left": {
                "Default": {
                    "type": "string",
                    "value": "6%"
                }
            },
            "responsiveData": {
                "b3": {
                    "left": {
                        "type": "string",
                        "value": "2.30%"
                    },
                    "width": {
                        "type": "string",
                        "value": "95%"
                    }
                },
                "b5": {
                    "left": {
                        "type": "string",
                        "value": "3%"
                    },
                    "width": {
                        "type": "string",
                        "value": "94%"
                    }
                }
            },
            "top": {
                "Default": {
                    "type": "string",
                    "value": "0dp"
                }
            },
            "width": {
                "Default": {
                    "type": "string",
                    "value": "88%"
                }
            }
        },
        "flxActualEndDateDetails": {
            "__events__": {},
            "__info__": {
                "kuid": "i792132da7c54ae0b5e0674959853cd2",
                "srcKUID": "b6002d69b081442b85d61491ba3e2c8b",
                "wType": "FlexContainer"
            }
        },
        "flxActualEndDateKey": {
            "__events__": {},
            "__info__": {
                "kuid": "b56d41a1cbe04c9a8d24f2e650312e48",
                "srcKUID": "fc6cd96da0b544beb83432d545bc9d72",
                "wType": "FlexContainer"
            }
        },
        "flxActualEndDateValue": {
            "__events__": {},
            "__info__": {
                "kuid": "bb7aa4e0871f4bc2907c5861735814d9",
                "srcKUID": "ba3f033754ae4bb297aecb760f542d88",
                "wType": "FlexContainer"
            }
        },
        "flxCenterDetails": {
            "__events__": {},
            "__info__": {
                "kuid": "dc77fe4ca9034bb18e84da557f365e61",
                "srcKUID": "ed685f3b5e0a4019b5ae3b4032ffc5a0",
                "wType": "FlexContainer"
            }
        },
        "flxCheckbox": {
            "__events__": {},
            "__info__": {
                "kuid": "f2aba51f2d4142e7a4b0f67ee0172158",
                "srcKUID": "b3183a72626349d8a54b808d57e8573e",
                "wType": "FlexContainer"
            }
        },
        "flxContainerAmount": {
            "__events__": {},
            "__info__": {
                "kuid": "b3ca9028767143519745f807bc8abfae",
                "srcKUID": "h77aae31e0b84c27b7e799a4eba06c22",
                "wType": "FlexContainer"
            }
        },
        "flxContainerBalanceAmount": {
            "__events__": {},
            "__info__": {
                "kuid": "d8fb4faa5b4c4dedbaf3e7d88de91a53",
                "srcKUID": "h68f0b33b0094c0e9be53b6d2bd0b4e4",
                "wType": "FlexContainer"
            },
            "left": {},
            "responsiveData": {
                "b3": {
                    "left": {
                        "type": "string",
                        "value": "3%"
                    }
                },
                "b5": {
                    "left": {
                        "type": "string",
                        "value": "3%"
                    }
                }
            }
        },
        "flxContainerDate": {
            "__events__": {},
            "__info__": {
                "kuid": "ieecfbccefc04e22a8accceedaea0c86",
                "srcKUID": "f80302cb251b43c6b256c331c6788ae4",
                "wType": "FlexContainer"
            }
        },
        "flxContainerDescription": {
            "__events__": {},
            "__info__": {
                "kuid": "i54631c4facc485cafa2662480ab378a",
                "srcKUID": "cc6cb296af0a4459b2e89eff67388481",
                "wType": "FlexContainer"
            },
            "responsiveData": {
                "b3": {
                    "width": {
                        "type": "string",
                        "value": "100%"
                    }
                }
            },
            "width": {}
        },
        "flxContainerFrom": {
            "__events__": {},
            "__info__": {
                "kuid": "ff77d99f67db40ee9d58c51cc83e5eb7",
                "srcKUID": "f2049bdbf13845c498332d3e4df5130f",
                "wType": "FlexContainer"
            }
        },
        "flxContainerPartialDate": {
            "__events__": {},
            "__info__": {
                "kuid": "daa5f788d54c46e3afbdd5030a733907",
                "srcKUID": "c3308e42629b40bf8325ebf1a6517f1b",
                "wType": "FlexContainer"
            },
            "left": {},
            "responsiveData": {
                "b3": {
                    "left": {
                        "type": "string",
                        "value": "3%"
                    }
                },
                "b5": {
                    "left": {
                        "type": "string",
                        "value": "3%"
                    }
                }
            }
        },
        "flxContainerPaymentDate": {
            "__events__": {},
            "__info__": {
                "kuid": "aa0d10e623ac4e46b9042be18a256e65",
                "srcKUID": "edf0ef9221424362b8058029e3e3c8ee",
                "wType": "FlexContainer"
            }
        },
        "flxContainerPenaltyAmount": {
            "__events__": {},
            "__info__": {
                "kuid": "e1eda45feac646908fc88614409820c9",
                "srcKUID": "f4bd33843dd24991aefc25108d27f992",
                "wType": "FlexContainer"
            }
        },
        "flxContainerTo": {
            "__events__": {},
            "__info__": {
                "kuid": "j1937ae3ec534c6fbcbc8e5e6198c367",
                "srcKUID": "c512f0b5aaac47aaa1e3423f71c9fdaf",
                "wType": "FlexContainer"
            }
        },
        "flxContainerYouArePaying": {
            "__events__": {},
            "__info__": {
                "kuid": "b386672d02b043e89230a22acf9def5a",
                "srcKUID": "e607c7c35ca64b2fbbdbdbeb1457d58d",
                "wType": "FlexContainer"
            },
            "left": {},
            "responsiveData": {
                "b3": {
                    "left": {
                        "type": "string",
                        "value": "3%"
                    }
                },
                "b5": {
                    "left": {
                        "type": "string",
                        "value": "3%"
                    }
                }
            }
        },
        "flxContainerYourBill": {
            "__events__": {},
            "__info__": {
                "kuid": "f74c072687f64e5c8783de663c360def",
                "srcKUID": "if07756efe944135bebe2297d60e8499",
                "wType": "FlexContainer"
            },
            "left": {},
            "responsiveData": {
                "b3": {
                    "left": {
                        "type": "string",
                        "value": "3%"
                    }
                },
                "b5": {
                    "left": {
                        "type": "string",
                        "value": "3%"
                    },
                    "width": {
                        "type": "string",
                        "value": "95%"
                    }
                }
            },
            "width": {}
        },
        "flxCurrentBalanceDetails": {
            "__events__": {},
            "__info__": {
                "kuid": "ec2f6e9f1d434eed947573f45777a6f3",
                "srcKUID": "a8e1934dd9264523aa82213328063d28",
                "wType": "FlexContainer"
            }
        },
        "flxCurrentBalanceKey": {
            "__events__": {},
            "__info__": {
                "kuid": "cebc37ffbccf49bd948f47b39642b780",
                "srcKUID": "ddf968f089534fb0969ebc9d61a20463",
                "wType": "FlexContainer"
            }
        },
        "flxCurrentBalanceValue": {
            "__events__": {},
            "__info__": {
                "kuid": "a23c7d63644147f8861c8b681f204279",
                "srcKUID": "ee819107737842428e4388e05547f0fe",
                "wType": "FlexContainer"
            }
        },
        "flxError": {
            "__events__": {},
            "__info__": {
                "kuid": "ded2acf08c5540949e59beffd694c793",
                "srcKUID": "a2b1f5f662b7419ba0bf70b0c3fa4f05",
                "wType": "FlexContainer"
            },
            "left": {},
            "responsiveData": {
                "b3": {
                    "left": {
                        "type": "string",
                        "value": "3%"
                    },
                    "width": {
                        "type": "string",
                        "value": "94%"
                    }
                },
                "b5": {
                    "isVisible": true,
                    "left": {
                        "type": "string",
                        "value": "3%"
                    },
                    "top": {
                        "type": "string",
                        "value": ""
                    },
                    "width": {
                        "type": "string",
                        "value": "94%"
                    }
                }
            },
            "top": {},
            "width": {}
        },
        "flxFromDetails": {
            "__events__": {},
            "__info__": {
                "kuid": "cada05433b794746942764a22443fca9",
                "srcKUID": "a5ba6e6bae3f4296988d4b0d6fbe339f",
                "wType": "FlexContainer"
            }
        },
        "flxFromKey": {
            "__events__": {},
            "__info__": {
                "kuid": "icbd8e5f72d84709877df975d71ff101",
                "srcKUID": "h594b3a79a13421794374bc8fd135bc2",
                "wType": "FlexContainer"
            }
        },
        "flxFromValue": {
            "__events__": {},
            "__info__": {
                "kuid": "c6a318b995ed4fe184b7eaa72d1c265b",
                "srcKUID": "a3c5f9f59fb54ca59d9d4a35440bb25c",
                "wType": "FlexContainer"
            }
        },
        "flxHorizontalLine": {
            "__events__": {},
            "__info__": {
                "kuid": "f6143343624249e9911a59bc569292d9",
                "srcKUID": "93e9c5d86b514dd898e5a85868ed01fa",
                "wType": "FlexContainer"
            },
            "left": {},
            "responsiveData": {
                "b1": {},
                "b3": {
                    "left": {
                        "type": "string",
                        "value": "3%"
                    },
                    "right": {
                        "type": "string",
                        "value": ""
                    },
                    "width": {
                        "type": "string",
                        "value": "94%"
                    }
                },
                "b4": {},
                "b5": {
                    "left": {
                        "type": "string",
                        "value": "3%"
                    },
                    "right": {
                        "type": "string",
                        "value": ""
                    },
                    "width": {
                        "type": "string",
                        "value": "94%"
                    }
                }
            },
            "right": {},
            "width": {}
        },
        "flxIAgree": {
            "__events__": {},
            "__info__": {
                "kuid": "h8acd28604c24a708193444f96d49bf8",
                "srcKUID": "b6267a106be347b89ff112b7e11c7b33",
                "wType": "FlexContainer"
            }
        },
        "flxKey": {
            "__events__": {},
            "__info__": {
                "kuid": "cb0cd9be682347048a81daa683282315",
                "srcKUID": "hda965dbf4ed42cd9a842978d8c5cf46",
                "wType": "FlexContainer"
            },
            "responsiveData": {
                "b3": {
                    "width": {
                        "type": "string",
                        "value": "27%"
                    }
                }
            },
            "width": {}
        },
        "flxKeyAmount": {
            "__events__": {},
            "__info__": {
                "kuid": "i9b7dc02d8354670805da9b318126c08",
                "srcKUID": "af8ed10b85134b57a8a7da6b706dc03e",
                "wType": "FlexContainer"
            },
            "responsiveData": {
                "b3": {
                    "width": {
                        "type": "string",
                        "value": "27%"
                    }
                },
                "b5": {
                    "width": {
                        "type": "ref",
                        "value": "preferred"
                    }
                }
            },
            "width": {}
        },
        "flxKeyBalanceAmount": {
            "__events__": {},
            "__info__": {
                "kuid": "ad789caaa54a4751a143b6ae4df76ba5",
                "srcKUID": "e40e02c3cb6d4f7fa103e9e8b3459709",
                "wType": "FlexContainer"
            },
            "responsiveData": {
                "b3": {
                    "width": {
                        "type": "string",
                        "value": "33%"
                    }
                }
            },
            "width": {}
        },
        "flxKeyDate": {
            "__events__": {},
            "__info__": {
                "kuid": "j5d03b60c401433cb0b3ad8cd50832b2",
                "srcKUID": "g801567c60f64a3f94e0b9d6b4f3f000",
                "wType": "FlexContainer"
            },
            "responsiveData": {
                "b3": {
                    "width": {
                        "type": "string",
                        "value": "27%"
                    }
                },
                "b5": {
                    "width": {
                        "type": "ref",
                        "value": "preferred"
                    }
                }
            },
            "width": {}
        },
        "flxKeyDescription": {
            "__events__": {},
            "__info__": {
                "kuid": "bd095de8fe3d454a9f5d61dec396968b",
                "srcKUID": "eb1752b0b1b44cc399a4ebc5532a3710",
                "wType": "FlexContainer"
            },
            "responsiveData": {
                "b3": {
                    "width": {
                        "type": "string",
                        "value": "27%"
                    }
                }
            },
            "width": {}
        },
        "flxKeyPartialDate": {
            "__events__": {},
            "__info__": {
                "kuid": "cc5c6112a6e142aab30db1261a69a8a2",
                "srcKUID": "c3136dbf242540359472d40df042dcab",
                "wType": "FlexContainer"
            },
            "responsiveData": {
                "b3": {
                    "width": {
                        "type": "string",
                        "value": "33%"
                    }
                }
            },
            "width": {}
        },
        "flxKeyPaymentDate": {
            "__events__": {},
            "__info__": {
                "kuid": "b249c4ad945147208f20816adeb3e1e6",
                "srcKUID": "jac8a404dd824172978ab2588dbb7c02",
                "wType": "FlexContainer"
            },
            "responsiveData": {
                "b3": {
                    "width": {
                        "type": "string",
                        "value": "27%"
                    }
                },
                "b5": {
                    "width": {
                        "type": "ref",
                        "value": "preferred"
                    }
                }
            },
            "width": {}
        },
        "flxKeyPenaltyAmount": {
            "__events__": {},
            "__info__": {
                "kuid": "h0b05a8bf6c844f6ae7e5afbc50a7bc6",
                "srcKUID": "c95d4fc3c9ed42b0a53eac5d57d1e746",
                "wType": "FlexContainer"
            },
            "responsiveData": {
                "b3": {
                    "width": {
                        "type": "string",
                        "value": "27%"
                    }
                }
            },
            "width": {}
        },
        "flxKeyTo": {
            "__events__": {},
            "__info__": {
                "kuid": "dd423ad25a434205b60f3bf4e9918836",
                "srcKUID": "h924e21f5bb347aa9c05c5953c5b21d9",
                "wType": "FlexContainer"
            },
            "responsiveData": {
                "b3": {
                    "width": {
                        "type": "string",
                        "value": "27%"
                    }
                }
            },
            "width": {}
        },
        "flxKeyYouArePaying": {
            "__events__": {},
            "__info__": {
                "kuid": "fc9c5b92ae804a6e9f100bafe42ea2ca",
                "srcKUID": "j90ba6eae997450dbf06159703d2c98f",
                "wType": "FlexContainer"
            },
            "responsiveData": {
                "b3": {
                    "width": {
                        "type": "string",
                        "value": "33%"
                    }
                }
            },
            "width": {}
        },
        "flxKeyYourBill": {
            "__events__": {},
            "__info__": {
                "kuid": "a1d796eab4d640ce9c2885613695bab1",
                "srcKUID": "d59d7439c54f4d6fbfabf3af1f435940",
                "wType": "FlexContainer"
            },
            "responsiveData": {
                "b3": {
                    "width": {
                        "type": "string",
                        "value": "33%"
                    },
                    "zIndex": 1
                }
            },
            "width": {},
            "zIndex": {}
        },
        "flxLateFeeKey": {
            "__events__": {},
            "__info__": {
                "kuid": "g90ad13af679494d81ec8c1258d6e5a5",
                "srcKUID": "f87874e456cf465ca7c7092d3de629f0",
                "wType": "FlexContainer"
            }
        },
        "flxLateFeeValue": {
            "__events__": {},
            "__info__": {
                "kuid": "f26cc85144314cf99850d631ab67b07b",
                "srcKUID": "e417e149edf6466bb16279409adfa0f3",
                "wType": "FlexContainer"
            }
        },
        "flxLatePaymentChargeDetails": {
            "__events__": {},
            "__info__": {
                "kuid": "ac56c16e0a4540d8b92fa0682337f437",
                "srcKUID": "j688cb980ad54bdba3eab6236ab8f909",
                "wType": "FlexContainer"
            }
        },
        "flxLeft": {
            "__events__": {},
            "__info__": {
                "kuid": "b0c3c7f26d554a4abcdc5c94831fb630",
                "srcKUID": "fb4dc64eb4884d74a9e61b06dc5a4a99",
                "wType": "FlexContainer"
            },
            "autogrowMode": {
                "Default": 0
            },
            "height": {},
            "left": {},
            "responsiveData": {
                "b1": {
                    "height": {
                        "type": "string",
                        "value": "320dp"
                    },
                    "left": {
                        "type": "string",
                        "value": "2.50%"
                    },
                    "width": {
                        "type": "string",
                        "value": "95%"
                    }
                },
                "b3": {
                    "height": {
                        "type": "string",
                        "value": "350dp"
                    },
                    "left": {
                        "type": "string",
                        "value": "3%"
                    },
                    "width": {
                        "type": "string",
                        "value": "94%"
                    }
                },
                "b4": {
                    "height": {
                        "type": "string",
                        "value": "300dp"
                    },
                    "left": {
                        "type": "string",
                        "value": "2.20%"
                    },
                    "width": {
                        "type": "string",
                        "value": "100%"
                    }
                },
                "b5": {
                    "height": {
                        "type": "string",
                        "value": "260dp"
                    },
                    "left": {
                        "type": "string",
                        "value": "3%"
                    }
                }
            },
            "width": {}
        },
        "flxLeftDetails": {
            "__events__": {},
            "__info__": {
                "kuid": "f6590f4eba2543d8b85f13f5ee52f93b",
                "srcKUID": "fcf86bb430b34564a3c12d6c7d36d44b",
                "wType": "FlexContainer"
            }
        },
        "flxMain": {
            "__events__": {},
            "__info__": {
                "kuid": "fc85d00eb67642dba9c46f03b773c20e",
                "srcKUID": "7cc799138de8456cacd2827d4a391009",
                "wType": "FlexContainer"
            },
            "responsiveData": {
                "b1": {
                    "width": {
                        "type": "string",
                        "value": "100%"
                    }
                }
            },
            "width": {}
        },
        "flxMainWrapper": {
            "__events__": {},
            "__info__": {
                "kuid": "dea45863d3ae454c9b60e2482c72c637",
                "srcKUID": "a3781507e2db44168507da78c87f473c",
                "wType": "FlexContainer"
            }
        },
        "flxPartialPayment": {
            "__events__": {},
            "__info__": {
                "kuid": "fe506d9e4ba645a5b2b3469820f00477",
                "srcKUID": "c48acd49028f447cb69722b00b8b68ee",
                "wType": "FlexContainer"
            },
            "autogrowMode": {
                "Default": 0
            },
            "height": {},
            "isVisible": false,
            "left": {},
            "responsiveData": {
                "b3": {
                    "height": {
                        "type": "string",
                        "value": "300dp"
                    },
                    "left": {
                        "type": "string",
                        "value": "0%"
                    },
                    "width": {
                        "type": "string",
                        "value": "100%"
                    }
                },
                "b5": {
                    "height": {
                        "type": "string",
                        "value": "250dp"
                    },
                    "left": {
                        "type": "string",
                        "value": "0%"
                    },
                    "width": {
                        "type": "string",
                        "value": "100%"
                    }
                }
            },
            "width": {}
        },
        "flxPartialPaymentdetails": {
            "__events__": {},
            "__info__": {
                "kuid": "a8101385d1e54647a725dd0bd418deb2",
                "srcKUID": "d6715ee091c04013ad403090ce35c699",
                "wType": "FlexContainer"
            },
            "autogrowMode": {
                "Default": 0
            },
            "height": {},
            "minHeight": {},
            "responsiveData": {
                "b3": {
                    "height": {
                        "type": "string",
                        "value": "300dp"
                    },
                    "minHeight": {
                        "type": "string",
                        "value": ""
                    }
                },
                "b5": {
                    "height": {
                        "type": "ref",
                        "value": "preferred"
                    },
                    "top": {
                        "type": "string",
                        "value": "20dp"
                    }
                }
            },
            "top": {}
        },
        "flxPayOffAmountDetails": {
            "__events__": {},
            "__info__": {
                "kuid": "h3a30aff5c544c5a8ebaff86ce8c2b78",
                "srcKUID": "g30143cbf2a44d5fab733fedc65664f4",
                "wType": "FlexContainer"
            }
        },
        "flxPayOffAmountKey": {
            "__events__": {},
            "__info__": {
                "kuid": "bd763d8b8d754e48bc6fde5ae2e91c8f",
                "srcKUID": "e5d40be857a34e738bfea1f86c1f4dbe",
                "wType": "FlexContainer"
            }
        },
        "flxPayOffAmountValue": {
            "__events__": {},
            "__info__": {
                "kuid": "dc07addbd8a447cd9c4d3ca960e7f165",
                "srcKUID": "ff66032010ed4637b131217cc5be7485",
                "wType": "FlexContainer"
            }
        },
        "flxPayOffDateDetails": {
            "__events__": {},
            "__info__": {
                "kuid": "c81086bc8a7a4df4bd83622d2078531a",
                "srcKUID": "ee7443c4e4cc4e82a2f3a80dda08f6ec",
                "wType": "FlexContainer"
            }
        },
        "flxPayOffDateKey": {
            "__events__": {},
            "__info__": {
                "kuid": "faa1989992114d99881434d6c097dd96",
                "srcKUID": "e77f1b9a484b4beb8cb659d2cc5eedb2",
                "wType": "FlexContainer"
            }
        },
        "flxPayOffDateValue": {
            "__events__": {},
            "__info__": {
                "kuid": "fa47d4ea4276421aa17542150de6c152",
                "srcKUID": "f1504c1c1bc94e37a7b80848e5fe26af",
                "wType": "FlexContainer"
            }
        },
        "flxPayOffPenalityDetails": {
            "__events__": {},
            "__info__": {
                "kuid": "b056be92f52c4191b1fb6b14222208bb",
                "srcKUID": "cc978423a5ea40698244c55015c1637c",
                "wType": "FlexContainer"
            }
        },
        "flxPayOffPenalityKey": {
            "__events__": {},
            "__info__": {
                "kuid": "d429f624f18d4742b0064b697878464c",
                "srcKUID": "fa1eb2fcfe3a4740b3c561abc143f3ab",
                "wType": "FlexContainer"
            }
        },
        "flxPayOffPenalityValue": {
            "__events__": {},
            "__info__": {
                "kuid": "j6e56edc878d42bd8eeb5dcf4e56b328",
                "srcKUID": "e068c6322c064c4fb1735c5d9382cc36",
                "wType": "FlexContainer"
            }
        },
        "flxRateDetails": {
            "__events__": {},
            "__info__": {
                "kuid": "cd3173751cc24cd8adb0d8ba1ab31c74",
                "srcKUID": "j2e1206821a0433abbc59265b9f8fd23",
                "wType": "FlexContainer"
            }
        },
        "flxRateKey": {
            "__events__": {},
            "__info__": {
                "kuid": "cd71417e9cf8404e994bdd60b15dd9f4",
                "srcKUID": "df3299c4093342bfae9dcbc8b749a2c5",
                "wType": "FlexContainer"
            }
        },
        "flxRateValue": {
            "__events__": {},
            "__info__": {
                "kuid": "g76e2778a54d4f9ea5ce456ecd44e87c",
                "srcKUID": "a29e4e847cd54c8c90c4fa7bccff57ca",
                "wType": "FlexContainer"
            }
        },
        "flxRightDetails": {
            "__events__": {},
            "__info__": {
                "kuid": "fd48c5baee6847509a5df436a818bdfc",
                "srcKUID": "d58284b311e7411a9fbd9d597435d21f",
                "wType": "FlexContainer"
            }
        },
        "flxSeparator": {
            "__events__": {},
            "__info__": {
                "kuid": "ccadc7248fa84dcca12212f2301aa6bc",
                "srcKUID": "da7d9d1b772743aa98ef022916a2dfeb",
                "wType": "FlexContainer"
            },
            "autogrowMode": {
                "Default": 0
            },
            "centerY": {},
            "height": {},
            "left": {},
            "responsiveData": {
                "b3": {
                    "centerY": {
                        "type": "string",
                        "value": ""
                    },
                    "height": {
                        "type": "string",
                        "value": "1dp"
                    },
                    "left": {
                        "type": "string",
                        "value": "3%"
                    },
                    "width": {
                        "type": "string",
                        "value": "94%"
                    }
                },
                "b5": {
                    "centerY": {
                        "type": "string",
                        "value": ""
                    },
                    "height": {
                        "type": "string",
                        "value": "1dp"
                    },
                    "left": {
                        "type": "string",
                        "value": "3%"
                    },
                    "top": {
                        "type": "string",
                        "value": "0dp"
                    },
                    "width": {
                        "type": "string",
                        "value": "94%"
                    }
                }
            },
            "top": {},
            "width": {}
        },
        "flxSeperatorLine": {
            "__events__": {},
            "__info__": {
                "kuid": "ddbde75ec7784047b6b90f905a47648e",
                "srcKUID": "c726f5c4acbb4fd8a0a43050c7191a18",
                "wType": "FlexContainer"
            }
        },
        "flxToDetails": {
            "__events__": {},
            "__info__": {
                "kuid": "e884e8089c864ca49770941796558bf3",
                "srcKUID": "e4dd5dda13a94086aabaa88afae1eaeb",
                "wType": "FlexContainer"
            }
        },
        "flxToKey": {
            "__events__": {},
            "__info__": {
                "kuid": "e9dc02b8cd9746f39847db70e4a0bfac",
                "srcKUID": "acf1d1fd379f428aaa9a1d296e445553",
                "wType": "FlexContainer"
            }
        },
        "flxToValue": {
            "__events__": {},
            "__info__": {
                "kuid": "g21d5a31e7af49be85c8445fb3b7b23f",
                "srcKUID": "aa734bd8ba1e4d9c97c170ebb0c83a74",
                "wType": "FlexContainer"
            }
        },
        "flxTotalInterestDetails": {
            "__events__": {},
            "__info__": {
                "kuid": "c785832f29cf4c3cb431929de04b279c",
                "srcKUID": "i349ab64ef54458d9e62377e43aed0ea",
                "wType": "FlexContainer"
            }
        },
        "flxTotalInterestKey": {
            "__events__": {},
            "__info__": {
                "kuid": "f7753fe127a94bf09a0cbda83efc956a",
                "srcKUID": "j14f0ba5f02d4ae1b074c5d8900ca9db",
                "wType": "FlexContainer"
            }
        },
        "flxTotalInterestValue": {
            "__events__": {},
            "__info__": {
                "kuid": "iac3b585170142169ce7e6a7d5a737cf",
                "srcKUID": "he305d4bc23b4d80a8070d8b27ecbc7e",
                "wType": "FlexContainer"
            }
        },
        "flxTotalPrincipalDetails": {
            "__events__": {},
            "__info__": {
                "kuid": "df6d03b102f2445d8d39c8292056584f",
                "srcKUID": "e9daada984d54454863386e55ecee470",
                "wType": "FlexContainer"
            }
        },
        "flxTotalPrincipalKey": {
            "__events__": {},
            "__info__": {
                "kuid": "f989f763c1e04cf59550d65192eca61a",
                "srcKUID": "hdf080eba18e4d94bb71e50db4c2636d",
                "wType": "FlexContainer"
            }
        },
        "flxTotalPrincipalValue": {
            "__events__": {},
            "__info__": {
                "kuid": "cddbb2e563a04f60903c1d8bee6f7bd1",
                "srcKUID": "gb59ca12590347e6b3f7c9636e536603",
                "wType": "FlexContainer"
            }
        },
        "flxValue": {
            "__events__": {},
            "__info__": {
                "kuid": "c5c58b98376942f986e044a61673629c",
                "srcKUID": "gc2c0d566de643d1bf1d73b3bfcd81d5",
                "wType": "FlexContainer"
            },
            "left": {},
            "responsiveData": {
                "b3": {
                    "left": {
                        "type": "string",
                        "value": "30%"
                    },
                    "width": {
                        "type": "string",
                        "value": "70%"
                    }
                },
                "b5": {
                    "left": {
                        "type": "string",
                        "value": "20%"
                    },
                    "width": {
                        "type": "string",
                        "value": "70%"
                    }
                }
            },
            "width": {}
        },
        "flxValue0Description": {
            "__events__": {},
            "__info__": {
                "kuid": "f8c8e9e7f57548898bf81de33f5a50b8",
                "srcKUID": "g2d0ea5b27f64d99a7c4c3f9c24a016f",
                "wType": "FlexContainer"
            },
            "left": {},
            "responsiveData": {
                "b3": {
                    "left": {
                        "type": "string",
                        "value": "30%"
                    },
                    "width": {
                        "type": "string",
                        "value": "70%"
                    }
                },
                "b5": {
                    "left": {
                        "type": "string",
                        "value": "20%"
                    },
                    "width": {
                        "type": "string",
                        "value": "70%"
                    }
                }
            },
            "width": {}
        },
        "flxValueAmount": {
            "__events__": {},
            "__info__": {
                "kuid": "d24dd9e1b89e4031958f326093526721",
                "srcKUID": "c0b2366aa5024198b5a08d8734b926ee",
                "wType": "FlexContainer"
            },
            "left": {},
            "responsiveData": {
                "b3": {
                    "left": {
                        "type": "string",
                        "value": "30%"
                    },
                    "width": {
                        "type": "string",
                        "value": "70%"
                    }
                },
                "b5": {
                    "left": {
                        "type": "string",
                        "value": "20%"
                    },
                    "width": {
                        "type": "string",
                        "value": "70%"
                    }
                }
            },
            "width": {}
        },
        "flxValueBalanceAmount": {
            "__events__": {},
            "__info__": {
                "kuid": "dcfb35e195434c708b7b5b51607c712e",
                "srcKUID": "d1bb2fe7ead3426ebcbddee63da08244",
                "wType": "FlexContainer"
            },
            "left": {},
            "responsiveData": {
                "b3": {
                    "left": {
                        "type": "string",
                        "value": "36.11%"
                    },
                    "width": {
                        "type": "string",
                        "value": "63%"
                    }
                }
            },
            "width": {}
        },
        "flxValueDate": {
            "__events__": {},
            "__info__": {
                "kuid": "a162a43d2422496ca520b81340508505",
                "srcKUID": "ff131ed64fa54312bf8613a7bd20063c",
                "wType": "FlexContainer"
            },
            "left": {},
            "responsiveData": {
                "b3": {
                    "left": {
                        "type": "string",
                        "value": "30%"
                    },
                    "width": {
                        "type": "string",
                        "value": "70%"
                    }
                },
                "b5": {
                    "left": {
                        "type": "string",
                        "value": "20%"
                    },
                    "width": {
                        "type": "string",
                        "value": "70%"
                    }
                }
            },
            "width": {}
        },
        "flxValuePartialDate": {
            "__events__": {},
            "__info__": {
                "kuid": "db3126372b72444d8a93dcec516bc9ba",
                "srcKUID": "j5e2b39d24ba44acabfeeedd41250dcc",
                "wType": "FlexContainer"
            },
            "left": {},
            "responsiveData": {
                "b3": {
                    "left": {
                        "type": "string",
                        "value": "36.11%"
                    },
                    "width": {
                        "type": "string",
                        "value": "63%"
                    }
                }
            },
            "width": {}
        },
        "flxValuePaymentDate": {
            "__events__": {},
            "__info__": {
                "kuid": "g0203c065b6f492f81e5ba0b7e987315",
                "srcKUID": "f6f9e7e1d9ad487196e30aef3b14ac35",
                "wType": "FlexContainer"
            },
            "left": {},
            "responsiveData": {
                "b3": {
                    "left": {
                        "type": "string",
                        "value": "30%"
                    },
                    "width": {
                        "type": "string",
                        "value": "70%"
                    }
                },
                "b5": {
                    "left": {
                        "type": "string",
                        "value": "20%"
                    },
                    "width": {
                        "type": "string",
                        "value": "70%"
                    }
                }
            },
            "width": {}
        },
        "flxValuePenaltyAmount": {
            "__events__": {},
            "__info__": {
                "kuid": "cd98703cfbf54b4e82b9a02055702dff",
                "srcKUID": "f70b146e20ca44698bdd7a81c9d0af40",
                "wType": "FlexContainer"
            },
            "left": {},
            "responsiveData": {
                "b3": {
                    "left": {
                        "type": "string",
                        "value": "30%"
                    },
                    "width": {
                        "type": "string",
                        "value": "70%"
                    }
                }
            },
            "width": {}
        },
        "flxValueTo": {
            "__events__": {},
            "__info__": {
                "kuid": "ae9b8cdf628f4e369f3ac183001cea12",
                "srcKUID": "d6f8a2dc30d84b03bfc19f0f22fecf88",
                "wType": "FlexContainer"
            },
            "left": {},
            "responsiveData": {
                "b3": {
                    "left": {
                        "type": "string",
                        "value": "30%"
                    },
                    "width": {
                        "type": "string",
                        "value": "70%"
                    }
                },
                "b5": {
                    "left": {
                        "type": "string",
                        "value": "20%"
                    },
                    "width": {
                        "type": "string",
                        "value": "70%"
                    }
                }
            },
            "width": {}
        },
        "flxValueYouArePaying": {
            "__events__": {},
            "__info__": {
                "kuid": "ea068baf4e604caaac7d06d279274ef6",
                "srcKUID": "jb6f5acdeead4de480a4ed366b628008",
                "wType": "FlexContainer"
            },
            "left": {},
            "responsiveData": {
                "b3": {
                    "left": {
                        "type": "string",
                        "value": "36.11%"
                    },
                    "width": {
                        "type": "string",
                        "value": "63%"
                    }
                }
            },
            "width": {}
        },
        "flxValueYourBill": {
            "__events__": {},
            "__info__": {
                "kuid": "edf19a9ed3994b4eb66c1151169a9b56",
                "srcKUID": "eb2822df53e04f99b7dfda8e4ceba349",
                "wType": "FlexContainer"
            },
            "left": {},
            "responsiveData": {
                "b3": {
                    "left": {
                        "type": "string",
                        "value": "36.11%"
                    },
                    "width": {
                        "type": "string",
                        "value": "63%"
                    }
                }
            },
            "width": {}
        },
        "flxWrapper": {
            "__events__": {},
            "__info__": {
                "kuid": "c1a5365a563548a7be48b63ac5158ab6",
                "srcKUID": "b1c827b5a04c494ca5a085ca35b1a722",
                "wType": "FlexContainer"
            },
            "responsiveData": {
                "b3": {
                    "layoutType": 4
                },
                "b5": {
                    "layoutType": 4
                }
            }
        },
        "imgChecbox": {
            "__events__": {},
            "__info__": {
                "kuid": "e8ed106e37d246f6ba726bad19406886",
                "srcKUID": "b28e184249ca4978a7e1c63c29652419",
                "wType": "Image"
            }
        },
        "imgError": {
            "__events__": {},
            "__info__": {
                "kuid": "dcce040e756c47409491def4431e4df7",
                "srcKUID": "f56d2905a8254b428274e2b488350315",
                "wType": "Image"
            },
            "src": "error_yellow.png"
        },
        "lblActualEndDateKey": {
            "__events__": {},
            "__info__": {
                "kuid": "bc0e29cef8a948e9b578c7cfadc21565",
                "srcKUID": "bbc47681feb243649288770e0ec95a81",
                "wType": "Label"
            }
        },
        "lblActualEndDateValue": {
            "__events__": {},
            "__info__": {
                "kuid": "befd1abf803a4c739c30847e9641d33e",
                "srcKUID": "c27ad578e3364781987abef1a3fdd7ab",
                "wType": "Label"
            }
        },
        "lblAgree": {
            "__events__": {},
            "__info__": {
                "kuid": "aec02887b2c7408cb393fbb333a2aae0",
                "srcKUID": "cf8d594f7fe440d79ad7da96b36067b5",
                "wType": "Label"
            }
        },
        "lblColon": {
            "__events__": {},
            "__info__": {
                "kuid": "g3383df7230247799450056d427e76ff",
                "srcKUID": "fa75b915eb7247d28233f42822b0a248",
                "wType": "Label"
            }
        },
        "lblColon2": {
            "__events__": {},
            "__info__": {
                "kuid": "f342977802b64bd78d4134d0af72de6e",
                "srcKUID": "ie2c2145dd574b25b42733271493c74f",
                "wType": "Label"
            }
        },
        "lblColon3": {
            "__events__": {},
            "__info__": {
                "kuid": "ed04f27e009744679de94e3e0496bf84",
                "srcKUID": "f19367e6de774ee3919044e6dfd119a4",
                "wType": "Label"
            }
        },
        "lblColon4": {
            "__events__": {},
            "__info__": {
                "kuid": "i0bbd4d1f43043b68e2cacfe154cf142",
                "srcKUID": "i919fd0e485040e6b1d66c3c82a7f199",
                "wType": "Label"
            }
        },
        "lblColon5": {
            "__events__": {},
            "__info__": {
                "kuid": "bc4e357def73475f87752d2d54bccaa3",
                "srcKUID": "dff07c2993e3409f9e014e6bc2970937",
                "wType": "Label"
            }
        },
        "lblColon6": {
            "__events__": {},
            "__info__": {
                "kuid": "bfd0422549ac4408bb68561d00c1e862",
                "srcKUID": "f18f6c762d6340b891f00829051d58e4",
                "wType": "Label"
            }
        },
        "lblColon7": {
            "__events__": {},
            "__info__": {
                "kuid": "d06aa881bffb4b738cd5863acc83c959",
                "srcKUID": "ec7481016d4c4751bed6b398922b81b4",
                "wType": "Label"
            }
        },
        "lblCurrentBalanceKey": {
            "__events__": {},
            "__info__": {
                "kuid": "efc1202e89294ffb8a92d7867af8d731",
                "srcKUID": "e72c824fd7c84b32ac5884eda4e8a406",
                "wType": "Label"
            }
        },
        "lblCurrentBalanceValue": {
            "__events__": {},
            "__info__": {
                "kuid": "jd6706fab4bb4891b85286e286f7b608",
                "srcKUID": "c81c4a39773c486091ad18c90eb8bff2",
                "wType": "Label"
            }
        },
        "lblError": {
            "__events__": {},
            "__info__": {
                "kuid": "f073423de80c4d36aa87b0066221d6af",
                "srcKUID": "dcecf8fb7d5e41afb14ae4580262805d",
                "wType": "Label"
            },
            "responsiveData": {
                "b3": {
                    "width": {
                        "type": "string",
                        "value": "80%"
                    }
                }
            },
            "width": {
                "Default": {
                    "type": "string",
                    "value": "54.91%"
                }
            }
        },
        "lblFavoriteEmailCheckBoxMain": {
            "__events__": {},
            "__info__": {
                "kuid": "ee3a57ea25e940349aaaad4646d59b3e",
                "srcKUID": "d84f685d74cb4b389f380f812fab1b8e",
                "wType": "Label"
            }
        },
        "lblFromKey": {
            "__events__": {},
            "__info__": {
                "kuid": "bd81e9f40c214be2830a7b063be23872",
                "srcKUID": "e3b00388e1364a4f8d4e4853c732153e",
                "wType": "Label"
            }
        },
        "lblFromValue": {
            "__events__": {},
            "__info__": {
                "kuid": "a3f8ea54f1e34a2b84d8c9e12c4b11ff",
                "srcKUID": "fbe674bac38b423ca4030099e5b3e53d",
                "wType": "Label"
            }
        },
        "lblKey": {
            "__events__": {},
            "__info__": {
                "kuid": "icec6b32f3fd47ada8ceaeef5a1e636b",
                "srcKUID": "iab17299b31940a8a8ae4a25246b7f4d",
                "wType": "Label"
            },
            "i18n_text": "i18n.transfers.lblFrom",
            "responsiveData": {
                "b3": {
                    "width": {
                        "type": "string",
                        "value": "100%"
                    }
                }
            },
            "width": {}
        },
        "lblKeyAmount": {
            "__events__": {},
            "__info__": {
                "kuid": "e1294ceda0794276a98636ba43c15568",
                "srcKUID": "f7dac5f60aeb45e28dcd103f1601ba41",
                "wType": "Label"
            },
            "responsiveData": {
                "b3": {
                    "width": {
                        "type": "string",
                        "value": "100%"
                    }
                }
            },
            "width": {}
        },
        "lblKeyBalanceAmount": {
            "__events__": {},
            "__info__": {
                "kuid": "aee9a4f0cef943d58f4ba3c1a8500c0b",
                "srcKUID": "be869ac8c27c4e99953aaf6e74f5f610",
                "wType": "Label"
            },
            "i18n_text": "i18n.PayDueAmount.BalanceAmount",
            "responsiveData": {
                "b3": {
                    "width": {
                        "type": "string",
                        "value": "100%"
                    }
                }
            },
            "width": {}
        },
        "lblKeyDAte": {
            "__events__": {},
            "__info__": {
                "kuid": "b7e24399b7884a119c44494b29d95707",
                "srcKUID": "b2ab5709e63c4f7f9e2922dbc3c74afc",
                "wType": "Label"
            },
            "i18n_text": "i18n.transfers.lblDate",
            "responsiveData": {
                "b3": {
                    "width": {
                        "type": "string",
                        "value": "100%"
                    }
                }
            },
            "width": {}
        },
        "lblKeyDescription": {
            "__events__": {},
            "__info__": {
                "kuid": "c3152d403fd3454994906170e7bd46b8",
                "srcKUID": "dcac768e09224bbc9b916153aabf56d5",
                "wType": "Label"
            },
            "responsiveData": {
                "b3": {
                    "width": {
                        "type": "string",
                        "value": "100%"
                    }
                }
            },
            "width": {}
        },
        "lblKeyPartialDate": {
            "__events__": {},
            "__info__": {
                "kuid": "fc933931536a40e38b0cf6486dd95cfe",
                "srcKUID": "e1e82502998245b696851b2759fe101d",
                "wType": "Label"
            },
            "i18n_text": "i18n.transfers.lblDate",
            "responsiveData": {
                "b3": {
                    "text": "Date:",
                    "width": {
                        "type": "string",
                        "value": "100%"
                    }
                }
            },
            "text": "Date:",
            "width": {}
        },
        "lblKeyPaymentDate": {
            "__events__": {},
            "__info__": {
                "kuid": "bb4927a9b6b9496a89ec8eca8910277f",
                "srcKUID": "bfc643b9b357428f9e102e15bbddbde8",
                "wType": "Label"
            },
            "i18n_text": "i18n.billPay.PaymentDate",
            "responsiveData": {
                "b3": {
                    "width": {
                        "type": "string",
                        "value": "100%"
                    }
                }
            },
            "width": {}
        },
        "lblKeyPenaltyAmount": {
            "__events__": {},
            "__info__": {
                "kuid": "g900df0ffad747fbba14f86ad85729be",
                "srcKUID": "d9832de2eee34178bcdc5caa4c3204d7",
                "wType": "Label"
            },
            "responsiveData": {
                "b3": {
                    "width": {
                        "type": "string",
                        "value": "100%"
                    }
                }
            },
            "width": {}
        },
        "lblKeyTo": {
            "__events__": {},
            "__info__": {
                "kuid": "deeadab201c144318d0f0e4c6b5bdd3a",
                "srcKUID": "i00f3a4a7db345f7a585dd2c00c7f124",
                "wType": "Label"
            },
            "i18n_text": "i18n.transfers.lblTo",
            "responsiveData": {
                "b3": {
                    "width": {
                        "type": "string",
                        "value": "100%"
                    }
                }
            },
            "width": {}
        },
        "lblKeyYouArePaying": {
            "__events__": {},
            "__info__": {
                "kuid": "b44f0e5509054fbfb92654d58bf9a389",
                "srcKUID": "j57efc04d9a94bf3abe1f85669a585b9",
                "wType": "Label"
            },
            "i18n_text": "i18n.PayDueAmount.YouarePaying",
            "responsiveData": {
                "b3": {
                    "width": {
                        "type": "string",
                        "value": "100%"
                    }
                }
            },
            "width": {}
        },
        "lblKeyYourBill": {
            "__events__": {},
            "__info__": {
                "kuid": "h9a3f97e2e3942c489cdb415a6cb9385",
                "srcKUID": "cd9fe3a0a6ac480d91c97915bf0f2f4d",
                "wType": "Label"
            },
            "i18n_text": "i18n.PayDueAmount.YourBillAmount",
            "responsiveData": {
                "b3": {
                    "width": {
                        "type": "string",
                        "value": "100%"
                    }
                }
            },
            "width": {}
        },
        "lblLateFeeKey": {
            "__events__": {},
            "__info__": {
                "kuid": "e79313b9203e421091185959a7d4c56e",
                "srcKUID": "f498727557984028be9cf699b8d6d67f",
                "wType": "Label"
            }
        },
        "lblLateFeeValue": {
            "__events__": {},
            "__info__": {
                "kuid": "hbbac34c8af042c0bdde99a5a97e4c67",
                "srcKUID": "e59ef76ec0b148f5b95e57903ff440c4",
                "wType": "Label"
            }
        },
        "lblPayOffAmountKey": {
            "__events__": {},
            "__info__": {
                "kuid": "f7b6a55f87764051bf005cd956b11e0c",
                "srcKUID": "b6e0388488f043e9b7508c279a28c6d1",
                "wType": "Label"
            }
        },
        "lblPayOffAmountValue": {
            "__events__": {},
            "__info__": {
                "kuid": "j1bd2e144bb64039b362edfbc4be5d05",
                "srcKUID": "b7818f5870ca40c38a4e8980c2e6b890",
                "wType": "Label"
            }
        },
        "lblPayOffDateKey": {
            "__events__": {},
            "__info__": {
                "kuid": "a0ca8c3d063e488e986cffac82a50a11",
                "srcKUID": "b75f03aaa1c04c758c4c114a3642e8bd",
                "wType": "Label"
            }
        },
        "lblPayOffDateValue": {
            "__events__": {},
            "__info__": {
                "kuid": "g13d78ab8f3e47f1b75e8b01531f1954",
                "srcKUID": "eb52a9d87bbf4863920958a642453b4d",
                "wType": "Label"
            }
        },
        "lblPayOffPenalityKey": {
            "__events__": {},
            "__info__": {
                "kuid": "i623ff9d133349d4bfa38d4f608b2440",
                "srcKUID": "bf8a0013b15449588491be21274ae020",
                "wType": "Label"
            }
        },
        "lblPayOffPenalityValue": {
            "__events__": {},
            "__info__": {
                "kuid": "c08aef93b1e14e33bf2e0cd596fb62b6",
                "srcKUID": "g723c3ecafc742e1ab57c197aae90492",
                "wType": "Label"
            }
        },
        "lblRateKey": {
            "__events__": {},
            "__info__": {
                "kuid": "be920c96f82b4bba8c948d1977d75dd1",
                "srcKUID": "e4ee09aa57c64ea49f0a9765ac923195",
                "wType": "Label"
            }
        },
        "lblRateValue": {
            "__events__": {},
            "__info__": {
                "kuid": "g50470cb1a2f412badf713ea53aa502f",
                "srcKUID": "c0dc127302644c3580fdce5cbb4e9cbc",
                "wType": "Label"
            }
        },
        "lblToKey": {
            "__events__": {},
            "__info__": {
                "kuid": "f8c14a88f1cb4c0899ebd8affd1535f3",
                "srcKUID": "f38e3e4004f942ee8d53b95b34f45efc",
                "wType": "Label"
            }
        },
        "lblToValue": {
            "__events__": {},
            "__info__": {
                "kuid": "c1eeea6b0f904237b3458d4fe27862b2",
                "srcKUID": "j8f1fc0392df4dae8fc901efa326572b",
                "wType": "Label"
            }
        },
        "lblTotalInterestKey": {
            "__events__": {},
            "__info__": {
                "kuid": "i658d87f82c24da3a5efe223625addff",
                "srcKUID": "ed8cc8e6ce6042b58c68ec12ea9a1d8e",
                "wType": "Label"
            }
        },
        "lblTotalInterestValue": {
            "__events__": {},
            "__info__": {
                "kuid": "febdd5c718cc4ff19671c6c0a821ca4a",
                "srcKUID": "e573651d106a445d89531aec152b00d3",
                "wType": "Label"
            }
        },
        "lblTotalPrincipalKey": {
            "__events__": {},
            "__info__": {
                "kuid": "e5b16dc00c154395adc6e5ad49706407",
                "srcKUID": "g8b7bec63d1944e98620096de0e2e8d6",
                "wType": "Label"
            }
        },
        "lblTotalPrincipalValue": {
            "__events__": {},
            "__info__": {
                "kuid": "af74cebda8d24d15bf778cd643179f84",
                "srcKUID": "a2f2efa9c43741e0b9e1b557ca354f67",
                "wType": "Label"
            }
        },
        "lblValue": {
            "__events__": {},
            "__info__": {
                "kuid": "d4173f5eaaf94c95a92945ccf752c11c",
                "srcKUID": "j2df3b54679a4e7ca2cb48a63173b344",
                "wType": "Label"
            },
            "responsiveData": {
                "b3": {
                    "width": {
                        "type": "string",
                        "value": "100%"
                    }
                }
            },
            "width": {}
        },
        "lblValueAmount": {
            "__events__": {},
            "__info__": {
                "kuid": "a3a23d91d9c9452f9fad8c8d2925c629",
                "srcKUID": "b84f06c06bcc48849115e89e37d365fa",
                "wType": "Label"
            }
        },
        "lblValueBalanceAmount": {
            "__events__": {},
            "__info__": {
                "kuid": "e9e05636a7084eb7965db2c285264597",
                "srcKUID": "f1452365546b47b68fe6cb4552f87634",
                "wType": "Label"
            }
        },
        "lblValueDate": {
            "__events__": {},
            "__info__": {
                "kuid": "a3587f840d3e4d0cba472814451cf92e",
                "srcKUID": "a1f71e774b164c35b710139739dd0725",
                "wType": "Label"
            }
        },
        "lblValueDescription": {
            "__events__": {},
            "__info__": {
                "kuid": "e5368818ca134ef99fd3a6dd5341c910",
                "srcKUID": "e957fbd861f6404cbffe7a02f8f8eced",
                "wType": "Label"
            }
        },
        "lblValuePartialDate": {
            "__events__": {},
            "__info__": {
                "kuid": "i2c75c70b0914bd89d588c1c75313d20",
                "srcKUID": "d648092bf92b4a659d351118f244a592",
                "wType": "Label"
            }
        },
        "lblValuePaymentDate": {
            "__events__": {},
            "__info__": {
                "kuid": "jd72ade8445a490b90b82dc4fb6ec601",
                "srcKUID": "da9330f67c304d20adf16151d4936fa0",
                "wType": "Label"
            }
        },
        "lblValuePenaltyAmount": {
            "__events__": {},
            "__info__": {
                "kuid": "c40d9f9cb80642049ba4b67176b8d4a9",
                "srcKUID": "b24e5ad5f67a4c068c299c8ac68c4dc7",
                "wType": "Label"
            }
        },
        "lblValueTo": {
            "__events__": {},
            "__info__": {
                "kuid": "bf014ad1a43444e9a3cda355d9d78a67",
                "srcKUID": "h8f8b220bb62428bae8f1909f8d729be",
                "wType": "Label"
            }
        },
        "lblValueYouArePaying": {
            "__events__": {},
            "__info__": {
                "kuid": "b4278126503f43f9b5f1a45ac0f187f5",
                "srcKUID": "de92918c5d644cf58cd3af87de94663e",
                "wType": "Label"
            }
        },
        "lblValueYourBill": {
            "__events__": {},
            "__info__": {
                "kuid": "cb83bea7c641441697462fa2576f93e5",
                "srcKUID": "g6e06a99ce3446ddadaa3b1288e95d28",
                "wType": "Label"
            }
        }
    },
    "id": "confirmation",
    "info": null,
    "isdatareferenced": false,
    "isvisible": true,
    "kuid": "cd290531dcdd4199a1966f84ea365af0",
    "layouttype": 2,
    "masterType": 0,
    "name": "kony.ui.UserWidgetInstance",
    "parent": "flxMainConfirmation",
    "pf": "frmFastTransfers",
    "snaptogrid": true,
    "sourceUserWidget": "bdae1d6d4d9b4341b5986ad17bb8aa55",
    "vizprops": {
        "hidewidgethierarchy": false
    },
    "wType": "UserWidgetInstance"
}