{
    "DNDConfig": null,
    "_height_": {
        "type": "string",
        "value": "23dp"
    },
    "_left_": {
        "type": "string",
        "value": "30dp"
    },
    "_margin_": [
        0,
        0,
        0,
        0
    ],
    "_orientation_": 6,
    "_padding_": [
        0,
        0,
        0,
        0
    ],
    "_percent_": true,
    "_skin_": "s68cde8c1c40436989962f3559a757ac",
    "_top_": {
        "type": "string",
        "value": "11dp"
    },
    "_width_": {
        "type": "string",
        "value": "21dp"
    },
    "accessibilityconfig": {
        "a11yARIA": {
            "tabindex": 1
        }
    },
    "allboxes": [],
    "canUpdateUI": true,
    "children": [
        "lblRadioBtn4"
    ],
    "clipbounds": false,
    "containerweight": 100,
    "desktopweb": {
        "psp": {
            "hoverSkin": "s3e0ac30f9774278a868cb7c73908a76"
        }
    },
    "enablescrolling": true,
    "id": "flxNUORadioBtn4",
    "ide_onClick": "AS_FlexContainer_b81d77e17f5a4eceb9af1595154b1adb",
    "info": null,
    "isvisible": true,
    "kuid": "d8dfcbeee1fd4447a9e577824df39a3a",
    "layouttype": 2,
    "name": "kony.ui.FlexContainer",
    "parent": "flxOption4",
    "pf": "frmFastTransfers",
    "responsiveData": {
        "b1": {
            "left": {
                "type": "string",
                "value": "13dp"
            }
        },
        "b3": {
            "left": {
                "type": "string",
                "value": "2%"
            },
            "top": {
                "type": "string",
                "value": "15dp"
            }
        },
        "b4": {
            "height": {
                "type": "string",
                "value": "30dp"
            },
            "left": {
                "type": "string",
                "value": "17dp"
            },
            "top": {
                "type": "string",
                "value": "11dp"
            },
            "width": {
                "type": "string",
                "value": "30dp"
            }
        },
        "b5": {
            "left": {
                "type": "string",
                "value": "28dp"
            }
        }
    },
    "snapgridsize": 10,
    "snaptogrid": true,
    "wType": "FlexContainer",
    "widgetalignment": 1,
    "zindex": 1
}