{
    "@class": "com.kony.gen.viz.model.component.KVizLabel",
    "DNDConfig": null,
    "_height_": {
        "type": "string",
        "value": "46dp"
    },
    "_margin_": [
        1,
        1,
        1,
        1
    ],
    "_padding_": [
        0,
        0,
        0,
        0
    ],
    "_skin_": "s7b901f0589e4cbd914447ed46411bf5",
    "_text_": "No Results Found",
    "_top_": {
        "type": "string",
        "value": "39dp"
    },
    "_width_": {
        "type": "string",
        "value": "424dp"
    },
    "_wrapping_": 2,
    "accessibilityconfig": {
        "a11yLabel": "We were unable to retrieve Pay a Person recipients at this time. You can add a different recipient type and Transfer to them"
    },
    "android": {
        "textStyle": {
            "letterSpacing": 0,
            "strikeThrough": false
        }
    },
    "canUpdateUI": true,
    "centerx": {
        "type": "string",
        "value": "50%"
    },
    "containerweight": 100,
    "contentalignment": 5,
    "id": "lblNoResultsToPayPersonFailure",
    "info": null,
    "ipad": {
        "psp": {
            "wrapping": 2
        }
    },
    "iphone": {
        "psp": {
            "wrapping": 2
        }
    },
    "iscustomlayout": false,
    "isvisible": true,
    "kuid": "bd9c279991014a8aa15963c0522b977b",
    "name": "kony.ui.Label",
    "parent": "flxNoResultsToPayPersonFailure",
    "pf": "frmFastTransfers",
    "retaincontentalignment": false,
    "retainflexpositionproperties": false,
    "texti18n": "i18n.FastTransfers.NoResultsPayPersonFailure",
    "tooltip": "",
    "wType": "Label",
    "zindex": 1
}