{
    "@class": "com.kony.gen.viz.model.component.KVizLabel",
    "DNDConfig": null,
    "_height_": {
        "type": "string",
        "value": "20dp"
    },
    "_margin_": [
        1,
        1,
        1,
        1
    ],
    "_padding_": [
        0,
        0,
        0,
        0
    ],
    "_skin_": "s7b013da610149b687ff70100336c9e5",
    "_text_": "Open a New Account",
    "_top_": {
        "type": "string",
        "value": "80dp"
    },
    "_width_": {
        "type": "string",
        "value": "100%"
    },
    "_wrapping_": 2,
    "accessibilityconfig": {
        "a11yLabel": "Open a New Account"
    },
    "android": {
        "textStyle": {
            "letterSpacing": 0,
            "strikeThrough": false
        }
    },
    "canUpdateUI": true,
    "centerx": {
        "type": "string",
        "value": "50%"
    },
    "containerweight": 100,
    "contentalignment": 5,
    "desktopweb": {
        "psp": {
            "hoverSkin": "s323d67ad5344b509703a574f04b46bf"
        }
    },
    "disabledSkins": {},
    "id": "lblOpenNewAccounttFrom",
    "ide_onTouchStart": "AS_Label_heb9746e19264a6aa2228b08c7e2c251",
    "info": null,
    "ipad": {
        "psp": {
            "wrapping": 2
        }
    },
    "iphone": {
        "psp": {
            "wrapping": 2
        }
    },
    "iscustomlayout": false,
    "isvisible": true,
    "kuid": "e49d61dc425247a2a94513ca52674085",
    "name": "kony.ui.Label",
    "parent": "flxNoResultsFrom",
    "pf": "frmFastTransfers",
    "retaincontentalignment": false,
    "retainflexpositionproperties": false,
    "texti18n": "i18n.FastTransfers.OpenNewAccount",
    "tooltip": "",
    "wType": "Label",
    "zindex": 1
}