{
    "@class": "com.kony.gen.viz.model.component.KVizButton",
    "DNDConfig": null,
    "_height_": {
        "type": "string",
        "value": "25dp"
    },
    "_left_": {
        "type": "string",
        "value": "0px"
    },
    "_margin_": [
        6,
        6,
        6,
        6
    ],
    "_padding_": [
        0,
        0,
        0,
        0
    ],
    "_skin_": "s41199c8c0df41048cbf47d26a9026d5",
    "_text_": "REQUEST",
    "_top_": {
        "type": "string",
        "value": "13dp"
    },
    "_width_": {
        "type": "ref",
        "value": "preferred"
    },
    "accessibilityconfig": {
        "a11yLabel": "REQUEST"
    },
    "canUpdateUI": true,
    "containerId": true,
    "containerweight": 100,
    "contentalignment": 5,
    "disabledSkins": {
        "focusSkin": "sf44d06ca8224832827ea7fdff757013"
    },
    "displaytext": true,
    "id": "btnRequest",
    "ide_onClick": "AS_Button_e3f8eb1bc83944f2bfb9238b8df50615",
    "info": null,
    "isvisible": false,
    "kuid": "c06ff99c462c4be586b6338d53551dd1",
    "name": "kony.ui.Button",
    "parent": "flxRequestAction",
    "pf": "segSendRequestP2P",
    "wType": "Button",
    "zindex": 1
}