{
    "@class": "com.kony.gen.viz.model.component.KVizButton",
    "DNDConfig": null,
    "_height_": {
        "type": "string",
        "value": "25dp"
    },
    "_left_": {
        "type": "string",
        "value": "0%"
    },
    "_margin_": [
        6,
        6,
        6,
        6
    ],
    "_padding_": [
        0,
        0,
        0,
        0
    ],
    "_skin_": "s41199c8c0df41048cbf47d26a9026d5",
    "_text_": "SEND",
    "_top_": {
        "type": "string",
        "value": "13px"
    },
    "_width_": {
        "type": "ref",
        "value": "preferred"
    },
    "accessibilityconfig": {
        "a11yLabel": "SEND"
    },
    "canUpdateUI": true,
    "containerId": true,
    "containerweight": 100,
    "contentalignment": 5,
    "disabledSkins": {},
    "displaytext": true,
    "focusskin": "s41199c8c0df41048cbf47d26a9026d5",
    "id": "btnSend",
    "ide_onClick": "AS_Button_e4c7cafa6aea46569a6a0f92fc625d72",
    "info": null,
    "isvisible": true,
    "kuid": "h16dd41b1d364c68a859578959b1e220",
    "name": "kony.ui.Button",
    "parent": "flxSendAction",
    "pf": "segSendRequestP2P",
    "wType": "Button",
    "zindex": 1
}