{
    "DNDConfig": null,
    "__parentReadjusting__": false,
    "_height_": {
        "type": "string",
        "value": "180dp"
    },
    "_left_": {
        "type": "string",
        "value": "530dp"
    },
    "_margin_": [
        0,
        0,
        0,
        0
    ],
    "_orientation_": 6,
    "_padding_": [
        0,
        0,
        0,
        0
    ],
    "_percent_": true,
    "_right_": {
        "type": "number",
        "value": ""
    },
    "_skin_": "s2f1930e68bc4b258cfe821e7f0122cd",
    "_top_": {
        "type": "string",
        "value": "70dp"
    },
    "_width_": {
        "type": "string",
        "value": "235dp"
    },
    "allboxes": [],
    "canUpdateUI": true,
    "children": [
        "flxToOtherBankInfo",
        "flxToOtherBankProceed",
        "flxArrow3"
    ],
    "clipbounds": false,
    "containerweight": 100,
    "desktopweb": {
        "psp": {
            "hoverSkin": "sdc143f0e5b64ae3a3f155f691c73fa7"
        }
    },
    "disabledSkins": {},
    "enablescrolling": true,
    "id": "flxToOtherBank",
    "info": null,
    "isvisible": true,
    "kuid": "i189464e88cf4007a715ae6244bda01c",
    "layouttype": 2,
    "name": "kony.ui.FlexContainer",
    "parent": "flxTransfersGateway",
    "pf": "frmTransfersGateway",
    "responsiveData": {
        "b3": {
            "height": {
                "type": "string",
                "value": "72dp"
            },
            "isVisible": true,
            "layoutType": 3,
            "left": {
                "type": "string",
                "value": "10dp"
            },
            "right": {
                "type": "string",
                "value": ""
            },
            "skin": "sdc143f0e5b64ae3a3f155f691c73fa7",
            "top": {
                "type": "string",
                "value": "248dp"
            },
            "width": {
                "type": "string",
                "value": "94%"
            }
        }
    },
    "snapgridsize": 10,
    "snaptogrid": true,
    "wType": "FlexContainer",
    "widgetalignment": 1,
    "zindex": 1
}