{
    "DNDConfig": null,
    "_height_": {
        "type": "string",
        "value": "100%"
    },
    "_left_": {
        "type": "string",
        "value": "20dp"
    },
    "_margin_": [
        0,
        0,
        0,
        0
    ],
    "_orientation_": 6,
    "_padding_": [
        0,
        0,
        0,
        0
    ],
    "_percent_": true,
    "_skin_": "s24c92fc23b14f5484b693ee9b8a9b35",
    "_top_": {
        "type": "string",
        "value": "0dp"
    },
    "_width_": {
        "type": "string",
        "value": "5%"
    },
    "allboxes": [],
    "autogrowmode": 0,
    "canUpdateUI": true,
    "children": [
        "lblDropdown"
    ],
    "clipbounds": true,
    "containerId": true,
    "containerweight": 100,
    "desktopweb": {
        "psp": {
            "hoverSkin": "sab5a81a675240c791d2c0dbce368d6b"
        }
    },
    "enablescrolling": true,
    "id": "flxDropdown",
    "info": null,
    "isvisible": true,
    "kuid": "ea220dd3b8d640ae87bb18ad286a6b09",
    "layouttype": 3,
    "name": "kony.ui.FlexContainer",
    "parent": "flxRow",
    "pf": "segUserManagementSelectCompanyNames",
    "snapgridsize": 10,
    "snaptogrid": true,
    "wType": "FlexContainer",
    "widgetalignment": 1,
    "zindex": 1
}