{
    "DNDConfig": null,
    "__parentReadjusting__": false,
    "_height_": {
        "type": "string",
        "value": "430dp"
    },
    "_left_": {
        "type": "string",
        "value": "83dp"
    },
    "_margin_": [
        0,
        0,
        0,
        0
    ],
    "_orientation_": 6,
    "_padding_": [
        0,
        0,
        0,
        0
    ],
    "_percent_": true,
    "_skin_": "sdc143f0e5b64ae3a3f155f691c73fa7",
    "_top_": {
        "type": "string",
        "value": "60dp"
    },
    "_width_": {
        "type": "string",
        "value": "43.48%"
    },
    "allboxes": [],
    "autogrowmode": 0,
    "canUpdateUI": true,
    "children": [
        "verifyBankAccount",
        "verifyNextSteps",
        "verifyByCredential",
        "acknowledgment"
    ],
    "clipbounds": false,
    "containerweight": 100,
    "enablescrolling": true,
    "id": "FlexContainer0gf34865911e248",
    "info": null,
    "isvisible": true,
    "kuid": "bf4e9b28b6d5402dafca91d66e0232aa",
    "layouttype": 2,
    "name": "kony.ui.FlexContainer",
    "parent": "flxMainAccountConfirm",
    "pf": "frmVerifyAccount",
    "responsiveData": {
        "b1": {
            "left": {
                "type": "string",
                "value": "6.08%"
            },
            "top": {
                "type": "string",
                "value": "65dp"
            },
            "width": {
                "type": "string",
                "value": "43.27%"
            }
        },
        "b2": {
            "left": {
                "type": "string",
                "value": "2.50%"
            },
            "top": {
                "type": "string",
                "value": "65dp"
            },
            "width": {
                "type": "string",
                "value": "95%"
            }
        },
        "b3": {
            "left": {
                "type": "string",
                "value": "2.50%"
            },
            "width": {
                "type": "string",
                "value": "95%"
            }
        },
        "b4": {
            "left": {
                "type": "string",
                "value": "6.08%"
            },
            "top": {
                "type": "string",
                "value": "65dp"
            },
            "width": {
                "type": "string",
                "value": "43.27%"
            }
        }
    },
    "snapgridsize": 10,
    "snaptogrid": true,
    "wType": "FlexContainer",
    "widgetalignment": 1,
    "zindex": 1
}