{
    "@class": "com.kony.gen.viz.model.component.KVizUserWidget",
    "DNDConfig": null,
    "__parentReadjusting__": false,
    "_android_": {},
    "_androidwearos_": {},
    "_children_": [],
    "_desktopweb_": {},
    "_height_": {
        "type": "string",
        "value": "410px"
    },
    "_ipad_": {},
    "_iphone_": {},
    "_kiosk_": {},
    "_left_": {
        "type": "string",
        "value": "0dp"
    },
    "_margin_": [
        0,
        0,
        0,
        0
    ],
    "_orientation_": 1,
    "_padding_": [
        0,
        0,
        0,
        0
    ],
    "_percent_": true,
    "_render_": true,
    "_responsiveData_": {
        "b3": {
            "isVisible": false
        }
    },
    "_skin_": "s4b3bfcb27c14526bcdce6dec3972d8d",
    "_spa_": {},
    "_spaan_": {},
    "_spaandroidtablet_": {},
    "_spabb_": {},
    "_spaip_": {},
    "_spaipad_": {},
    "_spamobile_": {},
    "_spatablet_": {},
    "_spawindowstablet_": {},
    "_spawinphone8_": {},
    "_tabrcandroid_": {},
    "_top_": {
        "type": "string",
        "value": "0dp"
    },
    "_vizProps_": {
        "hidewidgethierarchy": false
    },
    "_width_": {
        "type": "string",
        "value": "100%"
    },
    "_windows10_": {},
    "_windows8_": {},
    "_winphone10_": {},
    "_winphone8_": {},
    "areflexpropsreferenced": false,
    "canUpdateUI": true,
    "clipbounds": true,
    "containerweight": 0,
    "dataDiffs": {
        "CopyflxStep0d9c52a7ea0b243": {
            "__events__": {},
            "__info__": {
                "kuid": "f2984d9a0745414ab8c1c3a0a3348a43",
                "srcKUID": "ed202c4cdb6248359967f8fc1e5d82f7",
                "wType": "FlexContainer"
            },
            "autogrowMode": {
                "Default": 0
            },
            "height": {
                "Default": {
                    "type": "string",
                    "value": "55dp"
                }
            },
            "top": {
                "Default": {
                    "type": "string",
                    "value": "20dp"
                }
            }
        },
        "CopyimgStep0c074a106232d49": {
            "__events__": {},
            "__info__": {
                "kuid": "e6fedd86ff4a4e7a909b8a9c95255588",
                "srcKUID": "e892e0461e7d4e429fa01a2fdd6aac0a",
                "wType": "Image"
            },
            "height": {
                "Default": {
                    "type": "string",
                    "value": "30dp"
                }
            },
            "src": "transfers_grey_circle_03.png",
            "width": {
                "Default": {
                    "type": "string",
                    "value": "30dp"
                }
            }
        },
        "CopylblStep0g47625bb21d744": {
            "__events__": {},
            "__info__": {
                "kuid": "fe3da6fe0e3e407d84df732dc34d0d24",
                "srcKUID": "da110d896f3e4ebead2dc903d35bd5d0",
                "wType": "Label"
            },
            "centerY": {
                "Default": {
                    "type": "string",
                    "value": "50%"
                }
            },
            "i18n_text": "i18n.VerifyAccount.VerifybyTrialDepositsRule3",
            "top": {
                "Default": {
                    "type": "string",
                    "value": ""
                }
            },
            "width": {
                "Default": {
                    "type": "string",
                    "value": "81.41%"
                }
            }
        },
        "Label0d9e7b9de289d4e": {
            "__events__": {},
            "__info__": {
                "kuid": "d582a961a6fe4162bfc0d115adc782fe",
                "srcKUID": "j3f99a085cbb43faa00dc2015262a826",
                "wType": "Label"
            },
            "i18n_text": "i18n.VerifyAccount.VerifybyTrialDeposits",
            "isVisible": false,
            "top": {
                "Default": {
                    "type": "string",
                    "value": "4%"
                }
            }
        },
        "flxHeader": {
            "__events__": {},
            "__info__": {
                "kuid": "d29080f0b6254d4bad34495d4270070c",
                "srcKUID": "8b2441e111fd4cb5a30d083099e8931d",
                "wType": "FlexContainer"
            }
        },
        "flxMain": {
            "__events__": {},
            "__info__": {
                "kuid": "c73567d799ab48329926379cbfe2b223",
                "srcKUID": "19f04fa86ef44f44abda74b19a948785",
                "wType": "FlexContainer"
            }
        },
        "flxSeperator": {
            "__events__": {},
            "__info__": {
                "kuid": "c2d67087a52640e780d1f6b0b3de23d3",
                "srcKUID": "bffbd9abec3b4f0bacf0c2cd836244f3",
                "wType": "FlexContainer"
            }
        },
        "flxStep1": {
            "__events__": {},
            "__info__": {
                "kuid": "e0d1fedd439c4bff98d8a18aa02c1849",
                "srcKUID": "a2208dbec94d4c8287c44e3865c22971",
                "wType": "FlexContainer"
            },
            "top": {
                "Default": {
                    "type": "string",
                    "value": "40dp"
                }
            }
        },
        "flxStep2": {
            "__events__": {},
            "__info__": {
                "kuid": "adf4eef103654800a23dc1107e444209",
                "srcKUID": "f3b607a3cb76471e81bba7db6bd6cc99",
                "wType": "FlexContainer"
            },
            "top": {
                "Default": {
                    "type": "string",
                    "value": "25dp"
                }
            }
        },
        "imgStep1": {
            "__events__": {},
            "__info__": {
                "kuid": "b8710483a3e5474d8f151e2be30d4beb",
                "srcKUID": "gb69b23ebb4041d89a1984066fad5eaa",
                "wType": "Image"
            },
            "height": {
                "Default": {
                    "type": "string",
                    "value": "30dp"
                }
            },
            "src": "transfers_grey_circle_01.png",
            "width": {
                "Default": {
                    "type": "string",
                    "value": "30dp"
                }
            }
        },
        "imgStep2": {
            "__events__": {},
            "__info__": {
                "kuid": "f04c5b3aff744036908b9809b0d71aee",
                "srcKUID": "d2819331901c40b7af8411ef33ccd055",
                "wType": "Image"
            },
            "height": {
                "Default": {
                    "type": "string",
                    "value": "30dp"
                }
            },
            "src": "transfers_grey_circle_02.png",
            "width": {
                "Default": {
                    "type": "string",
                    "value": "30dp"
                }
            }
        },
        "lblHeading": {
            "__events__": {},
            "__info__": {
                "kuid": "f5e75c009b624ee9b5a0326aa91c671d",
                "srcKUID": "cb44ce54e2e048a88f3dd9a69f120538",
                "wType": "Label"
            }
        },
        "lblPleaseVerifyAccount": {
            "__events__": {},
            "__info__": {
                "kuid": "c291c99ce49e4b74a8827de3112edda5",
                "srcKUID": "49460f01483b45acb0057dde78e94c78",
                "wType": "Label"
            },
            "i18n_text": null,
            "isVisible": false,
            "text": "Please verify your account by following below steps:",
            "top": {
                "Default": {
                    "type": "string",
                    "value": "25dp"
                }
            }
        },
        "lblStep1": {
            "__events__": {},
            "__info__": {
                "kuid": "d22d8caefb0349efb4597c923dc673d0",
                "srcKUID": "c37c00662c93490893e4eead386a6733",
                "wType": "Label"
            },
            "centerY": {
                "Default": {
                    "type": "string",
                    "value": "50%"
                }
            },
            "i18n_text": "i18n.VerifyAccount.VerifybyTrialDepositsRule1",
            "left": {
                "Default": {
                    "type": "string",
                    "value": "14.50%"
                }
            },
            "top": {
                "Default": {
                    "type": "string",
                    "value": ""
                }
            },
            "width": {
                "Default": {
                    "type": "string",
                    "value": "81.41%"
                }
            }
        },
        "lblStep2": {
            "__events__": {},
            "__info__": {
                "kuid": "b0b319fc217a4142abccdaa9e4eee7f5",
                "srcKUID": "b2618a2a27494e1ea263b1bc1686d336",
                "wType": "Label"
            },
            "centerY": {
                "Default": {
                    "type": "string",
                    "value": "50%"
                }
            },
            "i18n_text": "i18n.VerifyAccount.VerifybyTrialDepositsRule2",
            "top": {
                "Default": {
                    "type": "string",
                    "value": ""
                }
            },
            "width": {
                "Default": {
                    "type": "string",
                    "value": "81.41%"
                }
            }
        },
        "verifyNextSteps": {
            "__events__": {},
            "__info__": {
                "isRoot": true,
                "kuid": "b5ab2f92841c430ba3d2898beba8f28d",
                "srcKUID": "fb45e82ab6aa42f780706afc7623dfa4",
                "wType": "FlexContainer"
            },
            "isVisible": false,
            "responsiveData": {
                "b3": {
                    "isVisible": false
                }
            }
        }
    },
    "id": "verifyNextSteps",
    "info": null,
    "isdatareferenced": false,
    "isvisible": false,
    "kuid": "b5ab2f92841c430ba3d2898beba8f28d",
    "layouttype": 4,
    "masterType": 0,
    "name": "kony.ui.UserWidgetInstance",
    "parent": "FlexContainer0gf34865911e248",
    "pf": "frmVerifyAccount",
    "snaptogrid": true,
    "sourceUserWidget": "fb45e82ab6aa42f780706afc7623dfa4",
    "vizprops": {
        "hidewidgethierarchy": false
    },
    "wType": "UserWidgetInstance"
}