{
    "@class": "com.kony.gen.viz.model.component.KVizUserWidget",
    "DNDConfig": null,
    "_children_": [],
    "_height_": {
        "type": "ref",
        "value": "preferred"
    },
    "_left_": {
        "type": "string",
        "value": "0dp"
    },
    "_margin_": [
        0,
        0,
        0,
        0
    ],
    "_orientation_": 1,
    "_padding_": [
        0,
        0,
        0,
        0
    ],
    "_percent_": true,
    "_skin_": "s24c92fc23b14f5484b693ee9b8a9b35",
    "_top_": {
        "type": "number",
        "value": "0"
    },
    "_width_": {
        "type": "string",
        "value": "100%"
    },
    "areflexpropsreferenced": false,
    "autogrowmode": 1,
    "canUpdateUI": true,
    "clipbounds": false,
    "containerweight": 0,
    "dataDiffs": {
        "AlterneteActionsWithInfo": {
            "__events__": {},
            "__info__": {
                "isRoot": true,
                "kuid": "i0479595a86d473aa66a0b4aa90f0d01",
                "srcKUID": "d99b332b3fcb42f8bc6ea90f40adcdaa",
                "wType": "FlexContainer"
            }
        },
        "flcVerticalBar": {
            "__events__": {},
            "__info__": {
                "kuid": "je22f4de85894c93839ad051e28ee697",
                "srcKUID": "e319310ecd0341b7ba7681c5a6709ba9",
                "wType": "FlexContainer"
            }
        },
        "flxImgContainer": {
            "__events__": {},
            "__info__": {
                "kuid": "ff65a7e1ec3b4ef0bf66e50d9225b088",
                "srcKUID": "j22445dbe9fe41488e3c90052f5a9e47",
                "wType": "FlexContainer"
            }
        },
        "flxImgMain": {
            "__events__": {},
            "__info__": {
                "kuid": "c12637da4c6747b592d6774fd354c16d",
                "srcKUID": "e72ca77eae884a2f9031177fa6b6c260",
                "wType": "FlexContainer"
            }
        },
        "flxInfoContent": {
            "__events__": {},
            "__info__": {
                "kuid": "e30cc09fb6684d78b30752e50c0adebf",
                "srcKUID": "d3c1dda11c7143db91f181bd2326f2fe",
                "wType": "FlexContainer"
            }
        },
        "flxInfoIcon": {
            "__events__": {},
            "__info__": {
                "kuid": "f5ddd86affa94d1cb8ad846e0b8b0a8a",
                "srcKUID": "fc8fb0c0c5174552bf76d1907888a451",
                "wType": "FlexContainer"
            }
        },
        "flxOption": {
            "__events__": {},
            "__info__": {
                "kuid": "b1e12cff985a4b37840dfb77aec9841a",
                "srcKUID": "ef4e37c882d04d71afe825c7695d5aa9",
                "wType": "FlexContainer"
            }
        },
        "fontIconOption": {
            "__events__": {},
            "__info__": {
                "kuid": "bf5f2dc4dde44fa889f5e0067b9fe832",
                "srcKUID": "b8ce3fa26128410ea733dfbe65af39e1",
                "wType": "Label"
            },
            "centerY": {
                "Default": {
                    "type": "number",
                    "value": ""
                }
            },
            "responsiveData": {
                "b1": {
                    "centerY": {
                        "type": "string",
                        "value": "50%"
                    }
                },
                "b2": {
                    "centerY": {
                        "type": "string",
                        "value": "50%"
                    }
                },
                "b3": {
                    "centerY": {
                        "type": "string",
                        "value": "50%"
                    }
                },
                "b4": {
                    "centerY": {
                        "type": "string",
                        "value": "50%"
                    }
                }
            }
        },
        "imgRightTip": {
            "__events__": {},
            "__info__": {
                "kuid": "d68739f9d72a4b6aa9c112819dd5aa09",
                "srcKUID": "f158c3f61df74963928edc5fce90a159",
                "wType": "Image"
            },
            "src": "lefy_arrow_white.png"
        },
        "lblInfo": {
            "__events__": {},
            "__info__": {
                "kuid": "cbc1a5171f9a4692b3f1d23202f404b5",
                "srcKUID": "de83828665f74f649b4eaba1b4c63a83",
                "wType": "Label"
            },
            "i18n_text": "kony.i18n.enrollNowHelpText",
            "responsiveData": {
                "b1": {
                    "text": null,
                    "width": {
                        "type": "string",
                        "value": "89%"
                    }
                },
                "b2": {
                    "text": null,
                    "width": {
                        "type": "string",
                        "value": "92%"
                    }
                },
                "b3": {
                    "text": null,
                    "width": {
                        "type": "string",
                        "value": "92%"
                    }
                },
                "b4": {
                    "text": null,
                    "width": {
                        "type": "string",
                        "value": "92%"
                    }
                }
            },
            "text": "",
            "width": {
                "Default": {
                    "type": "string",
                    "value": "95%"
                }
            }
        },
        "lblInfoIcon": {
            "__events__": {},
            "__info__": {
                "kuid": "f2c002eae1f04e6ea94bf27922e04aaf",
                "srcKUID": "b876e56e3bed4d9aa7d96a13447e2379",
                "wType": "Label"
            }
        },
        "lblName": {
            "__events__": {},
            "__info__": {
                "kuid": "c1342053c9c04136bd866695ea00034c",
                "srcKUID": "debb49ecca044762a0af0a1add2c8e97",
                "wType": "Label"
            },
            "responsiveData": {
                "b1": {
                    "text": ""
                }
            },
            "text": "Label"
        }
    },
    "enablescrolling": true,
    "focusskin": null,
    "id": "EnrollNow",
    "info": null,
    "isdatareferenced": false,
    "issegmentchild": false,
    "isvisible": true,
    "kuid": "i0479595a86d473aa66a0b4aa90f0d01",
    "layouttype": 4,
    "masterType": 0,
    "name": "kony.ui.UserWidgetInstance",
    "parent": "flxSelectOption",
    "pf": "frmLogin",
    "snapgridsize": 10,
    "snaptogrid": true,
    "sourceUserWidget": "d99b332b3fcb42f8bc6ea90f40adcdaa",
    "wType": "UserWidgetInstance"
}