{
    "@class": "com.kony.gen.viz.model.component.KVizUserWidget",
    "DNDConfig": null,
    "__parentReadjusting__": false,
    "_children_": [],
    "_height_": {
        "type": "string",
        "value": "100%"
    },
    "_left_": {
        "type": "string",
        "value": "0dp"
    },
    "_margin_": [
        0,
        0,
        0,
        0
    ],
    "_orientation_": 1,
    "_padding_": [
        0,
        0,
        0,
        0
    ],
    "_percent_": true,
    "_render_": true,
    "_skin_": "s1d5d3417cb74ec9883e5f01b8521945",
    "_top_": {
        "type": "string",
        "value": "0dp"
    },
    "_width_": {
        "type": "string",
        "value": "100%"
    },
    "areflexpropsreferenced": false,
    "canUpdateUI": true,
    "centerx": {
        "type": "number",
        "value": ""
    },
    "clipbounds": false,
    "containerweight": 0,
    "dataDiffs": {
        "DateInput": {
            "__events__": {},
            "__info__": {
                "kuid": "d236d4660ecc4878b89cb6d9a61eb989",
                "srcKUID": "ca36b68ddda04cab8c30b1f8f97f41a1",
                "wType": "UserWidgetInstance"
            },
            "autogrowMode": {
                "Default": 0
            },
            "centerX": {
                "Default": {
                    "type": "string",
                    "value": "50%"
                }
            },
            "height": {
                "Default": {
                    "type": "string",
                    "value": "100%"
                }
            },
            "responsiveData": {
                "b1": {
                    "top": {
                        "type": "string",
                        "value": "-1dp"
                    }
                },
                "b2": {}
            },
            "width": {
                "Default": {
                    "type": "string",
                    "value": "100%"
                }
            }
        },
        "DateInput.flxDateInputKA": {
            "__events__": {},
            "__info__": {
                "kuid": "fa4f03f063c443128c82603cd9a451d2",
                "srcKUID": "f3a8bdf09d294f4393bcf5c78613e00b",
                "wType": "FlexContainer"
            }
        },
        "DateInput.lblDatePlaceholderKA": {
            "__events__": {},
            "__info__": {
                "kuid": "a30738787c9d49298d92d6633570e296",
                "srcKUID": "d697d6739e5b4d94ad789dcec28ef316",
                "wType": "Label"
            }
        },
        "DateInput.lblEnteredDateKA": {
            "__events__": {},
            "__info__": {
                "kuid": "ccd222b048e14eec97ca96f566e7d254",
                "srcKUID": "j2947aed57ef4a90ab510cf8293688e1",
                "wType": "Label"
            }
        },
        "DateInput.tbxDateInputKA": {
            "__events__": {},
            "__info__": {
                "kuid": "ieeeb1be7efe48f8b520e8d21b287473",
                "srcKUID": "j91785f266064d76a97ecdf5d693cd83",
                "wType": "TextField"
            },
            "height": {
                "Default": {
                    "type": "string",
                    "value": "100%"
                }
            },
            "left": {
                "Default": {
                    "type": "string",
                    "value": "0dp"
                }
            },
            "responsiveData": {
                "b1": {
                    "left": {
                        "type": "string",
                        "value": "1dp"
                    }
                },
                "b2": {
                    "left": {
                        "type": "string",
                        "value": "1dp"
                    }
                },
                "b3": {
                    "left": {
                        "type": "string",
                        "value": "1dp"
                    }
                },
                "b4": {
                    "left": {
                        "type": "string",
                        "value": "1dp"
                    }
                }
            },
            "top": {
                "Default": {
                    "type": "string",
                    "value": "0dp"
                }
            },
            "width": {
                "Default": {
                    "type": "string",
                    "value": "100%"
                }
            }
        },
        "btnPhone": {
            "__events__": {},
            "__info__": {
                "kuid": "d61e606b6ece4e70aa57620b03bec264",
                "srcKUID": "h90c4e18e9624590959a0568b927fca7",
                "wType": "Button"
            },
            "responsiveData": {
                "b1": {
                    "isVisible": false
                },
                "b2": {
                    "isVisible": false
                },
                "b3": {
                    "isVisible": false
                },
                "b4": {
                    "isVisible": false
                }
            }
        },
        "btnProceed": {
            "__events__": {
                "ide_onClick": "AS_Button_df12693ac5b44c3b9864b1091128b959"
            },
            "__info__": {
                "kuid": "ceaa51dcb10c49279201dcae44170b23",
                "srcKUID": "be3bb94db8dd4859a211ab7451332836",
                "wType": "Button"
            },
            "centerX": {
                "Default": {
                    "type": "string",
                    "value": "50%"
                }
            },
            "responsiveData": {
                "b1": {
                    "top": {
                        "type": "string",
                        "value": "30dp"
                    },
                    "width": {
                        "type": "string",
                        "value": "68%"
                    }
                },
                "b2": {
                    "top": {
                        "type": "string",
                        "value": "30px"
                    },
                    "width": {
                        "type": "string",
                        "value": "86%"
                    }
                },
                "b3": {
                    "centerX": {
                        "type": "string",
                        "value": "50%"
                    },
                    "top": {
                        "type": "string",
                        "value": "30px"
                    },
                    "width": {
                        "type": "string",
                        "value": "85%"
                    }
                },
                "b4": {
                    "centerX": {
                        "type": "string",
                        "value": "50%"
                    },
                    "top": {
                        "type": "string",
                        "value": "30px"
                    },
                    "width": {
                        "type": "string",
                        "value": "85%"
                    }
                }
            },
            "top": {},
            "width": {
                "Default": {
                    "type": "string",
                    "value": "70%"
                }
            }
        },
        "flexSSN": {
            "__events__": {},
            "__info__": {
                "kuid": "a26b5b7d94d7422394d561c6852bd24c",
                "srcKUID": "fdbc996e65d14cd3aa9ecf95e2407681",
                "wType": "FlexContainer"
            },
            "centerX": {
                "Default": {
                    "type": "string",
                    "value": "50%"
                }
            },
            "left": {
                "Default": {
                    "type": "string",
                    "value": ""
                }
            },
            "responsiveData": {
                "b1": {
                    "centerX": {
                        "type": "string",
                        "value": "50%"
                    },
                    "left": {
                        "type": "string",
                        "value": ""
                    },
                    "top": {
                        "type": "string",
                        "value": "20px"
                    },
                    "width": {
                        "type": "string",
                        "value": "68%"
                    }
                },
                "b2": {
                    "centerX": {
                        "type": "string",
                        "value": "50%"
                    },
                    "left": {
                        "type": "string",
                        "value": ""
                    },
                    "top": {
                        "type": "string",
                        "value": "20px"
                    },
                    "width": {
                        "type": "string",
                        "value": "85%"
                    }
                },
                "b3": {
                    "centerX": {
                        "type": "string",
                        "value": "50%"
                    },
                    "left": {
                        "type": "string",
                        "value": ""
                    },
                    "top": {
                        "type": "string",
                        "value": "20px"
                    },
                    "width": {
                        "type": "string",
                        "value": "85%"
                    }
                },
                "b4": {
                    "centerX": {
                        "type": "string",
                        "value": "50%"
                    },
                    "left": {
                        "type": "string",
                        "value": ""
                    },
                    "top": {
                        "type": "string",
                        "value": "20px"
                    },
                    "width": {
                        "type": "string",
                        "value": "85%"
                    }
                }
            },
            "top": {
                "Default": {
                    "type": "string",
                    "value": "5.519999999999996%"
                }
            },
            "width": {}
        },
        "flxDOB": {
            "__events__": {},
            "__info__": {
                "kuid": "cd3382014a194ea4941bcdc44ac0338c",
                "srcKUID": "j9b765d8ce364b60a02f11f8890b0415",
                "wType": "FlexContainer"
            },
            "left": {
                "Default": {
                    "type": "string",
                    "value": "23dp"
                }
            },
            "responsiveData": {
                "b1": {
                    "left": {
                        "type": "string",
                        "value": ""
                    },
                    "top": {
                        "type": "string",
                        "value": "10dp"
                    }
                },
                "b2": {
                    "left": {
                        "type": "string",
                        "value": ""
                    },
                    "top": {
                        "type": "string",
                        "value": "10dp"
                    },
                    "width": {
                        "type": "string",
                        "value": "85%"
                    }
                },
                "b3": {
                    "left": {
                        "type": "string",
                        "value": ""
                    },
                    "top": {
                        "type": "string",
                        "value": "10dp"
                    },
                    "width": {
                        "type": "string",
                        "value": "85%"
                    }
                },
                "b4": {
                    "left": {
                        "type": "string",
                        "value": ""
                    },
                    "top": {
                        "type": "string",
                        "value": "10dp"
                    },
                    "width": {
                        "type": "string",
                        "value": "85%"
                    }
                }
            },
            "top": {
                "Default": {
                    "type": "string",
                    "value": "0.23000000000000398%"
                }
            },
            "width": {
                "Default": {
                    "type": "string",
                    "value": "68%"
                }
            }
        },
        "flxDateInput": {
            "__events__": {},
            "__info__": {
                "kuid": "e3e9de1bdb49474eacd62e2175654ad6",
                "srcKUID": "e3e8e9124d8d411db20ee259ee24b52e",
                "wType": "FlexContainer"
            },
            "responsiveData": {
                "b1": {
                    "isVisible": false,
                    "top": {
                        "type": "string",
                        "value": "8dp"
                    },
                    "width": {
                        "type": "string",
                        "value": "68%"
                    }
                },
                "b2": {
                    "top": {
                        "type": "string",
                        "value": "10dp"
                    }
                },
                "b3": {
                    "top": {
                        "type": "string",
                        "value": "10dp"
                    },
                    "width": {
                        "type": "string",
                        "value": "84.80%"
                    }
                },
                "b4": {
                    "top": {
                        "type": "string",
                        "value": "10dp"
                    }
                }
            },
            "top": {},
            "width": {}
        },
        "flxLetsVerifyCntr": {
            "__events__": {},
            "__info__": {
                "kuid": "eb66aad18d114892aed0713a79c81712",
                "srcKUID": "b8cf3f9c91214436bca5dbae7639375c",
                "wType": "FlexContainer"
            },
            "autogrowMode": {
                "Default": 0
            },
            "centerX": {
                "Default": {
                    "type": "string",
                    "value": "49%"
                }
            },
            "height": {
                "Default": {
                    "type": "string",
                    "value": "130dp"
                }
            },
            "layoutType": 4,
            "left": {
                "Default": {
                    "type": "string",
                    "value": "30dp"
                }
            },
            "responsiveData": {
                "b1": {
                    "centerX": {
                        "type": "string",
                        "value": ""
                    },
                    "height": {
                        "type": "string",
                        "value": "130dp"
                    },
                    "isVisible": true,
                    "layoutType": 4,
                    "left": {
                        "type": "string",
                        "value": "78dp"
                    },
                    "width": {
                        "type": "string",
                        "value": "400dp"
                    }
                },
                "b2": {
                    "centerX": {
                        "type": "string",
                        "value": "50%"
                    },
                    "height": {
                        "type": "string",
                        "value": "135dp"
                    },
                    "isVisible": true,
                    "left": {
                        "type": "string",
                        "value": ""
                    },
                    "top": {
                        "type": "string",
                        "value": "100dp"
                    },
                    "width": {
                        "type": "string",
                        "value": "100%"
                    }
                },
                "b3": {
                    "centerX": {
                        "type": "string",
                        "value": "50%"
                    },
                    "height": {
                        "type": "string",
                        "value": "130dp"
                    },
                    "top": {
                        "type": "string",
                        "value": "100dp"
                    },
                    "width": {
                        "type": "string",
                        "value": "100%"
                    }
                },
                "b4": {
                    "centerX": {
                        "type": "string",
                        "value": "50%"
                    },
                    "height": {
                        "type": "string",
                        "value": "125dp"
                    },
                    "top": {
                        "type": "string",
                        "value": "100dp"
                    },
                    "width": {
                        "type": "string",
                        "value": "100%"
                    }
                }
            },
            "top": {
                "Default": {
                    "type": "string",
                    "value": "110dp"
                }
            },
            "width": {
                "Default": {
                    "type": "string",
                    "value": "350dp"
                }
            }
        },
        "flxPhone": {
            "__events__": {},
            "__info__": {
                "kuid": "dc0bfe030cff4e0f81d86dde75c54335",
                "srcKUID": "e523033e0b504ae7abb7ab12afed958b",
                "wType": "FlexContainer"
            },
            "autogrowMode": {
                "Default": 1
            },
            "bottom": {
                "Default": {
                    "type": "string",
                    "value": "23dp"
                }
            },
            "centerX": {
                "Default": {
                    "type": "string",
                    "value": "50.00%"
                }
            },
            "height": {},
            "responsiveData": {
                "b1": {
                    "centerX": {
                        "type": "string",
                        "value": "50%"
                    },
                    "height": {
                        "type": "ref",
                        "value": "preferred"
                    },
                    "isVisible": true,
                    "top": {
                        "type": "string",
                        "value": "30px"
                    }
                },
                "b2": {
                    "centerX": {
                        "type": "string",
                        "value": "50%"
                    },
                    "height": {
                        "type": "ref",
                        "value": "preferred"
                    },
                    "isVisible": true,
                    "top": {
                        "type": "string",
                        "value": "15px"
                    }
                },
                "b3": {
                    "centerX": {
                        "type": "string",
                        "value": "50%"
                    },
                    "height": {
                        "type": "ref",
                        "value": "preferred"
                    },
                    "isVisible": true,
                    "layoutType": 4,
                    "top": {
                        "type": "string",
                        "value": "15px"
                    },
                    "width": {
                        "type": "string",
                        "value": "100%"
                    }
                },
                "b4": {
                    "centerX": {
                        "type": "string",
                        "value": "50%"
                    },
                    "height": {
                        "type": "ref",
                        "value": "preferred"
                    },
                    "isVisible": true,
                    "top": {
                        "type": "string",
                        "value": "15px"
                    }
                }
            },
            "top": {
                "Default": {
                    "type": "string",
                    "value": "2%"
                }
            },
            "width": {
                "Default": {
                    "type": "string",
                    "value": "70%"
                }
            }
        },
        "flxUserVerify": {
            "__events__": {},
            "__info__": {
                "kuid": "df61778520a6418f9ef6e94ebb1af165",
                "srcKUID": "bf7c020cda5745df870cabab73404fbf",
                "wType": "FlexContainer"
            },
            "centerX": {
                "Default": {
                    "type": "string",
                    "value": "13.24%"
                }
            },
            "left": {},
            "responsiveData": {
                "b1": {
                    "centerX": {
                        "type": "string",
                        "value": ""
                    },
                    "left": {
                        "type": "string",
                        "value": "4dp"
                    },
                    "top": {
                        "type": "string",
                        "value": "6dp"
                    }
                },
                "b2": {
                    "centerX": {
                        "type": "string",
                        "value": "50%"
                    },
                    "top": {
                        "type": "number",
                        "value": "0"
                    }
                },
                "b3": {
                    "centerX": {
                        "type": "string",
                        "value": "50.00%"
                    },
                    "top": {
                        "type": "string",
                        "value": "0.16%"
                    }
                },
                "b4": {
                    "centerX": {
                        "type": "string",
                        "value": "50%"
                    },
                    "top": {
                        "type": "string",
                        "value": "-0.33999999999999986%"
                    }
                }
            },
            "top": {
                "Default": {
                    "type": "string",
                    "value": "9.66%"
                }
            }
        },
        "flxWhatIsSSN": {
            "__events__": {},
            "__info__": {
                "kuid": "gf27b2d9dd3048f380e046cd29a97ff4",
                "srcKUID": "c92ac0f385a9485aabe51009a86675cf",
                "wType": "FlexContainer"
            },
            "isVisible": false,
            "responsiveData": {
                "b2": {
                    "top": {
                        "type": "string",
                        "value": ""
                    }
                }
            },
            "top": {}
        },
        "imgUserVerify": {
            "__events__": {},
            "__info__": {
                "kuid": "d17d70d0c7714ab3b1cf3c260b33d7f5",
                "srcKUID": "j33e13b2537945d295d2bd76b7f9d5e8",
                "wType": "Image"
            },
            "centerY": {
                "Default": {
                    "type": "string",
                    "value": "50%"
                }
            },
            "height": {},
            "responsiveData": {
                "b1": {
                    "height": {
                        "type": "string",
                        "value": "57dp"
                    },
                    "width": {
                        "type": "string",
                        "value": "57dp"
                    }
                },
                "b2": {
                    "height": {
                        "type": "string",
                        "value": "57dp"
                    },
                    "width": {
                        "type": "string",
                        "value": "57dp"
                    }
                }
            },
            "src": "user_verify.png",
            "top": {
                "Default": {
                    "type": "string",
                    "value": ""
                }
            },
            "width": {}
        },
        "imgWhatIsSSN": {
            "__events__": {},
            "__info__": {
                "kuid": "e096aee1837e4a5ca2b0805da00a813f",
                "srcKUID": "d7d103ca476c4a86b695adf5fd7f7aa6",
                "wType": "Image"
            },
            "src": "info_grey.png",
            "top": {
                "Default": {
                    "type": "number",
                    "value": "1"
                }
            }
        },
        "lblCallUs": {
            "__events__": {},
            "__info__": {
                "kuid": "d92de3746137467aa953a2edd4661561",
                "srcKUID": "dcdaf49a88c544a3942db9f728524136",
                "wType": "Label"
            },
            "responsiveData": {
                "b2": {
                    "width": {
                        "type": "string",
                        "value": "96.50%"
                    }
                },
                "b3": {
                    "width": {
                        "type": "string",
                        "value": "96.50%"
                    }
                },
                "b4": {
                    "width": {
                        "type": "string",
                        "value": "96.50%"
                    }
                }
            },
            "width": {}
        },
        "lblDOB": {
            "__events__": {},
            "__info__": {
                "kuid": "cd78534ddc5d43cfa5cc0f3218cfdfc7",
                "srcKUID": "e8735069e3ba47359c2d8fbc40604a6a",
                "wType": "Label"
            },
            "centerX": {},
            "left": {
                "Default": {
                    "type": "string",
                    "value": ""
                }
            },
            "responsiveData": {
                "b1": {
                    "centerX": {
                        "type": "string",
                        "value": "50%"
                    },
                    "left": {
                        "type": "string",
                        "value": ""
                    },
                    "top": {
                        "type": "string",
                        "value": "20px"
                    },
                    "width": {
                        "type": "string",
                        "value": "68%"
                    }
                },
                "b2": {
                    "centerX": {
                        "type": "string",
                        "value": "50%"
                    },
                    "left": {
                        "type": "string",
                        "value": ""
                    },
                    "top": {
                        "type": "string",
                        "value": "20px"
                    },
                    "width": {
                        "type": "string",
                        "value": "85%"
                    }
                },
                "b3": {
                    "centerX": {
                        "type": "string",
                        "value": "50%"
                    },
                    "left": {
                        "type": "string",
                        "value": ""
                    },
                    "top": {
                        "type": "string",
                        "value": "20px"
                    },
                    "width": {
                        "type": "string",
                        "value": "85%"
                    }
                },
                "b4": {
                    "centerX": {
                        "type": "string",
                        "value": "50%"
                    },
                    "left": {
                        "type": "string",
                        "value": ""
                    },
                    "top": {
                        "type": "string",
                        "value": "20px"
                    },
                    "width": {
                        "type": "string",
                        "value": "85%"
                    }
                }
            },
            "top": {},
            "width": {}
        },
        "lblLastName": {
            "__events__": {},
            "__info__": {
                "kuid": "a28346490bbd4dfa9d9aa7ded18e730f",
                "srcKUID": "j12dcae6378747ba98300d343b58678f",
                "wType": "Label"
            },
            "centerX": {},
            "isVisible": true,
            "left": {
                "Default": {
                    "type": "string",
                    "value": ""
                }
            },
            "responsiveData": {
                "b1": {
                    "centerX": {
                        "type": "string",
                        "value": "50%"
                    },
                    "left": {
                        "type": "string",
                        "value": ""
                    },
                    "top": {
                        "type": "string",
                        "value": "0dp"
                    },
                    "width": {
                        "type": "string",
                        "value": "68%"
                    }
                },
                "b2": {
                    "centerX": {
                        "type": "string",
                        "value": "50%"
                    },
                    "left": {
                        "type": "string",
                        "value": ""
                    },
                    "top": {
                        "type": "number",
                        "value": "0"
                    },
                    "width": {
                        "type": "string",
                        "value": "85%"
                    }
                },
                "b3": {
                    "centerX": {
                        "type": "string",
                        "value": "50%"
                    },
                    "isVisible": true,
                    "left": {
                        "type": "string",
                        "value": ""
                    },
                    "top": {
                        "type": "string",
                        "value": "12dp"
                    },
                    "width": {
                        "type": "string",
                        "value": "85%"
                    }
                },
                "b4": {
                    "centerX": {
                        "type": "string",
                        "value": "50%"
                    },
                    "left": {
                        "type": "string",
                        "value": ""
                    },
                    "top": {
                        "type": "string",
                        "value": "0px"
                    },
                    "width": {
                        "type": "string",
                        "value": "85%"
                    }
                }
            },
            "top": {
                "Default": {
                    "type": "string",
                    "value": "4.280000000000001%"
                }
            },
            "width": {}
        },
        "lblLetsVerify": {
            "__events__": {},
            "__info__": {
                "kuid": "ad6dc89b81044a488ee635811d4df723",
                "srcKUID": "cd30cab4e8f845b79bc0797da33d628a",
                "wType": "Label"
            },
            "centerX": {
                "Default": {
                    "type": "string",
                    "value": "44.46%"
                }
            },
            "left": {
                "Default": {
                    "type": "string",
                    "value": ""
                }
            },
            "responsiveData": {
                "b1": {
                    "centerX": {
                        "type": "string",
                        "value": ""
                    },
                    "left": {
                        "type": "string",
                        "value": "71dp"
                    },
                    "top": {
                        "type": "string",
                        "value": "-42dp"
                    }
                },
                "b2": {
                    "centerX": {
                        "type": "string",
                        "value": "50%"
                    },
                    "top": {
                        "type": "string",
                        "value": "0dp"
                    }
                },
                "b3": {
                    "centerX": {
                        "type": "string",
                        "value": "50.00%"
                    },
                    "top": {
                        "type": "string",
                        "value": "0dp"
                    }
                },
                "b4": {
                    "centerX": {
                        "type": "string",
                        "value": "50.00%"
                    },
                    "top": {
                        "type": "string",
                        "value": "0dp"
                    }
                }
            },
            "top": {
                "Default": {
                    "type": "string",
                    "value": "-35dp"
                }
            }
        },
        "lblSSN": {
            "__events__": {},
            "__info__": {
                "kuid": "b94fc1c1994f42758e0933f128a24fbb",
                "srcKUID": "fdffbcf52f3b41c58571c42539f3f229",
                "wType": "Label"
            },
            "left": {
                "Default": {
                    "type": "string",
                    "value": "0%"
                }
            },
            "responsiveData": {
                "b2": {
                    "left": {
                        "type": "string",
                        "value": "0dp"
                    },
                    "width": {
                        "type": "string",
                        "value": "86%"
                    }
                },
                "b4": {
                    "left": {
                        "type": "string",
                        "value": "0%"
                    },
                    "width": {
                        "type": "string",
                        "value": "100%"
                    }
                }
            },
            "text": "",
            "width": {}
        },
        "lblWrongInfo": {
            "__events__": {},
            "__info__": {
                "kuid": "j0516028f5a14f2791a3e28e1475f9b3",
                "srcKUID": "a366af506aef42df9151d1b846615cf4",
                "wType": "Label"
            },
            "centerX": {},
            "left": {},
            "responsiveData": {
                "b1": {
                    "centerX": {
                        "type": "string",
                        "value": ""
                    },
                    "isVisible": false,
                    "left": {
                        "type": "number",
                        "value": "4"
                    },
                    "top": {
                        "type": "number",
                        "value": "45"
                    }
                },
                "b2": {
                    "isVisible": false,
                    "top": {
                        "type": "string",
                        "value": "10dp"
                    },
                    "width": {
                        "type": "string",
                        "value": "100%"
                    }
                },
                "b3": {
                    "isVisible": false,
                    "top": {
                        "type": "string",
                        "value": "5dp"
                    },
                    "width": {
                        "type": "string",
                        "value": "84%"
                    }
                },
                "b4": {
                    "isVisible": false,
                    "top": {
                        "type": "string",
                        "value": "5dp"
                    },
                    "width": {
                        "type": "string",
                        "value": "100%"
                    }
                }
            },
            "text": "Label",
            "top": {
                "Default": {
                    "type": "string",
                    "value": "20dp"
                }
            },
            "width": {}
        },
        "lbxDate": {
            "__events__": {
                "ide_onSelection": "AS_ListBox_fbceb21f4ddd4de1a9a20791e2251754"
            },
            "__info__": {
                "kuid": "jf8743de4ade45f786b07789edae7315",
                "srcKUID": "i3062ad3eea04170abc1e942a1838b87",
                "wType": "ListBox"
            },
            "left": {
                "Default": {
                    "type": "string",
                    "value": "5.12%"
                }
            },
            "responsiveData": {
                "b1": {
                    "left": {
                        "type": "string",
                        "value": "4.50%"
                    }
                },
                "b2": {
                    "left": {
                        "type": "string",
                        "value": "4%"
                    },
                    "width": {
                        "type": "string",
                        "value": "30%"
                    }
                },
                "b3": {
                    "isVisible": true,
                    "left": {
                        "type": "string",
                        "value": "4.30%"
                    }
                },
                "b4": {
                    "left": {
                        "type": "string",
                        "value": "4%"
                    }
                }
            },
            "width": {}
        },
        "lbxMonth": {
            "__events__": {
                "ide_onSelection": "AS_ListBox_f02eb01ff527451f94db938c8addb1e6"
            },
            "__info__": {
                "kuid": "ced6d95025924bdd8fe61ef506c166aa",
                "srcKUID": "aaca66aad50746e3844ce54bfe62cd5c",
                "wType": "ListBox"
            },
            "left": {
                "Default": {
                    "type": "string",
                    "value": "5.12%"
                }
            },
            "responsiveData": {
                "b1": {
                    "left": {
                        "type": "string",
                        "value": "5.5%"
                    }
                },
                "b2": {
                    "left": {
                        "type": "string",
                        "value": "5.50%"
                    }
                },
                "b3": {
                    "left": {
                        "type": "string",
                        "value": "5.50%"
                    }
                },
                "b4": {
                    "left": {
                        "type": "string",
                        "value": "5.50%"
                    }
                }
            }
        },
        "lbxYear": {
            "__events__": {
                "ide_onSelection": "AS_ListBox_gcfe9c71f0534d908d98a6f965b3fd53"
            },
            "__info__": {
                "kuid": "a61a8c4b644049c29f48635fe319ad23",
                "srcKUID": "ce534d5f4d324af8aeb9bad6e194d326",
                "wType": "ListBox"
            },
            "responsiveData": {
                "b1": {
                    "left": {
                        "type": "string",
                        "value": "0dp"
                    }
                }
            }
        },
        "letsverify": {
            "__events__": {},
            "__info__": {
                "isRoot": true,
                "kuid": "gfba6866749443f98a5169c181d64056",
                "srcKUID": "b754989b224241c5b4b9b8fdcf7054c4",
                "wType": "FlexContainer"
            },
            "autogrowMode": {
                "Default": 0
            },
            "centerX": {},
            "height": {},
            "isVisible": true,
            "responsiveData": {
                "b1": {
                    "height": {
                        "type": "string",
                        "value": "100%"
                    },
                    "isVisible": false,
                    "width": {
                        "type": "string",
                        "value": "500dp"
                    }
                },
                "b2": {
                    "centerX": {
                        "type": "string",
                        "value": "50%"
                    },
                    "height": {
                        "type": "string",
                        "value": "100%"
                    }
                },
                "b3": {
                    "centerX": {
                        "type": "string",
                        "value": "50%"
                    },
                    "height": {
                        "type": "string",
                        "value": "100%"
                    },
                    "isVisible": true
                },
                "b4": {
                    "centerX": {
                        "type": "string",
                        "value": "50%"
                    },
                    "height": {
                        "type": "string",
                        "value": "100%"
                    }
                }
            },
            "width": {}
        },
        "tbxLastName": {
            "__events__": {
                "desktopweb": {
                    "ide_onKeyUp": "AS_TextField_ab492a75ee104b79bcef227862bd1dd1"
                }
            },
            "__info__": {
                "kuid": "hb6a5d69356c432aadcf6290b5194315",
                "srcKUID": "cb120e94936b453190d24bbbcc97fc5c",
                "wType": "TextField"
            },
            "centerX": {
                "Default": {
                    "type": "string",
                    "value": "50%"
                }
            },
            "responsiveData": {
                "b1": {
                    "text": "",
                    "top": {
                        "type": "string",
                        "value": "10dp"
                    },
                    "width": {
                        "type": "string",
                        "value": "68%"
                    }
                },
                "b2": {
                    "top": {
                        "type": "string",
                        "value": "10dp"
                    },
                    "width": {
                        "type": "string",
                        "value": "85%"
                    }
                },
                "b3": {
                    "centerX": {
                        "type": "string",
                        "value": "50%"
                    },
                    "top": {
                        "type": "string",
                        "value": "10dp"
                    },
                    "width": {
                        "type": "string",
                        "value": "84.80%"
                    }
                },
                "b4": {
                    "top": {
                        "type": "string",
                        "value": "10dp"
                    },
                    "width": {
                        "type": "string",
                        "value": "85%"
                    }
                }
            },
            "top": {},
            "width": {
                "Default": {
                    "type": "string",
                    "value": "68%"
                }
            }
        },
        "tbxSSN": {
            "__events__": {
                "desktopweb": {
                    "ide_onKeyUp": "AS_TextField_fecb63274ea6496298bc7eb0399a4e65"
                }
            },
            "__info__": {
                "kuid": "f69092f1334c43f3b163d8173dc7f48a",
                "srcKUID": "dcd32b94748c4722a3c7e8f83629012f",
                "wType": "TextField"
            },
            "left": {
                "Default": {
                    "type": "string",
                    "value": ""
                }
            },
            "responsiveData": {
                "b1": {
                    "top": {
                        "type": "string",
                        "value": "10dp"
                    }
                },
                "b2": {
                    "top": {
                        "type": "string",
                        "value": "10dp"
                    },
                    "width": {
                        "type": "string",
                        "value": "85%"
                    }
                },
                "b3": {
                    "top": {
                        "type": "string",
                        "value": "10dp"
                    },
                    "width": {
                        "type": "string",
                        "value": "84.80%"
                    }
                },
                "b4": {
                    "top": {
                        "type": "string",
                        "value": "10dp"
                    },
                    "width": {
                        "type": "string",
                        "value": "85%"
                    }
                }
            },
            "secureTextEntry": false,
            "top": {
                "Default": {
                    "type": "string",
                    "value": "0.23000000000000398%"
                }
            },
            "width": {
                "Default": {
                    "type": "string",
                    "value": "68%"
                }
            }
        }
    },
    "id": "letsverify",
    "info": null,
    "isdatareferenced": false,
    "issegmentchild": false,
    "isvisible": true,
    "kuid": "gfba6866749443f98a5169c181d64056",
    "layouttype": 4,
    "masterType": 0,
    "name": "kony.ui.UserWidgetInstance",
    "parent": "flxVerification",
    "pf": "frmLogin",
    "snapgridsize": 10,
    "snaptogrid": true,
    "sourceUserWidget": "b754989b224241c5b4b9b8fdcf7054c4",
    "vizprops": {
        "hidewidgethierarchy": false
    },
    "wType": "UserWidgetInstance"
}