{
    "@class": "com.kony.gen.viz.model.component.KVizUserWidget",
    "DNDConfig": null,
    "__parentReadjusting__": false,
    "_children_": [],
    "_height_": {
        "type": "string",
        "value": "100%"
    },
    "_left_": {
        "type": "string",
        "value": "0dp"
    },
    "_margin_": [
        0,
        0,
        0,
        0
    ],
    "_orientation_": 1,
    "_padding_": [
        0,
        0,
        0,
        0
    ],
    "_percent_": true,
    "_skin_": "s1d5d3417cb74ec9883e5f01b8521945",
    "_top_": {
        "type": "string",
        "value": "0dp"
    },
    "_width_": {
        "type": "string",
        "value": "100%"
    },
    "areflexpropsreferenced": false,
    "autogrowmode": 0,
    "canUpdateUI": true,
    "clipbounds": false,
    "containerweight": 0,
    "dataDiffs": {
        "btnForgotPassword": {
            "__events__": {
                "ide_onClick": "AS_Button_ead9d66606d2401ea0d5e7bb9943bf25"
            },
            "__info__": {
                "kuid": "e645ec5c8ff443a686e9ac45c9bb3e60",
                "srcKUID": "d234bb1561264f9c918f2415e1fcfd2e",
                "wType": "Button"
            },
            "responsiveData": {
                "b3": {
                    "width": {
                        "type": "string",
                        "value": "48%"
                    }
                }
            },
            "right": {
                "Default": {
                    "type": "string",
                    "value": "1dp"
                }
            },
            "width": {}
        },
        "btnLogin": {
            "__events__": {
                "ide_onClick": "AS_Button_de4e981b9fec4fa78dae2465790df83f"
            },
            "__info__": {
                "kuid": "e5a7e7c5f6ca481585ff214b2b995f22",
                "srcKUID": "ga1ff8714da0426386825a8d459be1b0",
                "wType": "Button"
            },
            "responsiveData": {
                "b1": {
                    "top": {
                        "type": "string",
                        "value": "0%"
                    }
                },
                "b2": {
                    "top": {
                        "type": "string",
                        "value": "0%"
                    }
                },
                "b3": {
                    "top": {
                        "type": "string",
                        "value": "0%"
                    }
                },
                "b4": {
                    "top": {
                        "type": "string",
                        "value": "0%"
                    }
                }
            },
            "top": {}
        },
        "btnOnlineAccessEnroll": {
            "__events__": {
                "ide_onClick": "AS_Button_b1c783f693db4c88b35b960d93ccc013"
            },
            "__info__": {
                "kuid": "j260d4e519cc4f9893b5c8243f942fe9",
                "srcKUID": "f3b768ea7f84483cb7311478ee469e29",
                "wType": "Button"
            },
            "i18n_text": "i18n.Login.Enroll",
            "responsiveData": {
                "b1": {},
                "b3": {
                    "width": {
                        "type": "string",
                        "value": "45%"
                    }
                },
                "b4": {
                    "width": {
                        "type": "string",
                        "value": "45%"
                    }
                }
            },
            "text": "",
            "width": {}
        },
        "btnOpenNewAccount": {
            "__events__": {
                "ide_onClick": "AS_Button_jd7ba24236124efb8537a66ac4a97242"
            },
            "__info__": {
                "kuid": "de368351471d49c6974271ad158ba1a5",
                "srcKUID": "cf1d674631e64739a74415b3b3ce05af",
                "wType": "Button"
            },
            "responsiveData": {
                "b1": {
                    "width": {
                        "type": "ref",
                        "value": "preferred"
                    }
                },
                "b2": {
                    "width": {
                        "type": "ref",
                        "value": "preferred"
                    }
                },
                "b3": {
                    "width": {
                        "type": "ref",
                        "value": "preferred"
                    }
                },
                "b4": {
                    "width": {
                        "type": "ref",
                        "value": "preferred"
                    }
                }
            },
            "width": {
                "Default": {
                    "type": "string",
                    "value": "40%"
                }
            }
        },
        "carousel": {
            "__events__": {},
            "__info__": {
                "kuid": "e8e13b398dd44f7b821b7e1c9049ae0f",
                "srcKUID": "j57281b8faef48699218b7d999e7ac9f",
                "wType": "UserWidgetInstance"
            },
            "isVisible": false,
            "responsiveData": {
                "b1": {
                    "isVisible": false
                },
                "b2": {
                    "isVisible": false
                },
                "b3": {
                    "isVisible": false
                },
                "b4": {
                    "isVisible": false
                }
            }
        },
        "carousel.segCarousel": {
            "__events__": {},
            "__info__": {
                "kuid": "b5870750dd4d4c07879fd79ce322e526",
                "srcKUID": "d08aa92461294a10a8e4ea12c7baa886",
                "wType": "Segment"
            },
            "autogrowMode": {
                "Default": 0
            },
            "height": {
                "Default": {
                    "type": "string",
                    "value": "90%"
                }
            },
            "responsiveData": {
                "b1": {
                    "height": {
                        "type": "string",
                        "value": "160dp"
                    },
                    "width": {
                        "type": "string",
                        "value": "340dp"
                    }
                }
            },
            "width": {
                "Default": {
                    "type": "string",
                    "value": "85%"
                }
            }
        },
        "flexcheckuncheck": {
            "__events__": {},
            "__info__": {
                "kuid": "if833c696ef64c8197648cccffb6b731",
                "srcKUID": "cea09b7494ca49069802fc85c4900597",
                "wType": "FlexContainer"
            },
            "autogrowMode": {
                "Default": 1
            },
            "bottom": {
                "Default": {
                    "type": "string",
                    "value": ""
                }
            },
            "centerY": {
                "Default": {
                    "type": "string",
                    "value": ""
                }
            },
            "clipBounds": false,
            "height": {
                "Default": {
                    "type": "ref",
                    "value": "preferred"
                }
            },
            "left": {},
            "responsiveData": {
                "b1": {
                    "left": {
                        "type": "string",
                        "value": "10dp"
                    }
                },
                "b3": {
                    "left": {
                        "type": "string",
                        "value": "8dp"
                    }
                }
            },
            "top": {
                "Default": {
                    "type": "string",
                    "value": "0dp"
                }
            },
            "width": {
                "Default": {
                    "type": "string",
                    "value": "35dp"
                }
            }
        },
        "flxContainer": {
            "__events__": {},
            "__info__": {
                "kuid": "fb55daf75f514b73a91c84d40655d6ae",
                "srcKUID": "affaef772c3943abb94a9e0332769cc2",
                "wType": "FlexContainer"
            },
            "autogrowMode": {
                "Default": 0
            },
            "centerX": {
                "Default": {
                    "type": "string",
                    "value": "50%"
                }
            },
            "clipBounds": false,
            "height": {
                "Default": {
                    "type": "string",
                    "value": "560dp"
                }
            },
            "left": {
                "Default": {
                    "type": "string",
                    "value": ""
                }
            },
            "responsiveData": {
                "b1": {
                    "height": {
                        "type": "string",
                        "value": "95%"
                    }
                },
                "b2": {
                    "height": {
                        "type": "string",
                        "value": "870dp"
                    },
                    "top": {
                        "type": "string",
                        "value": "40dp"
                    },
                    "width": {
                        "type": "string",
                        "value": "100%"
                    }
                },
                "b3": {
                    "height": {
                        "type": "string",
                        "value": "750dp"
                    },
                    "width": {
                        "type": "string",
                        "value": "100%"
                    }
                },
                "b4": {
                    "height": {
                        "type": "string",
                        "value": "820dp"
                    },
                    "top": {
                        "type": "string",
                        "value": "40dp"
                    },
                    "width": {
                        "type": "string",
                        "value": "100%"
                    }
                }
            },
            "top": {
                "Default": {
                    "type": "string",
                    "value": "5%"
                }
            },
            "width": {
                "Default": {
                    "type": "string",
                    "value": "400dp"
                }
            }
        },
        "flxHeaderNError": {
            "__events__": {},
            "__info__": {
                "kuid": "f29918ada5cd4ab1a5a2a74a04fc7639",
                "srcKUID": "f3bddadad24845588e3e77cca7be9bcc",
                "wType": "FlexContainer"
            },
            "autogrowMode": {
                "Default": 1
            },
            "centerX": {},
            "height": {
                "Default": {
                    "type": "string",
                    "value": "110dp"
                }
            },
            "isVisible": true,
            "responsiveData": {
                "b1": {
                    "centerX": {
                        "type": "string",
                        "value": "50%"
                    },
                    "height": {
                        "type": "ref",
                        "value": "preferred"
                    },
                    "top": {
                        "type": "string",
                        "value": "100dp"
                    },
                    "width": {
                        "type": "string",
                        "value": "85%"
                    }
                },
                "b2": {
                    "height": {
                        "type": "ref",
                        "value": "preferred"
                    },
                    "isVisible": true,
                    "top": {
                        "type": "string",
                        "value": "100dp"
                    },
                    "width": {
                        "type": "string",
                        "value": "100%"
                    }
                },
                "b3": {
                    "height": {
                        "type": "ref",
                        "value": "preferred"
                    },
                    "isVisible": true,
                    "top": {
                        "type": "string",
                        "value": "90dp"
                    }
                },
                "b4": {
                    "height": {
                        "type": "ref",
                        "value": "preferred"
                    },
                    "isVisible": true,
                    "top": {
                        "type": "string",
                        "value": "100dp"
                    }
                }
            },
            "top": {},
            "width": {}
        },
        "flxImageUser": {
            "__events__": {},
            "__info__": {
                "kuid": "i26698f66aa74296b09564bf10178436",
                "srcKUID": "ff94c6e2e38b48e0b204b4c09a45e28d",
                "wType": "FlexContainer"
            }
        },
        "flxImgInfoIcon": {
            "__events__": {},
            "__info__": {
                "kuid": "ge06a947f6a149b6882cb856dc29a8b5",
                "srcKUID": "cf72119a092449c8a99572e928a17e49",
                "wType": "FlexContainer"
            }
        },
        "flxLoginUser": {
            "__events__": {},
            "__info__": {
                "kuid": "bad324930441401bb1e365324f6ec57a",
                "srcKUID": "e60fd75866cd4ae8b9c88c812cadec15",
                "wType": "FlexContainer"
            },
            "isVisible": false,
            "responsiveData": {
                "b2": {
                    "top": {
                        "type": "string",
                        "value": "30dp"
                    }
                },
                "b3": {
                    "isVisible": false,
                    "top": {
                        "type": "string",
                        "value": "20dp"
                    }
                },
                "b4": {
                    "top": {
                        "type": "string",
                        "value": "30dp"
                    }
                }
            },
            "top": {}
        },
        "flxNewNEnroll": {
            "__events__": {},
            "__info__": {
                "kuid": "a10f16d69a78476d844cd3cc77352428",
                "srcKUID": "cb1bfceee374439091be6462dd1a0d74",
                "wType": "FlexContainer"
            },
            "autogrowMode": {
                "Default": 0
            },
            "height": {},
            "responsiveData": {
                "b1": {
                    "height": {
                        "type": "string",
                        "value": "45dp"
                    }
                },
                "b2": {
                    "height": {
                        "type": "string",
                        "value": "40dp"
                    }
                },
                "b3": {
                    "height": {
                        "type": "string",
                        "value": "40dp"
                    },
                    "top": {
                        "type": "string",
                        "value": "10dp"
                    }
                },
                "b4": {
                    "height": {
                        "type": "string",
                        "value": "40dp"
                    }
                }
            },
            "top": {}
        },
        "flxOpenNewAccount": {
            "__events__": {},
            "__info__": {
                "kuid": "fa7eeea69fa446aaaf57afe1060a0fd6",
                "srcKUID": "ae11eec4d1174e21a379315220b9448b",
                "wType": "FlexContainer"
            }
        },
        "flxPassword": {
            "__events__": {},
            "__info__": {
                "kuid": "b04afd5025d7498db72ab531a94b892d",
                "srcKUID": "e1404f14f7424db7856d82bb1b2b75d5",
                "wType": "FlexContainer"
            },
            "responsiveData": {
                "b1": {
                    "top": {
                        "type": "string",
                        "value": "10dp"
                    }
                },
                "b2": {
                    "top": {
                        "type": "string",
                        "value": "10dp"
                    }
                },
                "b3": {
                    "top": {
                        "type": "string",
                        "value": "10dp"
                    }
                },
                "b4": {
                    "top": {
                        "type": "string",
                        "value": "10dp"
                    }
                }
            },
            "top": {
                "Default": {
                    "type": "string",
                    "value": "10dp"
                }
            }
        },
        "flxPasswordLabel": {
            "__events__": {},
            "__info__": {
                "kuid": "e89aadd64a6e42229cd60d3a72fac11b",
                "srcKUID": "b4067939c13247f79b0443d47cf2ca29",
                "wType": "FlexContainer"
            },
            "centerX": {
                "Default": {
                    "type": "string",
                    "value": "50%"
                }
            },
            "left": {
                "Default": {
                    "type": "string",
                    "value": ""
                }
            },
            "responsiveData": {
                "b1": {
                    "top": {
                        "type": "number",
                        "value": "20"
                    }
                },
                "b2": {
                    "top": {
                        "type": "number",
                        "value": "20"
                    }
                },
                "b3": {
                    "top": {
                        "type": "number",
                        "value": "20"
                    }
                },
                "b4": {
                    "top": {
                        "type": "number",
                        "value": "20"
                    }
                }
            },
            "top": {}
        },
        "flxRemember": {
            "__events__": {},
            "__info__": {
                "kuid": "c3e2c722827e441aa550b84dec85c543",
                "srcKUID": "f8ebcec70a154a8cad2f1db254909cff",
                "wType": "FlexContainer"
            },
            "autogrowMode": {
                "Default": 0
            },
            "clipBounds": false,
            "height": {
                "Default": {
                    "type": "string",
                    "value": "30dp"
                }
            },
            "responsiveData": {}
        },
        "flxRememberMe": {
            "__events__": {},
            "__info__": {
                "kuid": "b750c091c4b048659b3393bbe7c488fe",
                "srcKUID": "f2013ce0e2cd40d1b96f4df80d71ff11",
                "wType": "FlexContainer"
            },
            "autogrowMode": {
                "Default": 0
            },
            "height": {},
            "responsiveData": {
                "b1": {
                    "height": {
                        "type": "string",
                        "value": "50dp"
                    }
                },
                "b2": {
                    "height": {
                        "type": "string",
                        "value": "55dp"
                    }
                },
                "b3": {
                    "height": {
                        "type": "string",
                        "value": "55dp"
                    },
                    "top": {
                        "type": "string",
                        "value": "4%"
                    }
                },
                "b4": {
                    "height": {
                        "type": "string",
                        "value": "55dp"
                    }
                }
            },
            "top": {}
        },
        "flxRememberedUsers": {
            "__events__": {},
            "__info__": {
                "kuid": "c9e4af88d9574df98e5bc0e6d27b5509",
                "srcKUID": "e95d0a4d434949bcb0a2ae90c5fe32e1",
                "wType": "FlexContainer"
            }
        },
        "flxUserDropdown": {
            "__events__": {},
            "__info__": {
                "kuid": "fa4c454352b449dcb9f8139e07fd10a8",
                "srcKUID": "bd34e9d539934659a6c90038b6dc60b6",
                "wType": "FlexContainer"
            },
            "responsiveData": {
                "b1": {
                    "isVisible": false,
                    "zIndex": 1
                },
                "b2": {
                    "isVisible": false
                },
                "b3": {
                    "isVisible": false,
                    "zIndex": 99
                }
            },
            "zIndex": {
                "Default": 1
            }
        },
        "flxUserName": {
            "__events__": {},
            "__info__": {
                "kuid": "g5b2537912f846acbccebbb9fee77018",
                "srcKUID": "j7bfc07060fd411e9dc231515dc11d50",
                "wType": "FlexContainer"
            },
            "centerX": {
                "Default": {
                    "type": "string",
                    "value": "50%"
                }
            },
            "responsiveData": {
                "b1": {
                    "top": {
                        "type": "string",
                        "value": "10dp"
                    },
                    "zIndex": 50
                },
                "b2": {
                    "top": {
                        "type": "string",
                        "value": "10dp"
                    },
                    "zIndex": 99
                },
                "b3": {
                    "top": {
                        "type": "string",
                        "value": "10dp"
                    }
                },
                "b4": {
                    "top": {
                        "type": "string",
                        "value": "10dp"
                    }
                }
            },
            "top": {
                "Default": {
                    "type": "string",
                    "value": "10dp"
                }
            },
            "zIndex": {}
        },
        "flxUserNameLabel": {
            "__events__": {},
            "__info__": {
                "kuid": "abab1708b98c486c9bf5c6993fe6ebba",
                "srcKUID": "d513a8d04ab2460ebe39bafe03e1b602",
                "wType": "FlexContainer"
            },
            "centerX": {
                "Default": {
                    "type": "string",
                    "value": "50%"
                }
            },
            "left": {
                "Default": {
                    "type": "string",
                    "value": ""
                }
            },
            "responsiveData": {
                "b1": {
                    "top": {
                        "type": "number",
                        "value": "40"
                    }
                },
                "b2": {
                    "top": {
                        "type": "number",
                        "value": "30"
                    }
                },
                "b3": {
                    "top": {
                        "type": "number",
                        "value": "20"
                    }
                },
                "b4": {
                    "top": {
                        "type": "number",
                        "value": "30"
                    }
                }
            },
            "top": {
                "Default": {
                    "type": "string",
                    "value": "0"
                }
            }
        },
        "imgInfoIcon": {
            "__events__": {},
            "__info__": {
                "kuid": "dd338255244d4eb1999d57b34e7d6937",
                "srcKUID": "c334314c681f4558b3f6a013a9eddee3",
                "wType": "Image"
            },
            "src": "info_grey.png"
        },
        "imgKony": {
            "__events__": {},
            "__info__": {
                "kuid": "b17ab9f444034500b460abab4aeb8a38",
                "srcKUID": "f69ced2efcd94f0290f2562c8c6da3cf",
                "wType": "Image"
            },
            "src": "kony_logo.png"
        },
        "imgPassword": {
            "__events__": {},
            "__info__": {
                "kuid": "c336902470dd425db54147d59e1188de",
                "srcKUID": "fedc50653fc045d89c647f063406d896",
                "wType": "Image"
            },
            "src": "password.png"
        },
        "imgRememberMe": {
            "__events__": {},
            "__info__": {
                "kuid": "d728eb0fed9b45c3a54904ca849b636b",
                "srcKUID": "a9f37a4ce9444387ae10a1ea05ba36f2",
                "wType": "Image"
            },
            "left": {
                "Default": {
                    "type": "string",
                    "value": "0dp"
                }
            },
            "responsiveData": {},
            "src": "unchecked_box.png",
            "top": {
                "Default": {
                    "type": "string",
                    "value": "0dp"
                }
            }
        },
        "imgUser": {
            "__events__": {},
            "__info__": {
                "kuid": "g8a8a540160c411da921ebae6645ea52",
                "srcKUID": "d8f07cdf6c1d4e49a9f03285dcaa220a",
                "wType": "Image"
            },
            "src": "default_username.png"
        },
        "imgUserAToolTip": {
            "__events__": {},
            "__info__": {
                "kuid": "d231466dada34bbc90679a2decc69b67",
                "srcKUID": "d85d6d455fbb433d8408c4dfa435aa4b",
                "wType": "Image"
            },
            "src": "username_tooltip.png"
        },
        "imgUserName": {
            "__events__": {},
            "__info__": {
                "kuid": "c55c9fbe59ac47bbb0424684d072b5a5",
                "srcKUID": "d28aa5232be445af942374479e7ba0d1",
                "wType": "Image"
            },
            "src": "username.png"
        },
        "imgUserOutline": {
            "__events__": {},
            "__info__": {
                "kuid": "c432467f71b642a1bcb89379b1c6a9c7",
                "srcKUID": "j272915216a34155aebd45313b9c3281",
                "wType": "Image"
            },
            "src": "verify_user.png"
        },
        "imgViewPassword": {
            "__events__": {},
            "__info__": {
                "kuid": "c10045b696fb40f2ad1b8a4e911dbfc8",
                "srcKUID": "b67ed95fcf524cc6841589fe202bc9ea",
                "wType": "Image"
            },
            "isVisible": false,
            "responsiveData": {
                "b1": {
                    "isVisible": false
                },
                "b2": {
                    "isVisible": false,
                    "right": {
                        "type": "string",
                        "value": "10dp"
                    }
                },
                "b4": {
                    "isVisible": false,
                    "right": {
                        "type": "string",
                        "value": "10dp"
                    }
                }
            },
            "right": {},
            "src": "view.png"
        },
        "lblAppName": {
            "__events__": {},
            "__info__": {
                "kuid": "dba0b344cb2a4eaca4cca48288e58f0d",
                "srcKUID": "b6cc0f84085c456e8e9726dc31f31055",
                "wType": "Label"
            }
        },
        "lblFavoriteEmailCheckBox": {
            "__events__": {
                "ide_onTouchStart": "AS_Label_i42f725ef46b45e99cce71913bc61655"
            },
            "__info__": {
                "kuid": "jdd162037ad343fcac96af6007b5250b",
                "srcKUID": "ed9d0727511046f0887cca55479df322",
                "wType": "Label"
            },
            "centerY": {
                "Default": {
                    "type": "string",
                    "value": ""
                }
            },
            "height": {
                "Default": {
                    "type": "ref",
                    "value": "preferred"
                }
            },
            "responsiveData": {
                "b2": {
                    "top": {
                        "type": "string",
                        "value": "1dp"
                    }
                }
            },
            "top": {
                "Default": {
                    "type": "string",
                    "value": "0dp"
                }
            },
            "width": {
                "Default": {
                    "type": "string",
                    "value": "35dp"
                }
            }
        },
        "lblPassword": {
            "__events__": {},
            "__info__": {
                "kuid": "i05a2bf6acdc4c4d84bbd6d22bd85d1e",
                "srcKUID": "cccf368605c74d9daafe9b25649ddf61",
                "wType": "Label"
            },
            "centerX": {
                "Default": {
                    "type": "string",
                    "value": "50%"
                }
            },
            "i18n_text": "i18n.transfers.password",
            "isVisible": true,
            "left": {
                "Default": {
                    "type": "string",
                    "value": "30dp"
                }
            },
            "responsiveData": {
                "b1": {
                    "centerX": {
                        "type": "string",
                        "value": ""
                    },
                    "left": {
                        "type": "string",
                        "value": "0dp"
                    },
                    "top": {
                        "type": "string",
                        "value": "0dp"
                    },
                    "zIndex": 1
                },
                "b2": {
                    "centerX": {
                        "type": "string",
                        "value": ""
                    },
                    "left": {
                        "type": "string",
                        "value": "0dp"
                    },
                    "top": {
                        "type": "string",
                        "value": "0dp"
                    },
                    "zIndex": 1
                },
                "b3": {
                    "centerX": {
                        "type": "string",
                        "value": ""
                    },
                    "left": {
                        "type": "string",
                        "value": "0dp"
                    },
                    "top": {
                        "type": "string",
                        "value": "0dp"
                    },
                    "zIndex": 1
                },
                "b4": {
                    "centerX": {
                        "type": "string",
                        "value": ""
                    },
                    "left": {
                        "type": "string",
                        "value": "0dp"
                    },
                    "top": {
                        "type": "string",
                        "value": "0dp"
                    },
                    "zIndex": 1
                }
            },
            "text": "Password",
            "top": {
                "Default": {
                    "type": "string",
                    "value": "20dp"
                }
            },
            "width": {
                "Default": {
                    "type": "string",
                    "value": "85%"
                }
            },
            "zIndex": {}
        },
        "lblPasswordCapsLocIndicator": {
            "__events__": {},
            "__info__": {
                "kuid": "hd4577ce5e3c4edd94990e53cb4ba248",
                "srcKUID": "g420e804e5d74ab1ae16bc9a048e3035",
                "wType": "Label"
            },
            "i18n_text": "kony.common.capslockinidcator",
            "isVisible": false,
            "responsiveData": {
                "b1": {
                    "top": {
                        "type": "number",
                        "value": "0"
                    }
                },
                "b2": {},
                "b3": {},
                "b4": {}
            },
            "text": "Caps lock is on",
            "top": {}
        },
        "lblRememberMe": {
            "__events__": {},
            "__info__": {
                "kuid": "ha00e6517fb04ffbb8b8a0b5cee58912",
                "srcKUID": "c6155262cc5a41408a57645dcfa8d379",
                "wType": "Label"
            },
            "bottom": {
                "Default": {
                    "type": "string",
                    "value": ""
                }
            },
            "centerY": {
                "Default": {
                    "type": "string",
                    "value": ""
                }
            },
            "maxWidth": {
                "Default": {
                    "type": "string",
                    "value": "82%"
                }
            },
            "responsiveData": {
                "b1": {
                    "width": {
                        "type": "ref",
                        "value": "preferred"
                    }
                },
                "b2": {
                    "width": {
                        "type": "ref",
                        "value": "preferred"
                    }
                },
                "b3": {
                    "width": {
                        "type": "ref",
                        "value": "preferred"
                    }
                },
                "b4": {
                    "text": "Remember Me",
                    "width": {
                        "type": "ref",
                        "value": "preferred"
                    }
                }
            },
            "text": "Remember me",
            "top": {
                "Default": {
                    "type": "string",
                    "value": "0dp"
                }
            },
            "width": {
                "Default": {
                    "type": "string",
                    "value": "60%"
                }
            }
        },
        "lblUsername": {
            "__events__": {},
            "__info__": {
                "kuid": "f0124dadd934434694e4150752c86279",
                "srcKUID": "b2beb299652346e5afbc287737720b9b",
                "wType": "Label"
            },
            "centerX": {
                "Default": {
                    "type": "string",
                    "value": ""
                }
            },
            "i18n_text": "i18n.transfers.username",
            "isVisible": true,
            "left": {
                "Default": {
                    "type": "string",
                    "value": "10dp"
                }
            },
            "minWidth": {},
            "responsiveData": {
                "b1": {
                    "left": {
                        "type": "string",
                        "value": "0dp"
                    },
                    "minWidth": {
                        "type": "string",
                        "value": ""
                    },
                    "top": {
                        "type": "string",
                        "value": "0dp"
                    },
                    "width": {
                        "type": "string",
                        "value": "85%"
                    }
                },
                "b2": {
                    "left": {
                        "type": "string",
                        "value": "0dp"
                    },
                    "top": {
                        "type": "string",
                        "value": "0dp"
                    }
                },
                "b3": {
                    "left": {
                        "type": "string",
                        "value": "0dp"
                    },
                    "top": {
                        "type": "string",
                        "value": "0dp"
                    }
                },
                "b4": {
                    "left": {
                        "type": "string",
                        "value": "0dp"
                    },
                    "top": {
                        "type": "string",
                        "value": "0dp"
                    }
                }
            },
            "text": "Username",
            "top": {},
            "width": {
                "Default": {
                    "type": "string",
                    "value": "85%"
                }
            }
        },
        "lblUsernameCapsLocIndicator": {
            "__events__": {},
            "__info__": {
                "kuid": "cdccf4fa59ba4ba588c807a6dc23462d",
                "srcKUID": "f1b5f8f47f514e02aff83ad1a8bfb355",
                "wType": "Label"
            },
            "i18n_text": "kony.common.capslockinidcator",
            "isVisible": true,
            "responsiveData": {
                "b1": {
                    "isVisible": false,
                    "top": {
                        "type": "number",
                        "value": "0"
                    }
                },
                "b2": {
                    "isVisible": false
                },
                "b3": {
                    "isVisible": false
                },
                "b4": {
                    "isVisible": false
                }
            },
            "text": "Caps lock is on",
            "top": {}
        },
        "lblVerifiedUser": {
            "__events__": {},
            "__info__": {
                "kuid": "d3b946ded36e40b1862798846a2bb6a9",
                "srcKUID": "g297b8758a694564ab13b388911202a6",
                "wType": "Label"
            }
        },
        "lblWelcome": {
            "__events__": {},
            "__info__": {
                "kuid": "eceae719722540088ceaeb4ec4cf7226",
                "srcKUID": "c819cb0b5d094d399b04d8493f7e250d",
                "wType": "Label"
            }
        },
        "lblWelcomeMobile": {
            "__events__": {},
            "__info__": {
                "kuid": "df23c9163dfc40ca805d18e3e19916c6",
                "srcKUID": "i1dd907bb8a447bfbbdcfe9f16e39775",
                "wType": "Label"
            },
            "centerX": {
                "Default": {
                    "type": "string",
                    "value": ""
                }
            },
            "i18n_text": "i18n.login.Welcome",
            "left": {
                "Default": {
                    "type": "string",
                    "value": "30dp"
                }
            },
            "minWidth": {},
            "responsiveData": {
                "b1": {
                    "left": {
                        "type": "string",
                        "value": "0dp"
                    },
                    "top": {
                        "type": "string",
                        "value": "0dp"
                    }
                },
                "b2": {
                    "centerX": {
                        "type": "string",
                        "value": "50%"
                    },
                    "left": {
                        "type": "string",
                        "value": ""
                    }
                },
                "b3": {
                    "centerX": {
                        "type": "string",
                        "value": "50%"
                    },
                    "isVisible": true,
                    "left": {
                        "type": "string",
                        "value": ""
                    },
                    "minWidth": {
                        "type": "string",
                        "value": ""
                    },
                    "width": {
                        "type": "ref",
                        "value": "preferred"
                    }
                },
                "b4": {
                    "centerX": {
                        "type": "string",
                        "value": "50%"
                    },
                    "isVisible": true,
                    "left": {
                        "type": "string",
                        "value": ""
                    },
                    "width": {
                        "type": "ref",
                        "value": "preferred"
                    }
                }
            },
            "text": "Welcome to Infinity ",
            "width": {
                "Default": {
                    "type": "ref",
                    "value": "preferred"
                }
            }
        },
        "main": {
            "__events__": {},
            "__info__": {
                "isRoot": true,
                "kuid": "fd649cb9a0844abcb4e919b892310842",
                "srcKUID": "hc2e64b499074a4689ff61a0151ec024",
                "wType": "FlexContainer"
            }
        },
        "rtxErrorMsg": {
            "__events__": {},
            "__info__": {
                "kuid": "c26f48a1f3da495aa6e3be8a46192ec6",
                "srcKUID": "c6408670831245a4b8787a9acf685ccc",
                "wType": "RichText"
            },
            "isVisible": false,
            "left": {
                "Default": {
                    "type": "string",
                    "value": ""
                }
            },
            "responsiveData": {
                "b1": {
                    "top": {
                        "type": "string",
                        "value": "10dp"
                    },
                    "width": {
                        "type": "string",
                        "value": "100%"
                    }
                },
                "b2": {
                    "top": {
                        "type": "string",
                        "value": "10dp"
                    }
                },
                "b3": {
                    "top": {
                        "type": "string",
                        "value": "10dp"
                    }
                },
                "b4": {
                    "top": {
                        "type": "string",
                        "value": "10dp"
                    }
                }
            },
            "top": {},
            "width": {}
        },
        "rtxErrorMsgUser": {
            "__events__": {},
            "__info__": {
                "kuid": "abd154494b6445baaef1a28ff1e40144",
                "srcKUID": "ba3264755c4744988692e4c7391fb009",
                "wType": "RichText"
            },
            "left": {
                "Default": {
                    "type": "string",
                    "value": ""
                }
            },
            "responsiveData": {
                "b1": {
                    "isVisible": false,
                    "top": {
                        "type": "string",
                        "value": "10dp"
                    },
                    "width": {
                        "type": "string",
                        "value": "100%"
                    }
                },
                "b2": {
                    "top": {
                        "type": "string",
                        "value": "10dp"
                    },
                    "width": {
                        "type": "string",
                        "value": "80%"
                    }
                },
                "b3": {
                    "isVisible": false,
                    "top": {
                        "type": "string",
                        "value": "10dp"
                    },
                    "width": {
                        "type": "string",
                        "value": "80%"
                    }
                },
                "b4": {
                    "isVisible": false,
                    "top": {
                        "type": "string",
                        "value": "10dp"
                    },
                    "width": {
                        "type": "string",
                        "value": "80%"
                    }
                }
            },
            "top": {},
            "width": {}
        },
        "rtxWithUsername": {
            "__events__": {},
            "__info__": {
                "kuid": "bb030bad08dc454ea601d722d44157be",
                "srcKUID": "eb61ad8f059549029cf9f5b09e91c3b7",
                "wType": "RichText"
            }
        },
        "segUsers": {
            "__events__": {
                "ide_onRowClick": "AS_Segment_e71ec59a0219453f9933531a29981d7c"
            },
            "__info__": {
                "kuid": "d341673e5dd148fdbe92898d26315013",
                "srcKUID": "b6cee1b057944211b702f0e4f236811c",
                "wType": "Segment"
            }
        },
        "tbxPassword": {
            "__events__": {
                "desktopweb": {
                    "ide_onEndEditing": "AS_TextField_b50ede3cf1f74ff1a4799c8adb4e3dcd",
                    "ide_onKeyUp": "AS_TextField_d95ee59d841c471cb206a8bf70db7295"
                },
                "ide_onDone": "AS_TextField_bcdc10ae8b1a403c82fa05d79cf6b6df",
                "ide_onTouchStart": "AS_TextField_fa38daa7fb6b49ec9c678fb05e33dc01"
            },
            "__info__": {
                "kuid": "ed82fbc540f34e1687675829c5cc3bc0",
                "srcKUID": "d65b0e7288be4aa78a3ee2012ab9bf06",
                "wType": "TextField"
            },
            "left": {
                "Default": {
                    "type": "string",
                    "value": "15dp"
                }
            },
            "responsiveData": {
                "b1": {},
                "b2": {
                    "text": ""
                },
                "b3": {
                    "left": {
                        "type": "string",
                        "value": "11dp"
                    },
                    "right": {
                        "type": "string",
                        "value": "11dp"
                    },
                    "width": {
                        "type": "string",
                        "value": "96.50%"
                    }
                },
                "b4": {}
            },
            "right": {
                "Default": {
                    "type": "string",
                    "value": "15dp"
                }
            },
            "width": {}
        },
        "tbxUserName": {
            "__events__": {
                "desktopweb": {
                    "ide_onBeginEditing": "AS_TextField_ed806356b3314d86b37761258f426fca",
                    "ide_onEndEditing": "AS_TextField_ba5381fb58bc4e69a7e5366199a2aecb",
                    "ide_onKeyUp": "AS_TextField_cfa0d44f49e44ed09ae7f7c35af168f4"
                },
                "ide_onTouchStart": "AS_TextField_e25e2c8920d64fdb8aa3e67f2043fbfd"
            },
            "__info__": {
                "kuid": "f7ea4b032d694656a861bc2556f8d007",
                "srcKUID": "bf45340a06e94af6bbd447f3db454f96",
                "wType": "TextField"
            },
            "height": {
                "Default": {
                    "type": "string",
                    "value": "84%"
                }
            },
            "left": {
                "Default": {
                    "type": "string",
                    "value": "15dp"
                }
            },
            "responsiveData": {
                "b1": {},
                "b2": {},
                "b3": {
                    "left": {
                        "type": "string",
                        "value": "11dp"
                    },
                    "right": {
                        "type": "string",
                        "value": "11dp"
                    }
                },
                "b4": {}
            },
            "right": {
                "Default": {
                    "type": "string",
                    "value": "15dp"
                }
            },
            "width": {
                "Default": {
                    "type": "string",
                    "value": ""
                }
            }
        }
    },
    "enablescrolling": true,
    "id": "main",
    "info": null,
    "iscustomlayout": false,
    "isdatareferenced": false,
    "issegmentchild": false,
    "isvisible": true,
    "kuid": "fd649cb9a0844abcb4e919b892310842",
    "layouttype": 4,
    "masterType": 0,
    "name": "kony.ui.UserWidgetInstance",
    "parent": "flxLogin",
    "pf": "frmLogin",
    "retaincontentalignment": false,
    "retainflexpositionproperties": false,
    "snapgridsize": 10,
    "snaptogrid": true,
    "sourceUserWidget": "hc2e64b499074a4689ff61a0151ec024",
    "wType": "UserWidgetInstance"
}