{
    "@class": "com.kony.gen.viz.model.component.KVizUserWidget",
    "DNDConfig": null,
    "__parentReadjusting__": false,
    "_children_": [],
    "_height_": {
        "type": "string",
        "value": "100%"
    },
    "_left_": {
        "type": "string",
        "value": "0dp"
    },
    "_margin_": [
        0,
        0,
        0,
        0
    ],
    "_orientation_": 1,
    "_padding_": [
        0,
        0,
        0,
        0
    ],
    "_percent_": true,
    "_render_": true,
    "_skin_": "s1d5d3417cb74ec9883e5f01b8521945",
    "_top_": {
        "type": "string",
        "value": "0dp"
    },
    "_width_": {
        "type": "string",
        "value": "100%"
    },
    "android": {},
    "androidwearos": {},
    "areflexpropsreferenced": false,
    "canUpdateUI": true,
    "clipbounds": false,
    "containerweight": 0,
    "dataDiffs": {
        "btnForgotPassword": {
            "__events__": {
                "ide_onClick": "AS_Button_ead9d66606d2401ea0d5e7bb9943bf25"
            },
            "__info__": {
                "kuid": "geb13ba968dd4cb0b13e1ce0a14efd03",
                "srcKUID": "d234bb1561264f9c918f2415e1fcfd2e",
                "wType": "Button"
            },
            "centerY": {},
            "height": {
                "Default": {
                    "type": "ref",
                    "value": "preferred"
                }
            },
            "i18n_text": "i18n.Login.CantLogin",
            "left": {},
            "responsiveData": {
                "b1": {
                    "right": {
                        "type": "string",
                        "value": "1dp"
                    }
                },
                "b2": {
                    "right": {
                        "type": "string",
                        "value": "1dp"
                    }
                },
                "b3": {
                    "right": {
                        "type": "string",
                        "value": "0%"
                    },
                    "top": {
                        "type": "string",
                        "value": "0dp"
                    }
                },
                "b4": {
                    "centerY": {
                        "type": "string",
                        "value": ""
                    },
                    "left": {
                        "type": "string",
                        "value": ""
                    },
                    "right": {
                        "type": "string",
                        "value": "0dp"
                    }
                }
            },
            "right": {
                "Default": {
                    "type": "string",
                    "value": "3.0599999999999996%"
                }
            },
            "text": "Can't Login?",
            "top": {},
            "width": {
                "Default": {
                    "type": "string",
                    "value": "50%"
                }
            }
        },
        "btnLogin": {
            "__events__": {
                "ide_onClick": "AS_Button_de4e981b9fec4fa78dae2465790df83f"
            },
            "__info__": {
                "kuid": "e1a7cee76f07499f910d4b07cf8001ca",
                "srcKUID": "ga1ff8714da0426386825a8d459be1b0",
                "wType": "Button"
            },
            "centerX": {
                "Default": {
                    "type": "string",
                    "value": "86%"
                }
            },
            "i18n_text": "i18n.login.login",
            "left": {
                "Default": {
                    "type": "string",
                    "value": "0"
                }
            },
            "responsiveData": {
                "b1": {
                    "centerX": {
                        "type": "string",
                        "value": "50.07%"
                    },
                    "top": {
                        "type": "string",
                        "value": "2.50%"
                    }
                },
                "b2": {
                    "centerX": {
                        "type": "string",
                        "value": "50%"
                    },
                    "left": {
                        "type": "string",
                        "value": ""
                    },
                    "top": {
                        "type": "string",
                        "value": "0%"
                    },
                    "width": {
                        "type": "string",
                        "value": "85%"
                    }
                },
                "b3": {
                    "centerX": {
                        "type": "string",
                        "value": "50%"
                    },
                    "top": {
                        "type": "string",
                        "value": "2%"
                    }
                },
                "b4": {
                    "centerX": {
                        "type": "string",
                        "value": "50%"
                    },
                    "top": {
                        "type": "string",
                        "value": "0%"
                    },
                    "width": {
                        "type": "string",
                        "value": "85%"
                    }
                }
            },
            "top": {},
            "width": {}
        },
        "btnOnlineAccessEnroll": {
            "__events__": {
                "ide_onClick": "AS_Button_b1c783f693db4c88b35b960d93ccc013"
            },
            "__info__": {
                "kuid": "gaa2871f506f44179399b905383431be",
                "srcKUID": "f3b768ea7f84483cb7311478ee469e29",
                "wType": "Button"
            },
            "i18n_text": "i18n.Login.Enroll",
            "responsiveData": {
                "b1": {
                    "right": {
                        "type": "string",
                        "value": "0dp"
                    }
                },
                "b2": {
                    "right": {
                        "type": "string",
                        "value": "0dp"
                    }
                },
                "b3": {
                    "right": {
                        "type": "string",
                        "value": "0%"
                    }
                },
                "b4": {
                    "right": {
                        "type": "string",
                        "value": "0dp"
                    }
                }
            },
            "right": {},
            "width": {
                "Default": {
                    "type": "string",
                    "value": "40%"
                }
            }
        },
        "btnOpenNewAccount": {
            "__events__": {
                "ide_onClick": "AS_Button_jd7ba24236124efb8537a66ac4a97242"
            },
            "__info__": {
                "kuid": "bb4cd505023f4540b1ece7c40e8c3fd5",
                "srcKUID": "cf1d674631e64739a74415b3b3ce05af",
                "wType": "Button"
            },
            "centerX": {
                "Default": {
                    "type": "string",
                    "value": "25%"
                },
                "i18n_text": "i18n.Login.OpenNewAccount",
                "text": "OPEN NEW ACCOUNT"
            },
            "left": {},
            "responsiveData": {
                "b1": {
                    "centerX": {
                        "type": "string",
                        "value": ""
                    },
                    "left": {
                        "type": "string",
                        "value": "0dp"
                    }
                },
                "b2": {
                    "centerX": {
                        "type": "string",
                        "value": ""
                    },
                    "left": {
                        "type": "string",
                        "value": "0dp"
                    }
                },
                "b3": {
                    "centerX": {
                        "type": "string",
                        "value": ""
                    },
                    "left": {
                        "type": "string",
                        "value": "0dp"
                    }
                },
                "b4": {
                    "centerX": {
                        "type": "string",
                        "value": ""
                    },
                    "left": {
                        "type": "string",
                        "value": "0dp"
                    }
                }
            },
            "width": {
                "Default": {
                    "type": "string",
                    "value": "40%"
                }
            }
        },
        "carousel": {
            "__events__": {},
            "__info__": {
                "kuid": "d7d5d36e254440c9b773faba78ecd69a",
                "srcKUID": "j57281b8faef48699218b7d999e7ac9f",
                "wType": "UserWidgetInstance"
            }
        },
        "carousel.segCarousel": {
            "__events__": {},
            "__info__": {
                "kuid": "d829d66dd6f148739406e729d0f14ed7",
                "srcKUID": "d08aa92461294a10a8e4ea12c7baa886",
                "wType": "Segment"
            }
        },
        "flexcheckuncheck": {
            "__events__": {},
            "__info__": {
                "kuid": "f73ebd7fe86140f19b6a5b50a18ec7e9",
                "srcKUID": "cea09b7494ca49069802fc85c4900597",
                "wType": "FlexContainer"
            },
            "left": {},
            "responsiveData": {
                "b1": {
                    "left": {
                        "type": "string",
                        "value": "10px"
                    },
                    "width": {
                        "type": "string",
                        "value": "20dp"
                    }
                },
                "b2": {
                    "left": {
                        "type": "string",
                        "value": "10px"
                    }
                },
                "b3": {
                    "left": {
                        "type": "string",
                        "value": "10px"
                    }
                },
                "b4": {
                    "left": {
                        "type": "string",
                        "value": "10px"
                    }
                }
            },
            "width": {}
        },
        "flxContainer": {
            "__events__": {},
            "__info__": {
                "kuid": "b0f3841cc4c549a9966fd8d6e4a8e503",
                "srcKUID": "affaef772c3943abb94a9e0332769cc2",
                "wType": "FlexContainer"
            },
            "autogrowMode": {
                "Default": 0
            },
            "centerX": {
                "Default": {
                    "type": "string",
                    "value": ""
                }
            },
            "height": {
                "Default": {
                    "type": "string",
                    "value": "568dp"
                }
            },
            "left": {
                "Default": {
                    "type": "number",
                    "value": 0
                }
            },
            "responsiveData": {
                "b1": {
                    "centerX": {
                        "type": "string",
                        "value": "50%"
                    },
                    "height": {
                        "type": "string",
                        "value": "580dp"
                    },
                    "left": {
                        "type": "string",
                        "value": ""
                    },
                    "top": {
                        "type": "string",
                        "value": "5%"
                    },
                    "width": {
                        "type": "string",
                        "value": "400dp"
                    }
                },
                "b2": {
                    "centerX": {
                        "type": "string",
                        "value": "50%"
                    },
                    "height": {
                        "type": "string",
                        "value": "600dp"
                    },
                    "left": {
                        "type": "string",
                        "value": "10dp"
                    },
                    "right": {
                        "type": "string",
                        "value": "10dp"
                    },
                    "top": {
                        "type": "string",
                        "value": "16%"
                    },
                    "width": {
                        "type": "string",
                        "value": "100%"
                    }
                },
                "b3": {
                    "centerX": {
                        "type": "string",
                        "value": "50%"
                    },
                    "height": {
                        "type": "string",
                        "value": "90%"
                    },
                    "left": {
                        "type": "string",
                        "value": ""
                    },
                    "top": {
                        "type": "string",
                        "value": "15%"
                    },
                    "width": {
                        "type": "string",
                        "value": "100%"
                    }
                },
                "b4": {
                    "centerX": {
                        "type": "string",
                        "value": "50%"
                    },
                    "height": {
                        "type": "string",
                        "value": "600dp"
                    },
                    "left": {
                        "type": "string",
                        "value": "10dp"
                    },
                    "right": {
                        "type": "string",
                        "value": "10dp"
                    },
                    "top": {
                        "type": "string",
                        "value": "16%"
                    },
                    "width": {
                        "type": "string",
                        "value": "100%"
                    }
                }
            },
            "right": {
                "Default": {
                    "type": "string",
                    "value": ""
                }
            },
            "top": {
                "Default": {
                    "type": "string",
                    "value": "0dp"
                }
            },
            "width": {
                "Default": {
                    "type": "string",
                    "value": "500dp"
                }
            }
        },
        "flxHeaderNError": {
            "__events__": {},
            "__info__": {
                "kuid": "g50c93d3c34c4ebbb97ca6de1931bfb2",
                "srcKUID": "f3bddadad24845588e3e77cca7be9bcc",
                "wType": "FlexContainer"
            },
            "isVisible": true,
            "responsiveData": {
                "b3": {
                    "top": {
                        "type": "string",
                        "value": "100dp"
                    }
                }
            },
            "top": {}
        },
        "flxImageUser": {
            "__events__": {},
            "__info__": {
                "kuid": "f64a0b04a8924665b21ba0c431af5e72",
                "srcKUID": "ff94c6e2e38b48e0b204b4c09a45e28d",
                "wType": "FlexContainer"
            },
            "autogrowMode": {
                "Default": 0
            },
            "height": {},
            "isVisible": true,
            "left": {
                "Default": {
                    "type": "string",
                    "value": "0"
                }
            },
            "responsiveData": {
                "b1": {
                    "height": {
                        "type": "string",
                        "value": "90dp"
                    },
                    "isVisible": true,
                    "top": {
                        "type": "string",
                        "value": "109dp"
                    }
                },
                "b2": {
                    "height": {
                        "type": "string",
                        "value": "110dp"
                    }
                },
                "b4": {
                    "height": {
                        "type": "string",
                        "value": "100dp"
                    }
                }
            },
            "top": {
                "Default": {
                    "type": "string",
                    "value": "16.28%"
                }
            }
        },
        "flxImgInfoIcon": {
            "__events__": {},
            "__info__": {
                "kuid": "f8f5dcce07664ad3abb0332ee783db73",
                "srcKUID": "cf72119a092449c8a99572e928a17e49",
                "wType": "FlexContainer"
            }
        },
        "flxLoginUser": {
            "__events__": {},
            "__info__": {
                "kuid": "f1b9296a8f914bb58c9bd1aa0d538dc3",
                "srcKUID": "e60fd75866cd4ae8b9c88c812cadec15",
                "wType": "FlexContainer"
            },
            "autogrowMode": {
                "Default": 1
            },
            "bottom": {},
            "height": {},
            "responsiveData": {
                "b1": {
                    "bottom": {
                        "type": "string",
                        "value": ""
                    },
                    "height": {
                        "type": "ref",
                        "value": "preferred"
                    },
                    "isVisible": false,
                    "top": {
                        "type": "string",
                        "value": "1.5%"
                    }
                },
                "b3": {
                    "isVisible": false
                }
            }
        },
        "flxNewNEnroll": {
            "__events__": {},
            "__info__": {
                "kuid": "f4afa054a9944521b3e24b7a940f26fc",
                "srcKUID": "cb1bfceee374439091be6462dd1a0d74",
                "wType": "FlexContainer"
            },
            "autogrowMode": {
                "Default": 0
            },
            "centerX": {},
            "height": {},
            "left": {},
            "responsiveData": {
                "b2": {
                    "centerX": {
                        "type": "string",
                        "value": "50%"
                    },
                    "height": {
                        "type": "string",
                        "value": "60dp"
                    },
                    "isVisible": true,
                    "left": {
                        "type": "number",
                        "value": "0"
                    },
                    "top": {
                        "type": "string",
                        "value": "3%"
                    },
                    "width": {
                        "type": "string",
                        "value": "85%"
                    }
                },
                "b3": {
                    "height": {
                        "type": "string",
                        "value": "60dp"
                    }
                },
                "b4": {
                    "height": {
                        "type": "string",
                        "value": "60dp"
                    },
                    "isVisible": true,
                    "left": {
                        "type": "number",
                        "value": "0"
                    },
                    "top": {
                        "type": "string",
                        "value": "2%"
                    }
                }
            },
            "top": {},
            "width": {}
        },
        "flxOpenNewAccount": {
            "__events__": {},
            "__info__": {
                "kuid": "fdf380faa9f14673b7e280ccb23c86b9",
                "srcKUID": "ae11eec4d1174e21a379315220b9448b",
                "wType": "FlexContainer"
            }
        },
        "flxPassword": {
            "__events__": {},
            "__info__": {
                "kuid": "af00b02cac8148f0b68074087b5506a3",
                "srcKUID": "e1404f14f7424db7856d82bb1b2b75d5",
                "wType": "FlexContainer"
            },
            "autogrowMode": {
                "Default": 0
            },
            "centerX": {},
            "height": {},
            "responsiveData": {
                "b1": {
                    "height": {
                        "type": "string",
                        "value": "40dp"
                    }
                },
                "b2": {
                    "centerX": {
                        "type": "string",
                        "value": "50%"
                    },
                    "width": {
                        "type": "string",
                        "value": "85%"
                    }
                }
            },
            "top": {
                "Default": {
                    "type": "string",
                    "value": "3.50%"
                }
            },
            "width": {}
        },
        "flxPasswordLabel": {
            "__events__": {},
            "__info__": {
                "kuid": "g9837f24a17d414687989dda0356cc18",
                "srcKUID": "b4067939c13247f79b0443d47cf2ca29",
                "wType": "FlexContainer"
            }
        },
        "flxRemember": {
            "__events__": {},
            "__info__": {
                "kuid": "ad4c52e938744032811f3cf8f3f9da90",
                "srcKUID": "f8ebcec70a154a8cad2f1db254909cff",
                "wType": "FlexContainer"
            },
            "autogrowMode": {
                "Default": 1
            },
            "height": {
                "Default": {
                    "type": "ref",
                    "value": "preferred"
                }
            },
            "responsiveData": {},
            "width": {
                "Default": {
                    "type": "string",
                    "value": "47%"
                }
            }
        },
        "flxRememberMe": {
            "__events__": {},
            "__info__": {
                "kuid": "dd13bcb0be324bea97b529695d588e27",
                "srcKUID": "f2013ce0e2cd40d1b96f4df80d71ff11",
                "wType": "FlexContainer"
            },
            "autogrowMode": {
                "Default": 0
            },
            "centerX": {},
            "height": {
                "Default": {
                    "type": "string",
                    "value": "70dp"
                }
            },
            "responsiveData": {
                "b1": {
                    "centerX": {
                        "type": "string",
                        "value": "51%"
                    },
                    "height": {
                        "type": "string",
                        "value": "50dp"
                    }
                },
                "b2": {
                    "centerX": {
                        "type": "string",
                        "value": "50%"
                    },
                    "height": {
                        "type": "string",
                        "value": "50dp"
                    },
                    "width": {
                        "type": "string",
                        "value": "85%"
                    }
                },
                "b3": {
                    "height": {
                        "type": "string",
                        "value": "60dp"
                    }
                },
                "b4": {
                    "height": {
                        "type": "string",
                        "value": "60dp"
                    },
                    "layoutType": 2
                }
            },
            "width": {}
        },
        "flxRememberedUsers": {
            "__events__": {},
            "__info__": {
                "kuid": "d7a7605e36b34e42b999c79541ff837c",
                "srcKUID": "e95d0a4d434949bcb0a2ae90c5fe32e1",
                "wType": "FlexContainer"
            }
        },
        "flxUserDropdown": {
            "__events__": {},
            "__info__": {
                "kuid": "hd71f0e4654742deac5dc81977c7d3bf",
                "srcKUID": "bd34e9d539934659a6c90038b6dc60b6",
                "wType": "FlexContainer"
            },
            "isVisible": false,
            "responsiveData": {
                "b1": {
                    "isVisible": false,
                    "zIndex": 2
                },
                "b2": {
                    "isVisible": false,
                    "zIndex": 2
                },
                "b4": {
                    "isVisible": false,
                    "zIndex": 2
                }
            },
            "zIndex": {}
        },
        "flxUserName": {
            "__events__": {},
            "__info__": {
                "kuid": "h3b7aab128bd411b8963d6eacdc94159",
                "srcKUID": "j7bfc07060fd411e9dc231515dc11d50",
                "wType": "FlexContainer"
            },
            "autogrowMode": {
                "Default": 0
            },
            "centerX": {},
            "height": {},
            "isVisible": false,
            "left": {},
            "responsiveData": {
                "b1": {
                    "height": {
                        "type": "string",
                        "value": "40dp"
                    },
                    "top": {
                        "type": "string",
                        "value": "3%"
                    }
                },
                "b2": {
                    "centerX": {
                        "type": "string",
                        "value": "50%"
                    },
                    "height": {
                        "type": "string",
                        "value": "7.04%"
                    },
                    "left": {
                        "type": "string",
                        "value": "0dp"
                    },
                    "top": {
                        "type": "string",
                        "value": "28dp"
                    },
                    "width": {
                        "type": "string",
                        "value": "85%"
                    }
                },
                "b3": {
                    "top": {
                        "type": "string",
                        "value": "10dp"
                    }
                },
                "b4": {
                    "top": {
                        "type": "string",
                        "value": "6dp"
                    }
                }
            },
            "top": {
                "Default": {
                    "type": "string",
                    "value": "4%"
                }
            },
            "width": {}
        },
        "flxUserNameLabel": {
            "__events__": {},
            "__info__": {
                "kuid": "ad007e26d94347cd9e6c81ddeca181e4",
                "srcKUID": "d513a8d04ab2460ebe39bafe03e1b602",
                "wType": "FlexContainer"
            }
        },
        "imgInfoIcon": {
            "__events__": {},
            "__info__": {
                "kuid": "ea4a35f9babd4e41a40a255f781f223d",
                "srcKUID": "c334314c681f4558b3f6a013a9eddee3",
                "wType": "Image"
            },
            "src": "info_grey.png"
        },
        "imgKony": {
            "__events__": {},
            "__info__": {
                "kuid": "a93dc0b50ff445ebbc3deb7974ed75a3",
                "srcKUID": "f69ced2efcd94f0290f2562c8c6da3cf",
                "wType": "Image"
            },
            "src": "kony_logo.png"
        },
        "imgPassword": {
            "__events__": {},
            "__info__": {
                "kuid": "g142f795ea374b419b7d247979876c87",
                "srcKUID": "fedc50653fc045d89c647f063406d896",
                "wType": "Image"
            },
            "src": "password.png"
        },
        "imgRememberMe": {
            "__events__": {},
            "__info__": {
                "kuid": "h0656c89c0fa4d2cb70f9b1120b3c582",
                "srcKUID": "a9f37a4ce9444387ae10a1ea05ba36f2",
                "wType": "Image"
            },
            "src": "unchecked_box.png"
        },
        "imgUser": {
            "__events__": {},
            "__info__": {
                "kuid": "b1aa2a2144764ccfb92345911d996943",
                "srcKUID": "d8f07cdf6c1d4e49a9f03285dcaa220a",
                "wType": "Image"
            },
            "centerX": {
                "Default": {
                    "type": "string",
                    "value": "12.25%"
                }
            },
            "centerY": {
                "Default": {
                    "type": "string",
                    "value": "27.17%"
                }
            },
            "isVisible": false,
            "responsiveData": {
                "b1": {
                    "centerY": {
                        "type": "string",
                        "value": "88.17%"
                    },
                    "isVisible": false
                }
            },
            "src": "default_username.png"
        },
        "imgUserAToolTip": {
            "__events__": {},
            "__info__": {
                "kuid": "d4fa1aa9ee0c4c01bd275db5b5e03976",
                "srcKUID": "d85d6d455fbb433d8408c4dfa435aa4b",
                "wType": "Image"
            },
            "src": "username_tooltip.png"
        },
        "imgUserName": {
            "__events__": {},
            "__info__": {
                "kuid": "if7c0c0a9e1c42678dc08d15321c5069",
                "srcKUID": "d28aa5232be445af942374479e7ba0d1",
                "wType": "Image"
            },
            "isVisible": false,
            "responsiveData": {},
            "src": "username.png"
        },
        "imgUserOutline": {
            "__events__": {},
            "__info__": {
                "kuid": "geac269742184a84800a30c7e2ec2df7",
                "srcKUID": "j272915216a34155aebd45313b9c3281",
                "wType": "Image"
            },
            "centerX": {
                "Default": {
                    "type": "string",
                    "value": "12.25%"
                }
            },
            "centerY": {
                "Default": {
                    "type": "string",
                    "value": "27.17%"
                }
            },
            "isVisible": false,
            "responsiveData": {
                "b1": {
                    "centerX": {
                        "type": "string",
                        "value": ""
                    },
                    "centerY": {
                        "type": "string",
                        "value": ""
                    },
                    "left": {
                        "type": "string",
                        "value": "29dp"
                    },
                    "top": {
                        "type": "string",
                        "value": "53%"
                    }
                }
            },
            "src": "verify_user.png",
            "top": {}
        },
        "imgViewPassword": {
            "__events__": {},
            "__info__": {
                "kuid": "ae3208036d9542159192547a2c997a50",
                "srcKUID": "b67ed95fcf524cc6841589fe202bc9ea",
                "wType": "Image"
            },
            "responsiveData": {
                "b2": {
                    "right": {
                        "type": "string",
                        "value": "20dp"
                    }
                },
                "b3": {
                    "right": {
                        "type": "string",
                        "value": "20dp"
                    }
                },
                "b4": {
                    "right": {
                        "type": "string",
                        "value": "20dp"
                    }
                }
            },
            "right": {},
            "src": "view.png"
        },
        "lblAppName": {
            "__events__": {},
            "__info__": {
                "kuid": "c6375497afb04876956ffa67698830d6",
                "srcKUID": "b6cc0f84085c456e8e9726dc31f31055",
                "wType": "Label"
            }
        },
        "lblFavoriteEmailCheckBox": {
            "__events__": {},
            "__info__": {
                "kuid": "daac7deea1c34c198a79ca59995687af",
                "srcKUID": "ed9d0727511046f0887cca55479df322",
                "wType": "Label"
            }
        },
        "lblPassword": {
            "__events__": {},
            "__info__": {
                "kuid": "b64089117a2244b391ea5bf98d23d317",
                "srcKUID": "cccf368605c74d9daafe9b25649ddf61",
                "wType": "Label"
            }
        },
        "lblPasswordCapsLocIndicator": {
            "__events__": {},
            "__info__": {
                "kuid": "e8c6b07884ac452cb2d047d04e4cd864",
                "srcKUID": "g420e804e5d74ab1ae16bc9a048e3035",
                "wType": "Label"
            }
        },
        "lblRememberMe": {
            "__events__": {},
            "__info__": {
                "kuid": "h03418e065af4ab3b938a3348c49dd66",
                "srcKUID": "c6155262cc5a41408a57645dcfa8d379",
                "wType": "Label"
            },
            "left": {},
            "maxWidth": {},
            "minWidth": {},
            "responsiveData": {
                "b1": {
                    "left": {
                        "type": "string",
                        "value": "0dp"
                    },
                    "maxWidth": {
                        "type": "string",
                        "value": "82%"
                    },
                    "text": "Remember me",
                    "width": {
                        "type": "ref",
                        "value": "preferred"
                    }
                },
                "b2": {
                    "maxWidth": {
                        "type": "string",
                        "value": "85%"
                    },
                    "minWidth": {
                        "type": "string",
                        "value": ""
                    },
                    "text": "Remember me",
                    "width": {
                        "type": "ref",
                        "value": "preferred"
                    }
                },
                "b3": {
                    "maxWidth": {
                        "type": "string",
                        "value": "85%"
                    },
                    "text": "Remember me",
                    "width": {
                        "type": "ref",
                        "value": "preferred"
                    }
                },
                "b4": {
                    "maxWidth": {
                        "type": "string",
                        "value": "85%"
                    },
                    "text": "Remember me",
                    "width": {
                        "type": "ref",
                        "value": "preferred"
                    }
                }
            },
            "text": "R",
            "width": {
                "Default": {
                    "type": "ref",
                    "value": "preferred"
                }
            }
        },
        "lblUsername": {
            "__events__": {},
            "__info__": {
                "kuid": "d430dac65d64498d868f59c4a3526bd8",
                "srcKUID": "b2beb299652346e5afbc287737720b9b",
                "wType": "Label"
            }
        },
        "lblUsernameCapsLocIndicator": {
            "__events__": {},
            "__info__": {
                "kuid": "f87cc0d9e9a343638a18d713e41ece27",
                "srcKUID": "f1b5f8f47f514e02aff83ad1a8bfb355",
                "wType": "Label"
            }
        },
        "lblVerifiedUser": {
            "__events__": {},
            "__info__": {
                "kuid": "f8bbcf5763f14f57a0e8b2b96c506c89",
                "srcKUID": "g297b8758a694564ab13b388911202a6",
                "wType": "Label"
            },
            "centerX": {},
            "height": {},
            "left": {},
            "responsiveData": {
                "b1": {
                    "centerX": {
                        "type": "string",
                        "value": ""
                    },
                    "height": {
                        "type": "ref",
                        "value": "preferred"
                    },
                    "left": {
                        "type": "string",
                        "value": "25dp"
                    },
                    "top": {
                        "type": "string",
                        "value": "29dp"
                    }
                }
            },
            "top": {}
        },
        "lblWelcome": {
            "__events__": {},
            "__info__": {
                "kuid": "i33310f8c5b24a8a86bdcefd79741519",
                "srcKUID": "c819cb0b5d094d399b04d8493f7e250d",
                "wType": "Label"
            },
            "responsiveData": {
                "b3": {
                    "isVisible": false
                }
            }
        },
        "lblWelcomeMobile": {
            "__events__": {},
            "__info__": {
                "kuid": "b7ce02d988dc4bb993738effdd5a0c72",
                "srcKUID": "i1dd907bb8a447bfbbdcfe9f16e39775",
                "wType": "Label"
            },
            "centerX": {},
            "isVisible": false,
            "left": {},
            "responsiveData": {
                "b1": {
                    "centerX": {
                        "type": "string",
                        "value": ""
                    },
                    "left": {
                        "type": "string",
                        "value": "30dp"
                    },
                    "top": {
                        "type": "string",
                        "value": "0dp"
                    }
                },
                "b2": {
                    "centerX": {
                        "type": "string",
                        "value": "50%"
                    }
                },
                "b3": {
                    "centerX": {
                        "type": "string",
                        "value": "50%"
                    }
                },
                "b4": {
                    "centerX": {
                        "type": "string",
                        "value": "50%"
                    }
                }
            },
            "text": "Welcome Back",
            "top": {}
        },
        "main": {
            "__events__": {},
            "__info__": {
                "isRoot": true,
                "kuid": "j6f208d636204a3486c71eea6c394a19",
                "srcKUID": "hc2e64b499074a4689ff61a0151ec024",
                "wType": "FlexContainer"
            },
            "autogrowMode": {
                "Default": 0
            },
            "centerX": {},
            "centerY": {},
            "height": {},
            "isVisible": true,
            "left": {
                "Default": {
                    "type": "string",
                    "value": "0dp"
                }
            },
            "responsiveData": {
                "b1": {
                    "height": {
                        "type": "string",
                        "value": "100%"
                    },
                    "left": {
                        "type": "string",
                        "value": "0dp"
                    },
                    "top": {
                        "type": "number",
                        "value": "0"
                    }
                },
                "b2": {
                    "centerX": {
                        "type": "string",
                        "value": "50%"
                    }
                },
                "b3": {
                    "centerX": {
                        "type": "string",
                        "value": "50%"
                    },
                    "centerY": {
                        "type": "string",
                        "value": ""
                    },
                    "left": {
                        "type": "string",
                        "value": ""
                    },
                    "right": {
                        "type": "string",
                        "value": ""
                    },
                    "top": {
                        "type": "string",
                        "value": "0dp"
                    },
                    "width": {
                        "type": "string",
                        "value": "100%"
                    }
                },
                "b4": {
                    "centerX": {
                        "type": "string",
                        "value": "50%"
                    },
                    "left": {
                        "type": "number",
                        "value": "0"
                    },
                    "top": {
                        "type": "number",
                        "value": "0"
                    }
                }
            },
            "right": {},
            "top": {
                "Default": {
                    "type": "string",
                    "value": "0dp"
                }
            },
            "width": {
                "Default": {
                    "type": "string",
                    "value": "100%"
                }
            }
        },
        "rtxErrorMsg": {
            "__events__": {},
            "__info__": {
                "kuid": "c84524a10e734484a58be44d691cc84a",
                "srcKUID": "c6408670831245a4b8787a9acf685ccc",
                "wType": "RichText"
            },
            "centerX": {
                "Default": {
                    "type": "string",
                    "value": "48%"
                }
            },
            "isVisible": true,
            "left": {},
            "responsiveData": {
                "b1": {
                    "centerX": {
                        "type": "string",
                        "value": ""
                    },
                    "isVisible": false,
                    "left": {
                        "type": "string",
                        "value": "32dp"
                    },
                    "top": {
                        "type": "string",
                        "value": "35dp"
                    }
                },
                "b2": {
                    "centerX": {
                        "type": "string",
                        "value": "50%"
                    },
                    "isVisible": false,
                    "top": {
                        "type": "string",
                        "value": "37dp"
                    }
                },
                "b3": {
                    "isVisible": false,
                    "top": {
                        "type": "string",
                        "value": "28dp"
                    }
                },
                "b4": {
                    "isVisible": false,
                    "top": {
                        "type": "string",
                        "value": "36dp"
                    }
                }
            },
            "top": {
                "Default": {
                    "type": "string",
                    "value": "9dp"
                }
            }
        },
        "rtxErrorMsgUser": {
            "__events__": {},
            "__info__": {
                "kuid": "a4450fb2cd714b2fbaf474c7937f44ea",
                "srcKUID": "ba3264755c4744988692e4c7391fb009",
                "wType": "RichText"
            },
            "centerX": {},
            "left": {},
            "responsiveData": {
                "b1": {
                    "centerX": {
                        "type": "string",
                        "value": ""
                    },
                    "isVisible": false,
                    "left": {
                        "type": "string",
                        "value": "30dp"
                    },
                    "top": {
                        "type": "string",
                        "value": "48dp"
                    },
                    "width": {
                        "type": "string",
                        "value": "350dp"
                    }
                },
                "b2": {
                    "isVisible": false,
                    "top": {
                        "type": "string",
                        "value": "72dp"
                    },
                    "width": {
                        "type": "string",
                        "value": "80%"
                    }
                },
                "b3": {
                    "isVisible": false,
                    "top": {
                        "type": "string",
                        "value": "28dp"
                    }
                },
                "b4": {
                    "isVisible": false,
                    "top": {
                        "type": "string",
                        "value": "59dp"
                    }
                }
            },
            "top": {},
            "width": {}
        },
        "rtxWithUsername": {
            "__events__": {},
            "__info__": {
                "kuid": "d0c7ec20291444e9b2a4022f9401073b",
                "srcKUID": "eb61ad8f059549029cf9f5b09e91c3b7",
                "wType": "RichText"
            },
            "centerX": {},
            "height": {},
            "left": {},
            "responsiveData": {
                "b1": {
                    "centerX": {
                        "type": "string",
                        "value": ""
                    },
                    "height": {
                        "type": "ref",
                        "value": "preferred"
                    },
                    "left": {
                        "type": "string",
                        "value": "26dp"
                    },
                    "text": "Please login with username",
                    "top": {
                        "type": "string",
                        "value": "0dp"
                    }
                }
            }
        },
        "segUsers": {
            "__events__": {
                "ide_onRowClick": "AS_Segment_e71ec59a0219453f9933531a29981d7c"
            },
            "__info__": {
                "kuid": "f840631ee1874d1a99a382226bbc2df7",
                "srcKUID": "b6cee1b057944211b702f0e4f236811c",
                "wType": "Segment"
            },
            "autogrowMode": {
                "Default": 1
            },
            "data": {
                "desktop": [{
                    "lblBottom": {
                        "@class": "com.viz.ide.model.segment.SimpleTextSegmentData",
                        "text": ""
                    },
                    "lblusers": {
                        "@class": "com.viz.ide.model.segment.SimpleTextSegmentData",
                        "text": ""
                    }
                }]
            },
            "height": {
                "Default": {
                    "type": "ref",
                    "value": "preferred"
                }
            },
            "maxHeight": {
                "Default": {
                    "type": "string",
                    "value": "120dp"
                }
            }
        },
        "tbxPassword": {
            "__events__": {
                "desktopweb": {
                    "ide_onBeginEditing": "AS_TextField_e48f6a4124bf4de286d0c4a912983d38",
                    "ide_onKeyUp": "AS_TextField_d95ee59d841c471cb206a8bf70db7295"
                },
                "ide_onDone": "AS_TextField_bcdc10ae8b1a403c82fa05d79cf6b6df"
            },
            "__info__": {
                "kuid": "c39ee518dc2c490d809eea2b2520b0d6",
                "srcKUID": "d65b0e7288be4aa78a3ee2012ab9bf06",
                "wType": "TextField"
            },
            "maxTextLength": 20,
            "secureTextEntry": true
        },
        "tbxUserName": {
            "__events__": {
                "desktopweb": {
                    "ide_onBeginEditing": "AS_TextField_ed806356b3314d86b37761258f426fca",
                    "ide_onEndEditing": "AS_TextField_ba5381fb58bc4e69a7e5366199a2aecb",
                    "ide_onKeyUp": "AS_TextField_cfa0d44f49e44ed09ae7f7c35af168f4"
                }
            },
            "__info__": {
                "kuid": "e61e5af868404c1da9eecab77c01a386",
                "srcKUID": "bf45340a06e94af6bbd447f3db454f96",
                "wType": "TextField"
            },
            "left": {
                "Default": {
                    "type": "string",
                    "value": "2%"
                }
            },
            "maxTextLength": 24,
            "responsiveData": {}
        }
    },
    "desktopweb": {},
    "id": "MainLogin",
    "info": null,
    "ipad": {},
    "iphone": {},
    "isdatareferenced": false,
    "issegmentchild": false,
    "isvisible": true,
    "kiosk": {},
    "kuid": "j6f208d636204a3486c71eea6c394a19",
    "layouttype": 2,
    "masterType": 0,
    "name": "kony.ui.UserWidgetInstance",
    "parent": "flxLoginSelectedUsername",
    "pf": "frmLogin",
    "responsiveData": {
        "b1": {
            "height": {
                "type": "string",
                "value": "100%"
            },
            "left": {
                "type": "string",
                "value": "0dp"
            },
            "top": {
                "type": "number",
                "value": "0"
            }
        },
        "b2": {
            "centerX": {
                "type": "string",
                "value": "50%"
            }
        },
        "b3": {
            "centerX": {
                "type": "string",
                "value": "50%"
            },
            "centerY": {
                "type": "string",
                "value": ""
            },
            "left": {
                "type": "string",
                "value": ""
            },
            "right": {
                "type": "string",
                "value": ""
            },
            "top": {
                "type": "string",
                "value": "0dp"
            },
            "width": {
                "type": "string",
                "value": "100%"
            }
        },
        "b4": {
            "centerX": {
                "type": "string",
                "value": "50%"
            },
            "left": {
                "type": "number",
                "value": "0"
            },
            "top": {
                "type": "number",
                "value": "0"
            }
        }
    },
    "snapgridsize": 10,
    "snaptogrid": true,
    "sourceUserWidget": "hc2e64b499074a4689ff61a0151ec024",
    "spa": {},
    "spaan": {},
    "spaandroidtablet": {},
    "spabb": {},
    "spaip": {},
    "spaipad": {},
    "spamobile": {},
    "spatablet": {},
    "spawindowstablet": {},
    "spawinphone8": {},
    "tabrcandroid": {},
    "vizProps": {
        "hidewidgethierarchy": false
    },
    "vizprops": {
        "hidewidgethierarchy": false
    },
    "wType": "UserWidgetInstance",
    "windows10": {},
    "windows8": {},
    "winphone10": {},
    "winphone8": {}
}