{
    "@class": "com.kony.gen.viz.model.component.KVizUserWidget",
    "DNDConfig": null,
    "__parentReadjusting__": false,
    "_children_": [],
    "_height_": {
        "type": "string",
        "value": "550dp"
    },
    "_left_": {
        "type": "string",
        "value": "0dp"
    },
    "_margin_": [
        0,
        0,
        0,
        0
    ],
    "_orientation_": 1,
    "_padding_": [
        0,
        0,
        0,
        0
    ],
    "_percent_": true,
    "_render_": true,
    "_skin_": "s1d5d3417cb74ec9883e5f01b8521945",
    "_top_": {
        "type": "string",
        "value": "0dp"
    },
    "_width_": {
        "type": "string",
        "value": "100%"
    },
    "areflexpropsreferenced": false,
    "autogrowmode": 0,
    "canUpdateUI": true,
    "clipbounds": false,
    "containerweight": 0,
    "dataDiffs": {
        "btnLoginLater": {
            "__events__": {
                "ide_onClick": "AS_Button_ie4688df9bed49909277fa74cc9a8cce"
            },
            "__info__": {
                "kuid": "b13f71171074492c8b93f9a9ed07deb3",
                "srcKUID": "hc8a8e2f83db408d9139bfe9a8c7d6f1",
                "wType": "Button"
            },
            "left": {},
            "responsiveData": {
                "b3": {
                    "left": {
                        "type": "string",
                        "value": "5dp"
                    }
                }
            }
        },
        "btnProceed": {
            "__events__": {
                "ide_onClick": "AS_Button_ea17702b24d74d10b184d18ad2c0577a"
            },
            "__info__": {
                "kuid": "c0d00a78c4e1427d96e10843e7f410ab",
                "srcKUID": "ga1b69e6acc44c0b8f054d948b142503",
                "wType": "Button"
            },
            "responsiveData": {
                "b1": {
                    "centerX": {
                        "type": "string",
                        "value": "50%"
                    },
                    "top": {
                        "type": "string",
                        "value": "59.56%"
                    }
                },
                "b2": {
                    "top": {
                        "type": "string",
                        "value": "55.56%"
                    },
                    "width": {
                        "type": "string",
                        "value": "85%"
                    }
                },
                "b3": {
                    "top": {
                        "type": "string",
                        "value": "57.56%"
                    },
                    "width": {
                        "type": "string",
                        "value": "85%"
                    }
                },
                "b4": {
                    "top": {
                        "type": "string",
                        "value": "62.56%"
                    },
                    "width": {
                        "type": "string",
                        "value": "68%"
                    }
                }
            },
            "width": {}
        },
        "flxDoneLoginLater": {
            "__events__": {},
            "__info__": {
                "kuid": "hd15bf89c95643b5ac2a24219c6cc9ea",
                "srcKUID": "f8698c9c7dff42e5ab300992eb8eeb90",
                "wType": "FlexContainer"
            },
            "centerX": {},
            "responsiveData": {
                "b1": {
                    "centerX": {
                        "type": "string",
                        "value": "50%"
                    },
                    "isVisible": false,
                    "top": {
                        "type": "string",
                        "value": "83.5%"
                    },
                    "width": {
                        "type": "string",
                        "value": "85%"
                    }
                },
                "b2": {
                    "centerX": {
                        "type": "string",
                        "value": "50%"
                    },
                    "isVisible": false,
                    "top": {
                        "type": "string",
                        "value": "536dp"
                    },
                    "width": {
                        "type": "string",
                        "value": "140dp"
                    }
                },
                "b3": {
                    "centerX": {
                        "type": "string",
                        "value": "50%"
                    },
                    "isVisible": false,
                    "top": {
                        "type": "string",
                        "value": "82%"
                    },
                    "width": {
                        "type": "string",
                        "value": "140dp"
                    }
                },
                "b4": {
                    "centerX": {
                        "type": "string",
                        "value": "50%"
                    },
                    "isVisible": false,
                    "top": {
                        "type": "string",
                        "value": "582dp"
                    },
                    "width": {
                        "type": "string",
                        "value": "140dp"
                    }
                }
            },
            "top": {},
            "width": {}
        },
        "flxPasswordSuccess": {
            "__events__": {},
            "__info__": {
                "kuid": "d74e8937f5694248841fbc1c91913826",
                "srcKUID": "f10b205714144f639d613db9bda421f3",
                "wType": "FlexContainer"
            },
            "autogrowMode": {
                "Default": 0
            },
            "centerX": {},
            "height": {},
            "responsiveData": {
                "b1": {
                    "centerX": {
                        "type": "string",
                        "value": "50%"
                    },
                    "height": {
                        "type": "string",
                        "value": "600dp"
                    },
                    "top": {
                        "type": "string",
                        "value": "0dp"
                    },
                    "width": {
                        "type": "string",
                        "value": "400dp"
                    }
                },
                "b2": {
                    "isVisible": true
                },
                "b3": {
                    "top": {
                        "type": "string",
                        "value": "0dp"
                    }
                }
            },
            "top": {},
            "width": {}
        },
        "flxUserImagewithTick": {
            "__events__": {},
            "__info__": {
                "kuid": "ed580224fdfa448e968b846ddfba8a72",
                "srcKUID": "cdd41548c60f43d8b68cd86d703d7337",
                "wType": "FlexContainer"
            },
            "autogrowMode": {
                "Default": 0
            },
            "centerX": {},
            "height": {},
            "left": {},
            "responsiveData": {
                "b1": {
                    "centerX": {
                        "type": "string",
                        "value": ""
                    },
                    "height": {
                        "type": "string",
                        "value": "60dp"
                    },
                    "left": {
                        "type": "string",
                        "value": "27dp"
                    },
                    "top": {
                        "type": "string",
                        "value": "138dp"
                    },
                    "width": {
                        "type": "string",
                        "value": "60dp"
                    }
                },
                "b2": {
                    "centerX": {
                        "type": "string",
                        "value": "50%"
                    },
                    "top": {
                        "type": "string",
                        "value": "127dp"
                    }
                },
                "b3": {
                    "centerX": {
                        "type": "string",
                        "value": "50%"
                    },
                    "top": {
                        "type": "string",
                        "value": "141dp"
                    }
                },
                "b4": {
                    "centerX": {
                        "type": "string",
                        "value": "50%"
                    },
                    "top": {
                        "type": "string",
                        "value": "127dp"
                    }
                }
            },
            "top": {},
            "width": {}
        },
        "imgTickFrame": {
            "__events__": {},
            "__info__": {
                "kuid": "gc141e0eec1b4c299509b44af0fc5e44",
                "srcKUID": "hea6b64cbe604807a0df4a67cdb2c6f8",
                "wType": "Image"
            },
            "height": {},
            "responsiveData": {
                "b1": {
                    "height": {
                        "type": "string",
                        "value": "57dp"
                    },
                    "width": {
                        "type": "string",
                        "value": "57dp"
                    }
                },
                "b2": {}
            },
            "src": "user_verify_success_frame.png",
            "width": {}
        },
        "imgUserwithoutTick": {
            "__events__": {},
            "__info__": {
                "kuid": "b2dcf988e6a640e38ba4b43af8a7e505",
                "srcKUID": "g810bf5a043a477287298e5ef22e4463",
                "wType": "Image"
            },
            "height": {},
            "responsiveData": {
                "b1": {
                    "height": {
                        "type": "string",
                        "value": "54dp"
                    },
                    "width": {
                        "type": "string",
                        "value": "54dp"
                    }
                }
            },
            "src": "default_username.png",
            "width": {}
        },
        "lblCongrats": {
            "__events__": {},
            "__info__": {
                "kuid": "cd79923f169646e2a7b66c49e1ae81ad",
                "srcKUID": "a892f75f43dd430da5572fe6d1b3a806",
                "wType": "Label"
            },
            "centerX": {},
            "left": {},
            "responsiveData": {
                "b1": {
                    "centerX": {
                        "type": "string",
                        "value": ""
                    },
                    "left": {
                        "type": "string",
                        "value": "99dp"
                    },
                    "top": {
                        "type": "string",
                        "value": "154dp"
                    }
                },
                "b2": {
                    "centerX": {
                        "type": "string",
                        "value": "50%"
                    },
                    "top": {
                        "type": "string",
                        "value": "184dp"
                    }
                },
                "b3": {
                    "centerX": {
                        "type": "string",
                        "value": "50%"
                    },
                    "top": {
                        "type": "string",
                        "value": "198dp"
                    }
                },
                "b4": {
                    "centerX": {
                        "type": "string",
                        "value": "50%"
                    },
                    "top": {
                        "type": "string",
                        "value": "184dp"
                    }
                }
            },
            "top": {}
        },
        "lblReserSuccessMsg": {
            "__events__": {},
            "__info__": {
                "kuid": "g73c2ae816584275926b477dbd1ead6d",
                "srcKUID": "b5649c61999947d2983196c97f13d7c3",
                "wType": "Label"
            },
            "centerX": {},
            "responsiveData": {
                "b1": {
                    "centerX": {
                        "type": "string",
                        "value": "45%"
                    },
                    "top": {
                        "type": "string",
                        "value": "254dp"
                    }
                },
                "b2": {
                    "centerX": {
                        "type": "string",
                        "value": "50%"
                    },
                    "top": {
                        "type": "string",
                        "value": "44.02%"
                    }
                },
                "b3": {
                    "centerX": {
                        "type": "string",
                        "value": "50%"
                    },
                    "top": {
                        "type": "string",
                        "value": "282dp"
                    },
                    "width": {
                        "type": "string",
                        "value": "75%"
                    }
                },
                "b4": {
                    "centerX": {
                        "type": "string",
                        "value": "50%"
                    },
                    "top": {
                        "type": "string",
                        "value": "44.019999999999996%"
                    },
                    "width": {
                        "type": "string",
                        "value": "60%"
                    }
                }
            },
            "top": {},
            "width": {
                "Default": {
                    "type": "string",
                    "value": "75%"
                }
            }
        },
        "orlineSuccess": {
            "__events__": {},
            "__info__": {
                "kuid": "j69bdad7fd4043e08b43e0c308e272e0",
                "srcKUID": "ee460917f1d14ce49bbb1f22fa881086",
                "wType": "UserWidgetInstance"
            },
            "autogrowMode": {
                "Default": 0
            },
            "height": {},
            "responsiveData": {
                "b1": {
                    "height": {
                        "type": "string",
                        "value": "30dp"
                    },
                    "isVisible": false,
                    "top": {
                        "type": "string",
                        "value": "73%"
                    }
                },
                "b2": {
                    "centerX": {
                        "type": "string",
                        "value": "50%"
                    },
                    "height": {
                        "type": "string",
                        "value": "30dp"
                    },
                    "isVisible": false,
                    "top": {
                        "type": "string",
                        "value": "448dp"
                    }
                },
                "b3": {
                    "isVisible": false,
                    "top": {
                        "type": "string",
                        "value": "450dp"
                    },
                    "width": {
                        "type": "string",
                        "value": "55%"
                    }
                },
                "b4": {
                    "height": {
                        "type": "string",
                        "value": "35dp"
                    },
                    "isVisible": false,
                    "top": {
                        "type": "string",
                        "value": "520dp"
                    }
                }
            },
            "top": {},
            "width": {}
        },
        "orlineSuccess.imgOr": {
            "__events__": {},
            "__info__": {
                "kuid": "d1271147b0ac4334a94fdaf58e27f609",
                "srcKUID": "dd1273f49c5c495fbaf92c0ee14e3a44",
                "wType": "Image"
            },
            "src": "or_circle.png"
        },
        "orlineSuccess.lblCrossOr": {
            "__events__": {},
            "__info__": {
                "kuid": "ccb0f22493e045a99120e3e543fda30a",
                "srcKUID": "ge4fcdb694ab4b528855bc427d0e7275",
                "wType": "Label"
            }
        },
        "passwordresetsuccess": {
            "__events__": {},
            "__info__": {
                "isRoot": true,
                "kuid": "d7ac5da006974ef595a092e12de9f2ec",
                "srcKUID": "a0ad0f1501a647b59d9565e22ab21269",
                "wType": "FlexContainer"
            },
            "autogrowMode": {
                "Default": 0
            },
            "centerY": {},
            "height": {},
            "responsiveData": {
                "b1": {
                    "centerY": {
                        "type": "string",
                        "value": ""
                    },
                    "height": {
                        "type": "string",
                        "value": "100%"
                    }
                },
                "b2": {
                    "height": {
                        "type": "string",
                        "value": "100%"
                    }
                },
                "b3": {
                    "height": {
                        "type": "string",
                        "value": "100%"
                    }
                },
                "b4": {
                    "height": {
                        "type": "string",
                        "value": "100%"
                    }
                }
            }
        },
        "rtxDoneLoginlater": {
            "__events__": {},
            "__info__": {
                "kuid": "ed4e8b16e1ad4cf0aea4afaf1ba53da5",
                "srcKUID": "ge59229877d94b64a082d491aa3a9020",
                "wType": "RichText"
            },
            "left": {},
            "responsiveData": {
                "b2": {
                    "left": {
                        "type": "number",
                        "value": "0"
                    }
                },
                "b3": {
                    "left": {
                        "type": "string",
                        "value": ""
                    }
                },
                "b4": {
                    "left": {
                        "type": "number",
                        "value": "0"
                    }
                }
            }
        }
    },
    "id": "passwordresetsuccess",
    "info": null,
    "isdatareferenced": false,
    "isvisible": true,
    "kuid": "d7ac5da006974ef595a092e12de9f2ec",
    "layouttype": 4,
    "masterType": 0,
    "name": "kony.ui.UserWidgetInstance",
    "parent": "flxResetSuccessful",
    "pf": "frmLogin",
    "snaptogrid": true,
    "sourceUserWidget": "a0ad0f1501a647b59d9565e22ab21269",
    "vizprops": {
        "hidewidgethierarchy": false
    },
    "wType": "UserWidgetInstance"
}