{
    "@class": "com.kony.gen.viz.model.component.KVizUserWidget",
    "DNDConfig": null,
    "_children_": [],
    "_height_": {
        "type": "string",
        "value": "100%"
    },
    "_left_": {
        "type": "string",
        "value": "0dp"
    },
    "_margin_": [
        0,
        0,
        0,
        0
    ],
    "_orientation_": 1,
    "_padding_": [
        0,
        0,
        0,
        0
    ],
    "_percent_": true,
    "_skin_": "s24c92fc23b14f5484b693ee9b8a9b35",
    "_top_": {
        "type": "string",
        "value": "50dp"
    },
    "_width_": {
        "type": "string",
        "value": "400dp"
    },
    "canUpdateUI": true,
    "centerx": {
        "type": "string",
        "value": "50%"
    },
    "containerweight": 0,
    "data": {},
    "id": "resetPasswordComponent",
    "info": null,
    "iscustomlayout": false,
    "isvisible": true,
    "kuid": "f57a9978ff3349ed83521e0e9b7bf6d9",
    "masterType": 1,
    "name": "kony.ui.UserWidgetInstance",
    "parent": "flxLogin",
    "pf": "frmLogin",
    "responsiveData": {
        "b1": {
            "isVisible": false
        },
        "b2": {
            "isVisible": false
        },
        "b3": {
            "isVisible": false
        },
        "b4": {
            "isVisible": false
        }
    },
    "retaincontentalignment": false,
    "retainflexpositionproperties": false,
    "retainflowhorizontalalignment": false,
    "sourceUserWidget": "i6f4ba80b05246f5bfca0293d1b54a46",
    "wType": "UserWidgetInstance"
}