{
    "DNDConfig": null,
    "_bottom_": {
        "type": "string",
        "value": "-10dp"
    },
    "_height_": {
        "type": "string",
        "value": "60dp"
    },
    "_left_": {
        "type": "string",
        "value": "0%"
    },
    "_margin_": [
        0,
        0,
        0,
        0
    ],
    "_orientation_": 6,
    "_padding_": [
        0,
        0,
        0,
        0
    ],
    "_percent_": true,
    "_skin_": "s623dda9137c478b9e5576fa0888f24d",
    "_top_": {
        "type": "string",
        "value": "30dp"
    },
    "_width_": {
        "type": "string",
        "value": "88%"
    },
    "allboxes": [],
    "autogrowmode": 0,
    "canUpdateUI": true,
    "centerx": {
        "type": "string",
        "value": "50%"
    },
    "children": [
        "imgWarning",
        "lblWarning",
        "imgCloseWarning"
    ],
    "clipbounds": true,
    "containerweight": 100,
    "enablescrolling": true,
    "id": "flxWarning",
    "info": null,
    "isvisible": false,
    "kuid": "a72e6bc987354ade82e78701ffcf4a1b",
    "layouttype": 3,
    "name": "kony.ui.FlexContainer",
    "parent": "flxMainSinglePay",
    "pf": "frmReview",
    "responsiveData": {
        "b2": {
            "isVisible": false,
            "width": {
                "type": "string",
                "value": "95%"
            }
        },
        "b3": {
            "isVisible": false,
            "left": {
                "type": "string",
                "value": "2%"
            },
            "width": {
                "type": "string",
                "value": "96%"
            }
        }
    },
    "snapgridsize": 10,
    "snaptogrid": true,
    "wType": "FlexContainer",
    "widgetalignment": 1,
    "zindex": 1
}