{
    "classname": "donutchart",
    "definitions": {
        "apis": {
            "custom": [
                {
                    "group": "General",
                    "kuid": "hb53daea4a1244dc94a580dd74376093",
                    "paramList": [
                        {
                            "name": "dataSet"
                        }
                    ],
                    "propertyKey": "createChart",
                    "pw": {
                        "displayName": "createChart",
                        "uiRepresentation": "Label-Label-Button-Button"
                    },
                    "srcWgtKUID": "25d7f63a9f9d460fa5e15e40f1df62b3",
                    "type": "event"
                }
            ],
            "passthrough": []
        },
        "events": {
            "custom": [],
            "passthrough": []
        },
        "groups": {
            "apis": [
                "General"
            ],
            "events": [],
            "properties": [
                "Title",
                "Legend"
            ],
            "widgets": []
        },
        "properties": {
            "custom": [
                {
                    "access": "Write",
                    "defaultValue": true,
                    "group": "Legend",
                    "kuid": "e73b13e5a007462bb1d0258e6b30deaf",
                    "originalPropertyKey": "enableLegend",
                    "propertyIndex": 1,
                    "propertyKey": "enableLegend",
                    "pw": {
                        "displayName": "Enable Legends",
                        "uiRepresentation": "Label-Radiobuttongroup"
                    },
                    "srcWgtKUID": "25d7f63a9f9d460fa5e15e40f1df62b3",
                    "type": "boolean",
                    "value": "true/false"
                },
                {
                    "access": "Write",
                    "defaultValue": "#ffffff",
                    "group": "General",
                    "kuid": "aa1f90c4629646adb90e10fe23702427",
                    "originalPropertyKey": "bgColor",
                    "propertyIndex": 1,
                    "propertyKey": "bgColor",
                    "pw": {
                        "displayName": "Background Color",
                        "uiRepresentation": "Label-Textbox"
                    },
                    "srcWgtKUID": "25d7f63a9f9d460fa5e15e40f1df62b3",
                    "type": "string",
                    "value": ""
                },
                {
                    "access": "Write",
                    "defaultValue": {
                        "data": [
                            {
                                "colorCode": "#1B9ED9",
                                "label": "Data1",
                                "value": "40"
                            },
                            {
                                "colorCode": "#E8672B",
                                "label": "Data2",
                                "value": "20"
                            },
                            {
                                "colorCode": "#76C044",
                                "label": "Data3",
                                "value": "20"
                            },
                            {
                                "colorCode": "#FFC522",
                                "label": "Data4",
                                "value": "10"
                            },
                            {
                                "colorCode": "#97CDED",
                                "label": "Data5",
                                "value": "10"
                            }
                        ],
                        "schema": [
                            {
                                "columnHeaderTemplate": null,
                                "columnHeaderText": "Label",
                                "columnHeaderType": "text",
                                "columnID": "label",
                                "columnOnClick": null,
                                "columnText": "Not Defined",
                                "columnType": "text",
                                "kuid": "c8434b6cbed443e6a6167d99e8c3bdcb"
                            },
                            {
                                "columnHeaderTemplate": null,
                                "columnHeaderText": "Value",
                                "columnHeaderType": "text",
                                "columnID": "value",
                                "columnOnClick": null,
                                "columnText": "Not Defined",
                                "columnType": "text",
                                "kuid": "cddb65c1fe8c429bb5a4b5f93bd171ef"
                            },
                            {
                                "columnHeaderTemplate": null,
                                "columnHeaderText": "Color Code",
                                "columnHeaderType": "text",
                                "columnID": "colorCode",
                                "columnOnClick": null,
                                "columnText": "Not Defined",
                                "columnType": "text",
                                "kuid": "f722303b71a8439eae528d9af9856f30"
                            }
                        ]
                    },
                    "group": "General",
                    "kuid": "f8b1258860d444e8bee717b76512c569",
                    "originalPropertyKey": "chartData",
                    "propertyIndex": 1,
                    "propertyKey": "chartData",
                    "pw": {
                        "displayName": "Chart Data",
                        "uiRepresentation": "Label-DataGrid"
                    },
                    "srcWgtKUID": "25d7f63a9f9d460fa5e15e40f1df62b3",
                    "type": "data grid",
                    "value": 3
                },
                {
                    "access": "Write",
                    "defaultValue": "12",
                    "group": "Title",
                    "kuid": "bd88f2aebe954b1e8029015d757b8e3f",
                    "originalPropertyKey": "titleFontSize",
                    "propertyIndex": 1,
                    "propertyKey": "titleFontSize",
                    "pw": {
                        "displayName": "Title Font Size",
                        "uiRepresentation": "Label-Textbox"
                    },
                    "srcWgtKUID": "25d7f63a9f9d460fa5e15e40f1df62b3",
                    "type": "string",
                    "value": ""
                },
                {
                    "access": "Write",
                    "defaultValue": true,
                    "group": "General",
                    "kuid": "e7161e28b8464be9bf3a1eefc92d952f",
                    "originalPropertyKey": "enableChartAnimation",
                    "propertyIndex": 1,
                    "propertyKey": "enableChartAnimation",
                    "pw": {
                        "displayName": "Enable Chart Animation",
                        "uiRepresentation": "Label-Radiobuttongroup"
                    },
                    "srcWgtKUID": "25d7f63a9f9d460fa5e15e40f1df62b3",
                    "type": "boolean",
                    "value": "true/false"
                },
                {
                    "access": "Write",
                    "defaultValue": "Donut Chart",
                    "group": "Title",
                    "kuid": "c2612da94399434cbb2407cf8e352776",
                    "originalPropertyKey": "chartTitle",
                    "propertyIndex": 2,
                    "propertyKey": "chartTitle",
                    "pw": {
                        "displayName": "Chart Title",
                        "uiRepresentation": "Label-Textbox"
                    },
                    "srcWgtKUID": "25d7f63a9f9d460fa5e15e40f1df62b3",
                    "type": "string",
                    "value": ""
                },
                {
                    "access": "Write",
                    "defaultValue": "8",
                    "group": "Legend",
                    "kuid": "e4ff9e54fb4e4fd38c0664efa2a26d49",
                    "originalPropertyKey": "legendFontSize",
                    "propertyIndex": 2,
                    "propertyKey": "legendFontSize",
                    "pw": {
                        "displayName": "Legend Font Size",
                        "uiRepresentation": "Label-Textbox"
                    },
                    "srcWgtKUID": "25d7f63a9f9d460fa5e15e40f1df62b3",
                    "type": "string",
                    "value": ""
                },
                {
                    "access": "Write",
                    "defaultValue": true,
                    "group": "General",
                    "kuid": "e505fa2375f948198b8b270f8b0cb732",
                    "originalPropertyKey": "enableStaticPreview",
                    "propertyIndex": 2,
                    "propertyKey": "enableStaticPreview",
                    "pw": {
                        "displayName": "Enable Static Preview",
                        "uiRepresentation": "Label-Radiobuttongroup"
                    },
                    "srcWgtKUID": "25d7f63a9f9d460fa5e15e40f1df62b3",
                    "type": "boolean",
                    "value": "true/false"
                },
                {
                    "access": "Write",
                    "defaultValue": "#000000",
                    "group": "Title",
                    "kuid": "f4b47096ba9e43e68730b832a6ada72f",
                    "originalPropertyKey": "titleFontColor",
                    "propertyIndex": 3,
                    "propertyKey": "titleFontColor",
                    "pw": {
                        "displayName": "Title Font Color",
                        "uiRepresentation": "Label-Textbox"
                    },
                    "srcWgtKUID": "25d7f63a9f9d460fa5e15e40f1df62b3",
                    "type": "string",
                    "value": ""
                },
                {
                    "access": "Write",
                    "defaultValue": "#000000",
                    "group": "Legend",
                    "kuid": "a00823af96f9406593776597c8107810",
                    "originalPropertyKey": "legendFontColor",
                    "propertyIndex": 3,
                    "propertyKey": "legendFontColor",
                    "pw": {
                        "displayName": "Legend Font Color",
                        "uiRepresentation": "Label-Textbox"
                    },
                    "srcWgtKUID": "25d7f63a9f9d460fa5e15e40f1df62b3",
                    "type": "string",
                    "value": ""
                }
            ],
            "passthrough": []
        },
        "widgets": {
            "expose": [],
            "passthrough": []
        }
    },
    "namespace": "com.temenos.infinity",
    "version": "1.0.0"
}