{
    "@class": "com.kony.gen.viz.model.component.KVizUserWidget",
    "DNDConfig": null,
    "__parentReadjusting__": false,
    "_android_": {},
    "_androidwearos_": {},
    "_children_": [],
    "_desktopweb_": {},
    "_height_": {
        "type": "string",
        "value": "568dp"
    },
    "_ipad_": {},
    "_iphone_": {},
    "_kiosk_": {},
    "_left_": {
        "type": "string",
        "value": "0dp"
    },
    "_margin_": [
        0,
        0,
        0,
        0
    ],
    "_orientation_": 1,
    "_padding_": [
        0,
        0,
        0,
        0
    ],
    "_percent_": true,
    "_render_": true,
    "_responsiveData_": {
        "b1": {
            "height": {
                "type": "string",
                "value": "100%"
            }
        },
        "b3": {
            "height": {
                "type": "string",
                "value": "100%"
            }
        }
    },
    "_skin_": "s1d5d3417cb74ec9883e5f01b8521945",
    "_spa_": {},
    "_spaan_": {},
    "_spaandroidtablet_": {},
    "_spabb_": {},
    "_spaip_": {},
    "_spaipad_": {},
    "_spamobile_": {},
    "_spatablet_": {},
    "_spawindowstablet_": {},
    "_spawinphone8_": {},
    "_tabrcandroid_": {},
    "_top_": {
        "type": "string",
        "value": "0dp"
    },
    "_vizProps_": {
        "hidewidgethierarchy": false
    },
    "_width_": {
        "type": "string",
        "value": "100%"
    },
    "_windows10_": {},
    "_windows8_": {},
    "_winphone10_": {},
    "_winphone8_": {},
    "areflexpropsreferenced": false,
    "autogrowmode": 0,
    "canUpdateUI": true,
    "clipbounds": false,
    "containerweight": 0,
    "dataDiffs": {
        "blocked": {
            "__events__": {},
            "__info__": {
                "isRoot": true,
                "kuid": "c4ef883b7a634852bb4c7ff2504f77fd",
                "srcKUID": "b273df29f2b34b55b5cab36cd47a5e7e",
                "wType": "FlexContainer"
            },
            "autogrowMode": {
                "Default": 0
            },
            "height": {},
            "responsiveData": {
                "b1": {
                    "height": {
                        "type": "string",
                        "value": "100%"
                    }
                },
                "b3": {
                    "height": {
                        "type": "string",
                        "value": "100%"
                    }
                }
            }
        },
        "btnProceed": {
            "__events__": {
                "ide_onClick": "AS_Button_jd5c081d37894791b4928aedb8beaa5f"
            },
            "__info__": {
                "kuid": "h8286bd396954d1299a2ace250af1876",
                "srcKUID": "d4386cc754b84c85a201bdcfbfdc736c",
                "wType": "Button"
            },
            "height": {},
            "responsiveData": {
                "b3": {
                    "height": {
                        "type": "string",
                        "value": "40dp"
                    }
                }
            }
        },
        "imgTakeHelpTime": {
            "__events__": {},
            "__info__": {
                "kuid": "jae7432e67be46bba25a7350202937cb",
                "srcKUID": "afeb0026f61b4eac9fe594d0da7b3702",
                "wType": "Image"
            },
            "responsiveData": {
                "b2": {
                    "top": {
                        "type": "string",
                        "value": "25.32%"
                    }
                },
                "b3": {
                    "top": {
                        "type": "string",
                        "value": "21.32%"
                    }
                },
                "b4": {
                    "top": {
                        "type": "string",
                        "value": "22.32%"
                    }
                }
            },
            "src": "help_large.png"
        },
        "lblOrCall": {
            "__events__": {},
            "__info__": {
                "kuid": "aeab6ceed19f41cc8cd2e582ac34f16b",
                "srcKUID": "e0d84469f9504584a4c856b9e95cc57d",
                "wType": "Label"
            }
        },
        "lblPhone": {
            "__events__": {},
            "__info__": {
                "kuid": "b6a0e809d53d4971b39197e323a2ec27",
                "srcKUID": "f417106d6bc244078abcd5ba0a5f24aa",
                "wType": "Label"
            }
        },
        "lblProvideBasicInfo": {
            "__events__": {},
            "__info__": {
                "kuid": "fa0e6c71965343b89bafd7efddc035a0",
                "srcKUID": "fc036f5d9a41495fa4d26d7115468af7",
                "wType": "Label"
            }
        },
        "lblTakeHelpTime": {
            "__events__": {},
            "__info__": {
                "kuid": "aca12050860a42d1b3a1abbce85b7317",
                "srcKUID": "a82309e5d56947158df3c489dadfb5c9",
                "wType": "Label"
            }
        }
    },
    "id": "blocked",
    "info": null,
    "isdatareferenced": false,
    "isvisible": true,
    "kuid": "c4ef883b7a634852bb4c7ff2504f77fd",
    "layouttype": 4,
    "masterType": 0,
    "name": "kony.ui.UserWidgetInstance",
    "parent": "flxBlocked",
    "pf": "frmLogout",
    "snaptogrid": true,
    "sourceUserWidget": "b273df29f2b34b55b5cab36cd47a5e7e",
    "vizprops": {
        "hidewidgethierarchy": false
    },
    "wType": "UserWidgetInstance"
}