{
    "@class": "com.kony.gen.viz.model.component.KVizImage2",
    "DNDConfig": null,
    "__parentReadjusting__": false,
    "_base64_": null,
    "_height_": {
        "type": "string",
        "value": "64dp"
    },
    "_left_": {
        "type": "string",
        "value": "80dp"
    },
    "_margin_": [
        0,
        0,
        0,
        0
    ],
    "_padding_": [
        0,
        0,
        0,
        0
    ],
    "_skin_": "s78a5f26c9f14cec9ebed1bb46098f80",
    "_src_": "digital_banking.png",
    "_top_": {
        "type": "string",
        "value": "13dp"
    },
    "_width_": {
        "type": "string",
        "value": "102dp"
    },
    "accessibilityconfig": {
        "a11yHidden": false,
        "a11yLabel": "Login Kony Logo",
        "a11yValue": ""
    },
    "canUpdateUI": true,
    "centerx": {
        "type": "string",
        "value": "14%"
    },
    "containerweight": 100,
    "context": {
        "channel": "desktop",
        "formID": "frmLogout",
        "platform": "desktopweb",
        "templateType": "forms",
        "topLevelBox": null
    },
    "id": "imgKony",
    "imagescalemode": 1,
    "imagewhiledownloading": "img_transparent.png",
    "info": null,
    "invokedProperty": "src",
    "isvisible": true,
    "kuid": "e6debe0d7e524036ad7b9f2729acc4f0",
    "name": "kony.ui.Image2",
    "parent": "flxMain",
    "pf": "frmLogout",
    "responsiveData": {
        "b1": {
            "centerX": {
                "type": "string",
                "value": ""
            },
            "height": {
                "type": "string",
                "value": "60dp"
            },
            "isVisible": true,
            "left": {
                "type": "string",
                "value": "59dp"
            },
            "top": {
                "type": "string",
                "value": "5%"
            },
            "width": {
                "type": "string",
                "value": "175px"
            }
        },
        "b2": {
            "centerX": {
                "type": "string",
                "value": ""
            },
            "height": {
                "type": "string",
                "value": "55dp"
            },
            "isVisible": true,
            "left": {
                "type": "string",
                "value": "22%"
            },
            "top": {
                "type": "string",
                "value": "100dp"
            },
            "width": {
                "type": "string",
                "value": "175dp"
            }
        },
        "b3": {
            "centerX": {
                "type": "string",
                "value": ""
            },
            "height": {
                "type": "string",
                "value": "45dp"
            },
            "isVisible": true,
            "left": {
                "type": "string",
                "value": "7.50%"
            },
            "top": {
                "type": "string",
                "value": "70dp"
            },
            "width": {
                "type": "string",
                "value": "140dp"
            }
        },
        "b4": {
            "centerX": {
                "type": "string",
                "value": ""
            },
            "height": {
                "type": "string",
                "value": "55dp"
            },
            "isVisible": true,
            "left": {
                "type": "string",
                "value": "17%"
            },
            "top": {
                "type": "string",
                "value": "100dp"
            },
            "width": {
                "type": "string",
                "value": "175dp"
            }
        }
    },
    "srcType": 1,
    "wType": "Image",
    "widgetalignment": 5,
    "zindex": 6
}