{
    "@class": "com.kony.gen.viz.model.component.KVizLabel",
    "DNDConfig": null,
    "__parentReadjusting__": false,
    "_height_": {
        "type": "ref",
        "value": "preferred"
    },
    "_margin_": [
        1,
        1,
        1,
        1
    ],
    "_padding_": [
        0,
        0,
        0,
        0
    ],
    "_right_": {
        "type": "string",
        "value": "25dp"
    },
    "_skin_": "s691da83c5db4681b7f134ba17f8212a",
    "_text_": "O",
    "_width_": {
        "type": "string",
        "value": "17dp"
    },
    "_wrapping_": 2,
    "accessibilityconfig": {
        "a11yLabel": "Language dropdown"
    },
    "android": {
        "textStyle": {
            "letterSpacing": 0,
            "strikeThrough": false
        }
    },
    "canUpdateUI": true,
    "centery": {
        "type": "string",
        "value": "52.00%"
    },
    "containerweight": 100,
    "contentalignment": 4,
    "id": "lblCheckBox",
    "info": null,
    "ipad": {
        "psp": {
            "wrapping": 2
        }
    },
    "iphone": {
        "psp": {
            "wrapping": 2
        }
    },
    "isvisible": true,
    "kuid": "fec51b603f324283b0110f743821feb5",
    "name": "kony.ui.Label",
    "parent": "flxDropdown",
    "pf": "frmLogout",
    "responsiveData": {
        "b1": {
            "skin": "s5d28b68a8694e7789d19c014bfb1441",
            "text": "O"
        },
        "b2": {
            "right": {
                "type": "string",
                "value": "0dp"
            },
            "skin": "s691da83c5db4681b7f134ba17f8212a"
        },
        "b3": {
            "right": {
                "type": "string",
                "value": "0dp"
            },
            "skin": "s691da83c5db4681b7f134ba17f8212a"
        },
        "b4": {
            "right": {
                "type": "string",
                "value": "0dp"
            },
            "skin": "s691da83c5db4681b7f134ba17f8212a"
        }
    },
    "tooltip": "Select Product",
    "wType": "Label",
    "zindex": 1
}