{
    "@class": "com.kony.gen.viz.model.component.KVizLabel",
    "DNDConfig": null,
    "__parentReadjusting__": false,
    "_height_": {
        "type": "ref",
        "value": "preferred"
    },
    "_left_": {
        "type": "string",
        "value": "100dp"
    },
    "_margin_": [
        1,
        1,
        1,
        1
    ],
    "_padding_": [
        0,
        0,
        0,
        0
    ],
    "_right_": {
        "type": "string",
        "value": "0%"
    },
    "_skin_": "se56454286124fef97a46e7249497088",
    "_text_": "Added On",
    "_width_": {
        "type": "ref",
        "value": "preferred"
    },
    "_wrapping_": 2,
    "accessibilityconfig": {
        "a11yLabel": "Amount"
    },
    "android": {
        "textStyle": {
            "letterSpacing": 0,
            "strikeThrough": false
        }
    },
    "canUpdateUI": true,
    "centery": {
        "type": "string",
        "value": "54.39%"
    },
    "containerweight": 100,
    "contentalignment": 4,
    "id": "lblAddedOn",
    "info": null,
    "ipad": {
        "psp": {
            "wrapping": 2
        }
    },
    "iphone": {
        "psp": {
            "wrapping": 2
        }
    },
    "isvisible": true,
    "kuid": "f9159d07f7364255a7cca3bf350e5c77",
    "name": "kony.ui.Label",
    "parent": "flxAddedOn",
    "pf": "frmMakeBulkTransferTemplate",
    "responsiveData": {
        "b1": {
            "left": {
                "type": "string",
                "value": "0dp"
            }
        },
        "b2": {
            "centerY": {
                "type": "string",
                "value": "55.85%"
            },
            "left": {
                "type": "string",
                "value": "0dp"
            }
        },
        "b3": {
            "left": {
                "type": "string",
                "value": "0dp"
            }
        }
    },
    "tooltip": "",
    "wType": "Label",
    "zindex": 1
}