{
    "DNDConfig": null,
    "_height_": {
        "type": "string",
        "value": "300dp"
    },
    "_left_": {
        "type": "string",
        "value": "0"
    },
    "_margin_": [
        0,
        0,
        0,
        0
    ],
    "_orientation_": 6,
    "_padding_": [
        0,
        0,
        0,
        0
    ],
    "_percent_": true,
    "_skin_": "sfb6f68b71484e008daa306a1c7200b7",
    "_top_": {
        "type": "string",
        "value": "5dp"
    },
    "_width_": {
        "type": "string",
        "value": "100%"
    },
    "allboxes": [],
    "autogrowmode": 0,
    "canUpdateUI": true,
    "children": [
        "flxNameDetails"
    ],
    "clipbounds": true,
    "containerweight": 100,
    "enablescrolling": true,
    "id": "flxDetailsContainer",
    "info": null,
    "iscustomlayout": false,
    "isvisible": true,
    "kuid": "bd55bdf3636846f89c3246cc316d1f54",
    "layouttype": 4,
    "name": "kony.ui.FlexContainer",
    "parent": "flxUserDetails",
    "pf": "frmCreateCustomRoleName",
    "responsiveData": {
        "b1": {
            "skin": "s9f0c4bc0cd8418da924fd6b0065e2a7",
            "top": {
                "type": "string",
                "value": "15dp"
            }
        },
        "b2": {
            "top": {
                "type": "string",
                "value": "15dp"
            }
        },
        "b4": {
            "skin": "s9f0c4bc0cd8418da924fd6b0065e2a7",
            "top": {
                "type": "string",
                "value": "15dp"
            }
        }
    },
    "retaincontentalignment": false,
    "retainflexpositionproperties": false,
    "snapgridsize": 10,
    "snaptogrid": true,
    "wType": "FlexContainer",
    "widgetalignment": 1
}