{
    "@class": "com.kony.gen.viz.model.component.KVizUserWidget",
    "DNDConfig": null,
    "_children_": [],
    "_height_": {
        "type": "ref",
        "value": "preferred"
    },
    "_left_": {
        "type": "string",
        "value": "0.00%"
    },
    "_margin_": [
        0,
        0,
        0,
        0
    ],
    "_orientation_": 1,
    "_padding_": [
        0,
        0,
        0,
        0
    ],
    "_percent_": true,
    "_render_": true,
    "_skin_": "scbd4cac3526468089bf3013adff0549",
    "_top_": {
        "type": "string",
        "value": "150dp"
    },
    "_width_": {
        "type": "string",
        "value": "270dp"
    },
    "android": {},
    "androidwearos": {},
    "areflexpropsreferenced": false,
    "autogrowmode": 1,
    "canUpdateUI": true,
    "clipbounds": false,
    "containerweight": 0,
    "dataDiffs": {
        "AllForms": {
            "__events__": {},
            "__info__": {
                "isRoot": true,
                "kuid": "c65932e19a5e40b597585fa6cb5a80fc",
                "srcKUID": "aef6ac17436948abacbe12ea5a1d5e5b",
                "wType": "FlexContainer"
            },
            "isVisible": false,
            "left": {
                "Default": {
                    "type": "string",
                    "value": "0.00%"
                }
            },
            "responsiveData": {
                "b3": {
                    "right": {
                        "type": "string",
                        "value": "30dp"
                    },
                    "width": {
                        "type": "string",
                        "value": "270dp"
                    }
                },
                "b4": {
                    "isVisible": false
                }
            },
            "right": {},
            "top": {
                "Default": {
                    "type": "string",
                    "value": "150dp"
                }
            },
            "width": {
                "Default": {
                    "type": "string",
                    "value": "270dp"
                }
            },
            "zIndex": {
                "Default": 10
            }
        },
        "RichTextInfo": {
            "__events__": {},
            "__info__": {
                "kuid": "f70c35ca342c440984da5858ae5ee5fd",
                "srcKUID": "i86f020750564f6ba173ce46ea601ab5",
                "wType": "RichText"
            },
            "i18n_text": "i18n.accounts.availableBalance",
            "isVisible": false,
            "responsiveData": {},
            "text": ""
        },
        "flxAccountType": {
            "__events__": {},
            "__info__": {
                "kuid": "d4d7fe543df84021baea01d7680dc975",
                "srcKUID": "ed52287fd449401ba9a5f005c99e3f35",
                "wType": "FlexContainer"
            },
            "isVisible": true,
            "responsiveData": {},
            "top": {
                "Default": {
                    "type": "string",
                    "value": "-2dp"
                }
            }
        },
        "flxCross": {
            "__events__": {},
            "__info__": {
                "kuid": "i40353da5d854b36a3c21400539f3fec",
                "srcKUID": "d452c358ed1445a58e5fdff55685498f",
                "wType": "FlexContainer"
            },
            "centerY": {
                "Default": {
                    "type": "string",
                    "value": "31.54%"
                }
            },
            "right": {
                "Default": {
                    "type": "string",
                    "value": "5.55%"
                }
            }
        },
        "flxInformation": {
            "__events__": {},
            "__info__": {
                "kuid": "c0ef93a0bc1949b09ea71d1c6951f4a3",
                "srcKUID": "be414255ea60408894eb2a9b719b864e",
                "wType": "FlexContainer"
            },
            "autogrowMode": {
                "Default": 0
            },
            "clipBounds": false,
            "height": {
                "Default": {
                    "type": "string",
                    "value": "135dp"
                }
            },
            "left": {
                "Default": {
                    "type": "string",
                    "value": "1dp"
                }
            },
            "responsiveData": {
                "b1": {}
            },
            "top": {
                "Default": {
                    "type": "string",
                    "value": "0dp"
                }
            }
        },
        "flxInformationText": {
            "__events__": {},
            "__info__": {
                "kuid": "c465506503324a3ab6fa40c35ec2d7e4",
                "srcKUID": "fa4dbab87ecf4647a21060118b02bd03",
                "wType": "FlexContainer"
            },
            "left": {
                "Default": {
                    "type": "string",
                    "value": "0dp"
                }
            },
            "responsiveData": {}
        },
        "imgCross": {
            "__events__": {},
            "__info__": {
                "kuid": "id5c047bf9d1491fa2a467dc1844b09a",
                "srcKUID": "d86a08cea857467eae13f42ed033a771",
                "wType": "Image"
            },
            "src": "icon_close_grey.png"
        },
        "imgToolTip": {
            "__events__": {},
            "__info__": {
                "kuid": "h4b51061ea2844bf8b284024e921c6b9",
                "srcKUID": "f9274528aa6b41bfb057f17c510b73b5",
                "wType": "Image"
            },
            "left": {
                "Default": {
                    "type": "string",
                    "value": "125px"
                }
            },
            "src": "tool_tip.png"
        },
        "lblInfo": {
            "__events__": {},
            "__info__": {
                "kuid": "b97b3a016d334eb4afbb9c0d80b4091d",
                "srcKUID": "c6ecc9c129c943b396152e99a30763f6",
                "wType": "Label"
            },
            "centerY": {
                "Default": {
                    "type": "string",
                    "value": ""
                }
            },
            "responsiveData": {},
            "text": "Account Access defines whether the user will have access to <br> view accounts and create transactions for these accounts",
            "width": {
                "Default": {
                    "type": "string",
                    "value": "70%"
                }
            }
        },
        "lblSeperator": {
            "__events__": {},
            "__info__": {
                "kuid": "d1d38131011e487885279740f2f0b493",
                "srcKUID": "f142d5aa44384a3fb94504a874cbbb95",
                "wType": "Label"
            }
        }
    },
    "desktopweb": {},
    "id": "InfoIconPopup",
    "info": null,
    "ipad": {},
    "iphone": {},
    "isdatareferenced": false,
    "isvisible": false,
    "kiosk": {},
    "kuid": "c65932e19a5e40b597585fa6cb5a80fc",
    "layouttype": 4,
    "masterType": 0,
    "name": "kony.ui.UserWidgetInstance",
    "parent": "frmCreateCustomRoleName",
    "pf": "frmCreateCustomRoleName",
    "responsiveData": {
        "b3": {
            "right": {
                "type": "string",
                "value": "30dp"
            },
            "width": {
                "type": "string",
                "value": "270dp"
            }
        },
        "b4": {}
    },
    "snaptogrid": true,
    "sourceUserWidget": "aef6ac17436948abacbe12ea5a1d5e5b",
    "spa": {},
    "spaan": {},
    "spaandroidtablet": {},
    "spabb": {},
    "spaip": {},
    "spaipad": {},
    "spamobile": {},
    "spatablet": {},
    "spawindowstablet": {},
    "spawinphone8": {},
    "tabrcandroid": {},
    "vizProps": {
        "hidewidgethierarchy": false
    },
    "vizprops": {
        "hidewidgethierarchy": false
    },
    "wType": "UserWidgetInstance",
    "windows10": {},
    "windows8": {},
    "winphone10": {},
    "winphone8": {},
    "zindex": 10
}