{
    "@class": "com.kony.gen.viz.model.component.KVizRichText",
    "DNDConfig": null,
    "_bottom_": {
        "type": "string",
        "value": "10dp"
    },
    "_height_": {
        "type": "ref",
        "value": "preferred"
    },
    "_left_": {
        "type": "string",
        "value": "4%"
    },
    "_margin_": [
        0,
        0,
        0,
        0
    ],
    "_padding_": [
        0,
        0,
        0,
        0
    ],
    "_skin_": "s51628caf0fa439c91f01479fafde0e8",
    "_text_": "",
    "_top_": {
        "type": "string",
        "value": "8dp"
    },
    "_width_": {
        "type": "string",
        "value": "83%"
    },
    "_wrapping_": 2,
    "accessibilityconfig": {
        "a11yLabel": "<ul>\n<li>It should be between 8-16 characters Length.</li>\n<li>It should be a combination of alpha numeric.</li>\n<li>No Special characters & spaces are allowed.</li>\n<ii>You can not choose username as password.</li>\n<li>We can also put more rules here as per the requirement.</li>\n</ul>"
    },
    "canUpdateUI": true,
    "containerweight": 100,
    "contentalignment": 1,
    "id": "rtxRulesPassword",
    "info": null,
    "iscustomlayout": false,
    "isvisible": true,
    "kuid": "f31393740d244ca5aff88d39a2a9a3fc",
    "linkskin": "s68be632cc934210829c785f1cfb09f0",
    "name": "kony.ui.RichText",
    "parent": "flxRulesPassword",
    "pf": "userwidgetmodel",
    "retaincontentalignment": false,
    "retainflexpositionproperties": false,
    "wType": "RichText",
    "widgetalignment": 5,
    "zindex": 1
}