{
    "@class": "com.kony.gen.viz.model.component.KVizButton",
    "DNDConfig": null,
    "__parentReadjusting__": false,
    "_height_": {
        "type": "string",
        "value": "100%"
    },
    "_left_": {
        "type": "string",
        "value": "0dp"
    },
    "_margin_": [
        6,
        6,
        6,
        6
    ],
    "_padding_": [
        0,
        0,
        0,
        0
    ],
    "_skin_": "s611bd2c5d324490aa9f7ed9d412984f",
    "_text_": "Dispute Transaction",
    "_top_": {
        "type": "string",
        "value": "0dp"
    },
    "_width_": {
        "type": "string",
        "value": "50%"
    },
    "accessibilityconfig": {
        "a11yLabel": "Dispute Transaction"
    },
    "canUpdateUI": true,
    "containerId": true,
    "containerweight": 100,
    "contentalignment": 5,
    "disabledSkins": {
        "focusSkin": "sf44d06ca8224832827ea7fdff757013"
    },
    "displaytext": true,
    "id": "btnDisputeTransaction",
    "info": null,
    "isvisible": true,
    "kuid": "f67f438e9d344219bf14a0357fa1b490",
    "name": "kony.ui.Button",
    "parent": "flxActionsWrapper",
    "pf": "segTransactionsRowSelectedSavingsMobile",
    "tooltip": "Dispute Transaction",
    "wType": "Button",
    "zindex": 1
}