{
    "@class": "com.kony.gen.viz.model.component.KVizButton",
    "DNDConfig": null,
    "_height_": {
        "type": "string",
        "value": "80%"
    },
    "_margin_": [
        6,
        6,
        6,
        6
    ],
    "_padding_": [
        0,
        0,
        0,
        0
    ],
    "_right_": {
        "type": "string",
        "value": "0dp"
    },
    "_skin_": "se7b49d6203c4ed69994fc74df732a9c",
    "_text_": "",
    "_width_": {
        "type": "string",
        "value": "50dp"
    },
    "accessibilityconfig": {
        "a11yLabeli18n": "i18n.common.logout"
    },
    "canUpdateUI": true,
    "centery": {
        "type": "string",
        "value": "50%"
    },
    "containerweight": 100,
    "contentalignment": 5,
    "desktopweb": {
        "psp": {
            "hoverSkin": "sb13d7d59686429aa4fbca8527b63942"
        }
    },
    "displaytext": true,
    "focusskin": "s7fc7a5968394a5882dc2758c71a59a3",
    "id": "btnLogout",
    "info": null,
    "isvisible": true,
    "kuid": "dbe084cfcd054a6cb77dabb8ab42f077",
    "name": "kony.ui.Button",
    "parent": "flxActionsMenu",
    "pf": "userwidgetmodel",
    "tooltip": "Sign Out",
    "wType": "Button",
    "zindex": 2
}