{
    "@class": "com.kony.gen.viz.model.component.KVizLabel",
    "DNDConfig": null,
    "_height_": {
        "type": "ref",
        "value": "preferred"
    },
    "_left_": {
        "type": "string",
        "value": "20dp"
    },
    "_margin_": [
        1,
        1,
        1,
        1
    ],
    "_padding_": [
        0,
        0,
        0,
        0
    ],
    "_skin_": "sb57ddd930ef42d5b307efc805cba3d6",
    "_text_": "Pay Bills",
    "_width_": {
        "type": "ref",
        "value": "preferred"
    },
    "_wrapping_": 2,
    "accessibilityconfig": {
        "a11yLabeli18n": "i18n.Pay.PayBills"
    },
    "android": {
        "textStyle": {
            "letterSpacing": 0,
            "strikeThrough": false
        }
    },
    "canUpdateUI": true,
    "centery": {
        "type": "string",
        "value": "50%"
    },
    "containerweight": 100,
    "contentalignment": 4,
    "desktopweb": {
        "padding": [
            0,
            0,
            0,
            0
        ],
        "paddingInPixel": false
    },
    "id": "CopyLabel0bb648d916e554d",
    "info": null,
    "ipad": {
        "psp": {
            "wrapping": 2
        }
    },
    "iphone": {
        "psp": {
            "wrapping": 2
        }
    },
    "isvisible": true,
    "kuid": "c8238c4264144e7391f46d2a256dfbba",
    "name": "kony.ui.Label",
    "paddinginpixel": false,
    "parent": "flxPayBills",
    "pf": "userwidgetmodel",
    "texti18n": "i18n.Pay.PayBills",
    "tooltip": "Pay Bills",
    "wType": "Label",
    "zindex": 1
}