{
    "@class": "com.kony.gen.viz.model.component.KVizButton",
    "DNDConfig": null,
    "__parentReadjusting__": false,
    "_height_": {
        "type": "string",
        "value": "100%"
    },
    "_left_": {
        "type": "string",
        "value": "3dp"
    },
    "_margin_": [
        6,
        6,
        6,
        6
    ],
    "_padding_": [
        0,
        0,
        0,
        0
    ],
    "_skin_": "s60296effcb54b82b4cdd8efc25af992",
    "_text_": "Button",
    "_top_": {
        "type": "string",
        "value": "0dp"
    },
    "_width_": {
        "type": "ref",
        "value": "preferred"
    },
    "accessibilityconfig": {
        "a11yLabel": "Transfer Money"
    },
    "canUpdateUI": true,
    "containerId": true,
    "containerweight": 100,
    "contentalignment": 5,
    "disabledSkins": {
        "focusSkin": "sf44d06ca8224832827ea7fdff757013"
    },
    "displaytext": true,
    "id": "btnAction",
    "ide_onClick": "AS_Button_f1751cfad76d47dc9d6c0bb08868db14",
    "info": null,
    "isvisible": true,
    "kuid": "ab6d898c581f47d68d54124f0bef8569",
    "name": "kony.ui.Button",
    "parent": "flxRow",
    "pf": "segMakeTransferWireTransfersUnselected",
    "texti18n": "i18n.billPay.BillPayMakeTransfer",
    "tooltip": "VIEW REPORT",
    "wType": "Button",
    "zindex": 1
}