{
    "@class": "com.kony.gen.viz.model.component.KVizLabel",
    "DNDConfig": null,
    "_height_": {
        "type": "ref",
        "value": "preferred"
    },
    "_margin_": [
        1,
        1,
        1,
        1
    ],
    "_padding_": [
        0,
        0,
        0,
        0
    ],
    "_skin_": "sd428048577f4c97ba28927a93694250",
    "_text_": "Sorry, this secure code is incorrect. Try again.",
    "_top_": {
        "type": "string",
        "value": "29px"
    },
    "_width_": {
        "type": "string",
        "value": "100%"
    },
    "_wrapping_": 2,
    "accessibilityconfig": {
        "a11yLabel": "Didnt get the text? We can send it again."
    },
    "android": {
        "textStyle": {
            "letterSpacing": 0,
            "strikeThrough": false
        }
    },
    "canUpdateUI": true,
    "containerweight": 100,
    "contentalignment": 5,
    "id": "lblWrongOTP",
    "info": null,
    "ipad": {
        "psp": {
            "wrapping": 2
        }
    },
    "iphone": {
        "psp": {
            "wrapping": 2
        }
    },
    "isvisible": false,
    "kuid": "fa197f1fc955451ba45835fc01f46219",
    "name": "kony.ui.Label",
    "parent": "flxOTPContainer",
    "pf": "userwidgetmodel",
    "texti18n": "i18n.MFA.IncorrectOTP",
    "tooltip": "",
    "wType": "Label",
    "zindex": 1
}