{
    "DNDConfig": null,
    "__parentReadjusting__": false,
    "_height_": {
        "type": "string",
        "value": "25dp"
    },
    "_margin_": [
        0,
        0,
        0,
        0
    ],
    "_orientation_": 6,
    "_padding_": [
        0,
        0,
        0,
        0
    ],
    "_percent_": true,
    "_right_": {
        "type": "string",
        "value": "0%"
    },
    "_skin_": "s24c92fc23b14f5484b693ee9b8a9b35",
    "_top_": {
        "type": "string",
        "value": "21dp"
    },
    "_width_": {
        "type": "string",
        "value": "25dp"
    },
    "allboxes": [],
    "autogrowmode": 0,
    "canUpdateUI": true,
    "children": [
        "imgDownloadBulk"
    ],
    "clipbounds": true,
    "containerweight": 100,
    "desktopweb": {
        "psp": {
            "hoverSkin": "s33beaea65744dc8aecdacfe3caf89af"
        }
    },
    "enablescrolling": true,
    "id": "flxDownloadBukPay",
    "info": null,
    "isvisible": false,
    "kuid": "b7361815574b41f095ebb3beb079df9c",
    "layouttype": 2,
    "name": "kony.ui.FlexContainer",
    "parent": "flxTop",
    "pf": "frmPaymentDueAcknowledgement",
    "responsiveData": {
        "b1": {
            "top": {
                "type": "string",
                "value": "22dp"
            }
        },
        "b2": {
            "right": {
                "type": "string",
                "value": "50px"
            },
            "top": {
                "type": "string",
                "value": "22dp"
            }
        },
        "b4": {
            "top": {
                "type": "string",
                "value": "22dp"
            }
        }
    },
    "snapgridsize": 10,
    "snaptogrid": true,
    "wType": "FlexContainer",
    "widgetalignment": 1,
    "zindex": 1
}