{
    "@class": "com.kony.gen.viz.model.component.KVizLabel",
    "DNDConfig": null,
    "__parentReadjusting__": false,
    "_height_": {
        "type": "ref",
        "value": "preferred"
    },
    "_left_": {
        "type": "string",
        "value": "0dp"
    },
    "_margin_": [
        1,
        1,
        1,
        1
    ],
    "_padding_": [
        0,
        0,
        5,
        0
    ],
    "_skin_": "se56454286124fef97a46e7249497088",
    "_text_": "401, Marine Drive, Martin ave, C.A, San jose  342160",
    "_top_": {
        "type": "string",
        "value": "0dp"
    },
    "_width_": {
        "type": "string",
        "value": "60%"
    },
    "_wrapping_": 2,
    "accessibilityconfig": {
        "a11yLabel": "401, Marine Drive, Martin ave, C.A, San jose  342160"
    },
    "android": {
        "textStyle": {
            "letterSpacing": 0,
            "strikeThrough": false
        }
    },
    "canUpdateUI": true,
    "containerId": true,
    "containerweight": 100,
    "contentalignment": 1,
    "id": "lblTransferCurrencyValue",
    "info": null,
    "ipad": {
        "psp": {
            "wrapping": 2
        }
    },
    "iphone": {
        "psp": {
            "wrapping": 2
        }
    },
    "isvisible": true,
    "kuid": "d6201f650fed47329e60aea92e8b37ea",
    "name": "kony.ui.Label",
    "paddinginpixel": false,
    "parent": "flxTransferCurrency",
    "pf": "segRecentsWireTransfersMobileSelected",
    "tooltip": "",
    "wType": "Label",
    "zindex": 1
}