{
    "DNDConfig": null,
    "__parentReadjusting__": false,
    "_bottom_": {
        "type": "string",
        "value": "30dp"
    },
    "_height_": {
        "type": "string",
        "value": "81dp"
    },
    "_left_": {
        "type": "string",
        "value": "30dp"
    },
    "_margin_": [
        0,
        0,
        0,
        0
    ],
    "_orientation_": 6,
    "_padding_": [
        0,
        0,
        0,
        0
    ],
    "_percent_": true,
    "_skin_": "s639bbd66e104c56b5ef01457beb6250",
    "_top_": {
        "type": "string",
        "value": "22dp"
    },
    "_width_": {
        "type": "string",
        "value": "90%"
    },
    "allboxes": [],
    "autogrowmode": 0,
    "canUpdateUI": true,
    "centerx": {
        "type": "string",
        "value": "50%"
    },
    "children": [
        "lblAvailableBalance",
        "flxAccountName",
        "lblBalanceValue"
    ],
    "clipbounds": true,
    "containerweight": 100,
    "enablescrolling": true,
    "id": "flxAvailableBalance",
    "info": null,
    "iscustomlayout": false,
    "isvisible": true,
    "kuid": "da97f828fd3b466d8555435fd2712a7c",
    "layouttype": 2,
    "name": "kony.ui.FlexContainer",
    "parent": "flxSuccess",
    "pf": "frmOneTimePaymentAcknowledgement",
    "responsiveData": {
        "b1": {
            "skin": "s12e9117552b4e45a2f5f2631b232fc5"
        },
        "b2": {
            "skin": "s12e9117552b4e45a2f5f2631b232fc5"
        },
        "b3": {
            "skin": "s12e9117552b4e45a2f5f2631b232fc5"
        },
        "b4": {
            "skin": "s12e9117552b4e45a2f5f2631b232fc5"
        }
    },
    "retaincontentalignment": false,
    "retainflexpositionproperties": false,
    "retainflowhorizontalalignment": false,
    "snapgridsize": 10,
    "snaptogrid": true,
    "wType": "FlexContainer",
    "widgetalignment": 1,
    "zindex": 1
}