{
    "@class": "com.kony.gen.viz.model.component.KVizListBox",
    "DNDConfig": null,
    "__parentReadjusting__": false,
    "_height_": {
        "type": "string",
        "value": "40dp"
    },
    "_left_": {
        "type": "string",
        "value": "0%"
    },
    "_margin_": [
        0,
        0,
        0,
        0
    ],
    "_padding_": [
        2,
        0,
        0,
        0
    ],
    "_placeholder_": "Please Select",
    "_skin_": "sfbbcab7f91346fc81c73f3201ebd0c9",
    "_top_": {
        "type": "string",
        "value": "43dp"
    },
    "_width_": {
        "type": "string",
        "value": "100%"
    },
    "canUpdateUI": true,
    "containerweight": 100,
    "contentalignment": 4,
    "focusskin": "s9eb08f78097439eb767801e8fdeb5cd",
    "groupcells": false,
    "id": "lstDates",
    "info": null,
    "iscustomlayout": false,
    "isvisible": true,
    "kuid": "c2ac0ade7e584f38a1582cbfaec8f15f",
    "masterdata": [],
    "name": "kony.ui.ListBox",
    "paddinginpixel": false,
    "parent": "flxFreqDay",
    "pf": "frmEditGoal",
    "responsiveData": {
        "b2": {
            "top": {
                "type": "string",
                "value": "48dp"
            }
        },
        "b3": {
            "top": {
                "type": "string",
                "value": "23dp"
            }
        },
        "b4": {
            "height": {
                "type": "string",
                "value": "37dp"
            },
            "top": {
                "type": "string",
                "value": "45dp"
            }
        }
    },
    "retaincontentalignment": false,
    "retainflexpositionproperties": false,
    "selectedkeys": null,
    "selectedkeyvalue": null,
    "selectedkeyvalues": null,
    "size": 18,
    "viewconfig": {
        "toggleViewConfig": {
            "viewStyle": 0
        }
    },
    "viewtype": 0,
    "wType": "ListBox",
    "zindex": 1
}