{
    "@class": "com.kony.gen.viz.model.component.KVizButton",
    "DNDConfig": null,
    "__parentReadjusting__": false,
    "_height_": {
        "type": "string",
        "value": "20dp"
    },
    "_margin_": [
        6,
        6,
        6,
        6
    ],
    "_padding_": [
        0,
        0,
        0,
        0
    ],
    "_right_": {
        "type": "string",
        "value": "48dp"
    },
    "_skin_": "s535287da20848b2970f91721ae239fd",
    "_text_": "",
    "_top_": {
        "type": "string",
        "value": "10px"
    },
    "_width_": {
        "type": "string",
        "value": "36dp"
    },
    "accessibilityconfig": {
        "a11yLabel": "E-bill"
    },
    "canUpdateUI": true,
    "containerweight": 100,
    "contentalignment": 5,
    "disabledSkins": {
        "focusSkin": "sf44d06ca8224832827ea7fdff757013"
    },
    "displaytext": true,
    "id": "btnEbill",
    "ide_onClick": "AS_Button_b602b942ebe241718297a7a27be78607",
    "info": null,
    "isvisible": true,
    "kuid": "fd0901c65fc64d68a36ea878e0b1cf17",
    "name": "kony.ui.Button",
    "parent": "flxPayeeName",
    "pf": "frmPayABill",
    "responsiveData": {
        "b3": {
            "right": {
                "type": "string",
                "value": "42dp"
            },
            "text": "",
            "top": {
                "type": "string",
                "value": "5px"
            }
        }
    },
    "tooltip": "eBill",
    "wType": "Button",
    "zindex": 5
}