{
    "@class": "com.kony.gen.viz.model.component.KVizLabel",
    "DNDConfig": null,
    "__parentReadjusting__": false,
    "_height_": {
        "type": "ref",
        "value": "preferred"
    },
    "_left_": {
        "type": "number",
        "value": ""
    },
    "_margin_": [
        1,
        1,
        1,
        1
    ],
    "_padding_": [
        0,
        0,
        0,
        0
    ],
    "_right_": {
        "type": "string",
        "value": "25%"
    },
    "_skin_": "saba7a95163a455f8f2f131435e16122",
    "_text_": "$180.0",
    "_top_": {
        "type": "string",
        "value": "50dp"
    },
    "_width_": {
        "type": "ref",
        "value": "preferred"
    },
    "_wrapping_": 2,
    "accessibilityconfig": {
        "a11yLabel": "$180.0"
    },
    "android": {
        "textStyle": {
            "letterSpacing": 0,
            "strikeThrough": false
        }
    },
    "canUpdateUI": true,
    "containerweight": 100,
    "contentalignment": 6,
    "id": "lblBillValue",
    "info": null,
    "ipad": {
        "psp": {
            "wrapping": 2
        }
    },
    "iphone": {
        "psp": {
            "wrapping": 2
        }
    },
    "isvisible": true,
    "kuid": "a4d4b1f63c234ed2b34574ee07dc706d",
    "name": "kony.ui.Label",
    "paddinginpixel": false,
    "parent": "flxBill",
    "pf": "frmPayABill",
    "responsiveData": {
        "b3": {
            "left": {
                "type": "string",
                "value": "40dp"
            },
            "right": {
                "type": "string",
                "value": ""
            },
            "top": {
                "type": "string",
                "value": "10dp"
            }
        }
    },
    "tooltip": "",
    "wType": "Label",
    "zindex": 5
}