{
    "@class": "com.kony.gen.viz.model.component.KVizUserWidget",
    "DNDConfig": null,
    "__parentReadjusting__": false,
    "_android_": {},
    "_androidwearos_": {},
    "_children_": [],
    "_desktopweb_": {},
    "_height_": {
        "type": "ref",
        "value": "preferred"
    },
    "_ipad_": {},
    "_iphone_": {},
    "_kiosk_": {},
    "_left_": {
        "type": "string",
        "value": "0dp"
    },
    "_margin_": [
        0,
        0,
        0,
        0
    ],
    "_orientation_": 1,
    "_padding_": [
        0,
        0,
        0,
        0
    ],
    "_percent_": true,
    "_render_": true,
    "_responsiveData_": {
        "b1": {
            "isVisible": true
        },
        "b4": {
            "centerX": {
                "type": "string",
                "value": "50%"
            },
            "left": {
                "type": "string",
                "value": "0dp"
            },
            "right": {
                "type": "string",
                "value": "0dp"
            },
            "width": {
                "type": "string",
                "value": "100%"
            }
        }
    },
    "_skin_": "s24c92fc23b14f5484b693ee9b8a9b35",
    "_spa_": {},
    "_spaan_": {},
    "_spaandroidtablet_": {},
    "_spabb_": {},
    "_spaip_": {},
    "_spaipad_": {},
    "_spamobile_": {},
    "_spatablet_": {},
    "_spawindowstablet_": {},
    "_spawinphone8_": {},
    "_tabrcandroid_": {},
    "_top_": {
        "type": "string",
        "value": "0dp"
    },
    "_vizProps_": {
        "hidewidgethierarchy": false
    },
    "_width_": {
        "type": "string",
        "value": "100%"
    },
    "_windows10_": {},
    "_windows8_": {},
    "_winphone10_": {},
    "_winphone8_": {},
    "areflexpropsreferenced": false,
    "autogrowmode": 1,
    "canUpdateUI": true,
    "clipbounds": false,
    "containerweight": 0,
    "dataDiffs": {
        "AcknowledgementNAO": {
            "__events__": {},
            "__info__": {
                "isRoot": true,
                "kuid": "bcb6f93ebf284560925d695054040e10",
                "srcKUID": "faca8ed011c64776b0c1a2025401e834",
                "wType": "FlexContainer"
            },
            "centerX": {},
            "left": {},
            "responsiveData": {
                "b1": {
                    "isVisible": true
                },
                "b4": {
                    "centerX": {
                        "type": "string",
                        "value": "50%"
                    },
                    "left": {
                        "type": "string",
                        "value": "0dp"
                    },
                    "right": {
                        "type": "string",
                        "value": "0dp"
                    },
                    "width": {
                        "type": "string",
                        "value": "100%"
                    }
                }
            },
            "right": {},
            "width": {}
        },
        "btnAckFundAccounts": {
            "__events__": {},
            "__info__": {
                "kuid": "cafbc18a162a49b2bf82f50bfc6a1873",
                "srcKUID": "af8868b108414b96a76e67c12c03ae62",
                "wType": "Button"
            },
            "centerX": {},
            "responsiveData": {
                "b1": {
                    "width": {
                        "type": "string",
                        "value": "150dp"
                    }
                },
                "b2": {
                    "width": {
                        "type": "string",
                        "value": "150dp"
                    }
                },
                "b3": {
                    "centerX": {
                        "type": "string",
                        "value": "50%"
                    },
                    "right": {
                        "type": "string",
                        "value": ""
                    },
                    "width": {
                        "type": "string",
                        "value": "92.50%"
                    }
                },
                "b4": {
                    "width": {
                        "type": "string",
                        "value": "150dp"
                    }
                }
            },
            "right": {},
            "width": {}
        },
        "btnAckGoToAccounts": {
            "__events__": {},
            "__info__": {
                "kuid": "d66a4f467e8d4cf48f366de5428dcade",
                "srcKUID": "dbe4a92ada7b4d9d894c2313887e3eaf",
                "wType": "Button"
            },
            "responsiveData": {
                "b1": {
                    "right": {
                        "type": "string",
                        "value": "220dp"
                    },
                    "width": {
                        "type": "string",
                        "value": "150dp"
                    }
                },
                "b2": {
                    "right": {
                        "type": "string",
                        "value": "220dp"
                    },
                    "width": {
                        "type": "string",
                        "value": "150dp"
                    }
                },
                "b3": {
                    "width": {
                        "type": "string",
                        "value": "200dp"
                    }
                },
                "b4": {
                    "right": {
                        "type": "string",
                        "value": "220dp"
                    },
                    "width": {
                        "type": "string",
                        "value": "150dp"
                    }
                }
            },
            "right": {},
            "width": {}
        },
        "btnAcknowledgementSeperator2": {
            "__events__": {},
            "__info__": {
                "kuid": "gc0cb924ea0c4d57a6a33622828bc48a",
                "srcKUID": "b1a832efffc5489ca01fb4fe06705025",
                "wType": "FlexContainer"
            }
        },
        "flxAcknowledgeWrapper": {
            "__events__": {},
            "__info__": {
                "kuid": "ea8b8960f41c4ff88a7f20d2f4ac9774",
                "srcKUID": "c85febdff72c4cee963d60392912bb03",
                "wType": "FlexContainer"
            },
            "responsiveData": {
                "b1": {
                    "top": {
                        "type": "string",
                        "value": "0dp"
                    }
                },
                "b2": {
                    "top": {
                        "type": "string",
                        "value": "0dp"
                    }
                },
                "b3": {
                    "top": {
                        "type": "string",
                        "value": "4dp"
                    }
                },
                "b4": {
                    "top": {
                        "type": "string",
                        "value": "0dp"
                    }
                }
            },
            "top": {}
        },
        "flxAcknowledgementButtons": {
            "__events__": {},
            "__info__": {
                "kuid": "b7c5ae9f137f43e1b8840c52f3fab18c",
                "srcKUID": "h9a98c41d3164a07b4ef24652fa78a0c",
                "wType": "FlexContainer"
            }
        },
        "flxAcknowledgementMain": {
            "__events__": {},
            "__info__": {
                "kuid": "acdfc259ea9343da979523b01a7f95c8",
                "srcKUID": "cbb0f61177c94bb8ad0ee66d000f51ad",
                "wType": "FlexContainer"
            },
            "autogrowMode": {
                "Default": 1
            },
            "height": {
                "Default": {
                    "type": "ref",
                    "value": "preferred"
                }
            },
            "responsiveData": {
                "b1": {
                    "layoutType": 4
                },
                "b3": {}
            }
        },
        "flxColorLine": {
            "__events__": {},
            "__info__": {
                "kuid": "abcf04c8e4fd435b91e8d06cda564811",
                "srcKUID": "c22c66c6f4b64ed5829b285cccf5c0d9",
                "wType": "FlexContainer"
            },
            "autogrowMode": {
                "Default": 0
            },
            "height": {},
            "responsiveData": {
                "b1": {
                    "height": {
                        "type": "string",
                        "value": "6dp"
                    }
                }
            }
        },
        "flxHeaderAcknowledgement": {
            "__events__": {},
            "__info__": {
                "kuid": "b89b41be94304ee3b8c3bc228a623095",
                "srcKUID": "hc261369067a44bf915245d352e77a1b",
                "wType": "FlexContainer"
            },
            "autogrowMode": {
                "Default": 0
            },
            "height": {
                "Default": {
                    "type": "string",
                    "value": "60dp"
                }
            },
            "left": {},
            "responsiveData": {
                "b1": {
                    "height": {
                        "type": "string",
                        "value": "77dp"
                    },
                    "top": {
                        "type": "string",
                        "value": "0dp"
                    },
                    "zIndex": 22
                },
                "b2": {
                    "height": {
                        "type": "string",
                        "value": "77dp"
                    }
                },
                "b3": {
                    "height": {
                        "type": "string",
                        "value": "30dp"
                    },
                    "isVisible": true
                },
                "b4": {
                    "height": {
                        "type": "string",
                        "value": "77dp"
                    },
                    "top": {
                        "type": "string",
                        "value": "0dp"
                    }
                }
            },
            "top": {},
            "zIndex": {}
        },
        "flxSeparator": {
            "__events__": {},
            "__info__": {
                "kuid": "c24a3fc416e0451c86da93b3a0cc934e",
                "srcKUID": "eec2bc5905f547d3b4160679cb66e477",
                "wType": "FlexContainer"
            }
        },
        "imgSuccess": {
            "__events__": {},
            "__info__": {
                "kuid": "f1b3b4f361024208b0b55cf6c287232d",
                "srcKUID": "dad4d10a114d47c59fe752baea5aa042",
                "wType": "Image"
            },
            "src": "success_green.png"
        },
        "lblAcknowledgementSeperator": {
            "__events__": {},
            "__info__": {
                "kuid": "f739cb2bb6d54d899f6b8fea9b9f7073",
                "srcKUID": "c772489a48c144c9966d9d80e903be86",
                "wType": "Label"
            },
            "left": {},
            "responsiveData": {
                "b3": {
                    "left": {
                        "type": "string",
                        "value": "5%"
                    },
                    "right": {
                        "type": "string",
                        "value": "5%"
                    }
                }
            },
            "right": {}
        },
        "lblProductsSelected": {
            "__events__": {},
            "__info__": {
                "kuid": "c628f3c152d544f78265541a87a241ec",
                "srcKUID": "j3515797257f4aa28b34ed4d42a66a7f",
                "wType": "Label"
            }
        },
        "lblSuccess": {
            "__events__": {},
            "__info__": {
                "kuid": "h3f38b5595e44cdfa934020948a39c58",
                "srcKUID": "a023e65e0437441f8aa72e74d033b5dd",
                "wType": "Label"
            },
            "responsiveData": {
                "b1": {},
                "b3": {
                    "width": {
                        "type": "string",
                        "value": "78.87%"
                    }
                }
            },
            "text": "Congratulations. \n   You have successfully created your account."
        },
        "lblUserInformation": {
            "__events__": {},
            "__info__": {
                "kuid": "e53b0c774644496e9bd076d2eabc0ba4",
                "srcKUID": "i1bfd0ef255c404b82be88a899ba22d0",
                "wType": "Label"
            },
            "responsiveData": {
                "b3": {
                    "isVisible": false
                }
            }
        },
        "segProducts": {
            "__events__": {},
            "__info__": {
                "kuid": "edb6c6f671fa47e18af268263bddaaba",
                "srcKUID": "f14b06a704c048f28b9c82c60160e70b",
                "wType": "Segment"
            },
            "autogrowMode": {
                "Default": 1
            },
            "height": {},
            "maxHeight": {},
            "responsiveData": {
                "b1": {
                    "maxHeight": {
                        "type": "string",
                        "value": "400dp"
                    }
                },
                "b3": {
                    "height": {
                        "type": "ref",
                        "value": "preferred"
                    }
                },
                "b4": {
                    "maxHeight": {
                        "type": "number",
                        "value": "400"
                    }
                }
            }
        }
    },
    "id": "AcknowledgementNAO",
    "info": null,
    "iscustomlayout": false,
    "isdatareferenced": false,
    "issegmentchild": false,
    "isvisible": true,
    "kuid": "bcb6f93ebf284560925d695054040e10",
    "layouttype": 4,
    "masterType": 0,
    "name": "kony.ui.UserWidgetInstance",
    "parent": "flxNAOAcknowledgement",
    "pf": "frmNAO",
    "retaincontentalignment": false,
    "retainflexpositionproperties": false,
    "snapgridsize": 10,
    "snaptogrid": true,
    "sourceUserWidget": "faca8ed011c64776b0c1a2025401e834",
    "vizprops": {
        "hidewidgethierarchy": false
    },
    "wType": "UserWidgetInstance"
}