{
    "DNDConfig": null,
    "__parentReadjusting__": false,
    "_height_": {
        "type": "ref",
        "value": "preferred"
    },
    "_margin_": [
        0,
        0,
        0,
        0
    ],
    "_orientation_": 6,
    "_padding_": [
        0,
        0,
        0,
        0
    ],
    "_percent_": true,
    "_skin_": "sb75f187c17c456fb0450d66550451bb",
    "_top_": {
        "type": "number",
        "value": ""
    },
    "_width_": {
        "type": "string",
        "value": "100%"
    },
    "allboxes": [],
    "autogrowmode": 1,
    "canUpdateUI": true,
    "children": [
        "AccountsDescription"
    ],
    "clipbounds": false,
    "containerweight": 100,
    "enablescrolling": true,
    "id": "flxAccountsDescription",
    "info": null,
    "isvisible": true,
    "kuid": "d82a68295d87430c920e1cbf651aa69a",
    "layouttype": 2,
    "name": "kony.ui.FlexContainer",
    "parent": "flxAccounts",
    "pf": "frmNAO",
    "responsiveData": {
        "b1": {
            "isVisible": true,
            "top": {
                "type": "string",
                "value": ""
            }
        },
        "b2": {
            "top": {
                "type": "string",
                "value": ""
            }
        },
        "b4": {
            "top": {
                "type": "string",
                "value": ""
            }
        }
    },
    "snapgridsize": 10,
    "snaptogrid": true,
    "wType": "FlexContainer",
    "widgetalignment": 1,
    "zindex": 1
}