{
    "DNDConfig": null,
    "__parentReadjusting__": false,
    "_height_": {
        "type": "ref",
        "value": "preferred"
    },
    "_left_": {
        "type": "string",
        "value": "0dp"
    },
    "_margin_": [
        0,
        0,
        0,
        0
    ],
    "_orientation_": 6,
    "_padding_": [
        0,
        0,
        0,
        0
    ],
    "_percent_": true,
    "_skin_": "s35239c6570843088868039a487dfe79",
    "_top_": {
        "type": "string",
        "value": "0dp"
    },
    "_width_": {
        "type": "string",
        "value": "100%"
    },
    "allboxes": [],
    "autogrowmode": 1,
    "canUpdateUI": true,
    "children": [
        "flxSelectProducts"
    ],
    "clipbounds": false,
    "containerweight": 100,
    "enablescrolling": true,
    "id": "flxMain",
    "info": null,
    "isvisible": true,
    "kuid": "h5dfca1cb3d44774bd657d50b7a6b8a1",
    "layouttype": 4,
    "name": "kony.ui.FlexContainer",
    "parent": "flxAccountsView",
    "pf": "frmNAO",
    "responsiveData": {
        "b1": {
            "top": {
                "type": "string",
                "value": "72dp"
            }
        },
        "b2": {
            "top": {
                "type": "string",
                "value": "72dp"
            }
        },
        "b3": {
            "top": {
                "type": "string",
                "value": "30dp"
            }
        },
        "b4": {
            "top": {
                "type": "string",
                "value": "72dp"
            }
        }
    },
    "snapgridsize": 10,
    "snaptogrid": true,
    "wType": "FlexContainer",
    "widgetalignment": 1,
    "zindex": 1
}