{
    "@class": "com.kony.gen.viz.model.component.KVizLabel",
    "DNDConfig": null,
    "__parentReadjusting__": false,
    "_height_": {
        "type": "ref",
        "value": "preferred"
    },
    "_left_": {
        "type": "string",
        "value": "50dp"
    },
    "_margin_": [
        1,
        1,
        1,
        1
    ],
    "_padding_": [
        0,
        0,
        0,
        0
    ],
    "_skin_": "s74394b79b8040d780c3e1c1d5a14165",
    "_text_": "I provide my consent to kony bank to perform a credit check on my SSN to validate my eligibility for opening",
    "_top_": {
        "type": "string",
        "value": "0dp"
    },
    "_width_": {
        "type": "string",
        "value": "95%"
    },
    "_wrapping_": 2,
    "accessibilityconfig": {
        "a11yLabel": "I provide my consent to kony bank to perform a credit check on my SSN to validate my eligibility for opening"
    },
    "android": {
        "textStyle": {
            "letterSpacing": 0,
            "strikeThrough": false
        }
    },
    "canUpdateUI": true,
    "containerweight": 100,
    "contentalignment": 4,
    "id": "lblThisServicesIsChargebleOld",
    "info": null,
    "ipad": {
        "psp": {
            "wrapping": 2
        }
    },
    "iphone": {
        "psp": {
            "wrapping": 2
        }
    },
    "isvisible": true,
    "kuid": "h4d28034e946459b927a4ee0be01c008",
    "name": "kony.ui.Label",
    "parent": "flxPleaseNoteTheFollowingPointsOld",
    "pf": "frmNAO",
    "responsiveData": {
        "b3": {
            "left": {
                "type": "string",
                "value": "50dp"
            },
            "text": "I provide my consent to kony bank to perform a credit check on my SSN to validate my eligibility for opening an account with kony Bank.",
            "width": {
                "type": "string",
                "value": "85%"
            }
        },
        "b4": {
            "skin": "sa966f4c7d974709aa0a733eec853ef7",
            "text": "I provide my consent to kony bank to perform a credit check on my SSN to validate my eligibility for opening an account with kony Bank."
        }
    },
    "tooltip": "",
    "wType": "Label",
    "zindex": 1
}