{
    "@class": "com.kony.gen.viz.model.component.KVizLabel",
    "DNDConfig": null,
    "__parentReadjusting__": false,
    "_height_": {
        "type": "ref",
        "value": "preferred"
    },
    "_left_": {
        "type": "string",
        "value": "18%"
    },
    "_margin_": [
        1,
        1,
        1,
        1
    ],
    "_padding_": [
        0,
        0,
        0,
        0
    ],
    "_skin_": "sadf0e4a0f8049139882ae6943dc0277",
    "_text_": "Enable E-Statements",
    "_top_": {
        "type": "string",
        "value": "0dp"
    },
    "_width_": {
        "type": "ref",
        "value": "preferred"
    },
    "_wrapping_": 2,
    "accessibilityconfig": {
        "a11yLabel": "Terms & Conditions"
    },
    "android": {
        "textStyle": {
            "letterSpacing": 0,
            "strikeThrough": false
        }
    },
    "canUpdateUI": true,
    "containerweight": 100,
    "contentalignment": 4,
    "id": "lblTC1",
    "info": null,
    "ipad": {
        "psp": {
            "wrapping": 2
        }
    },
    "iphone": {
        "psp": {
            "wrapping": 2
        }
    },
    "isvisible": false,
    "kuid": "e1ba087bd1ea4d788e678ff96baadbfd",
    "name": "kony.ui.Label",
    "parent": "flxTCCheckBox",
    "pf": "frmNAO",
    "responsiveData": {
        "b3": {
            "isVisible": false,
            "left": {
                "type": "string",
                "value": "28%"
            }
        }
    },
    "texti18n": "i18n.common.TnC",
    "tooltip": "",
    "wType": "Label",
    "zindex": 1
}