{
    "@class": "com.kony.gen.viz.model.container.KVizSegment2",
    "DNDConfig": null,
    "__parentReadjusting__": false,
    "_data_": [],
    "_height_": {
        "type": "ref",
        "value": "preferred"
    },
    "_indicator_": "none",
    "_left_": {
        "type": "string",
        "value": "0dp"
    },
    "_margin_": [
        0,
        0,
        0,
        0
    ],
    "_orientation_": 2,
    "_padding_": [
        0,
        0,
        0,
        0
    ],
    "_right_": {
        "type": "number",
        "value": ""
    },
    "_top_": {
        "type": "string",
        "value": "0dp"
    },
    "_width_": {
        "type": "string",
        "value": "100%"
    },
    "autogrowmode": 1,
    "canUpdateUI": true,
    "centerx": {
        "type": "number",
        "value": ""
    },
    "containerweight": 100,
    "counter": "02",
    "focusedindex": null,
    "focuseditem": null,
    "groupcells": false,
    "hasSections": false,
    "id": "segProductsNAO",
    "info": null,
    "ipad": {
        "psp": {
            "indicator": "rowselect"
        }
    },
    "iphone": {
        "psp": {
            "indicator": "rowselect"
        }
    },
    "iscustomlayout": false,
    "isvisible": true,
    "kuid": "f375fb516a6f4ef681def948c755b076",
    "masterdata": {},
    "name": "kony.ui.SegmentedUI2",
    "needpageindicator": true,
    "pageoffdotimage": "pageoffdot.png",
    "pageondotimage": "pageondot.png",
    "paginationconfig": {
        "position": "bottom"
    },
    "parent": "flxSelectProducts",
    "pf": "frmNAO",
    "responsiveData": {
        "b1": {},
        "b2": {},
        "b3": {
            "height": {
                "type": "ref",
                "value": "preferred"
            },
            "isVisible": true,
            "left": {
                "type": "string",
                "value": "10dp"
            },
            "right": {
                "type": "string",
                "value": "10dp"
            },
            "top": {
                "type": "string",
                "value": "0dp"
            },
            "width": {
                "type": "string",
                "value": "96.50%"
            }
        },
        "b4": {
            "centerX": {
                "type": "string",
                "value": ""
            },
            "left": {
                "type": "string",
                "value": "1%"
            },
            "width": {
                "type": "string",
                "value": "98%"
            }
        }
    },
    "retaincontentalignment": false,
    "retainflexpositionproperties": false,
    "retainselection": false,
    "rowTemplateId": "b0827d8d209e4e768342d77ba1cbed79",
    "rowcounter": 2,
    "rowfocusskin": "s9f69e977910472eb44c62ae28c41fe1",
    "rowskin": "scf5f90f6ac04976ab88b2a4f7153285",
    "rowtemplate": "flxSelectProducts",
    "screenlevelwidget": false,
    "seccounter": 0,
    "sectionheaderskin": "sdc4ff4ed1584272be2ae69045dfb29d",
    "selectedRows": null,
    "selectedState": false,
    "selectedindex": null,
    "selectedindices": null,
    "selecteditems": null,
    "selectedsectionindex": 0,
    "selectionbehavior": "default",
    "separatorcolor": "e3e3e300",
    "separatorrequired": true,
    "separatorthickness": 1,
    "showscrollbars": false,
    "viewtype": "tableview",
    "vizProps": {},
    "wType": "Segment",
    "widgetalignment": 5,
    "widgetdatamap": {
        "btnKnowMore": "btnKnowMore",
        "flxCheckBox": "flxCheckBox",
        "flxLeft": "flxLeft",
        "flxRight": "flxRight",
        "flxRule1": "flxRule1",
        "flxRule2": "flxRule2",
        "flxRule3": "flxRule3",
        "flxSavingsACImgWrap": "flxSavingsACImgWrap",
        "flxSelectProducts": "flxSelectProducts",
        "flxSelectProductsAccounts": "flxSelectProductsAccounts",
        "flxSelectProductsAccountsContainer": "flxSelectProductsAccountsContainer",
        "flxSelectProductsAccountsMain": "flxSelectProductsAccountsMain",
        "flxSelectWrapper": "flxSelectWrapper",
        "imgRule1": "imgRule1",
        "imgRule2": "imgRule2",
        "imgRule3": "imgRule3",
        "imgflxAccounts": "imgflxAccounts",
        "lblAccounts": "lblAccounts",
        "lblAccountsName": "lblAccountsName",
        "lblCheckBox": "lblCheckBox",
        "lblFeature": "lblFeature",
        "lblMonthlyServiceFee": "lblMonthlyServiceFee",
        "lblRule1": "lblRule1",
        "lblRule2": "lblRule2",
        "lblRule3": "lblRule3"
    },
    "zindex": 1
}