{
    "@class": "com.kony.gen.viz.model.component.KVizUserWidget",
    "DNDConfig": null,
    "__parentReadjusting__": false,
    "_children_": [],
    "_height_": {
        "type": "ref",
        "value": "preferred"
    },
    "_left_": {
        "type": "string",
        "value": "0dp"
    },
    "_margin_": [
        0,
        0,
        0,
        0
    ],
    "_orientation_": 1,
    "_padding_": [
        0,
        0,
        0,
        0
    ],
    "_percent_": true,
    "_render_": true,
    "_skin_": "s24c92fc23b14f5484b693ee9b8a9b35",
    "_top_": {
        "type": "string",
        "value": "0dp"
    },
    "_width_": {
        "type": "string",
        "value": "100%"
    },
    "areflexpropsreferenced": false,
    "autogrowmode": 1,
    "canUpdateUI": true,
    "clipbounds": true,
    "containerweight": 0,
    "dataDiffs": {
        "flxContainer": {
            "__events__": {},
            "__info__": {
                "kuid": "bf61405469204f748848ba5ef0793c41",
                "srcKUID": "f13dc08cac9b42cf84a6cd0eb46e5de8",
                "wType": "FlexContainer"
            }
        },
        "flxInfo": {
            "__events__": {},
            "__info__": {
                "kuid": "a534d8c882dd40fd8d61a91b606c40d5",
                "srcKUID": "e95f6b8ffb5f415db6652af917c31c62",
                "wType": "FlexContainer"
            }
        },
        "flxKey": {
            "__events__": {},
            "__info__": {
                "kuid": "d7b3891bf00d4900b986fca3140c8bcd",
                "srcKUID": "d4492c719df94445a861e97f34dc4949",
                "wType": "FlexContainer"
            },
            "left": {
                "Default": {
                    "type": "string",
                    "value": "3.50%"
                }
            },
            "width": {
                "Default": {
                    "type": "string",
                    "value": "20%"
                }
            }
        },
        "flxValue": {
            "__events__": {},
            "__info__": {
                "kuid": "bd6d81c8eb9d48c8abe0e12c41e4d1fe",
                "srcKUID": "b141325e5e9048519b71af002cfee26a",
                "wType": "FlexContainer"
            },
            "left": {
                "Default": {
                    "type": "string",
                    "value": "26.20%"
                }
            },
            "width": {
                "Default": {
                    "type": "string",
                    "value": "70%"
                }
            }
        },
        "imgWhatIsSSN": {
            "__events__": {},
            "__info__": {
                "kuid": "c5783ef88d5e42e9b525e6d911551e72",
                "srcKUID": "f54ec2da1e9d451d9345687646b48cc3",
                "wType": "Image"
            }
        },
        "keyValue": {
            "__events__": {},
            "__info__": {
                "isRoot": true,
                "kuid": "abdf461a1d154206911c7484ba2b919b",
                "srcKUID": "cc43b83fad51498eaee44e391076b1e1",
                "wType": "FlexContainer"
            }
        },
        "lblColon": {
            "__events__": {},
            "__info__": {
                "kuid": "fafda600412a461aa257604162f7b729",
                "srcKUID": "c1b15d6a704e4365be1c4ff0a75c3f55",
                "wType": "Label"
            },
            "isVisible": false
        },
        "lblKey": {
            "__events__": {},
            "__info__": {
                "kuid": "d5d432d24cec4cb191084e7c9160d59f",
                "srcKUID": "daa1384a75084c57b8a708d751b05837",
                "wType": "Label"
            }
        },
        "lblValue": {
            "__events__": {},
            "__info__": {
                "kuid": "iad5a2083ee5492ba60c2bab116d9704",
                "srcKUID": "had7006a19c947e7ae413b191f0cc841",
                "wType": "Label"
            }
        }
    },
    "id": "keyValue1",
    "info": null,
    "iscustomlayout": false,
    "isdatareferenced": false,
    "isvisible": true,
    "kuid": "abdf461a1d154206911c7484ba2b919b",
    "layouttype": 2,
    "masterType": 0,
    "name": "kony.ui.UserWidgetInstance",
    "parent": "flxKeyValues",
    "pf": "userwidgetmodel",
    "retaincontentalignment": false,
    "retainflexpositionproperties": false,
    "snaptogrid": true,
    "sourceUserWidget": "cc43b83fad51498eaee44e391076b1e1",
    "wType": "UserWidgetInstance"
}