{
	 "@class": "com.kony.gen.viz.model.component.KVizImage2",
	 "DNDConfig": null,
	 "__parentReadjusting__": false,
	 "_base64_": null,
	 "_bottom_": {
		 "type": "string",
		 "value": "0dp"
	},
	 "_height_": {
		 "type": "string",
		 "value": "16dp"
	},
	 "_margin_": [
		 0,
		 0,
		 0,
		 0
	],
	 "_padding_": [
		 0,
		 0,
		 0,
		 0
	],
	 "_skin_": "s78a5f26c9f14cec9ebed1bb46098f80",
	 "_src_": "info_grey.png",
	 "_width_": {
		 "type": "string",
		 "value": "16dp"
	},
	 "canUpdateUI": true,
	 "centerx": {
		 "type": "string",
		 "value": "50%"
	},
	 "containerweight": 100,
	 "context": {
		 "channel": "desktop",
		 "formID": "uwua964ab4ffb5476b952e43c0f62548a3",
		 "platform": "desktopweb",
		 "templateType": "userwidgets",
		 "topLevelBox": null
	},
	 "id": "Image0hc68dc38bab04d",
	 "imagescalemode": 1,
	 "info": null,
	 "isvisible": true,
	 "kuid": "ede8d3970f8e4a958c24fc45b3cbdf0b",
	 "name": "kony.ui.Image2",
	 "parent": "flxTransactionFeeInfo",
	 "pf": "userwidgetmodel",
	 "srcType": 1,
	 "wType": "Image",
	 "widgetalignment": 5,
	 "zindex": 1,
	 "accessibilityconfig": {
		 "a11yLabel": "Info",
		 "a11yValue": ""
	}
}