{
    "@class": "com.kony.gen.viz.model.component.KVizButton",
    "DNDConfig": null,
    "__parentReadjusting__": false,
    "_height_": {
        "type": "string",
        "value": "50dp"
    },
    "_margin_": [
        6,
        6,
        6,
        6
    ],
    "_padding_": [
        0,
        0,
        0,
        0
    ],
    "_right_": {
        "type": "string",
        "value": "30dp"
    },
    "_skin_": "sea1525e3fa24829a889b1fd650f3f24",
    "_text_": "CONFIRM",
    "_width_": {
        "type": "string",
        "value": "230dp"
    },
    "accessibilityconfig": {
        "a11yLabel": "Transfer Money"
    },
    "canUpdateUI": true,
    "centery": {
        "type": "string",
        "value": "50%"
    },
    "containerweight": 100,
    "contentalignment": 5,
    "desktopweb": {
        "psp": {
            "hoverSkin": "sfd0ce0d7f454c9f83c7e815a90a8a55"
        }
    },
    "disabledSkins": {
        "blockedUISkin": "s1400c825f384a46b15a0f8d6829ecef"
    },
    "displaytext": true,
    "focusskin": "sfd0ce0d7f454c9f83c7e815a90a8a55",
    "id": "btnStep3MakeTransfer",
    "info": null,
    "isvisible": true,
    "kuid": "d97f4da497a94f0aac6ed8543c7fb1ec",
    "name": "kony.ui.Button",
    "parent": "flxButtons",
    "pf": "userwidgetmodel",
    "texti18n": "i18n.billPay.BillPayMakeTransfer",
    "tooltip": "Make Transfer",
    "wType": "Button",
    "zindex": 1
}