{
	 "@class": "com.kony.gen.viz.model.component.KVizLabel",
	 "DNDConfig": null,
	 "__parentReadjusting__": false,
	 "_height_": {
		 "type": "string",
		 "value": "18dp"
	},
	 "_left_": {
		 "type": "string",
		 "value": "15dp"
	},
	 "_margin_": [
		 1,
		 1,
		 1,
		 1
	],
	 "_padding_": [
		 0,
		 0,
		 0,
		 0
	],
	 "_right_": {
		 "type": "string",
		 "value": "15dp"
	},
	 "_skin_": "se56454286124fef97a46e7249497088",
	 "_text_": "Jack's savings account",
	 "_top_": {
		 "type": "string",
		 "value": "14dp"
	},
	 "_wrapping_": 2,
	 "android": {
		 "textStyle": {
			 "letterSpacing": 0,
			 "strikeThrough": false
		}
	},
	 "canUpdateUI": true,
	 "centery": {
		 "type": "string",
		 "value": "50%"
	},
	 "containerweight": 100,
	 "contentalignment": 1,
	 "id": "lblBankValue",
	 "info": null,
	 "ipad": {
		 "psp": {
			 "wrapping": 2
		}
	},
	 "iphone": {
		 "psp": {
			 "wrapping": 2
		}
	},
	 "isvisible": true,
	 "kuid": "d2ff5d2f031640f49f25a03d35324d6f",
	 "name": "kony.ui.Label",
	 "parent": "flxBank",
	 "pf": "userwidgetmodel",
	 "tooltip": "",
	 "wType": "Label",
	 "zindex": 1,
	 "accessibilityconfig": {
		 "a11yLabel": "Jacks savings account"
	}
}