{
    "@class": "com.kony.gen.viz.model.component.KVizTextBox2",
    "DNDConfig": null,
    "__parentReadjusting__": false,
    "_height_": {
        "type": "string",
        "value": "40dp"
    },
    "_left_": {
        "type": "string",
        "value": "0dp"
    },
    "_margin_": [
        0,
        0,
        0,
        0
    ],
    "_padding_": [
        3,
        0,
        0,
        0
    ],
    "_placeholder_": "XYZ Kony Bank",
    "_skin_": "s26c65e1ba054da39dd45c5a46abc5f0",
    "_text_": "",
    "_top_": {
        "type": "string",
        "value": "10px"
    },
    "_width_": {
        "type": "string",
        "value": "100%"
    },
    "accessibilityconfig": {
        "a11yLabel": "XYZ Kony Bank"
    },
    "autocapitalize": "none",
    "autocomplete": false,
    "autocorrect": false,
    "autofilter": false,
    "canUpdateUI": true,
    "containerheight": "",
    "containerheightmode": 1,
    "containerweight": 100,
    "contentalignment": 4,
    "desktopweb": {
        "placeholderSkin": "sea05f0b2f1f4b57a7c043d6c947516a",
        "psp": {
            "hoverSkin": "s80a8c5539a441ee9b9b49917cc45cc2"
        }
    },
    "disabledSkins": {},
    "focusskin": "s2faf9c2766d4142ab33d0bf97445ae0",
    "id": "tbxIntBankNameKA",
    "info": null,
    "isvisible": true,
    "keyboardtype": "A",
    "kuid": "ec410ac93d0e43469c8f855a512c6a98",
    "mode": "A",
    "name": "kony.ui.TextBox2",
    "parent": "flxIntBankNameKA",
    "pf": "userwidgetmodel",
    "placeholderskin": "sea05f0b2f1f4b57a7c043d6c947516a",
    "securetextentry": false,
    "textinputmode": "A",
    "viewtype": "default",
    "wType": "TextField",
    "zindex": 1
}