{
	 "@class": "com.kony.gen.viz.model.component.KVizImage2",
	 "DNDConfig": null,
	 "__parentReadjusting__": false,
	 "_base64_": null,
	 "_height_": {
		 "type": "string",
		 "value": "40px"
	},
	 "_left_": {
		 "type": "string",
		 "value": "2.18%"
	},
	 "_margin_": [
		 0,
		 0,
		 0,
		 0
	],
	 "_padding_": [
		 0,
		 0,
		 0,
		 0
	],
	 "_skin_": "s78a5f26c9f14cec9ebed1bb46098f80",
	 "_src_": "error_yellow.png",
	 "_top_": {
		 "type": "string",
		 "value": "22dp"
	},
	 "_width_": {
		 "type": "string",
		 "value": "40px"
	},
	 "canUpdateUI": true,
	 "centery": {
		 "type": "string",
		 "value": "50%"
	},
	 "containerweight": 100,
	 "context": {
		 "channel": "desktop",
		 "formID": "uwu13bec36055a4b4e853d26e1bf1a2040",
		 "platform": "desktopweb",
		 "templateType": "userwidgets",
		 "topLevelBox": null
	},
	 "id": "imgError",
	 "imagescalemode": 1,
	 "imagewhiledownloading": "img_transparent.png",
	 "info": null,
	 "invokedProperty": "src",
	 "isvisible": true,
	 "kuid": "d38dca84f67f47519ec2dc0c4f0a2fa7",
	 "name": "kony.ui.Image2",
	 "parent": "flxMessage",
	 "pf": "userwidgetmodel",
	 "srcType": 1,
	 "wType": "Image",
	 "widgetalignment": 5,
	 "zindex": 1,
	 "accessibilityconfig": {
		 "a11yHidden": true,
		 "a11yARIA": {
			 "tabindex": -1
		},
		 "a11yValue": ""
	}
}