{
    "@class": "com.kony.gen.viz.model.component.KVizTextBox2",
    "DNDConfig": null,
    "__parentReadjusting__": false,
    "_height_": {
        "type": "string",
        "value": "100%"
    },
    "_left_": {
        "type": "string",
        "value": "0dp"
    },
    "_margin_": [
        0,
        0,
        0,
        0
    ],
    "_padding_": [
        2,
        0,
        2,
        0
    ],
    "_placeholder_": "Enter Secure Access Code Here",
    "_skin_": "s3122d3c61c54427b7fb82c81b9d58b1",
    "_text_": "",
    "_width_": {
        "type": "string",
        "value": "100%"
    },
    "accessibilityconfig": {
        "a11yLabel": "Enter Code"
    },
    "autocapitalize": "none",
    "autocomplete": false,
    "autocorrect": false,
    "autofilter": false,
    "canUpdateUI": true,
    "centery": {
        "type": "string",
        "value": "50%"
    },
    "containerheight": "",
    "containerheightmode": 1,
    "containerweight": 100,
    "contentalignment": 4,
    "disabledSkins": {
        "focusSkin": "s5472ba1ee3d49d8b87dfd39d43a0055"
    },
    "focusskin": null,
    "id": "tbxCVV",
    "info": null,
    "isvisible": true,
    "keyboardtype": "A",
    "kuid": "iadac46e1933407cb3f04c7de82b3555",
    "mode": "A",
    "name": "kony.ui.TextBox2",
    "paddinginpixel": false,
    "parent": "flxCVV",
    "pf": "userwidgetmodel",
    "placeholderi18n": "i18n.MFA.EnterSecureAccessCode",
    "securetextentry": true,
    "textinputmode": "A",
    "viewtype": "default",
    "wType": "TextField",
    "zindex": 1
}