{
    "@class": "com.kony.gen.viz.model.component.KVizUserWidget",
    "DNDConfig": null,
    "__parentReadjusting__": false,
    "_android_": {},
    "_androidwearos_": {},
    "_children_": [],
    "_desktopweb_": {},
    "_height_": {
        "type": "string",
        "value": "121px"
    },
    "_ipad_": {},
    "_iphone_": {},
    "_kiosk_": {},
    "_left_": {
        "type": "string",
        "value": "0dp"
    },
    "_margin_": [
        0,
        0,
        0,
        0
    ],
    "_orientation_": 1,
    "_padding_": [
        0,
        0,
        0,
        0
    ],
    "_percent_": true,
    "_responsiveData_": {},
    "_skin_": "s24c92fc23b14f5484b693ee9b8a9b35",
    "_spa_": {},
    "_spaan_": {},
    "_spaandroidtablet_": {},
    "_spabb_": {},
    "_spaip_": {},
    "_spaipad_": {},
    "_spamobile_": {},
    "_spatablet_": {},
    "_spawindowstablet_": {},
    "_spawinphone8_": {},
    "_tabrcandroid_": {},
    "_top_": {
        "type": "string",
        "value": "0dp"
    },
    "_vizProps_": {
        "hidewidgethierarchy": false
    },
    "_width_": {
        "type": "string",
        "value": "100%"
    },
    "_windows10_": {},
    "_windows8_": {},
    "_winphone10_": {},
    "_winphone8_": {},
    "areflexpropsreferenced": false,
    "autogrowmode": 0,
    "canUpdateUI": true,
    "clipbounds": false,
    "containerweight": 0,
    "dataDiffs": {
        "CopyLabel0a8b12f7002084d": {
            "__events__": {},
            "__info__": {
                "kuid": "j2bec85bd10042cf80318fa780b04280",
                "srcKUID": "cb34c29df04d41f58c12dbf5f1600bcf",
                "wType": "Label"
            }
        },
        "CopyLabel0bb648d916e554d": {
            "__events__": {},
            "__info__": {
                "kuid": "aafab81d8fcb420aa30ff435655fb844",
                "srcKUID": "c8238c4264144e7391f46d2a256dfbba",
                "wType": "Label"
            }
        },
        "CopyLabel0h9e71b8a76ad44": {
            "__events__": {},
            "__info__": {
                "kuid": "ba07cc9522604e66b14378f8c1a2876d",
                "srcKUID": "jdc721e253c844bf9eb85dc6aee46d25",
                "wType": "Label"
            }
        },
        "CopyflxSeperator0dfcbfe80de1946": {
            "__events__": {},
            "__info__": {
                "kuid": "a94dc45983734ebaac1c94377e844e4a",
                "srcKUID": "b7894266c99044dcbcafe5383e83d3db",
                "wType": "FlexContainer"
            }
        },
        "CopyflxUserDetails0b35eb5be884043": {
            "__events__": {},
            "__info__": {
                "kuid": "g040cf3bdd2c4ad9840a64b3c59845ec",
                "srcKUID": "e9caaacc452a4302b7932fe3f9374adc",
                "wType": "FlexContainer"
            }
        },
        "CopyimgToolTip0i580d9acc07c42": {
            "__events__": {},
            "__info__": {
                "kuid": "bfb1872f6a4e4762a4ce284df8195aee",
                "srcKUID": "a30ef82b1166480faddbd6e0b99e677d",
                "wType": "Image"
            }
        },
        "FlexContainer0g7f570b54a4d4e": {
            "__events__": {},
            "__info__": {
                "kuid": "fac623942f874517b8204209ffcaa4fa",
                "srcKUID": "ccc99354aa50423c98c026de8d1c689f",
                "wType": "FlexContainer"
            }
        },
        "Label0dcf00103bdba46": {
            "__events__": {},
            "__info__": {
                "kuid": "gce382d38d5946879475bde7a4cc2a77",
                "srcKUID": "c56fe5fc01b543ad82b37aeb33af56d3",
                "wType": "Label"
            }
        },
        "btnLogout": {
            "__events__": {},
            "__info__": {
                "kuid": "g0954ef9ecbf4bb1b46e61cc2824ac8f",
                "srcKUID": "dbe084cfcd054a6cb77dabb8ab42f077",
                "wType": "Button"
            }
        },
        "customheadernew": {
            "__events__": {},
            "__info__": {
                "isRoot": true,
                "kuid": "a4458bb3df2e48579ab5c901d2597670",
                "srcKUID": "g57ea9eb26d54f30b5f191c7fbd35c51",
                "wType": "FlexContainer"
            }
        },
        "flxAccounts": {
            "__events__": {},
            "__info__": {
                "kuid": "h1b513a00eba46edb00bba69af04f7cf",
                "srcKUID": "e621bc1a1e0848afaf99419615e517b7",
                "wType": "FlexContainer"
            }
        },
        "flxActionsMenu": {
            "__events__": {},
            "__info__": {
                "kuid": "i94b340bffda4b6f9699399dab5b6dc8",
                "srcKUID": "f5fec7baee6841e7b95c2a53379aeea3",
                "wType": "FlexContainer"
            }
        },
        "flxClose": {
            "__events__": {},
            "__info__": {
                "kuid": "ja337572450649b7a8700eb0548a3174",
                "srcKUID": "f974fd9704ee48f08006fb2cce1bb1ba",
                "wType": "FlexContainer"
            }
        },
        "flxContextualMenu": {
            "__events__": {},
            "__info__": {
                "kuid": "d93df3f6248541ceb1ff1ad9338ddd40",
                "srcKUID": "j3e46f4bdd64418ba7c405b38661d948",
                "wType": "FlexContainer"
            }
        },
        "flxFeedback": {
            "__events__": {},
            "__info__": {
                "kuid": "fa5b01799f084225b7278012eec9e3e5",
                "srcKUID": "b8e6354ee0aa42a684fe29b1d98a8db0",
                "wType": "FlexContainer"
            }
        },
        "flxHamburger": {
            "__events__": {},
            "__info__": {
                "kuid": "bd90706b32b7448dba29debed9e90e19",
                "srcKUID": "bb94b45671994d859ad514157efbe460",
                "wType": "FlexContainer"
            }
        },
        "flxHamburgerBack": {
            "__events__": {},
            "__info__": {
                "kuid": "g46b276175f1478d964dd2f1259d5ea8",
                "srcKUID": "c83e44fca25e458f8c5f4cca992018c1",
                "wType": "FlexContainer"
            }
        },
        "flxHamburgerHeader": {
            "__events__": {},
            "__info__": {
                "kuid": "h8ee7b82d36e4e42801ce3d7952bfc01",
                "srcKUID": "ff14c903773f49fea07675bf1dc6d3aa",
                "wType": "FlexContainer"
            }
        },
        "flxHamburgerMenu": {
            "__events__": {},
            "__info__": {
                "kuid": "i3cba4ee59434bd6835f1b45dfbcaf97",
                "srcKUID": "f70dbadab9194d9cab80ed58a380e355",
                "wType": "FlexScrollContainer"
            }
        },
        "flxHelp": {
            "__events__": {},
            "__info__": {
                "kuid": "hc59605f3c8c416ea58de830e750c4ef",
                "srcKUID": "ab6d787fe40b471184a4baf8371012d8",
                "wType": "FlexContainer"
            }
        },
        "flxImgUser": {
            "__events__": {},
            "__info__": {
                "kuid": "h04b4e06b2c64df8af2011dbc225c500",
                "srcKUID": "c8bbffe16c9e4322a9c1f2e978bfe397",
                "wType": "FlexContainer"
            }
        },
        "flxLogoAndActions": {
            "__events__": {},
            "__info__": {
                "kuid": "daa780aeb1814dc2b7822fa3d31e7636",
                "srcKUID": "c6cc3d5c40ad4387b5989655ced7897b",
                "wType": "FlexContainer"
            }
        },
        "flxLogoAndActionsWrapper": {
            "__events__": {},
            "__info__": {
                "kuid": "ce8cd1b5ab364e8e82bb591edf697c79",
                "srcKUID": "j19f0c12db9c4a62aca336bb621f2240",
                "wType": "FlexContainer"
            }
        },
        "flxLogout": {
            "__events__": {},
            "__info__": {
                "kuid": "f86ba0d51ef0430c90d40e2acbe75787",
                "srcKUID": "b9455970cb324605a7d8d8423734c5d3",
                "wType": "FlexContainer"
            }
        },
        "flxLogoutSeparator": {
            "__events__": {},
            "__info__": {
                "kuid": "d182903029ec4ee39be41a5d56f3d59b",
                "srcKUID": "e307a629419a4a5cb5e6b3dd241e8d33",
                "wType": "FlexContainer"
            }
        },
        "flxLogoutWrapper": {
            "__events__": {},
            "__info__": {
                "kuid": "c704fb3113574d77b478672ebfeadab9",
                "srcKUID": "a3a6fced7d8c48c9b292f13fa15f5eb8",
                "wType": "FlexContainer"
            }
        },
        "flxMenu": {
            "__events__": {},
            "__info__": {
                "kuid": "g5e6004954874e08b8a2f88d4825149f",
                "srcKUID": "c49e3f9c246b4c9eb2037a25593f5949",
                "wType": "FlexContainer"
            }
        },
        "flxMenuContainer": {
            "__events__": {},
            "__info__": {
                "kuid": "a8da55fe53ea4fdfa09ad31769097507",
                "srcKUID": "gbe4ab8dec9249a5b1c796d6f8196f51",
                "wType": "FlexContainer"
            }
        },
        "flxMenuItem": {
            "__events__": {},
            "__info__": {
                "kuid": "a3846cc3a78d4fa2a733b44a7f7dbba3",
                "srcKUID": "b77d75a793c14f2580b76ac27da67298",
                "wType": "FlexContainer"
            }
        },
        "flxMenuItemCollapse": {
            "__events__": {},
            "__info__": {
                "kuid": "a1fbbf53ecbf45b38b44fe466b3a68af",
                "srcKUID": "b9bab656b60e4d929d0cb26e88d05324",
                "wType": "FlexContainer"
            }
        },
        "flxMenuLeft": {
            "__events__": {},
            "__info__": {
                "kuid": "d6f30a6205674d6490cdcf3f394f8828",
                "srcKUID": "ea55f1f130bd498e94b6a730ef3a2340",
                "wType": "FlexContainer"
            }
        },
        "flxMenuRight": {
            "__events__": {},
            "__info__": {
                "kuid": "i63a0b29e8ae497ba64d3635809c9d8f",
                "srcKUID": "c7c28fc54fd64c58bc606c327d1900c1",
                "wType": "FlexContainer"
            }
        },
        "flxMenuWrapper": {
            "__events__": {},
            "__info__": {
                "kuid": "cda7225554c94398a57a8ae598c20fea",
                "srcKUID": "d0eec1a4de1646d3ab5d92996f569aa7",
                "wType": "FlexContainer"
            }
        },
        "flxMessages": {
            "__events__": {},
            "__info__": {
                "kuid": "e7738ea06e1f4d01a2bac0c2cd447add",
                "srcKUID": "b957e06250dd45ac951449c7bdd6ff51",
                "wType": "FlexContainer"
            }
        },
        "flxMyBills": {
            "__events__": {},
            "__info__": {
                "kuid": "eb3d4496926b4d3e954e81d8d0527f76",
                "srcKUID": "a8bbbc89f77949f4b8140963ab148dce",
                "wType": "FlexContainer"
            }
        },
        "flxPayBills": {
            "__events__": {},
            "__info__": {
                "kuid": "h1d1c88e9dde4358b4ca271c7ffb91c5",
                "srcKUID": "dfdcb7d977c545c1b7af04aa7b4b38cf",
                "wType": "FlexContainer"
            }
        },
        "flxSendMoney": {
            "__events__": {},
            "__info__": {
                "kuid": "c1c471f22fca43149dfc779cf47f6990",
                "srcKUID": "f44ec678efe1449f84d827b60e0ae264",
                "wType": "FlexContainer"
            }
        },
        "flxSeparator1": {
            "__events__": {},
            "__info__": {
                "kuid": "f0db72ae9a5d464c833ff76a12403654",
                "srcKUID": "b2a298aba680466d8f60575b80e1934e",
                "wType": "FlexContainer"
            }
        },
        "flxSeparatorNew": {
            "__events__": {},
            "__info__": {
                "kuid": "b54442bbb6c948729b686953f25f4d49",
                "srcKUID": "ea67f93ff0f94128a71262c9f88d2dbe",
                "wType": "FlexContainer"
            }
        },
        "flxSeperator1": {
            "__events__": {},
            "__info__": {
                "kuid": "ae61685677ce4559adaef9dadd054729",
                "srcKUID": "db259fcb819a47079972d09155429c2c",
                "wType": "FlexContainer"
            }
        },
        "flxSeperator2": {
            "__events__": {},
            "__info__": {
                "kuid": "jab9473222d644569d02848a241c3f5d",
                "srcKUID": "c329b2e37feb4e6384dc95c9e268eedb",
                "wType": "FlexContainer"
            }
        },
        "flxSeperatorMenuItem": {
            "__events__": {},
            "__info__": {
                "kuid": "e24d4a92afa04bcca3d356275f949bf9",
                "srcKUID": "dc614efa32034c87a72487baa94c4619",
                "wType": "FlexContainer"
            }
        },
        "flxShadowContainer": {
            "__events__": {},
            "__info__": {
                "kuid": "cd40a9574689481595cdd23876c45e64",
                "srcKUID": "c247bb7332fa47d5bd417b916c7abfec",
                "wType": "FlexContainer"
            }
        },
        "flxSubMenu": {
            "__events__": {},
            "__info__": {
                "kuid": "ed0046cd08164cd8904fc0d8da9d5b62",
                "srcKUID": "dc6c7628618b483a80fcf0bae2dac6db",
                "wType": "FlexContainer"
            }
        },
        "flxSubMenuItem": {
            "__events__": {},
            "__info__": {
                "kuid": "h86abb338814498385034aa8ea08ee59",
                "srcKUID": "ecc2da3d45e348e0aed2982aed7e9e98",
                "wType": "FlexContainer"
            }
        },
        "flxTransferMoney": {
            "__events__": {},
            "__info__": {
                "kuid": "a8cc1815f8bf4ddd86078256b2a55617",
                "srcKUID": "fc180c87f1494b08bd7335e029745f05",
                "wType": "FlexContainer"
            }
        },
        "flxTransfersAndPay": {
            "__events__": {},
            "__info__": {
                "kuid": "f45e05e4d275495998d0fd8a1609ea19",
                "srcKUID": "je4acb4201274a92bebc604f30a7947a",
                "wType": "FlexContainer"
            }
        },
        "flxUser": {
            "__events__": {},
            "__info__": {
                "kuid": "de7e7c369e02451db8c780349e60e360",
                "srcKUID": "g4f3d73c7f364988900a280daf5753d8",
                "wType": "FlexContainer"
            }
        },
        "flxUserActions": {
            "__events__": {},
            "__info__": {
                "kuid": "beec90662d0e4ce1ba80654d7ef21308",
                "srcKUID": "c82435ddffbe4a299e1b432baa97fe80",
                "wType": "FlexContainer"
            }
        },
        "flxUserActionsWrapper": {
            "__events__": {},
            "__info__": {
                "kuid": "jd845f7754aa4e909e9eabea9cdbac9f",
                "srcKUID": "bfea9c9b15964d019ae9a28ded0b7d9d",
                "wType": "FlexContainer"
            }
        },
        "flxWarning": {
            "__events__": {},
            "__info__": {
                "kuid": "fe238de58a174269871b5c9b68aa32ca",
                "srcKUID": "c7ae9fe97da545ebad3bd6254cb34391",
                "wType": "FlexContainer"
            }
        },
        "flxWireMoney": {
            "__events__": {},
            "__info__": {
                "kuid": "fd3cb8031b9b4d18a942a79feff91c23",
                "srcKUID": "a7e3790fa138476e9b408a269f31269d",
                "wType": "FlexContainer"
            }
        },
        "flxverseperator2": {
            "__events__": {},
            "__info__": {
                "kuid": "d0b2d2fa997a447d980c07acda5559e9",
                "srcKUID": "b5adbb16a78e40f4aa5b53cf5caa919d",
                "wType": "FlexContainer"
            }
        },
        "imgClose": {
            "__events__": {},
            "__info__": {
                "kuid": "dcda8eaf5cb34af39d838f757f2cef9a",
                "srcKUID": "f0059293a90844408fdc2a3c558f25b9",
                "wType": "Image"
            }
        },
        "imgCollapseMenuItem": {
            "__events__": {},
            "__info__": {
                "kuid": "fa385a5651e34d90a3a867513e89e0dc",
                "srcKUID": "ba746db189ad42989176b888b25ae78b",
                "wType": "Image"
            }
        },
        "imgKony": {
            "__events__": {},
            "__info__": {
                "kuid": "b7810a99cad341bab46c532caf2f7ecf",
                "srcKUID": "c55a5df1953849bc921a9a84a2cf5e70",
                "wType": "Image"
            },
            "src": "kony_logo.png"
        },
        "imgKonyHamburger": {
            "__events__": {},
            "__info__": {
                "kuid": "e81826b75f634b96a57d72cfb3752bb4",
                "srcKUID": "b77eae507bff4b2d91fbf7670574d59e",
                "wType": "Image"
            }
        },
        "imgLblTransfers": {
            "__events__": {},
            "__info__": {
                "kuid": "i127eb17bbb6428b8c3eda8d267765e2",
                "srcKUID": "ffe510df4f16410e92dc6721f851a592",
                "wType": "Label"
            }
        },
        "imgLogout": {
            "__events__": {},
            "__info__": {
                "kuid": "fae0c1c1be4540568ba303108fa3b4b6",
                "srcKUID": "d67b5f46dcd44029b4cba5d652ef4e4a",
                "wType": "Image"
            },
            "src": "logout.png"
        },
        "imgMenu": {
            "__events__": {},
            "__info__": {
                "kuid": "g9fdd3b43da746abb895ef378ae4ee54",
                "srcKUID": "fc4d7ba517c748f08b831479a140671f",
                "wType": "Image"
            },
            "src": "menu_icon.png"
        },
        "imgNotifications": {
            "__events__": {},
            "__info__": {
                "kuid": "bfc18d68126c41e197282085caa5f92c",
                "srcKUID": "a6e8c4a6887349caac366cd06a1a61c7",
                "wType": "Image"
            },
            "src": "notification_flag.png"
        },
        "imgToolTip": {
            "__events__": {},
            "__info__": {
                "kuid": "a94e2ad1fbc84c4a947c3aa6377c6472",
                "srcKUID": "j6d5d0d57c4d4c51bb3c07fc94674e0b",
                "wType": "Image"
            }
        },
        "imgUser": {
            "__events__": {},
            "__info__": {
                "kuid": "bbb77480fee340a3a8799724aeb3cc7c",
                "srcKUID": "c653f12789ff45178bc1061b44158c51",
                "wType": "Image"
            }
        },
        "imgWarning": {
            "__events__": {},
            "__info__": {
                "kuid": "e50f0fea10724a3b99bfe8aa1b155f87",
                "srcKUID": "a008b61365884da1aeefa554430f6343",
                "wType": "Image"
            }
        },
        "lblAccounts": {
            "__events__": {},
            "__info__": {
                "kuid": "g370ef5b29cb41cdb64cc874b99b9553",
                "srcKUID": "a44ff4b384ce41fbbd285f88cde71bc7",
                "wType": "Label"
            }
        },
        "lblFeedback": {
            "__events__": {},
            "__info__": {
                "kuid": "ge845e4ed12a4df9ac7e5ca92a829625",
                "srcKUID": "f221b6bbddac4ec097577e0e2abbf72a",
                "wType": "Label"
            }
        },
        "lblHeaderMobile": {
            "__events__": {},
            "__info__": {
                "kuid": "jafd10fe7e57497da53c271ad983eff3",
                "srcKUID": "fc0477569a7346b79ef7b5d61246a700",
                "wType": "Label"
            },
            "responsiveData": {
                "b3": {
                    "text": "Confirm"
                }
            },
            "text": ""
        },
        "lblHelp": {
            "__events__": {},
            "__info__": {
                "kuid": "b0a2a0175ad444b9823b159826343df6",
                "srcKUID": "fbd3358a503c410282a41bea6a18f47d",
                "wType": "Label"
            }
        },
        "lblLogout": {
            "__events__": {},
            "__info__": {
                "kuid": "hbc915134b63464a965f51025112ef84",
                "srcKUID": "e2654abf270340819750f9f33e4dbfc3",
                "wType": "Label"
            }
        },
        "lblLogoutIcon": {
            "__events__": {},
            "__info__": {
                "kuid": "fbaa9fd447a34b7493b3b4bfaaebed49",
                "srcKUID": "f7201d67d487488f8b79f6de86dac851",
                "wType": "Label"
            }
        },
        "lblMenuItemIcon": {
            "__events__": {},
            "__info__": {
                "kuid": "h38db93f3a02450fbf5952cd3c6dcc5c",
                "srcKUID": "b0f1d3eb6b5c4edfb845c0cadd9a65b2",
                "wType": "Label"
            }
        },
        "lblMenuItemTitle": {
            "__events__": {},
            "__info__": {
                "kuid": "adb23b564d604322a87beb57cb7362ca",
                "srcKUID": "h5445b09c22d41dba82780d50a162e5d",
                "wType": "Label"
            }
        },
        "lblMyAccounts": {
            "__events__": {},
            "__info__": {
                "kuid": "f0f875648b4e4642b76ad910f638a126",
                "srcKUID": "a7ae02bf520e467bad62d17620dbcd9c",
                "wType": "Label"
            }
        },
        "lblMyBills": {
            "__events__": {},
            "__info__": {
                "kuid": "e0019f8b698948c9a0c50df807620e67",
                "srcKUID": "f07f6e1e108847c893514c948793123d",
                "wType": "Label"
            }
        },
        "lblName": {
            "__events__": {},
            "__info__": {
                "kuid": "c2a81a59edef4f09bf8ddec35ad67c2c",
                "srcKUID": "df2a7db2a13842f8b69f45d798f91ca4",
                "wType": "Label"
            }
        },
        "lblNewMessages": {
            "__events__": {},
            "__info__": {
                "kuid": "ge69b45a5de24f97bf9ac6de189e3815",
                "srcKUID": "e390473ef6224482b645ddbbabb4246e",
                "wType": "Label"
            }
        },
        "lblTransferAndPay": {
            "__events__": {},
            "__info__": {
                "kuid": "fbd65fb6b86e40a68dbe2f706ec7cbbd",
                "srcKUID": "b16c43dc82314d26bd801952202150c1",
                "wType": "Label"
            }
        },
        "lblUserEmail": {
            "__events__": {},
            "__info__": {
                "kuid": "aac105f38e954a068012835bae2dabcd",
                "srcKUID": "j0626d5e09c04c8e82eefdb4d6a5a20b",
                "wType": "RichText"
            }
        },
        "rtxWarning": {
            "__events__": {},
            "__info__": {
                "kuid": "ce1747aa304d4c5381ef8a1934d5e434",
                "srcKUID": "bcfca1ce25a742b4a4fe3ffb534a8743",
                "wType": "RichText"
            }
        },
        "segUserActions": {
            "__events__": {},
            "__info__": {
                "kuid": "f91805bcd27f48c8bc573b9f2aeae043",
                "srcKUID": "d628530db75f48cfaf1e94b7e138808a",
                "wType": "Segment"
            }
        }
    },
    "enablescrolling": true,
    "id": "customheadernew",
    "info": null,
    "isdatareferenced": false,
    "isvisible": true,
    "kuid": "a4458bb3df2e48579ab5c901d2597670",
    "layouttype": 2,
    "masterType": 0,
    "name": "kony.ui.UserWidgetInstance",
    "parent": "flxHeader",
    "pf": "frmPayBillConfirm",
    "snapgridsize": 10,
    "snaptogrid": true,
    "sourceUserWidget": "g57ea9eb26d54f30b5f191c7fbd35c51",
    "wType": "UserWidgetInstance",
    "zindex": 1000
}