{
    "DNDConfig": null,
    "__parentReadjusting__": false,
    "_bottom_": {
        "type": "number",
        "value": ""
    },
    "_height_": {
        "type": "string",
        "value": "110dp"
    },
    "_left_": {
        "type": "string",
        "value": "0dp"
    },
    "_margin_": [
        0,
        0,
        0,
        0
    ],
    "_orientation_": 6,
    "_padding_": [
        0,
        0,
        0,
        0
    ],
    "_percent_": true,
    "_skin_": "s24c92fc23b14f5484b693ee9b8a9b35",
    "_top_": {
        "type": "string",
        "value": "25dp"
    },
    "_width_": {
        "type": "string",
        "value": "100%"
    },
    "allboxes": [],
    "canUpdateUI": true,
    "children": [
        "flxHorizontalLine",
        "btnConfirm",
        "btnModify",
        "btnCancel"
    ],
    "clipbounds": true,
    "containerweight": 100,
    "enablescrolling": true,
    "id": "flxActions",
    "info": null,
    "isvisible": true,
    "kuid": "bfac95564b7e4b2092fde69b2fd27bd9",
    "layouttype": 2,
    "name": "kony.ui.FlexContainer",
    "parent": "flxConfirmBillPayDetails",
    "pf": "frmPayBillConfirm",
    "responsiveData": {
        "b2": {},
        "b3": {
            "height": {
                "type": "string",
                "value": "200dp"
            },
            "layoutType": 4
        },
        "b4": {
            "bottom": {
                "type": "string",
                "value": ""
            },
            "height": {
                "type": "string",
                "value": "100dp"
            }
        }
    },
    "snapgridsize": 10,
    "snaptogrid": true,
    "wType": "FlexContainer",
    "widgetalignment": 1,
    "zindex": 1
}