{
    "@class": "com.kony.gen.viz.model.container.KVizSegment2",
    "DNDConfig": null,
    "__parentReadjusting__": false,
    "_bottom_": {
        "type": "string",
        "value": "2dp"
    },
    "_data_": [],
    "_height_": {
        "type": "ref",
        "value": "preferred"
    },
    "_indicator_": "none",
    "_left_": {
        "type": "string",
        "value": "0dp"
    },
    "_margin_": [
        0,
        0,
        0,
        0
    ],
    "_orientation_": 2,
    "_padding_": [
        0,
        0,
        0,
        0
    ],
    "_top_": {
        "type": "string",
        "value": "0dp"
    },
    "_width_": {
        "type": "string",
        "value": "100%"
    },
    "autogrowmode": 1,
    "canUpdateUI": true,
    "containerweight": 100,
    "counter": "09",
    "desktop": {
        "_data_": [],
        "rowTemplateId": "a9d2232f97e2439da17b4db9216328da",
        "rowtemplate": "flxRecentTransfersMobile",
        "widgetdatamap": {
            "flxAmount": "flxAmount",
            "flxDropdown": "flxDropdown",
            "flxRecentTransfersMobile": "flxRecentTransfersMobile",
            "flxRow": "flxRow",
            "flxSendTo": "flxSendTo",
            "imgDropdown": "imgDropdown",
            "lblAmount": "lblAmount",
            "lblDate": "lblDate",
            "lblSendTo": "lblSendTo",
            "lblSeparator": "lblSeparator"
        }
    },
    "disabledSkins": {},
    "focusedindex": null,
    "focuseditem": null,
    "groupcells": false,
    "hasSections": false,
    "id": "segmentTransfers",
    "info": null,
    "ipad": {
        "psp": {
            "indicator": "rowselect"
        }
    },
    "iphone": {
        "psp": {
            "indicator": "rowselect"
        }
    },
    "isvisible": true,
    "kuid": "g8d354568ebf4cab9c09dc23329f7e42",
    "masterdata": {},
    "name": "kony.ui.SegmentedUI2",
    "needpageindicator": true,
    "pageoffdotimage": "pageoffdot.png",
    "pageondotimage": "pageondot.png",
    "paginationconfig": {
        "position": "bottom"
    },
    "parent": "flxSegment",
    "pf": "userwidgetmodel",
    "retainselection": false,
    "rowcounter": 9,
    "rowfocusskin": "s9f69e977910472eb44c62ae28c41fe1",
    "rowskin": "scf5f90f6ac04976ab88b2a4f7153285",
    "rowtemplate": null,
    "screenlevelwidget": false,
    "seccounter": 0,
    "sectionheaderskin": "sdc4ff4ed1584272be2ae69045dfb29d",
    "selectedRows": null,
    "selectedState": false,
    "selectedindex": null,
    "selectedindices": null,
    "selecteditems": null,
    "selectedsectionindex": 0,
    "selectionbehavior": "default",
    "separatorcolor": "e9ebee00",
    "separatorrequired": true,
    "separatorthickness": 1,
    "showscrollbars": false,
    "viewtype": "tableview",
    "vizProps": {},
    "wType": "Segment",
    "widgetalignment": 5,
    "widgetdatamap": {
        "flxAmount": "flxAmount",
        "flxDropdown": "flxDropdown",
        "flxRecentTransfersMobile": "flxRecentTransfersMobile",
        "flxRow": "flxRow",
        "flxSendTo": "flxSendTo",
        "imgDropdown": "imgDropdown",
        "lblAmount": "lblAmount",
        "lblDate": "lblDate",
        "lblSendTo": "lblSendTo",
        "lblSeparator": "lblSeparator"
    },
    "zindex": 1
}