{
    "@class": "com.kony.gen.viz.model.component.KVizRichText",
    "DNDConfig": null,
    "__parentReadjusting__": false,
    "_height_": {
        "type": "ref",
        "value": "preferred"
    },
    "_left_": {
        "type": "string",
        "value": "30px"
    },
    "_margin_": [
        0,
        0,
        0,
        0
    ],
    "_padding_": [
        7,
        1,
        1,
        1
    ],
    "_right_": {
        "type": "string",
        "value": "30px"
    },
    "_skin_": "sc4cc30bc71442ee9f8b2e9230a973fa",
    "_text_": "Lorem ipsum dolor sit amet, consectetur adipiscing elit. Aenean ornare nulla sed fermentum egestas. Sed iaculis, erat ac porta laoreet, nulla lorem auctor diam, at ultrices lacus mauris vel libero. In hac habitasse platea dictumst. Etiam egestas mi nisi, at convallis mi posuere a. Integer ultricies dictum convallis. Quisque vel augue lacus. Praesent dapibus massa enim, tincidunt convallis ipsum ultricies a. Sed mi felis, mattis sit amet nisl eget, ornare commodo orci. Lorem ipsum dolor sit amet, consectetur adipiscing elit.<br><br><b>Aliquam sed feugiat quam.</b><br> \nNunc vitae lectus eget lacus auctor elementum. Suspendisse quis mi felis. Aliquam erat volutpat. Nam at eros sed urna tincidunt pulvinar vel et lorem. Cras`aliquet orci sapien, quis volutpat magna blandit et. Praesent vel mauris commodo, ullamcorper lectus sit amet, interdum turpis.\nSed et ornare dolor. Suspendisse ut lacinia sapien. Pellentesque eget tellus finibus, luctus magna vel, dignissim neque. Aenean vitae metus quis diam posuere eleifend sed vitae ligula. Etiam justo urna, porta quis accumsan sed, semper vel quam. Nunc accumsan nunc quis erat sagittis commodo. Proin ut erat laoreet, dictum est nec, rutrum ipsum. Duis id nibh tortor. Orci varius natoque penatibus et magnis dis parturient montes, nascetur ridiculus mus. Suspendisse consequat orci vitae nibh consequat maximus a ut quam. Nunc ex neque, volutpat id diam et, volutpat ullamcorper ipsum. Orci varius natoque penatibus et magnis dis parturient montes, nascetur ridiculus mus.<br><br> \n<b>Nulla luctus ipsum vitae nibh auctor congue.</b><br>Curabitur et interdum libero. Duis ultricies odio sit amet ante blandit, vitae sagittis orci rhoncus. Sed id urna commodo, egestas nibh quis, condimentum erat. Donec non convallis neque, in dictum libero. In varius, ligula eget bibendum commodo, justo neque auctor mi, a posuere turpis elit eu enim. Nullam mauris neque, gravida nec egestas et, fringilla ut nisl. Ut laoreet sed metus quis vehicula. Proin et vehicula lorem. Aliquam tempus maximus diam, quis luctus massa. Sed eu malesuada quam, non posuere orci. Vivamus imperdiet faucibus tellus eget pharetra. Aliquam ac neque nisl. Mauris ac tellus ex. Suspendisse bibendum justo vitae egestas vestibulum.<br><br> \n<b>Nulla luctus ipsum vitae nibh auctor congue.</b><br>Curabitur et interdum libero. Duis ultricies odio sit amet ante blandit, vitae sagittis orci rhoncus. Sed id urna commodo, egestas nibh quis, condimentum erat. Donec non convallis neque, in dictum libero. In varius, ligula eget bibendum commodo, justo neque auctor mi, a posuere turpis elit eu enim. Nullam mauris neque, gravida nec egestas et, fringilla ut nisl. Ut laoreet sed metus quis vehicula. Proin et vehicula lorem. Aliquam tempus maximus diam, quis luctus massa. Sed eu malesuada quam, non posuere orci. Vivamus imperdiet faucibus tellus eget pharetra. Aliquam ac neque nisl. Mauris ac tellus ex. Suspendisse bibendum justo vitae egestas vestibulum.",
    "_top_": {
        "type": "string",
        "value": "0px"
    },
    "_wrapping_": 2,
    "accessibilityconfig": {
        "a11yLabel": "Lorem ipsum dolor sit amet, consectetur adipiscing elit. Aenean ornare nulla sed fermentum egestas. Sed iaculis, erat ac porta laoreet, nulla lorem auctor diam, at ultrices lacus mauris vel libero. In hac habitasse platea dictumst. Etiam egestas mi nisi, at convallis mi posuere a. Integer ultricies dictum convallis. Quisque vel augue lacus. Praesent dapibus massa enim, tincidunt convallis ipsum ultricies a. Sed mi felis, mattis sit amet nisl eget, ornare commodo orci. Lorem ipsum dolor sit amet, consectetur adipiscing elit.<br><br><b>Aliquam sed feugiat quam.</b><br> \nNunc vitae lectus eget lacus auctor elementum. Suspendisse quis mi felis. Aliquam erat volutpat. Nam at eros sed urna tincidunt pulvinar vel et lorem. Cras`aliquet orci sapien, quis volutpat magna blandit et. Praesent vel mauris commodo, ullamcorper lectus sit amet, interdum turpis.\nSed et ornare dolor. Suspendisse ut lacinia sapien. Pellentesque eget tellus finibus, luctus magna vel, dignissim neque. Aenean vitae metus quis diam posuere eleifend sed vitae ligula. Etiam justo urna, porta quis accumsan sed, semper vel quam. Nunc accumsan nunc quis erat sagittis commodo. Proin ut erat laoreet, dictum est nec, rutrum ipsum. Duis id nibh tortor. Orci varius natoque penatibus et magnis dis parturient montes, nascetur ridiculus mus. Suspendisse consequat orci vitae nibh consequat maximus a ut quam. Nunc ex neque, volutpat id diam et, volutpat ullamcorper ipsum. Orci varius natoque penatibus et magnis dis parturient montes, nascetur ridiculus mus.<br><br> \n<b>Nulla luctus ipsum vitae nibh auctor congue.</b><br>Curabitur et interdum libero. Duis ultricies odio sit amet ante blandit, vitae sagittis orci rhoncus. Sed id urna commodo, egestas nibh quis, condimentum erat. Donec non convallis neque, in dictum libero. In varius, ligula eget bibendum commodo, justo neque auctor mi, a posuere turpis elit eu enim. Nullam mauris neque, gravida nec egestas et, fringilla ut nisl. Ut laoreet sed metus quis vehicula. Proin et vehicula lorem. Aliquam tempus maximus diam, quis luctus massa. Sed eu malesuada quam, non posuere orci. Vivamus imperdiet faucibus tellus eget pharetra. Aliquam ac neque nisl. Mauris ac tellus ex. Suspendisse bibendum justo vitae egestas vestibulum.<br><br> \n<b>Nulla luctus ipsum vitae nibh auctor congue.</b><br>Curabitur et interdum libero. Duis ultricies odio sit amet ante blandit, vitae sagittis orci rhoncus. Sed id urna commodo, egestas nibh quis, condimentum erat. Donec non convallis neque, in dictum libero. In varius, ligula eget bibendum commodo, justo neque auctor mi, a posuere turpis elit eu enim. Nullam mauris neque, gravida nec egestas et, fringilla ut nisl. Ut laoreet sed metus quis vehicula. Proin et vehicula lorem. Aliquam tempus maximus diam, quis luctus massa. Sed eu malesuada quam, non posuere orci. Vivamus imperdiet faucibus tellus eget pharetra. Aliquam ac neque nisl. Mauris ac tellus ex. Suspendisse bibendum justo vitae egestas vestibulum."
    },
    "canUpdateUI": true,
    "containerweight": 100,
    "contentalignment": 1,
    "id": "rtxBody",
    "info": null,
    "isvisible": true,
    "kuid": "ed4bc442b4c345de8752792edd8136c1",
    "name": "kony.ui.RichText",
    "parent": "flxBody",
    "pf": "userwidgetmodel",
    "wType": "RichText",
    "widgetalignment": 5,
    "zindex": 1
}