{
    "@class": "com.kony.gen.viz.model.component.KVizRichText",
    "DNDConfig": null,
    "_height_": {
        "type": "ref",
        "value": "preferred"
    },
    "_left_": {
        "type": "string",
        "value": "140dp"
    },
    "_margin_": [
        0,
        0,
        0,
        0
    ],
    "_padding_": [
        0,
        0,
        0,
        0
    ],
    "_right_": {
        "type": "number",
        "value": "0"
    },
    "_skin_": "s6e2ef8b1fd1470a99ee91c0cf3b54aa",
    "_text_": "$32,500",
    "_top_": {
        "type": "string",
        "value": "0dp"
    },
    "_wrapping_": 2,
    "accessibilityconfig": {
        "a11yLabel": "$32,500"
    },
    "canUpdateUI": true,
    "containerweight": 100,
    "contentalignment": 1,
    "id": "rtxValue4",
    "info": null,
    "isvisible": true,
    "kuid": "d9fcceffa6744266a8197fa222b5d461",
    "name": "kony.ui.RichText",
    "parent": "flxDetailsRow4",
    "pf": "userwidgetmodel",
    "wType": "RichText",
    "watchos": {
        "render": false
    },
    "widgetalignment": 5,
    "windows10": {
        "render": false
    },
    "winphone10": {
        "render": false
    },
    "zindex": 1
}