{
    "@class": "com.kony.gen.viz.model.component.KVizTextBox2",
    "DNDConfig": null,
    "_height_": {
        "type": "string",
        "value": "40dp"
    },
    "_left_": {
        "type": "string",
        "value": "23%"
    },
    "_margin_": [
        0,
        0,
        0,
        0
    ],
    "_padding_": [
        3,
        0,
        0,
        0
    ],
    "_placeholder_": "",
    "_skin_": "sf6858a6dd7e428e8d24a7cfbe51c8c1",
    "_text_": "",
    "_top_": {
        "type": "string",
        "value": "0dp"
    },
    "_width_": {
        "type": "string",
        "value": "30%"
    },
    "autocapitalize": "none",
    "autocomplete": false,
    "autocorrect": false,
    "autofilter": false,
    "canUpdateUI": true,
    "containerheight": "",
    "containerheightmode": 1,
    "containerweight": 100,
    "contentalignment": 4,
    "focusskin": "sfee68d81fdb48eeb728bd95aaf1bb75",
    "id": "tbxRegisteredPhone",
    "info": null,
    "iscustomlayout": false,
    "isvisible": true,
    "keyboardtype": "A",
    "kuid": "fb7861472c524d65971c690f3bc86f43",
    "mode": "A",
    "name": "kony.ui.TextBox2",
    "parent": "flxRegisteredPhone",
    "pf": "frmP2PSettingsEdit",
    "placeholderskin": "s6bef0f091374991a154eb89a7b6eef8",
    "responsiveData": {
        "b2": {
            "left": {
                "type": "string",
                "value": "40%"
            },
            "width": {
                "type": "string",
                "value": "50%"
            }
        },
        "b3": {
            "left": {
                "type": "string",
                "value": "0dp"
            },
            "top": {
                "type": "string",
                "value": "35dp"
            },
            "width": {
                "type": "string",
                "value": "94%"
            }
        }
    },
    "retaincontentalignment": false,
    "retainflexpositionproperties": false,
    "securetextentry": false,
    "textinputmode": "A",
    "tooltip": "",
    "viewtype": "default",
    "wType": "TextField",
    "zindex": 1
}