{
    "@class": "com.kony.gen.viz.model.component.KVizButton",
    "DNDConfig": null,
    "__parentReadjusting__": false,
    "_height_": {
        "type": "string",
        "value": "25dp"
    },
    "_left_": {
        "type": "string",
        "value": "32.50%"
    },
    "_margin_": [
        6,
        6,
        6,
        6
    ],
    "_padding_": [
        0,
        0,
        0,
        0
    ],
    "_skin_": "sdb9d18f726a491390c0de98860b057a",
    "_text_": "ADDITIONAL NUMBER",
    "_top_": {
        "type": "string",
        "value": "43%"
    },
    "_width_": {
        "type": "ref",
        "value": "preferred"
    },
    "canUpdateUI": true,
    "containerweight": 100,
    "contentalignment": 4,
    "disabledSkins": {
        "focusSkin": "sf44d06ca8224832827ea7fdff757013"
    },
    "displaytext": true,
    "id": "btnAddPhone",
    "ide_onClick": "AS_Button_0e5c7ccf351543e7887a9cca0ca6b01a",
    "info": null,
    "isvisible": true,
    "kuid": "aedaa46cbb87485ca1ac93a32f83b100",
    "name": "kony.ui.Button",
    "parent": "flxAddPhone",
    "pf": "userwidgetmodel",
    "wType": "Button",
    "zindex": 1,
    "accessibilityconfig": {
        "a11yLabel": "ADDITIONAL NUMBER"
    }
}