{
    "@class": "com.kony.gen.viz.model.component.KVizTextBox2",
    "DNDConfig": null,
    "__parentReadjusting__": false,
    "_bottom_": {
        "type": "string",
        "value": "10px"
    },
    "_height_": {
        "type": "string",
        "value": "40dp"
    },
    "_left_": {
        "type": "string",
        "value": "0%"
    },
    "_margin_": [
        0,
        0,
        0,
        0
    ],
    "_padding_": [
        3,
        0,
        0,
        0
    ],
    "_placeholder_": "Enter a number here",
    "_skin_": "sc90b160dc86484686399671c784f8f3",
    "_text_": "",
    "_top_": {
        "type": "string",
        "value": "0dp"
    },
    "_width_": {
        "type": "string",
        "value": "100%"
    },
    "autocapitalize": "none",
    "autocomplete": false,
    "autocorrect": false,
    "autofilter": false,
    "canUpdateUI": true,
    "containerheight": "",
    "containerheightmode": 1,
    "containerweight": 100,
    "contentalignment": 4,
    "id": "tbxPhoneValue1",
    "info": null,
    "isvisible": true,
    "keyboardtype": "A",
    "kuid": "c8dc588fe91a42a7838f284a704050e9",
    "mode": "A",
    "name": "kony.ui.TextBox2",
    "parent": "flxPhone",
    "pf": "userwidgetmodel",
    "securetextentry": false,
    "textinputmode": "A",
    "viewtype": "default",
    "wType": "TextField",
    "zindex": 1,
    "accessibilityconfig": {
        "a11yLabel": "Enter a number here"
    },
    "focusskin": "s2faf9c2766d4142ab33d0bf97445ae0"
}