{
    "@class": "com.kony.gen.viz.model.component.KVizButton",
    "DNDConfig": null,
    "__parentReadjusting__": false,
    "_height_": {
        "type": "string",
        "value": "8.80%"
    },
    "_margin_": [
        6,
        6,
        6,
        6
    ],
    "_padding_": [
        0,
        0,
        0,
        0
    ],
    "_skin_": "sfbbba35ede4457b94eb681b72349b98",
    "_text_": "",
    "_top_": {
        "type": "string",
        "value": "30dp"
    },
    "_width_": {
        "type": "string",
        "value": "85%"
    },
    "accessibilityconfig": {
        "a11yHint": "Click Continue to proceed",
        "a11yLabel": "Continue"
    },
    "canUpdateUI": true,
    "centerx": {
        "type": "string",
        "value": "50%"
    },
    "containerweight": 100,
    "contentalignment": 5,
    "desktopweb": {
        "blockedUISkin": "s6296ebeb163492d973121eb1c4b9727",
        "psp": {
            "hoverSkin": "s7ab6326aaf94c28b90b61fcb1b54547"
        }
    },
    "displaytext": true,
    "focusskin": "sfd0ce0d7f454c9f83c7e815a90a8a55",
    "id": "btnProceed",
    "info": null,
    "isvisible": true,
    "kuid": "f62efd8c26f94acf9448324b81459da1",
    "name": "kony.ui.Button",
    "parent": "MFA",
    "pf": "userwidgetmodel",
    "texti18n": "i18n.common.proceed",
    "tooltip": "Proceed",
    "vizProps": {
        "lock": false
    },
    "wType": "Button",
    "zindex": 1
}