{
    "@class": "com.kony.gen.viz.model.component.KVizLabel",
    "DNDConfig": null,
    "__parentReadjusting__": false,
    "_bottom_": {
        "type": "string",
        "value": ""
    },
    "_height_": {
        "type": "ref",
        "value": "preferred"
    },
    "_left_": {
        "type": "string",
        "value": "20dp"
    },
    "_margin_": [
        1,
        1,
        1,
        1
    ],
    "_padding_": [
        0,
        0,
        1,
        0
    ],
    "_skin_": "saba7a95163a455f8f2f131435e16122",
    "_text_": "Wire Transfer - Bulk Wires",
    "_top_": {
        "type": "string",
        "value": "12dp"
    },
    "_width_": {
        "type": "string",
        "value": "90%"
    },
    "_wrapping_": 2,
    "accessibilityconfig": {
        "a11yLabel": "Transfers"
    },
    "android": {
        "textStyle": {
            "letterSpacing": 0,
            "strikeThrough": false
        }
    },
    "canUpdateUI": true,
    "containerweight": 100,
    "contentalignment": 1,
    "id": "lblCount",
    "info": null,
    "ipad": {
        "psp": {
            "wrapping": 2
        }
    },
    "iphone": {
        "psp": {
            "wrapping": 2
        }
    },
    "isvisible": true,
    "kuid": "f5714cd1d7e842c5998c90d10c7f77da",
    "name": "kony.ui.Label",
    "paddinginpixel": false,
    "parent": "flxViewAllRecipients",
    "pf": "frmBulkWireEditRecipient",
    "responsiveData": {
        "b1": {
            "left": {
                "type": "string",
                "value": "0dp"
            },
            "padding": [
                0,
                0,
                1,
                0
            ],
            "skin": "saba7a95163a455f8f2f131435e16122",
            "text": "(90)",
            "top": {
                "type": "string",
                "value": "15dp"
            },
            "width": {
                "type": "ref",
                "value": "preferred"
            }
        },
        "b2": {
            "isVisible": true,
            "left": {
                "type": "string",
                "value": "0dp"
            },
            "skin": "saba7a95163a455f8f2f131435e16122",
            "text": "(90)",
            "top": {
                "type": "string",
                "value": "15dp"
            },
            "width": {
                "type": "ref",
                "value": "preferred"
            }
        },
        "b3": {
            "height": {
                "type": "string",
                "value": "0dp"
            },
            "isVisible": false,
            "width": {
                "type": "string",
                "value": "0%"
            }
        },
        "b4": {
            "left": {
                "type": "string",
                "value": "5dp"
            },
            "skin": "saba7a95163a455f8f2f131435e16122",
            "text": "(100)",
            "top": {
                "type": "string",
                "value": "15dp"
            },
            "width": {
                "type": "ref",
                "value": "preferred"
            }
        }
    },
    "tooltip": "",
    "wType": "Label",
    "zindex": 1
}