{
    "@class": "com.kony.gen.viz.model.component.KVizUserWidget",
    "DNDConfig": null,
    "__parentReadjusting__": false,
    "_children_": [],
    "_height_": {
        "type": "string",
        "value": "268px"
    },
    "_left_": {
        "type": "string",
        "value": "0dp"
    },
    "_margin_": [
        0,
        0,
        0,
        0
    ],
    "_orientation_": 1,
    "_padding_": [
        0,
        0,
        0,
        0
    ],
    "_percent_": true,
    "_render_": true,
    "_skin_": "s701065f11074080832b59947e731160",
    "_top_": {
        "type": "string",
        "value": "300dp"
    },
    "_width_": {
        "type": "string",
        "value": "44.30%"
    },
    "android": {},
    "androidwearos": {},
    "areflexpropsreferenced": false,
    "canUpdateUI": true,
    "centerx": {
        "type": "string",
        "value": "50.00%"
    },
    "centery": {
        "type": "string",
        "value": ""
    },
    "clipbounds": false,
    "containerweight": 0,
    "dataDiffs": {
        "CustomPopup": {
            "__events__": {},
            "__info__": {
                "isRoot": true,
                "kuid": "ce7974aa085d4d2ea4f40f8c3009da3f",
                "srcKUID": "eb2d311dcb4744a7b05aa4f5428a6c53",
                "wType": "FlexContainer"
            },
            "bottom": {},
            "centerX": {
                "Default": {
                    "type": "string",
                    "value": "50.00%"
                }
            },
            "centerY": {
                "Default": {
                    "type": "string",
                    "value": ""
                }
            },
            "left": {},
            "responsiveData": {
                "b2": {
                    "isVisible": true
                },
                "b3": {
                    "bottom": {
                        "type": "string",
                        "value": ""
                    },
                    "left": {
                        "type": "string",
                        "value": "10dp"
                    },
                    "right": {
                        "type": "string",
                        "value": ""
                    },
                    "top": {
                        "type": "string",
                        "value": "300dp"
                    },
                    "width": {
                        "type": "string",
                        "value": "75%"
                    }
                }
            },
            "right": {},
            "top": {
                "Default": {
                    "type": "string",
                    "value": "300dp"
                }
            },
            "width": {
                "Default": {
                    "type": "string",
                    "value": "44.30%"
                }
            },
            "zIndex": {
                "Default": 1100
            }
        },
        "btnNo": {
            "__events__": {},
            "__info__": {
                "kuid": "ic239d7f7ba140b1bac49590af3bcd3e",
                "srcKUID": "h61577b4448c4e22a2636221e8fe0d6d",
                "wType": "Button"
            },
            "bottom": {},
            "left": {},
            "responsiveData": {
                "b2": {
                    "right": {
                        "type": "string",
                        "value": "41%"
                    },
                    "width": {
                        "type": "string",
                        "value": "30%"
                    }
                },
                "b3": {
                    "left": {
                        "type": "string",
                        "value": "15dp"
                    },
                    "right": {
                        "type": "string",
                        "value": ""
                    },
                    "top": {
                        "type": "string",
                        "value": "178dp"
                    },
                    "width": {
                        "type": "string",
                        "value": "40%"
                    }
                },
                "b4": {
                    "right": {
                        "type": "string",
                        "value": "41%"
                    },
                    "width": {
                        "type": "string",
                        "value": "30%"
                    }
                }
            },
            "right": {},
            "top": {},
            "width": {
                "Default": {
                    "type": "string",
                    "value": "40%"
                }
            }
        },
        "btnYes": {
            "__events__": {},
            "__info__": {
                "kuid": "hf4ea8514330437db42d5d55d78ff091",
                "srcKUID": "e1c11d09edb846848d4aaf921cb1e5a0",
                "wType": "Button"
            },
            "bottom": {},
            "responsiveData": {
                "b2": {
                    "width": {
                        "type": "string",
                        "value": "30%"
                    }
                },
                "b3": {
                    "bottom": {
                        "type": "string",
                        "value": "30dp"
                    },
                    "right": {
                        "type": "string",
                        "value": "15dp"
                    },
                    "top": {
                        "type": "string",
                        "value": "178dp"
                    },
                    "width": {
                        "type": "string",
                        "value": "40%"
                    }
                },
                "b4": {
                    "width": {
                        "type": "string",
                        "value": "30%"
                    }
                }
            },
            "right": {},
            "top": {},
            "width": {
                "Default": {
                    "type": "string",
                    "value": "40%"
                }
            }
        },
        "flxCross": {
            "__events__": {},
            "__info__": {
                "kuid": "h645b39d266149dea855e54785db9ba8",
                "srcKUID": "e896a8d6e1244397be41e1011101c6ec",
                "wType": "FlexContainer"
            },
            "responsiveData": {
                "b2": {
                    "right": {
                        "type": "string",
                        "value": "5%"
                    }
                },
                "b3": {
                    "right": {
                        "type": "string",
                        "value": "20dp"
                    }
                }
            },
            "right": {
                "Default": {
                    "type": "string",
                    "value": "20dp"
                }
            }
        },
        "flxHeader": {
            "__events__": {},
            "__info__": {
                "kuid": "beb0d39622d3451ab68db6dc192e8d4f",
                "srcKUID": "b6d465d7232a428eba11c466c6843856",
                "wType": "FlexContainer"
            }
        },
        "flxSeperator": {
            "__events__": {},
            "__info__": {
                "kuid": "h24e32d18f534cd5ba5df23c354210fc",
                "srcKUID": "b469cc45156e429d8fa47b9786168d10",
                "wType": "FlexContainer"
            }
        },
        "flxSeperator2": {
            "__events__": {},
            "__info__": {
                "kuid": "eba9c74d6b9f45369336e54da63a0d32",
                "srcKUID": "e909e4e4b4a145b1aa92b22ece7050d3",
                "wType": "FlexContainer"
            },
            "responsiveData": {
                "b3": {
                    "isVisible": false
                }
            }
        },
        "imgCross": {
            "__events__": {},
            "__info__": {
                "kuid": "c25702b8840c4446ad989a4ac81041f4",
                "srcKUID": "ja13bba308404016b1cd223dbcdf01ae",
                "wType": "Image"
            },
            "height": {
                "Default": {
                    "type": "string",
                    "value": "15dp"
                }
            },
            "responsiveData": {
                "b2": {
                    "right": {
                        "type": "string",
                        "value": ""
                    }
                }
            },
            "right": {},
            "src": "bbcloseicon.png"
        },
        "lblHeading": {
            "__events__": {},
            "__info__": {
                "kuid": "de44abe5d4504ccf9eec324052034e32",
                "srcKUID": "f97c1408984847af9f3cd9984a260c74",
                "wType": "Label"
            },
            "i18n_text": "i18n.transfers.Cancel",
            "left": {
                "Default": {
                    "type": "string",
                    "value": "20dp"
                }
            },
            "responsiveData": {},
            "text": ""
        },
        "lblPopupMessage": {
            "__events__": {},
            "__info__": {
                "kuid": "h7b61e067e5842d291a09ff04fbb0207",
                "srcKUID": "f7c7509dccf24b88aeb13dc3d34fcc6b",
                "wType": "Label"
            },
            "left": {
                "Default": {
                    "type": "string",
                    "value": "20dp"
                }
            },
            "responsiveData": {
                "b2": {
                    "left": {
                        "type": "string",
                        "value": "20dp"
                    }
                }
            }
        },
        "lblcross": {
            "__events__": {},
            "__info__": {
                "kuid": "d57d734a9dbf44deb00ff2839f44e9b9",
                "srcKUID": "fd30aa3a9d8f4077b98f3053f04a091b",
                "wType": "Label"
            }
        }
    },
    "desktopweb": {},
    "id": "CustomPopupCancel",
    "info": null,
    "ipad": {},
    "iphone": {},
    "isdatareferenced": false,
    "isvisible": true,
    "kiosk": {},
    "kuid": "ce7974aa085d4d2ea4f40f8c3009da3f",
    "layouttype": 2,
    "masterType": 0,
    "name": "kony.ui.UserWidgetInstance",
    "parent": "flxCancelPopup",
    "pf": "frmFundGoalAck",
    "responsiveData": {
        "b2": {
            "isVisible": true
        },
        "b3": {
            "bottom": {
                "type": "string",
                "value": ""
            },
            "left": {
                "type": "string",
                "value": "10dp"
            },
            "right": {
                "type": "string",
                "value": ""
            },
            "top": {
                "type": "string",
                "value": "300dp"
            },
            "width": {
                "type": "string",
                "value": "75%"
            }
        }
    },
    "snaptogrid": true,
    "sourceUserWidget": "eb2d311dcb4744a7b05aa4f5428a6c53",
    "spa": {},
    "spaan": {},
    "spaandroidtablet": {},
    "spabb": {},
    "spaip": {},
    "spaipad": {},
    "spamobile": {},
    "spatablet": {},
    "spawindowstablet": {},
    "spawinphone8": {},
    "tabrcandroid": {},
    "vizProps": {
        "hidewidgethierarchy": false
    },
    "vizprops": {
        "hidewidgethierarchy": false
    },
    "wType": "UserWidgetInstance",
    "windows10": {},
    "windows8": {},
    "winphone10": {},
    "winphone8": {},
    "zindex": 1100
}