{
    "@class": "com.kony.gen.viz.model.component.KVizLabel",
    "DNDConfig": null,
    "__parentReadjusting__": false,
    "_height_": {
        "type": "ref",
        "value": "preferred"
    },
    "_left_": {
        "type": "string",
        "value": "12.60%"
    },
    "_margin_": [
        1,
        1,
        1,
        1
    ],
    "_padding_": [
        0,
        0,
        0,
        0
    ],
    "_skin_": "sb21459f022449ceba61957e28f76983",
    "_text_": "View Sample File",
    "_top_": {
        "type": "string",
        "value": "93dp"
    },
    "_width_": {
        "type": "ref",
        "value": "preferred"
    },
    "_wrapping_": 2,
    "accessibilityconfig": {
        "a11yLabel": "Make a Wire Transfer"
    },
    "android": {
        "textStyle": {
            "letterSpacing": 0,
            "strikeThrough": false
        }
    },
    "canUpdateUI": true,
    "containerweight": 100,
    "contentalignment": 4,
    "id": "lblViewSampleFile",
    "info": null,
    "ipad": {
        "psp": {
            "wrapping": 2
        }
    },
    "iphone": {
        "psp": {
            "wrapping": 2
        }
    },
    "isvisible": true,
    "kuid": "f44b472667544ae1a8070a57f6f3f3b7",
    "name": "kony.ui.Label",
    "parent": "flxNoRecords",
    "pf": "frmCreateTempAddInternational",
    "responsiveData": {
        "b1": {
            "left": {
                "type": "string",
                "value": "80dp"
            },
            "top": {
                "type": "string",
                "value": "120dp"
            }
        },
        "b2": {
            "left": {
                "type": "string",
                "value": "80dp"
            },
            "top": {
                "type": "string",
                "value": "120dp"
            }
        },
        "b3": {
            "left": {
                "type": "string",
                "value": "80dp"
            },
            "top": {
                "type": "string",
                "value": "120dp"
            }
        },
        "b4": {
            "left": {
                "type": "string",
                "value": "60dp"
            }
        }
    },
    "tooltip": "Make Wire Transfer",
    "wType": "Label",
    "zindex": 1
}