{
    "@class": "com.kony.gen.viz.model.component.KVizRichText",
    "DNDConfig": null,
    "__parentReadjusting__": false,
    "_height_": {
        "type": "ref",
        "value": "preferred"
    },
    "_left_": {
        "type": "string",
        "value": "78dp"
    },
    "_margin_": [
        0,
        0,
        0,
        0
    ],
    "_padding_": [
        0,
        0,
        0,
        0
    ],
    "_right_": {
        "type": "number",
        "value": ""
    },
    "_skin_": "s54053171dc84722aadd410cfc137838",
    "_text_": "We couldn't find an exact match.Please enter your payee information as it appears on your bill.",
    "_width_": {
        "type": "string",
        "value": "100%"
    },
    "_wrapping_": 2,
    "accessibilityconfig": {
        "a11yLabel": "We could not find an exact match. Please enter your payee information as it appears on your bill."
    },
    "canUpdateUI": true,
    "centerx": {
        "type": "number",
        "value": ""
    },
    "centery": {
        "type": "string",
        "value": "50%"
    },
    "containerweight": 100,
    "contentalignment": 4,
    "id": "rtxMakeTransferError",
    "info": null,
    "isvisible": true,
    "kuid": "bd80b03ac4f74cb9b793daead1f91f5f",
    "name": "kony.ui.RichText",
    "parent": "flxMakeTransferAck",
    "pf": "frmBulkWireCreateTemplateAck",
    "responsiveData": {
        "b2": {
            "width": {
                "type": "string",
                "value": "90%"
            }
        },
        "b3": {
            "centerX": {
                "type": "string",
                "value": ""
            },
            "right": {
                "type": "string",
                "value": "2%"
            },
            "text": "We couldn't find an exact match.Please enter your payee information as it appears on your bill.",
            "width": {
                "type": "string",
                "value": ""
            }
        }
    },
    "texti18n": "i18n.wireTemplate.templateCreateSuccess",
    "wType": "RichText",
    "widgetalignment": 5,
    "zindex": 1
}