{
    "@class": "com.kony.gen.viz.model.component.KVizUserWidget",
    "DNDConfig": null,
    "__parentReadjusting__": false,
    "_android_": {},
    "_androidwearos_": {},
    "_children_": [],
    "_desktopweb_": {},
    "_height_": {
        "type": "string",
        "value": "268px"
    },
    "_ipad_": {},
    "_iphone_": {},
    "_kiosk_": {},
    "_left_": {
        "type": "string",
        "value": "0dp"
    },
    "_margin_": [
        0,
        0,
        0,
        0
    ],
    "_orientation_": 1,
    "_padding_": [
        0,
        0,
        0,
        0
    ],
    "_percent_": true,
    "_render_": true,
    "_responsiveData_": {
        "b3": {
            "bottom": {
                "type": "string",
                "value": ""
            },
            "left": {
                "type": "string",
                "value": "15dp"
            },
            "right": {
                "type": "string",
                "value": "15dp"
            },
            "top": {
                "type": "string",
                "value": "250dp"
            },
            "width": {
                "type": "string",
                "value": ""
            }
        },
        "b4": {
            "width": {
                "type": "string",
                "value": "75%"
            }
        }
    },
    "_skin_": "s701065f11074080832b59947e731160",
    "_spa_": {},
    "_spaan_": {},
    "_spaandroidtablet_": {},
    "_spabb_": {},
    "_spaip_": {},
    "_spaipad_": {},
    "_spamobile_": {},
    "_spatablet_": {},
    "_spawindowstablet_": {},
    "_spawinphone8_": {},
    "_tabrcandroid_": {},
    "_top_": {
        "type": "string",
        "value": "250dp"
    },
    "_vizProps_": {
        "hidewidgethierarchy": false
    },
    "_width_": {
        "type": "string",
        "value": "43%"
    },
    "_windows10_": {},
    "_windows8_": {},
    "_winphone10_": {},
    "_winphone8_": {},
    "android": {},
    "androidwearos": {},
    "areflexpropsreferenced": false,
    "canUpdateUI": true,
    "centerx": {
        "type": "string",
        "value": "50%"
    },
    "centery": {
        "type": "string",
        "value": ""
    },
    "clipbounds": false,
    "containerweight": 0,
    "dataDiffs": {
        "CustomPopup": {
            "__events__": {},
            "__info__": {
                "isRoot": true,
                "kuid": "jd6a5be772c44639b1cedd32feece7fe",
                "srcKUID": "eb2d311dcb4744a7b05aa4f5428a6c53",
                "wType": "FlexContainer"
            },
            "bottom": {},
            "centerX": {
                "Default": {
                    "type": "string",
                    "value": "50%"
                }
            },
            "centerY": {
                "Default": {
                    "type": "string",
                    "value": ""
                }
            },
            "left": {},
            "responsiveData": {
                "b2": {
                    "bottom": {
                        "type": "string",
                        "value": ""
                    },
                    "left": {
                        "type": "string",
                        "value": "15dp"
                    },
                    "right": {
                        "type": "string",
                        "value": "15dp"
                    },
                    "top": {
                        "type": "string",
                        "value": "250dp"
                    },
                    "width": {
                        "type": "string",
                        "value": ""
                    }
                }
            },
            "right": {},
            "top": {
                "Default": {
                    "type": "string",
                    "value": "250dp"
                }
            },
            "width": {
                "Default": {
                    "type": "string",
                    "value": "43%"
                }
            }
        },
        "btnNo": {
            "__events__": {},
            "__info__": {
                "kuid": "f6613f14a008479eb81abfcf5b3a6e93",
                "srcKUID": "h61577b4448c4e22a2636221e8fe0d6d",
                "wType": "Button"
            },
            "left": {
                "Default": {
                    "type": "string",
                    "value": "5.48%"
                }
            },
            "responsiveData": {
                "b2": {
                    "left": {
                        "type": "string",
                        "value": ""
                    },
                    "right": {
                        "type": "string",
                        "value": "41%"
                    }
                }
            },
            "right": {
                "Default": {
                    "type": "string",
                    "value": ""
                }
            }
        },
        "btnYes": {
            "__events__": {},
            "__info__": {
                "kuid": "cd30388aa4bd4241a87968d0bf8161c7",
                "srcKUID": "e1c11d09edb846848d4aaf921cb1e5a0",
                "wType": "Button"
            },
            "responsiveData": {
                "b2": {
                    "right": {
                        "type": "string",
                        "value": "5%"
                    }
                }
            },
            "right": {
                "Default": {
                    "type": "string",
                    "value": "4.89%"
                }
            }
        },
        "flxCross": {
            "__events__": {},
            "__info__": {
                "kuid": "fe507af8f134401a91ab595045a7f811",
                "srcKUID": "e896a8d6e1244397be41e1011101c6ec",
                "wType": "FlexContainer"
            },
            "autogrowMode": 0,
            "height": {
                "Default": {
                    "type": "string",
                    "value": "30dp"
                }
            },
            "right": {
                "Default": {
                    "type": "string",
                    "value": "16dp"
                }
            },
            "width": {
                "Default": {
                    "type": "string",
                    "value": "30dp"
                }
            },
            "zIndex": {
                "Default": 5
            }
        },
        "flxHeader": {
            "__events__": {},
            "__info__": {
                "kuid": "b6c88f9ace214cd98acd2be361f02d1b",
                "srcKUID": "b6d465d7232a428eba11c466c6843856",
                "wType": "FlexContainer"
            }
        },
        "flxSeperator": {
            "__events__": {},
            "__info__": {
                "kuid": "f5a8fe8f59894e838f4ee41e86aed265",
                "srcKUID": "b469cc45156e429d8fa47b9786168d10",
                "wType": "FlexContainer"
            }
        },
        "flxSeperator2": {
            "__events__": {},
            "__info__": {
                "kuid": "c271a197ca344a1a9580caac6086c0b2",
                "srcKUID": "e909e4e4b4a145b1aa92b22ece7050d3",
                "wType": "FlexContainer"
            }
        },
        "imgCross": {
            "__events__": {},
            "__info__": {
                "kuid": "i58499ba32204f7cab9f53800f0f0d3e",
                "srcKUID": "ja13bba308404016b1cd223dbcdf01ae",
                "wType": "Image"
            },
            "centerX": {
                "Default": {
                    "type": "string",
                    "value": "52%"
                }
            },
            "height": {
                "Default": {
                    "type": "string",
                    "value": "15dp"
                }
            }
        },
        "lblHeading": {
            "__events__": {},
            "__info__": {
                "kuid": "e1f4c937efc34ffc9bc9027155c38ddb",
                "srcKUID": "f97c1408984847af9f3cd9984a260c74",
                "wType": "Label"
            },
            "i18n_text": "i18n.transfer.QuitTransfer",
            "text": ""
        },
        "lblPopupMessage": {
            "__events__": {},
            "__info__": {
                "kuid": "b1a5b3256f7e46e5b02f9f64189a24f5",
                "srcKUID": "f7c7509dccf24b88aeb13dc3d34fcc6b",
                "wType": "Label"
            },
            "i18n_text": "I18n.billPay.QuitTransactionMsg",
            "width": {
                "Default": {
                    "type": "string",
                    "value": "80%"
                }
            }
        }
    },
    "desktopweb": {},
    "id": "CustomPopup",
    "info": null,
    "ipad": {},
    "iphone": {},
    "isdatareferenced": false,
    "isvisible": true,
    "kiosk": {},
    "kuid": "jd6a5be772c44639b1cedd32feece7fe",
    "layouttype": 2,
    "masterType": 0,
    "name": "kony.ui.UserWidgetInstance",
    "parent": "flxPopup",
    "pf": "frmBulkWireTransferRemovedRecipients",
    "responsiveData": {
        "b2": {
            "bottom": {
                "type": "string",
                "value": ""
            },
            "left": {
                "type": "string",
                "value": "15dp"
            },
            "right": {
                "type": "string",
                "value": "15dp"
            },
            "top": {
                "type": "string",
                "value": "250dp"
            },
            "width": {
                "type": "string",
                "value": ""
            }
        }
    },
    "snaptogrid": true,
    "sourceUserWidget": "eb2d311dcb4744a7b05aa4f5428a6c53",
    "spa": {},
    "spaan": {},
    "spaandroidtablet": {},
    "spabb": {},
    "spaip": {},
    "spaipad": {},
    "spamobile": {},
    "spatablet": {},
    "spawindowstablet": {},
    "spawinphone8": {},
    "tabrcandroid": {},
    "vizProps": {
        "hidewidgethierarchy": false
    },
    "vizprops": {
        "hidewidgethierarchy": false
    },
    "wType": "UserWidgetInstance",
    "windows10": {},
    "windows8": {},
    "winphone10": {},
    "winphone8": {}
}