{
    "DNDConfig": null,
    "__parentReadjusting__": false,
    "_height_": {
        "type": "ref",
        "value": "preferred"
    },
    "_left_": {
        "type": "string",
        "value": "0dp"
    },
    "_margin_": [
        0,
        0,
        0,
        0
    ],
    "_orientation_": 6,
    "_padding_": [
        0,
        0,
        0,
        0
    ],
    "_percent_": true,
    "_skin_": "sdc143f0e5b64ae3a3f155f691c73fa7",
    "_top_": {
        "type": "string",
        "value": "0dp"
    },
    "_width_": {
        "type": "string",
        "value": "100%"
    },
    "allboxes": [],
    "autogrowmode": 1,
    "canUpdateUI": true,
    "children": [
        "flxHeaderViewActivity",
        "flxSeparator",
        "flxError",
        "flxSearch",
        "flxSort",
        "flxSeparatorSort",
        "flxSegRemovedRecipient",
        "flxNoRecords",
        "tablePaginationWireTransfer",
        "CopytablePaginationWireTransfer0d4a49adec51d4c"
    ],
    "clipbounds": false,
    "containerweight": 100,
    "enablescrolling": true,
    "id": "flxtransferActivityWrapper",
    "info": null,
    "isvisible": true,
    "kuid": "bb0b4998d2eb49aaa933aa9c1a372fd9",
    "layouttype": 4,
    "name": "kony.ui.FlexContainer",
    "parent": "flxWireTransferActivityWindowMain",
    "pf": "frmBulkWireTransferRemovedRecipients",
    "responsiveData": {
        "b3": {
            "width": {
                "type": "string",
                "value": "100%"
            }
        },
        "b4": {
            "width": {
                "type": "string",
                "value": "100%"
            }
        }
    },
    "snapgridsize": 10,
    "snaptogrid": true,
    "wType": "FlexContainer",
    "widgetalignment": 1,
    "zindex": 1
}