{
    "@class": "com.kony.gen.viz.model.component.KVizUserWidget",
    "DNDConfig": null,
    "_children_": [],
    "_height_": {
        "type": "string",
        "value": "111dp"
    },
    "_margin_": [
        0,
        0,
        0,
        0
    ],
    "_orientation_": 1,
    "_padding_": [
        0,
        0,
        0,
        0
    ],
    "_percent_": true,
    "_skin_": "s24c92fc23b14f5484b693ee9b8a9b35",
    "_top_": {
        "type": "string",
        "value": "0dp"
    },
    "_width_": {
        "type": "string",
        "value": "100%"
    },
    "android": {},
    "androidwearos": {},
    "areflexpropsreferenced": false,
    "canUpdateUI": true,
    "centerx": {
        "type": "string",
        "value": "50%"
    },
    "clipbounds": true,
    "containerweight": 0,
    "dataDiffs": {
        "btnBack": {
            "__events__": {},
            "__info__": {
                "kuid": "a01f38c3b55a4dceaa81d790950cc2aa",
                "srcKUID": "h24be82bc96e4ee6a04762680f6e874e",
                "wType": "Button"
            },
            "isVisible": false,
            "responsiveData": {},
            "zIndex": {
                "Default": 1
            }
        },
        "btnCancel": {
            "__events__": {},
            "__info__": {
                "kuid": "ff5d65ef9f754fffa3282f51310ec0d9",
                "srcKUID": "e47a358a81aa4a0da07a4a7c8e127177",
                "wType": "Button"
            },
            "centerY": {},
            "i18n_text": "i18n.konybb.common.cancel",
            "left": {
                "Default": {
                    "type": "string",
                    "value": ""
                }
            },
            "responsiveData": {
                "b1": {
                    "right": null
                },
                "b3": {
                    "right": null,
                    "width": {
                        "type": "string",
                        "value": "15%"
                    }
                },
                "b4": {
                    "centerY": {
                        "type": "string",
                        "value": ""
                    },
                    "top": {
                        "type": "number",
                        "value": "70"
                    }
                }
            },
            "right": {
                "Default": {
                    "type": "string",
                    "value": "20%"
                }
            },
            "text": "",
            "top": {},
            "width": {
                "Default": {
                    "type": "string",
                    "value": "18%"
                }
            },
            "zIndex": {
                "Default": 1
            }
        },
        "btnNext": {
            "__events__": {},
            "__info__": {
                "kuid": "fca4cf46719c45dd9b14dc9ac18a09a8",
                "srcKUID": "b82d156418d9458d809e69dc41992a16",
                "wType": "Button"
            },
            "centerY": {},
            "height": {
                "Default": {
                    "type": "string",
                    "value": "41dp"
                }
            },
            "i18n_text": "i18n.common.next",
            "left": {
                "Default": {
                    "type": "string",
                    "value": "77.35%"
                }
            },
            "responsiveData": {
                "b1": {
                    "left": {
                        "type": "string",
                        "value": ""
                    },
                    "right": {
                        "type": "string",
                        "value": "2.52%"
                    },
                    "width": null
                },
                "b2": {
                    "left": {
                        "type": "string",
                        "value": ""
                    },
                    "right": {
                        "type": "string",
                        "value": "2.50%"
                    },
                    "width": null
                },
                "b3": {
                    "height": null,
                    "left": {
                        "type": "string",
                        "value": ""
                    },
                    "width": null
                },
                "b4": {
                    "centerY": {
                        "type": "string",
                        "value": ""
                    },
                    "left": {
                        "type": "string",
                        "value": "2.50%"
                    },
                    "top": {
                        "type": "string",
                        "value": "20dp"
                    },
                    "width": null
                }
            },
            "right": {},
            "text": "",
            "top": {},
            "width": {
                "Default": {
                    "type": "string",
                    "value": "15%"
                }
            },
            "zIndex": {
                "Default": 1
            }
        },
        "btnOption": {
            "__events__": {},
            "__info__": {
                "kuid": "eba36f128e0248a0b62771a148cc9bea",
                "srcKUID": "ebf49918aa7a419fb39b29e23b734b42",
                "wType": "Button"
            },
            "isVisible": false,
            "left": {
                "Default": {
                    "type": "string",
                    "value": ""
                }
            },
            "responsiveData": {
                "b1": {
                    "isVisible": null,
                    "right": {
                        "type": "string",
                        "value": "45.50%"
                    }
                },
                "b3": {
                    "right": {
                        "type": "string",
                        "value": "37.50%"
                    },
                    "width": {
                        "type": "string",
                        "value": "15%"
                    }
                }
            },
            "right": {
                "Default": {
                    "type": "string",
                    "value": "43.50%"
                }
            },
            "width": {
                "Default": {
                    "type": "string",
                    "value": "18%"
                }
            },
            "zIndex": {
                "Default": 1
            }
        },
        "flxMain": {
            "__events__": {},
            "__info__": {
                "kuid": "ad0c83833476435aa6fcf27fd3dbcdb1",
                "srcKUID": "d54f919210284a3a8ba217e23f749884",
                "wType": "FlexContainer"
            }
        },
        "formActionsNew": {
            "__events__": {},
            "__info__": {
                "isRoot": true,
                "kuid": "ae56e2e6fd7e4e05b984083e432873c3",
                "srcKUID": "a571c5a347394d3fb1e9debcf70da170",
                "wType": "FlexContainer"
            },
            "autogrowMode": {
                "Default": 0
            },
            "height": {},
            "isVisible": false,
            "responsiveData": {
                "b4": {
                    "height": {
                        "type": "string",
                        "value": "140dp"
                    }
                }
            }
        }
    },
    "desktopweb": {},
    "enablescrolling": true,
    "id": "createFlowFormActionsNew",
    "info": null,
    "ipad": {},
    "iphone": {},
    "iscustomlayout": false,
    "isdatareferenced": false,
    "isvisible": false,
    "kiosk": {},
    "kuid": "ae56e2e6fd7e4e05b984083e432873c3",
    "layouttype": 2,
    "masterType": 0,
    "name": "kony.ui.UserWidgetInstance",
    "parent": "flxCreateUI",
    "pf": "frmBulkPaymentsTemplate",
    "responsiveData": {
        "b4": {
            "height": {
                "type": "string",
                "value": "140dp"
            }
        }
    },
    "retaincontentalignment": false,
    "retainflexpositionproperties": false,
    "snapgridsize": 10,
    "snaptogrid": true,
    "sourceUserWidget": "a571c5a347394d3fb1e9debcf70da170",
    "spa": {},
    "spaan": {},
    "spaandroidtablet": {},
    "spabb": {},
    "spaip": {},
    "spaipad": {},
    "spamobile": {},
    "spatablet": {},
    "spawindowstablet": {},
    "spawinphone8": {},
    "tabrcandroid": {},
    "vizProps": {
        "hidewidgethierarchy": false
    },
    "wType": "UserWidgetInstance",
    "windows10": {},
    "windows8": {},
    "winphone10": {},
    "winphone8": {},
    "zindex": 1
}