{
    "DNDConfig": null,
    "_blur_": {
        "enabled": false,
        "value": 0
    },
    "_height_": {
        "type": "string",
        "value": "250dp"
    },
    "_left_": {
        "type": "string",
        "value": "10.30%"
    },
    "_margin_": [
        0,
        0,
        0,
        0
    ],
    "_orientation_": 6,
    "_padding_": [
        0,
        0,
        0,
        0
    ],
    "_percent_": true,
    "_skin_": "sdc143f0e5b64ae3a3f155f691c73fa7",
    "_top_": {
        "type": "string",
        "value": "-245dp"
    },
    "_width_": {
        "type": "string",
        "value": "390dp"
    },
    "accessibilityconfig": {
        "a11yHidden": false
    },
    "allboxes": [],
    "autogrowmode": 0,
    "canUpdateUI": true,
    "children": [
        "flxInformation0",
        "flxFeesTypeInfo"
    ],
    "clipbounds": false,
    "containerweight": 100,
    "enablescrolling": true,
    "id": "flxInformation1",
    "info": null,
    "isvisible": false,
    "kuid": "eb5da25353254d508c898cd4639b1e1b",
    "layouttype": 4,
    "name": "kony.ui.FlexContainer",
    "parent": "flxFeesPaidByOptions",
    "pf": "frmBulkPaymentsTemplate",
    "responsiveData": {
        "b3": {
            "left": {
                "type": "string",
                "value": "15.30%"
            }
        }
    },
    "snapgridsize": 10,
    "snaptogrid": true,
    "wType": "FlexContainer",
    "widgetalignment": 1,
    "zindex": 20
}