{
    "DNDConfig": null,
    "_bottom_": {
        "type": "number",
        "value": ""
    },
    "_height_": {
        "type": "string",
        "value": "70dp"
    },
    "_margin_": [
        0,
        0,
        0,
        0
    ],
    "_orientation_": 6,
    "_padding_": [
        0,
        0,
        0,
        0
    ],
    "_percent_": true,
    "_right_": {
        "type": "number",
        "value": ""
    },
    "_skin_": "sdc143f0e5b64ae3a3f155f691c73fa7",
    "_top_": {
        "type": "string",
        "value": "0dp"
    },
    "_width_": {
        "type": "string",
        "value": "1200dp"
    },
    "allboxes": [],
    "canUpdateUI": true,
    "centerx": {
        "type": "string",
        "value": "50%"
    },
    "children": [
        "lblTemplateNameTitle",
        "lblTemplateName",
        "lblTotalBeneficiariesTitle",
        "lblTotalBeneficiaries",
        "lblDomesticTitle",
        "lblDomestic",
        "lblInternationalTitle",
        "lblInternational"
    ],
    "clipbounds": false,
    "containerweight": 100,
    "enablescrolling": true,
    "id": "flxTemplateDetails",
    "info": null,
    "isvisible": false,
    "kuid": "b481420df1b748a8babc9802254f2a9f",
    "layouttype": 3,
    "name": "kony.ui.FlexContainer",
    "parent": "flxContentContainer",
    "pf": "frmBulkPaymentsTemplate",
    "responsiveData": {
        "b1": {
            "bottom": {
                "type": "string",
                "value": "10dp"
            },
            "centerX": {
                "type": "string",
                "value": "49.50%"
            },
            "isVisible": false,
            "skin": "sdc143f0e5b64ae3a3f155f691c73fa7",
            "width": {
                "type": "string",
                "value": "87.30%"
            }
        },
        "b2": {
            "bottom": {
                "type": "number",
                "value": "10"
            },
            "centerX": {
                "type": "string",
                "value": "50.96%"
            },
            "isVisible": false,
            "skin": "sdc143f0e5b64ae3a3f155f691c73fa7",
            "width": {
                "type": "string",
                "value": "90%"
            }
        },
        "b3": {
            "bottom": {
                "type": "string",
                "value": "10dp"
            },
            "centerX": {
                "type": "string",
                "value": "50%"
            },
            "height": {
                "type": "string",
                "value": "90dp"
            },
            "isVisible": false,
            "layoutType": 2,
            "left": {
                "type": "number",
                "value": "0"
            },
            "skin": "sdc143f0e5b64ae3a3f155f691c73fa7",
            "width": {
                "type": "string",
                "value": "94.50%"
            }
        },
        "b4": {
            "bottom": {
                "type": "string",
                "value": "20dp"
            },
            "left": {
                "type": "string",
                "value": "2%"
            },
            "right": {
                "type": "string",
                "value": "2%"
            },
            "width": {
                "type": "string",
                "value": "96%"
            }
        }
    },
    "snapgridsize": 10,
    "snaptogrid": true,
    "wType": "FlexContainer",
    "widgetalignment": 1,
    "zindex": 1
}