{
    "@class": "com.kony.gen.viz.model.component.KVizLabel",
    "DNDConfig": null,
    "_bottom_": {
        "type": "string",
        "value": ""
    },
    "_height_": {
        "type": "ref",
        "value": "preferred"
    },
    "_margin_": [
        1,
        1,
        1,
        1
    ],
    "_padding_": [
        0,
        0,
        1,
        0
    ],
    "_skin_": "sc6128501fe0421b999197bb6ca83714",
    "_text_": "Added Beneficiaries",
    "_top_": {
        "type": "string",
        "value": "12dp"
    },
    "_width_": {
        "type": "string",
        "value": "90%"
    },
    "_wrapping_": 2,
    "accessibilityconfig": {
        "a11yLabel": "Transfers"
    },
    "android": {
        "textStyle": {
            "letterSpacing": 0,
            "strikeThrough": false
        }
    },
    "canUpdateUI": true,
    "containerweight": 100,
    "contentalignment": 1,
    "id": "lblAddedBeneficiaries",
    "info": null,
    "ipad": {
        "psp": {
            "wrapping": 2
        }
    },
    "iphone": {
        "psp": {
            "wrapping": 2
        }
    },
    "isvisible": true,
    "kuid": "a3925973399d4a4b8c349135b87cd270",
    "name": "kony.ui.Label",
    "paddinginpixel": false,
    "parent": "flxAddedBeneficiaries",
    "pf": "frmBulkPaymentsTemplate",
    "responsiveData": {
        "b1": {
            "padding": [
                0,
                0,
                0,
                0
            ],
            "top": {
                "type": "string",
                "value": "15dp"
            },
            "width": {
                "type": "ref",
                "value": "preferred"
            }
        },
        "b2": {
            "padding": [
                0,
                0,
                1,
                0
            ],
            "top": {
                "type": "string",
                "value": "15dp"
            },
            "width": {
                "type": "ref",
                "value": "preferred"
            }
        },
        "b3": {
            "padding": [
                0,
                0,
                1,
                0
            ],
            "top": {
                "type": "string",
                "value": "15dp"
            },
            "width": {
                "type": "ref",
                "value": "preferred"
            }
        },
        "b4": {
            "height": {
                "type": "string",
                "value": "0dp"
            },
            "isVisible": false,
            "width": {
                "type": "string",
                "value": "0%"
            }
        }
    },
    "tooltip": "Added recipients for bulk wire transfer ",
    "wType": "Label",
    "zindex": 1
}