{
    "@class": "com.kony.gen.viz.model.component.KVizLabel",
    "DNDConfig": null,
    "_height_": {
        "type": "ref",
        "value": "preferred"
    },
    "_left_": {
        "type": "string",
        "value": "1.76%"
    },
    "_margin_": [
        1,
        1,
        1,
        1
    ],
    "_padding_": [
        0,
        0,
        0,
        0
    ],
    "_skin_": "sd9fada740124e4a99edc1f0a05ec2d0",
    "_text_": "Beneficiary’s  account is with?",
    "_top_": {
        "type": "string",
        "value": "13dp"
    },
    "_width_": {
        "type": "ref",
        "value": "preferred"
    },
    "_wrapping_": 2,
    "accessibilityconfig": {
        "a11yLabel": "Select Recipient type"
    },
    "android": {
        "textStyle": {
            "letterSpacing": 0,
            "strikeThrough": false
        }
    },
    "canUpdateUI": true,
    "containerweight": 100,
    "contentalignment": 4,
    "id": "lblAddType",
    "info": null,
    "ipad": {
        "psp": {
            "wrapping": 2
        }
    },
    "iphone": {
        "psp": {
            "wrapping": 2
        }
    },
    "isvisible": true,
    "kuid": "g27e799f2b614a8db4cea26636305dfc",
    "name": "kony.ui.Label",
    "parent": "flxAddType",
    "pf": "frmBulkPaymentsTemplate",
    "responsiveData": {
        "b4": {
            "top": {
                "type": "string",
                "value": "102dp"
            }
        }
    },
    "tooltip": "",
    "wType": "Label",
    "zindex": 1
}