{
    "@class": "com.kony.gen.viz.model.component.KVizLabel",
    "DNDConfig": null,
    "_bottom_": {
        "type": "string",
        "value": ""
    },
    "_height_": {
        "type": "ref",
        "value": "preferred"
    },
    "_left_": {
        "type": "string",
        "value": "54%"
    },
    "_margin_": [
        1,
        1,
        1,
        1
    ],
    "_padding_": [
        0,
        0,
        0,
        0
    ],
    "_right_": {
        "type": "string",
        "value": ""
    },
    "_skin_": "sfc6afada351421eb1cd1f8e8d0f619d",
    "_text_": "Edit",
    "_top_": {
        "type": "string",
        "value": "13dp"
    },
    "_width_": {
        "type": "string",
        "value": "30%"
    },
    "_wrapping_": 2,
    "accessibilityconfig": {
        "a11yLabel": "Transfers"
    },
    "android": {
        "textStyle": {
            "letterSpacing": 0,
            "strikeThrough": false
        }
    },
    "canUpdateUI": true,
    "containerweight": 100,
    "contentalignment": 6,
    "id": "lblEditAddedBeneficiaries",
    "info": null,
    "ipad": {
        "psp": {
            "wrapping": 2
        }
    },
    "iphone": {
        "psp": {
            "wrapping": 2
        }
    },
    "isvisible": true,
    "kuid": "a9f51e3e3ab54ae2b80cbe871264da2b",
    "name": "kony.ui.Label",
    "paddinginpixel": false,
    "parent": "flxAddedBeneficiaries",
    "pf": "frmBulkPaymentsTemplate",
    "responsiveData": {
        "b1": {
            "padding": [
                0,
                0,
                0,
                0
            ],
            "skin": "sfc6afada351421eb1cd1f8e8d0f619d",
            "width": {
                "type": "string",
                "value": "30%"
            }
        },
        "b2": {
            "padding": [
                0,
                0,
                0,
                0
            ],
            "skin": "s9d6ef635a6e4ea2b6b70467b8020751",
            "width": {
                "type": "string",
                "value": "30%"
            }
        },
        "b3": {
            "padding": [
                0,
                0,
                0,
                0
            ],
            "skin": "s9d6ef635a6e4ea2b6b70467b8020751",
            "width": {
                "type": "string",
                "value": "240dp"
            }
        },
        "b4": {
            "height": {
                "type": "string",
                "value": "0dp"
            },
            "isVisible": false,
            "width": {
                "type": "string",
                "value": "0%"
            }
        }
    },
    "tooltip": "View All Removed Recipients",
    "wType": "Label",
    "zindex": 1
}