{
    "@class": "com.kony.gen.viz.model.component.KVizLabel",
    "DNDConfig": null,
    "_bottom_": {
        "type": "string",
        "value": ""
    },
    "_height_": {
        "type": "ref",
        "value": "preferred"
    },
    "_left_": {
        "type": "string",
        "value": "20dp"
    },
    "_margin_": [
        1,
        1,
        1,
        1
    ],
    "_padding_": [
        0,
        0,
        2,
        0
    ],
    "_skin_": "s6e13e645ba1488d9cac62841907bbb3",
    "_text_": "Summary",
    "_top_": {
        "type": "string",
        "value": "15dp"
    },
    "_width_": {
        "type": "string",
        "value": "70%"
    },
    "_wrapping_": 2,
    "accessibilityconfig": {
        "a11yLabel": "Transfers"
    },
    "android": {
        "textStyle": {
            "letterSpacing": 0,
            "strikeThrough": false
        }
    },
    "canUpdateUI": true,
    "containerweight": 100,
    "contentalignment": 1,
    "id": "lblSummaryHeader0",
    "info": null,
    "ipad": {
        "psp": {
            "wrapping": 2
        }
    },
    "iphone": {
        "psp": {
            "wrapping": 2
        }
    },
    "isvisible": true,
    "kuid": "fcceb78f0bcd49e3a34a9b066e67c3d2",
    "name": "kony.ui.Label",
    "paddinginpixel": false,
    "parent": "flxSummaryHeaderVerifyPage",
    "pf": "frmBulkPaymentsTemplate",
    "responsiveData": {
        "b1": {
            "left": {
                "type": "string",
                "value": "2%"
            }
        },
        "b2": {},
        "b3": {
            "height": {
                "type": "string",
                "value": "30dp"
            },
            "top": {
                "type": "string",
                "value": "25dp"
            }
        },
        "b4": {
            "height": {
                "type": "string",
                "value": "0dp"
            },
            "isVisible": false
        }
    },
    "tooltip": "Select & Edit Recipients",
    "wType": "Label",
    "zindex": 1
}