{
    "@class": "com.kony.gen.viz.model.component.KVizTextBox2",
    "DNDConfig": null,
    "_height_": {
        "type": "string",
        "value": "40dp"
    },
    "_left_": {
        "type": "string",
        "value": "43.53%"
    },
    "_margin_": [
        0,
        0,
        0,
        0
    ],
    "_padding_": [
        3,
        0,
        0,
        0
    ],
    "_placeholder_": "",
    "_skin_": "sd35213ea152437c851a5fd54788c248",
    "_text_": "",
    "_top_": {
        "type": "string",
        "value": "82dp"
    },
    "_width_": {
        "type": "string",
        "value": "17%"
    },
    "autocapitalize": "none",
    "autocomplete": false,
    "autocorrect": false,
    "autofilter": false,
    "canUpdateUI": true,
    "containerheight": "",
    "containerheightmode": 1,
    "containerweight": 100,
    "contentalignment": 4,
    "focusskin": "s2faf9c2766d4142ab33d0bf97445ae0",
    "id": "tbxPaymentRef",
    "info": null,
    "iscustomlayout": false,
    "isvisible": true,
    "keyboardtype": "A",
    "kuid": "h1487b568b34484ab393bca376d4a0dd",
    "mode": "A",
    "name": "kony.ui.TextBox2",
    "parent": "flxApplyChangesTemplate",
    "pf": "frmBulkPaymentsTemplate",
    "placeholderskin": "s6bef0f091374991a154eb89a7b6eef8",
    "responsiveData": {
        "b1": {
            "skin": "sd35213ea152437c851a5fd54788c248"
        },
        "b2": {
            "skin": "sd35213ea152437c851a5fd54788c248"
        },
        "b3": {
            "left": {
                "type": "string",
                "value": "30%"
            },
            "skin": "sd35213ea152437c851a5fd54788c248",
            "top": {
                "type": "string",
                "value": "155dp"
            },
            "width": {
                "type": "string",
                "value": "20%"
            }
        }
    },
    "retaincontentalignment": false,
    "retainflexpositionproperties": false,
    "securetextentry": false,
    "textinputmode": "A",
    "tooltip": "",
    "viewtype": "default",
    "wType": "TextField",
    "zindex": 5
}