{
    "DNDConfig": null,
    "_height_": {
        "type": "string",
        "value": "100%"
    },
    "_left_": {
        "type": "string",
        "value": "0dp"
    },
    "_margin_": [
        0,
        0,
        0,
        0
    ],
    "_orientation_": 6,
    "_padding_": [
        0,
        0,
        0,
        0
    ],
    "_percent_": true,
    "_skin_": "sf94624be61d43e299a4790d019276ba",
    "_top_": {
        "type": "string",
        "value": "0dp"
    },
    "_width_": {
        "type": "string",
        "value": "33%"
    },
    "allboxes": [],
    "autogrowmode": 0,
    "canUpdateUI": true,
    "children": [
        "flxFiltersHeader",
        "segFilters",
        "flxFilterButtons"
    ],
    "clipbounds": true,
    "containerweight": 100,
    "enablescrolling": true,
    "id": "flxFilters",
    "info": null,
    "iscustomlayout": false,
    "isvisible": false,
    "kuid": "b729814514354f5e96e2bd314d02babc",
    "layouttype": 2,
    "name": "kony.ui.FlexContainer",
    "parent": "flxTabContent",
    "pf": "frmLocateUsBranchTab",
    "responsiveData": {
        "b1": {
            "width": {
                "type": "string",
                "value": "395dp"
            }
        },
        "b2": {
            "width": {
                "type": "string",
                "value": "395dp"
            }
        },
        "b3": {
            "isVisible": false,
            "width": {
                "type": "string",
                "value": "100%"
            },
            "zIndex": 10
        }
    },
    "retaincontentalignment": false,
    "retainflexpositionproperties": false,
    "retainflowhorizontalalignment": false,
    "snapgridsize": 10,
    "snaptogrid": true,
    "wType": "FlexContainer",
    "widgetalignment": 1,
    "zindex": 1
}