{
    "@class": "com.kony.gen.viz.model.component.KVizLabel",
    "DNDConfig": null,
    "_height_": {
        "type": "ref",
        "value": "preferred"
    },
    "_left_": {
        "type": "string",
        "value": "180dp"
    },
    "_margin_": [
        1,
        1,
        1,
        1
    ],
    "_padding_": [
        0,
        0,
        0,
        0
    ],
    "_skin_": "s14b5921a566439e9ae8c94da666e722",
    "_text_": "Austin-500061 504, Austin Market street",
    "_top_": {
        "type": "string",
        "value": "120dp"
    },
    "_width_": {
        "type": "string",
        "value": "62%"
    },
    "_wrapping_": 2,
    "accessibilityconfig": {
        "a11yLabel": "Austin-500061 504, Austin Market street"
    },
    "android": {
        "textStyle": {
            "letterSpacing": 0,
            "strikeThrough": false
        }
    },
    "canUpdateUI": true,
    "containerweight": 100,
    "contentalignment": 4,
    "id": "lblAddressLine2",
    "info": null,
    "ipad": {
        "psp": {
            "wrapping": 2
        }
    },
    "iphone": {
        "psp": {
            "wrapping": 2
        }
    },
    "isvisible": true,
    "kuid": "g9859f34ede8482c990857403cb7cb1d",
    "name": "kony.ui.Label",
    "parent": "flxBranchDetailHeader",
    "pf": "frmLocateUsBranchTab",
    "responsiveData": {
        "b2": {
            "right": {
                "type": "string",
                "value": "10dp"
            },
            "top": {
                "type": "string",
                "value": "115dp"
            },
            "width": {
                "type": "string",
                "value": ""
            }
        },
        "b3": {}
    },
    "texti18n": "i18n.LocateUs.Ausin500061504AustinMarketstreet",
    "tooltip": "",
    "wType": "Label",
    "zindex": 1
}