{
    "@class": "com.kony.gen.viz.model.component.KVizUserWidget",
    "DNDConfig": null,
    "__parentReadjusting__": false,
    "_children_": [],
    "_height_": {
        "type": "ref",
        "value": "preferred"
    },
    "_left_": {
        "type": "string",
        "value": "0dp"
    },
    "_margin_": [
        0,
        0,
        0,
        0
    ],
    "_orientation_": 1,
    "_padding_": [
        0,
        0,
        0,
        0
    ],
    "_percent_": true,
    "_skin_": "s24c92fc23b14f5484b693ee9b8a9b35",
    "_top_": {
        "type": "string",
        "value": "0dp"
    },
    "_width_": {
        "type": "string",
        "value": "100%"
    },
    "areflexpropsreferenced": false,
    "autogrowmode": 1,
    "canUpdateUI": true,
    "clipbounds": true,
    "containerweight": 0,
    "dataDiffs": {
        "AllForms": {
            "__events__": {},
            "__info__": {
                "kuid": "c141994088a34e79ba991728ce2ab111",
                "srcKUID": "b38249009bcf4f298d0684471a8824e2",
                "wType": "FlexContainer"
            }
        },
        "CopyflxInfo0a2966745b9e643": {
            "__events__": {},
            "__info__": {
                "kuid": "a4868f7873e9490094ac848208e05ca7",
                "srcKUID": "hcccc39aee5d406a88f24bb69ffc69d8",
                "wType": "FlexContainer"
            }
        },
        "CopyimgInfoIcon0c5e8897ff2be47": {
            "__events__": {},
            "__info__": {
                "kuid": "cb765149e7294fe3a2d0b0ceb5cb458a",
                "srcKUID": "d24d33d8bb2f47d3b6deee422b1a1d12",
                "wType": "Image"
            }
        },
        "RichTextInfo": {
            "__events__": {},
            "__info__": {
                "kuid": "e937435949a74cb1ba5db087a629a995",
                "srcKUID": "c5ef2d6b359d45b69c8e4796658724ff",
                "wType": "RichText"
            }
        },
        "flxAccountInfoForAccountTransfer": {
            "__events__": {},
            "__info__": {
                "kuid": "aa3a42dcd75642d99dd9a24f344211fa",
                "srcKUID": "a20258bb94e4461cbc9b27078478fb9c",
                "wType": "FlexContainer"
            }
        },
        "flxAccountType": {
            "__events__": {},
            "__info__": {
                "kuid": "a12ed1d0689a48c7b20967342cba360f",
                "srcKUID": "fa25320decdd4b89a86f623eeefdc3b8",
                "wType": "FlexContainer"
            }
        },
        "flxAddAccountWindow": {
            "__events__": {},
            "__info__": {
                "kuid": "a683a2a09f664ea58cd579b0f50b24da",
                "srcKUID": "af1f73154ce64efdbbc461323e1aeb40",
                "wType": "FlexContainer"
            }
        },
        "flxAddBulkTransferFile": {
            "__events__": {},
            "__info__": {
                "kuid": "b48cbf36850c4edc91a4728ec3a81dfc",
                "srcKUID": "c3e292e6d63444d0ae3590fffdbe5b22",
                "wType": "FlexContainer"
            }
        },
        "flxAddInternationalAccount": {
            "__events__": {},
            "__info__": {
                "kuid": "de4ae2adf9ff4f70acf29857eac71315",
                "srcKUID": "d2607841be804a40b8a691b374d7c6bf",
                "wType": "FlexContainer"
            }
        },
        "flxAddKonyAccount": {
            "__events__": {},
            "__info__": {
                "kuid": "c4f930cd25ec446e8d14ab46b5c675d4",
                "srcKUID": "eb583846f48542898c4c023da4da9aae",
                "wType": "FlexContainer"
            }
        },
        "flxAddNonKonyAccount": {
            "__events__": {},
            "__info__": {
                "kuid": "ba103d2c99ac4d96b533bdd830b0b970",
                "srcKUID": "c49b6be6b57f4b1e9f32826722ee4653",
                "wType": "FlexContainer"
            }
        },
        "flxBulkTransfer": {
            "__events__": {},
            "__info__": {
                "kuid": "if10fbe6da7040319dceb3bd3f07ea51",
                "srcKUID": "if4ff7b2531f4f3e81dc01b33ae2dbc1",
                "wType": "FlexContainer"
            }
        },
        "flxCross": {
            "__events__": {},
            "__info__": {
                "kuid": "c475da700edb4c6a8b5e34b263aa3a39",
                "srcKUID": "a39ae9f82d0a49b3aa5050b04830a14c",
                "wType": "FlexContainer"
            }
        },
        "flxInfo": {
            "__events__": {},
            "__info__": {
                "kuid": "e7a77d352b1d4c659202f5aaab021b91",
                "srcKUID": "j0495c8fc5d948a9b73c8c45eebdd0e1",
                "wType": "FlexContainer"
            }
        },
        "flxInformation": {
            "__events__": {},
            "__info__": {
                "kuid": "c557ebe8332343b79a9f3c5e96521670",
                "srcKUID": "eacdc6e0327a4a6abe1fab7487539414",
                "wType": "FlexContainer"
            }
        },
        "flxInformationText": {
            "__events__": {},
            "__info__": {
                "kuid": "fe3b26c7bc0742b2a21c1b36843fc567",
                "srcKUID": "abf727bece8840d4adaba25790fcda24",
                "wType": "FlexContainer"
            }
        },
        "imgAccountInfoForAccountTransfer": {
            "__events__": {},
            "__info__": {
                "kuid": "de93de085177432bb2832e819f4da9b5",
                "srcKUID": "b6cd4e8a8c9a43978fd6470d4782d3c8",
                "wType": "Image"
            }
        },
        "imgAddBulkTransferFile": {
            "__events__": {},
            "__info__": {
                "kuid": "jebcd2f0942a4581a1d0a3aedf3a7c92",
                "srcKUID": "d2f94153bbc54f828e6c935c1a86b846",
                "wType": "Image"
            }
        },
        "imgBulkTransfer": {
            "__events__": {},
            "__info__": {
                "kuid": "cda7a5f5dc4d4d92810950aabaab0c68",
                "srcKUID": "a5a41cf2f81b4b7dacf5fe11d2a6af13",
                "wType": "Image"
            }
        },
        "imgCross": {
            "__events__": {},
            "__info__": {
                "kuid": "c4770760c076423f948adb0a3d627c42",
                "srcKUID": "b6779ba9570a4af0b3c812a2562e8c76",
                "wType": "Image"
            }
        },
        "imgInfo": {
            "__events__": {},
            "__info__": {
                "kuid": "ab843025cad84e119c4840c7ca3d5ab2",
                "srcKUID": "ea7125af68124be08d7b99d38750ab6f",
                "wType": "Image"
            }
        },
        "imgInfoIcon": {
            "__events__": {},
            "__info__": {
                "kuid": "def9196c770e4ecb89d929600e012530",
                "srcKUID": "fefbbae13c6f41159eabfcd9a5134d21",
                "wType": "Image"
            }
        },
        "imgToolTip": {
            "__events__": {},
            "__info__": {
                "kuid": "i5629fd3084a483fb624c5ec4c9095f5",
                "srcKUID": "j31c3d12b2fb4fd480aa08101c0c5fbc",
                "wType": "Image"
            }
        },
        "lblAccountInfoForAccountTransfer": {
            "__events__": {},
            "__info__": {
                "kuid": "fee32dd775ba4913996d8d8f0a1d7922",
                "srcKUID": "gbc1e25a00984a6fa8a6d63e12d76238",
                "wType": "Label"
            }
        },
        "lblAddBulkTransferFile": {
            "__events__": {},
            "__info__": {
                "kuid": "j273e97042834f0093f6c1cbba9ec27e",
                "srcKUID": "ebdaa90d7b8c47e9a776d2d0b7cecde5",
                "wType": "Label"
            }
        },
        "lblAddInternationalAccount": {
            "__events__": {},
            "__info__": {
                "kuid": "b6e115da6588445d9c62d3501695b588",
                "srcKUID": "jeb2e34cbb604f47ba2b106aa302e7ec",
                "wType": "Label"
            }
        },
        "lblAddKonyAccount": {
            "__events__": {},
            "__info__": {
                "kuid": "j2e41dc8da0f4f36bad2e0de2f4fe175",
                "srcKUID": "a802baae7034445dbe8033492a94c3c4",
                "wType": "Label"
            }
        },
        "lblAddNonKonyAccount": {
            "__events__": {},
            "__info__": {
                "kuid": "a409e33ffd55402cb9ca36878c377aff",
                "srcKUID": "c2aeafdce6134bd6bc1c0b4407da4795",
                "wType": "Label"
            }
        },
        "lblBulkTransfer": {
            "__events__": {},
            "__info__": {
                "kuid": "ccabc35bd9514eb68a326ebcff6d107a",
                "srcKUID": "ac41fe57c1f0479baf4439e0567321d1",
                "wType": "Label"
            }
        },
        "lblInfo": {
            "__events__": {},
            "__info__": {
                "kuid": "ab12363a6a194a2db1d5bfc1278f092d",
                "srcKUID": "c2c143861a834871b01240e7cb4fd0ed",
                "wType": "Label"
            }
        },
        "lblSeparator1": {
            "__events__": {},
            "__info__": {
                "kuid": "bb8f1ce233e34a6c83cb266fcd572adc",
                "srcKUID": "afded7624890486d8d7b2f622920fffb",
                "wType": "Label"
            }
        },
        "lblSeparator2": {
            "__events__": {},
            "__info__": {
                "kuid": "b4ed10f0350c4f3cbfe2f04cd1d5cb35",
                "srcKUID": "j68aeca9f6d44c788df19712b4067db8",
                "wType": "Label"
            }
        },
        "lblSeparator3": {
            "__events__": {},
            "__info__": {
                "kuid": "i8098765c4264057a4822815c3e425db",
                "srcKUID": "bd300794d11841db85e1148c33ae4e1e",
                "wType": "Label"
            }
        },
        "lblSeparator4": {
            "__events__": {},
            "__info__": {
                "kuid": "ece4ed798cec49c2aeda027ed35e5ee8",
                "srcKUID": "be1c055b6ad944b4869c21a3ab42d94a",
                "wType": "Label"
            }
        },
        "lblSeparator5": {
            "__events__": {},
            "__info__": {
                "kuid": "be0d5e4b12bd40339fd860b0abea33b2",
                "srcKUID": "f63eab80ecd640e78848da7611489c84",
                "wType": "Label"
            }
        },
        "lblSeperator": {
            "__events__": {},
            "__info__": {
                "kuid": "hcd6f7d08a8a44cd9f06c8d4355de8fb",
                "srcKUID": "j7a61ca35c8840f3bcbfe8511da12e6b",
                "wType": "Label"
            }
        },
        "wireTransferRightbar": {
            "__events__": {},
            "__info__": {
                "isRoot": true,
                "kuid": "id22e850713b4f63a628ed6947601b96",
                "srcKUID": "f828159eeeac4ad394a5054626224524",
                "wType": "FlexContainer"
            }
        }
    },
    "enablescrolling": true,
    "id": "wireTransferRightbar",
    "info": null,
    "iscustomlayout": false,
    "isdatareferenced": false,
    "isvisible": true,
    "kuid": "id22e850713b4f63a628ed6947601b96",
    "layouttype": 2,
    "masterType": 0,
    "name": "kony.ui.UserWidgetInstance",
    "parent": "flxRightBar",
    "pf": "frmWireTransferViewActivity",
    "retaincontentalignment": false,
    "retainflexpositionproperties": false,
    "retainflowhorizontalalignment": false,
    "snapgridsize": 10,
    "snaptogrid": true,
    "sourceUserWidget": "f828159eeeac4ad394a5054626224524",
    "wType": "UserWidgetInstance"
}