{
    "@class": "com.kony.gen.viz.model.component.KVizImage2",
    "DNDConfig": null,
    "_base64_": null,
    "_height_": {
        "type": "string",
        "value": "100%"
    },
    "_left_": {
        "type": "string",
        "value": "0"
    },
    "_margin_": [
        0,
        0,
        0,
        0
    ],
    "_padding_": [
        0,
        0,
        0,
        0
    ],
    "_right_": {
        "type": "number",
        "value": ""
    },
    "_skin_": "se4444cc8d604aea82bf3dafcc22e360",
    "_src_": "imagedrag.png",
    "_top_": {
        "type": "string",
        "value": "0"
    },
    "_width_": {
        "type": "string",
        "value": "100%"
    },
    "canUpdateUI": true,
    "centerx": {
        "type": "string",
        "value": ""
    },
    "centery": {
        "type": "number",
        "value": ""
    },
    "containerweight": 100,
    "id": "imgClose",
    "imagescalemode": 1,
    "info": null,
    "iscustomlayout": false,
    "isvisible": true,
    "kuid": "ccc98f500069433ea46086544c6f2400",
    "name": "kony.ui.Image2",
    "parent": "flxCloseImg",
    "pf": "userwidgetmodel",
    "responsiveData": {
        "b1": {
            "centerY": {
                "type": "string",
                "value": "50%"
            },
            "right": {
                "type": "string",
                "value": "0dp"
            },
            "src": "closeicon.png"
        },
        "b2": {
            "centerY": {
                "type": "string",
                "value": "50%"
            },
            "src": "closeicon.png"
        },
        "b3": {
            "centerY": {
                "type": "string",
                "value": "50%"
            },
            "src": "closeicon.png"
        },
        "b4": {
            "src": "closeicon.png"
        }
    },
    "retaincontentalignment": false,
    "retainflexpositionproperties": false,
    "srcType": 1,
    "wType": "Image",
    "widgetalignment": 5
}