{
    "BusinessControllerConfig": {
        "BusinessControllerClass": "CampaignManagement/BusinessControllers/BusinessController",
        "CommandHandler": []
    },
    "Forms": {
        "desktop": {
            "frmShortTermDeposit": {
                "ControllerExtensions": [],
                "FormController": "kony.mvc.MDAFormController",
                "Controller": "CampaignManagement/frmShortTermDepositController",
                "FormName": "CampaignManagement/frmShortTermDeposit",
                "friendlyName": "frmShortTermDeposit"
            },
            "frmPersonalLoan": {
                "ControllerExtensions": [],
                "FormController": "kony.mvc.MDAFormController",
                "Controller": "CampaignManagement/frmPersonalLoanController",
                "FormName": "CampaignManagement/frmPersonalLoan",
                "friendlyName": "frmPersonalLoan"
            }
        }
    },
    "ModuleName": "CampaignManagement",
    "PresentationControllerConfig": {
        "Default": {
            "PresentationControllerClass": "CampaignManagement/PresentationControllers/PresentationController",
            "PresentationExtensions": []
        }
    }
}