{
    "DNDConfig": null,
    "__parentReadjusting__": false,
    "_height_": {
        "type": "ref",
        "value": "preferred"
    },
    "_left_": {
        "type": "string",
        "value": "0dp"
    },
    "_margin_": [
        0,
        0,
        0,
        0
    ],
    "_orientation_": 6,
    "_padding_": [
        0,
        0,
        0,
        0
    ],
    "_percent_": true,
    "_right_": {
        "type": "number",
        "value": ""
    },
    "_skin_": "sb75f187c17c456fb0450d66550451bb",
    "_top_": {
        "type": "string",
        "value": "0dp"
    },
    "_width_": {
        "type": "string",
        "value": "100%"
    },
    "allboxes": [],
    "autogrowmode": 1,
    "canUpdateUI": true,
    "centerx": {
        "type": "number",
        "value": ""
    },
    "children": [
        "flxServerError",
        "flxAcknowledmentHeader",
        "flxContent"
    ],
    "clipbounds": false,
    "containerweight": 100,
    "enablescrolling": true,
    "id": "flxMain",
    "info": null,
    "isvisible": true,
    "kuid": "cdf5ae81e9c842729cf6c452104f2733",
    "layouttype": 4,
    "name": "kony.ui.FlexContainer",
    "parent": "flxFormContent",
    "pf": "frmBillPayActivationAcknowledgement",
    "responsiveData": {
        "b1": {
            "skin": "sb75f187c17c456fb0450d66550451bb",
            "width": {
                "type": "string",
                "value": "100%"
            }
        },
        "b2": {
            "skin": "sb75f187c17c456fb0450d66550451bb",
            "width": {
                "type": "string",
                "value": "100%"
            }
        },
        "b3": {
            "height": {
                "type": "ref",
                "value": "preferred"
            },
            "left": {
                "type": "string",
                "value": "0dp"
            },
            "right": {
                "type": "string",
                "value": "0dp"
            },
            "skin": "sb75f187c17c456fb0450d66550451bb",
            "width": {
                "type": "string",
                "value": "100%"
            }
        },
        "b4": {
            "centerX": {
                "type": "string",
                "value": "50%"
            },
            "isVisible": true,
            "skin": "sb75f187c17c456fb0450d66550451bb",
            "width": {
                "type": "string",
                "value": "1366dp"
            }
        }
    },
    "snapgridsize": 10,
    "snaptogrid": true,
    "wType": "FlexContainer",
    "widgetalignment": 1,
    "zindex": 1
}