{
    "@class": "com.kony.gen.viz.model.component.KVizLabel",
    "DNDConfig": null,
    "_height_": {
        "type": "ref",
        "value": "preferred"
    },
    "_left_": {
        "type": "string",
        "value": "67.40%"
    },
    "_margin_": [
        1,
        1,
        1,
        1
    ],
    "_padding_": [
        0,
        0,
        2,
        0
    ],
    "_right_": {
        "type": "string",
        "value": "30dp"
    },
    "_skin_": "sf0cb6e968274aa389aafbf14ff806fd",
    "_text_": "Label",
    "_width_": {
        "type": "ref",
        "value": "preferred"
    },
    "_wrapping_": 2,
    "accessibilityconfig": {
        "a11yLabel": "Deliver By"
    },
    "android": {
        "textStyle": {
            "letterSpacing": 0,
            "strikeThrough": false
        }
    },
    "canUpdateUI": true,
    "centery": {
        "type": "string",
        "value": "50%"
    },
    "containerweight": 100,
    "contentalignment": 6,
    "id": "CopylblAmount0j19cfcdf7f294a",
    "info": null,
    "ipad": {
        "psp": {
            "wrapping": 2
        }
    },
    "iphone": {
        "psp": {
            "wrapping": 2
        }
    },
    "isvisible": true,
    "kuid": "b490e0e5fb54414b903f5d494b50d0ed",
    "name": "kony.ui.Label",
    "parent": "flxSubHeader",
    "pf": "frmBulkBillPayAcknowledgement",
    "responsiveData": {
        "b1": {
            "left": {
                "type": "string",
                "value": "68.50%"
            },
            "right": {
                "type": "string",
                "value": ""
            }
        },
        "b2": {
            "left": {
                "type": "string",
                "value": "68.50%"
            },
            "right": {
                "type": "string",
                "value": ""
            }
        },
        "b3": {
            "right": {
                "type": "string",
                "value": ""
            }
        },
        "b4": {
            "left": {
                "type": "string",
                "value": "68.50%"
            },
            "right": {
                "type": "string",
                "value": ""
            }
        }
    },
    "texti18n": "i18n.billPay.DeliverBy",
    "tooltip": "",
    "wType": "Label",
    "zindex": 1
}